"file_name","column_name","label","regex"
"/data/datasets/datagov/data/data/datagovdata/idph-rural-health-center-directory-cbd2d.csv","County","uri",".*?$(?<!\.aspx)"
"/data/datasets/datagov/data/data/datagovdata/idph-rural-health-center-directory-cbd2d.csv","Address","uri",".*?$(?<!\.aspx)"
"/data/datasets/datagov/data/data/datagovdata/idph-rural-health-center-directory-cbd2d.csv","Phone","uri",".*?$(?<!\.aspx)"
"/data/datasets/datagov/data/data/datagovdata/idph-rural-health-center-directory-cbd2d.csv","Rural Health Center","strings","[^""\r\n]*"
"/data/datasets/datagov/data/data/datagovdata/idph-rural-health-center-directory-cbd2d.csv","Zip","numbers","^[-+]?\d+(\.\d+)?|[-+]?\.\d+?$"
"/data/datasets/datagov/data/data/datagovdata/idph-rural-health-center-directory-cbd2d.csv","City","uri",".*?$(?<!\.aspx)"
"/data/datasets/datagov/data/data/datagovdata/idph-rural-health-center-directory-cbd2d.csv","Medicare #","numbers","^[-+]?\d+(\.\d+)?|[-+]?\.\d+?$"
