"file_name","column_name","label","regex"
"/data/datasets/datagov/data/data/datagovdata/geo3shp.csv","GEO0003_","numbers","^(\d|,)*\.?\d*$"
"/data/datasets/datagov/data/data/datagovdata/geo3shp.csv","VALUE","numbers","^(\d|,)*\.?\d*$"
"/data/datasets/datagov/data/data/datagovdata/geo3shp.csv","FAV_CODE","numbers","^(\d|,)*\.?\d*$"
"/data/datasets/datagov/data/data/datagovdata/geo3shp.csv","GEO0003_ID","numbers","^(\d|,)*\.?\d*$"
"/data/datasets/datagov/data/data/datagovdata/geo3shp.csv","ACREAGE","numbers","^(\d|,)*\.?\d*$"
"/data/datasets/datagov/data/data/datagovdata/geo3shp.csv","FAV","uri",".*?$(?<!\.aspx)"
"/data/datasets/datagov/data/data/datagovdata/geo3shp.csv","PERIMETER","numbers","^(\d|,)*\.?\d*$"
"/data/datasets/datagov/data/data/datagovdata/geo3shp.csv","AREA","numbers","^(\d|,)*\.?\d*$"
"/data/datasets/datagov/data/data/datagovdata/geo3shp.csv","PERCENT","numbers","^(\d|,)*\.?\d*$"
