"file_name","column_name","label","regex"
"/data/datasets/datagov/data/data/datagovdata/recreation-park-department-park-info-dataset-76b92.csv","email","uri","^[^\\\/\?\*\""\'\>\<\:\|]*$"
"/data/datasets/datagov/data/data/datagovdata/recreation-park-department-park-info-dataset-76b92.csv","Location 1","uri","^[^\\\/\?\*\""\'\>\<\:\|]*$"
"/data/datasets/datagov/data/data/datagovdata/recreation-park-department-park-info-dataset-76b92.csv","Zipcode","numbers","^(\d|,)*\.?\d*$"
"/data/datasets/datagov/data/data/datagovdata/recreation-park-department-park-info-dataset-76b92.csv","ParkName","strings","[^""\r\n]*"
"/data/datasets/datagov/data/data/datagovdata/recreation-park-department-park-info-dataset-76b92.csv","ParkServiceArea","uri","^[^\\\/\?\*\""\'\>\<\:\|]*$"
"/data/datasets/datagov/data/data/datagovdata/recreation-park-department-park-info-dataset-76b92.csv","ParkType","uri","^[^\\\/\?\*\""\'\>\<\:\|]*$"
"/data/datasets/datagov/data/data/datagovdata/recreation-park-department-park-info-dataset-76b92.csv","ParkID","numbers","^(\d|,)*\.?\d*$"
"/data/datasets/datagov/data/data/datagovdata/recreation-park-department-park-info-dataset-76b92.csv","SupDist","numbers","^(\d|,)*\.?\d*$"
"/data/datasets/datagov/data/data/datagovdata/recreation-park-department-park-info-dataset-76b92.csv","PSAManager","uri","^[^\\\/\?\*\""\'\>\<\:\|]*$"
"/data/datasets/datagov/data/data/datagovdata/recreation-park-department-park-info-dataset-76b92.csv","Number","uri","^[^\\\/\?\*\""\'\>\<\:\|]*$"
"/data/datasets/datagov/data/data/datagovdata/recreation-park-department-park-info-dataset-76b92.csv","Acreage","numbers","^(\d|,)*\.?\d*$"
