"file_name","column_name","label","regex"
"/data/datasets/datagov/data/data/datagovdata/great-plains-trail-high-plains-loop-bdc2d.csv","name","strings","[^""\r\n]*"
"/data/datasets/datagov/data/data/datagovdata/great-plains-trail-high-plains-loop-bdc2d.csv","category","strings","[^""\r\n]*"
"/data/datasets/datagov/data/data/datagovdata/great-plains-trail-high-plains-loop-bdc2d.csv","address","uri",".*?$(?<!\.aspx)"
"/data/datasets/datagov/data/data/datagovdata/great-plains-trail-high-plains-loop-bdc2d.csv","phone","uri",".*?$(?<!\.aspx)"
"/data/datasets/datagov/data/data/datagovdata/great-plains-trail-high-plains-loop-bdc2d.csv","website","uri",".*?$(?<!\.aspx)"
"/data/datasets/datagov/data/data/datagovdata/great-plains-trail-high-plains-loop-bdc2d.csv","city","uri",".*?$(?<!\.aspx)"
"/data/datasets/datagov/data/data/datagovdata/great-plains-trail-high-plains-loop-bdc2d.csv","phone2","uri",".*?$(?<!\.aspx)"
