"file_name","column_name","label","regex"
"/data/datasets/datagov/data/data/datagovdata/nms296data435213253_sts_view.csv","GID","numbers","^(\d|,)*\.?\d*$"
"/data/datasets/datagov/data/data/datagovdata/nms296data435213253_sts_view.csv","RGIS_CODE","numbers","^(\d|,)*\.?\d*$"
"/data/datasets/datagov/data/data/datagovdata/nms296data435213253_sts_view.csv","P030015","numbers","^(\d|,)*\.?\d*$"
"/data/datasets/datagov/data/data/datagovdata/nms296data435213253_sts_view.csv","STFID","numbers","^(\d|,)*\.?\d*$"
"/data/datasets/datagov/data/data/datagovdata/nms296data435213253_sts_view.csv","STATE","numbers","^(\d|,)*\.?\d*$"
"/data/datasets/datagov/data/data/datagovdata/nms296data435213253_sts_view.csv","LSAD_TRANS","uri",".*?$(?<!\.aspx)"
"/data/datasets/datagov/data/data/datagovdata/nms296data435213253_sts_view.csv","P030012","numbers","^(\d|,)*\.?\d*$"
"/data/datasets/datagov/data/data/datagovdata/nms296data435213253_sts_view.csv","P030001","numbers","^(\d|,)*\.?\d*$"
"/data/datasets/datagov/data/data/datagovdata/nms296data435213253_sts_view.csv","NAME","numbers","^(\d|,)*\.?\d*$"
"/data/datasets/datagov/data/data/datagovdata/nms296data435213253_sts_view.csv","P030013","numbers","^(\d|,)*\.?\d*$"
"/data/datasets/datagov/data/data/datagovdata/nms296data435213253_sts_view.csv","P030014","numbers","^(\d|,)*\.?\d*$"
"/data/datasets/datagov/data/data/datagovdata/nms296data435213253_sts_view.csv","P030002","numbers","^(\d|,)*\.?\d*$"
"/data/datasets/datagov/data/data/datagovdata/nms296data435213253_sts_view.csv","GEO_ID","numbers","^(\d|,)*\.?\d*$"
"/data/datasets/datagov/data/data/datagovdata/nms296data435213253_sts_view.csv","AREA_NAME","uri",".*?$(?<!\.aspx)"
"/data/datasets/datagov/data/data/datagovdata/nms296data435213253_sts_view.csv","LSAD","uri",".*?$(?<!\.aspx)"
"/data/datasets/datagov/data/data/datagovdata/nms296data435213253_sts_view.csv","P030016","numbers","^(\d|,)*\.?\d*$"
"/data/datasets/datagov/data/data/datagovdata/nms296data435213253_sts_view.csv","SLDU","numbers","^(\d|,)*\.?\d*$"
"/data/datasets/datagov/data/data/datagovdata/nms296data435213253_sts_view.csv","P030003","numbers","^(\d|,)*\.?\d*$"
"/data/datasets/datagov/data/data/datagovdata/nms296data435213253_sts_view.csv","P030004","numbers","^(\d|,)*\.?\d*$"
"/data/datasets/datagov/data/data/datagovdata/nms296data435213253_sts_view.csv","P030005","numbers","^(\d|,)*\.?\d*$"
"/data/datasets/datagov/data/data/datagovdata/nms296data435213253_sts_view.csv","P030017","numbers","^(\d|,)*\.?\d*$"
