"file_name","column_name","label","regex"
"/data/datasets/datagov/data/data/datagovdata/microsite-ilhealth-data-metrics-26be4.csv","related links","strings","[^""\r\n]*"
"/data/datasets/datagov/data/data/datagovdata/microsite-ilhealth-data-metrics-26be4.csv","featured agency","uri",".*?$(?<!\.aspx)"
"/data/datasets/datagov/data/data/datagovdata/microsite-ilhealth-data-metrics-26be4.csv","agency icon","uri",".*?$(?<!\.aspx)"
"/data/datasets/datagov/data/data/datagovdata/microsite-ilhealth-data-metrics-26be4.csv","featured text","strings","[^""\r\n]*"
"/data/datasets/datagov/data/data/datagovdata/microsite-ilhealth-data-metrics-26be4.csv","featured link","uri",".*?$(?<!\.aspx)"
"/data/datasets/datagov/data/data/datagovdata/microsite-ilhealth-data-metrics-26be4.csv","featured icon","uri",".*?$(?<!\.aspx)"
"/data/datasets/datagov/data/data/datagovdata/microsite-ilhealth-data-metrics-26be4.csv","featured title","uri",".*?$(?<!\.aspx)"
"/data/datasets/datagov/data/data/datagovdata/microsite-ilhealth-data-metrics-26be4.csv","featured description","uri",".*?$(?<!\.aspx)"
"/data/datasets/datagov/data/data/datagovdata/microsite-ilhealth-data-metrics-26be4.csv","featured stat","uri",".*?$(?<!\.aspx)"
