"file_name","column_name","label","regex"
"/data/datasets/datagov/data/data/datagovdata/directory-of-dop-office-locations-29a9d.csv","Borough","uri",".*?$(?<!\.aspx)"
"/data/datasets/datagov/data/data/datagovdata/directory-of-dop-office-locations-29a9d.csv","Address","uri",".*?$(?<!\.aspx)"
"/data/datasets/datagov/data/data/datagovdata/directory-of-dop-office-locations-29a9d.csv","Disposition  Type","uri",".*?$(?<!\.aspx)"
