"file_name","column_name","label","regex"
"/data/datasets/datagov/data/data/datagovdata/performance-metrics-transportation-04563.csv","Total Completed Requests","numbers","^\d*$"
"/data/datasets/datagov/data/data/datagovdata/performance-metrics-transportation-04563.csv","Period Start","strings","[^""\r\n]*"
"/data/datasets/datagov/data/data/datagovdata/performance-metrics-transportation-04563.csv","Average Days to Complete Activity","numbers","^\d*$"
"/data/datasets/datagov/data/data/datagovdata/performance-metrics-transportation-04563.csv","Period","strings","[^""\r\n]*"
"/data/datasets/datagov/data/data/datagovdata/performance-metrics-transportation-04563.csv","Activity","strings","[^""\r\n]*"
"/data/datasets/datagov/data/data/datagovdata/performance-metrics-transportation-04563.csv","Target Response Days","numbers","^\d*$"
"/data/datasets/datagov/data/data/datagovdata/performance-metrics-transportation-04563.csv","Period Length","uri",".*?$(?<!\.aspx)"
