"file_name","column_name","label","regex"
"/data/datasets/datagov/data/data/datagovdata/employment-figures-f55ae.csv","Maryland Job Growth Since Post Recession Bottom","numbers","(^([0-9]+[.]+[0-9]+)|(0)$)"
"/data/datasets/datagov/data/data/datagovdata/employment-figures-f55ae.csv","Jobs Recovered Goal (to Reach Pre-Recession Peak)","numbers","(^([0-9]+[.]+[0-9]+)|(0)$)"
"/data/datasets/datagov/data/data/datagovdata/employment-figures-f55ae.csv","Maryland Unemployment Rate","numbers","(^([0-9]+[.]+[0-9]+)|(0)$)"
"/data/datasets/datagov/data/data/datagovdata/employment-figures-f55ae.csv","Maryland Jobs","numbers","(^([0-9]+[.]+[0-9]+)|(0)$)"
"/data/datasets/datagov/data/data/datagovdata/employment-figures-f55ae.csv","Maryland Jobs Created/Lost","numbers","(^([0-9]+[.]+[0-9]+)|(0)$)"
"/data/datasets/datagov/data/data/datagovdata/employment-figures-f55ae.csv","Maryland Unemployment","numbers","(^([0-9]+[.]+[0-9]+)|(0)$)"
"/data/datasets/datagov/data/data/datagovdata/employment-figures-f55ae.csv","Year","numbers","(^([0-9]+[.]+[0-9]+)|(0)$)"
"/data/datasets/datagov/data/data/datagovdata/employment-figures-f55ae.csv","Maryland Civilian Labor Force","numbers","(^([0-9]+[.]+[0-9]+)|(0)$)"
"/data/datasets/datagov/data/data/datagovdata/employment-figures-f55ae.csv","National Unemployment Rate","numbers","(^([0-9]+[.]+[0-9]+)|(0)$)"
"/data/datasets/datagov/data/data/datagovdata/employment-figures-f55ae.csv","Maryland Employment","numbers","(^([0-9]+[.]+[0-9]+)|(0)$)"
"/data/datasets/datagov/data/data/datagovdata/employment-figures-f55ae.csv","% Jobs Recovered (Maryland)","numbers","(^([0-9]+[.]+[0-9]+)|(0)$)"
"/data/datasets/datagov/data/data/datagovdata/employment-figures-f55ae.csv","National Jobs","numbers","(^([0-9]+[.]+[0-9]+)|(0)$)"
"/data/datasets/datagov/data/data/datagovdata/employment-figures-f55ae.csv","National Jobs Created/Lost","numbers","(^([0-9]+[.]+[0-9]+)|(0)$)"
"/data/datasets/datagov/data/data/datagovdata/employment-figures-f55ae.csv","Month","uri",".*?$(?<!\.aspx)"
