"file_name","column_name","label","regex"
"/data/datasets/datagov/data/data/datagovdata/energy-efficiency-retrofits-in-the-agriculture-sector-49e32.csv","Annual Natural Gas Savings (therms)","numbers","^\d*$"
"/data/datasets/datagov/data/data/datagovdata/energy-efficiency-retrofits-in-the-agriculture-sector-49e32.csv","Year Completed","numbers","^\d*$"
"/data/datasets/datagov/data/data/datagovdata/energy-efficiency-retrofits-in-the-agriculture-sector-49e32.csv","Program","uri","^[^\\\/\?\*\""\'\>\<\:\|]*$"
"/data/datasets/datagov/data/data/datagovdata/energy-efficiency-retrofits-in-the-agriculture-sector-49e32.csv","Business Location","uri","^[^\\\/\?\*\""\'\>\<\:\|]*$"
"/data/datasets/datagov/data/data/datagovdata/energy-efficiency-retrofits-in-the-agriculture-sector-49e32.csv","Grant Purpose","uri","^[^\\\/\?\*\""\'\>\<\:\|]*$"
"/data/datasets/datagov/data/data/datagovdata/energy-efficiency-retrofits-in-the-agriculture-sector-49e32.csv","Annual Gasoline/Diesel Savings (gal)","numbers","^\d*$"
"/data/datasets/datagov/data/data/datagovdata/energy-efficiency-retrofits-in-the-agriculture-sector-49e32.csv","MEA Contribution","numbers","^\d*$"
"/data/datasets/datagov/data/data/datagovdata/energy-efficiency-retrofits-in-the-agriculture-sector-49e32.csv","Business Zip Code","numbers","^\d*$"
"/data/datasets/datagov/data/data/datagovdata/energy-efficiency-retrofits-in-the-agriculture-sector-49e32.csv","Annual Electricity Savings (kWh)","numbers","^\d*$"
"/data/datasets/datagov/data/data/datagovdata/energy-efficiency-retrofits-in-the-agriculture-sector-49e32.csv","Annual Propane Savings (gal)","numbers","^\d*$"
"/data/datasets/datagov/data/data/datagovdata/energy-efficiency-retrofits-in-the-agriculture-sector-49e32.csv","Program Website","uri","^[^\\\/\?\*\""\'\>\<\:\|]*$"
