"file_name","column_name","label","regex"
"/data/datasets/datagov/data/data/datagovdata/new-york-state-enacted-budget-capital-appropriations-2013-2014.csv","Description","strings","[^""\r\n]*"
"/data/datasets/datagov/data/data/datagovdata/new-york-state-enacted-budget-capital-appropriations-2013-2014.csv","Enacted Reappropriations 2013-14","numbers","^\$?\d+(\.(\d{2}))?$"
"/data/datasets/datagov/data/data/datagovdata/new-york-state-enacted-budget-capital-appropriations-2013-2014.csv","Chapter/Section/Year","address_or_phone","(\d{4,6})"
"/data/datasets/datagov/data/data/datagovdata/new-york-state-enacted-budget-capital-appropriations-2013-2014.csv","Program Name","strings","[^""\r\n]*"
"/data/datasets/datagov/data/data/datagovdata/new-york-state-enacted-budget-capital-appropriations-2013-2014.csv","Reference Number","uri",".*?$(?<!\.aspx)"
"/data/datasets/datagov/data/data/datagovdata/new-york-state-enacted-budget-capital-appropriations-2013-2014.csv","Agency Name","uri",".*?$(?<!\.aspx)"
"/data/datasets/datagov/data/data/datagovdata/new-york-state-enacted-budget-capital-appropriations-2013-2014.csv","Financing Source","uri",".*?$(?<!\.aspx)"
"/data/datasets/datagov/data/data/datagovdata/new-york-state-enacted-budget-capital-appropriations-2013-2014.csv","Enacted Appropriations 2013-14","numbers","^\$?\d+(\.(\d{2}))?$"
"/data/datasets/datagov/data/data/datagovdata/new-york-state-enacted-budget-capital-appropriations-2013-2014.csv","Encumbrance As of 07/15/2013","numbers","^\$?\d+(\.(\d{2}))?$"
"/data/datasets/datagov/data/data/datagovdata/new-york-state-enacted-budget-capital-appropriations-2013-2014.csv","State Purpose","strings","[^""\r\n]*"
"/data/datasets/datagov/data/data/datagovdata/new-york-state-enacted-budget-capital-appropriations-2013-2014.csv","Fund Name","uri",".*?$(?<!\.aspx)"
