"file_name","column_name","label","regex"
"/data/datasets/datagov/data/data/datagovdata/motorboat-restrictions-in-oregon-fb825.csv","County ","strings","[^""\r\n]*"
"/data/datasets/datagov/data/data/datagovdata/motorboat-restrictions-in-oregon-fb825.csv","Prohibited Segment(s):click on left arrow","strings","[^""\r\n]*"
"/data/datasets/datagov/data/data/datagovdata/motorboat-restrictions-in-oregon-fb825.csv","*River Segment Restrictions","uri",".*?$(?<!\.aspx)"
"/data/datasets/datagov/data/data/datagovdata/motorboat-restrictions-in-oregon-fb825.csv","Waterway","strings","[^""\r\n]*"
