"file_name","column_name","label","regex"
"/data/datasets/datagov/data/data/datagovdata/council-members.csv","BOROUGH","uri",".*?$(?<!\.aspx)"
"/data/datasets/datagov/data/data/datagovdata/council-members.csv","DISTRICT","numbers","^\d*$"
"/data/datasets/datagov/data/data/datagovdata/council-members.csv","NAME","uri",".*?$(?<!\.aspx)"
"/data/datasets/datagov/data/data/datagovdata/council-members.csv","POLITICAL PARTY","uri",".*?$(?<!\.aspx)"
