"file_name","column_name","label","regex"
"/data/datasets/datagov/data/data/datagovdata/tgr2006se_deba_blkcu.csv","STFID","address_or_phone","(\d{4,6})"
"/data/datasets/datagov/data/data/datagovdata/tgr2006se_deba_blkcu.csv","TRACT","numbers","^\d*$"
"/data/datasets/datagov/data/data/datagovdata/tgr2006se_deba_blkcu.csv","BLOCKSUFCU","uri",".*?$(?<!\.aspx)"
"/data/datasets/datagov/data/data/datagovdata/tgr2006se_deba_blkcu.csv","GIST_ID","numbers","^\d*$"
"/data/datasets/datagov/data/data/datagovdata/tgr2006se_deba_blkcu.csv","FIPSSTCO","numbers","^\d*$"
"/data/datasets/datagov/data/data/datagovdata/tgr2006se_deba_blkcu.csv","BLOCK","numbers","^\d*$"
