"file_name","column_name","label","regex"
"/data/datasets/datagov/data/data/datagovdata/idfpr-illinois-licensed-physicians-and-surgeons-in-active-status-by-county-as-of-jan-2012.csv","Illinois County","uri",".*?$(?<!\.aspx)"
"/data/datasets/datagov/data/data/datagovdata/idfpr-illinois-licensed-physicians-and-surgeons-in-active-status-by-county-as-of-jan-2012.csv","Count","numbers","^\d*$"
"/data/datasets/datagov/data/data/datagovdata/idfpr-illinois-licensed-physicians-and-surgeons-in-active-status-by-county-as-of-jan-2012.csv","Division","uri",".*?$(?<!\.aspx)"
"/data/datasets/datagov/data/data/datagovdata/idfpr-illinois-licensed-physicians-and-surgeons-in-active-status-by-county-as-of-jan-2012.csv","Profession","uri",".*?$(?<!\.aspx)"
