"file_name","column_name","label","regex"
"/data/datasets/datagov/data/data/datagovdata/2009_12_11_nm_lawenforcement.csv","NAME","strings","[^""\r\n]*"
"/data/datasets/datagov/data/data/datagovdata/2009_12_11_nm_lawenforcement.csv","ADDRESS","uri",".*?$(?<!\.aspx)"
"/data/datasets/datagov/data/data/datagovdata/2009_12_11_nm_lawenforcement.csv","ST_VERSION","numbers","(^([0-9]+[.]+[0-9]+)|(0)$)"
"/data/datasets/datagov/data/data/datagovdata/2009_12_11_nm_lawenforcement.csv","QC_QA","uri",".*?$(?<!\.aspx)"
"/data/datasets/datagov/data/data/datagovdata/2009_12_11_nm_lawenforcement.csv","FIPS","numbers","(^([0-9]+[.]+[0-9]+)|(0)$)"
"/data/datasets/datagov/data/data/datagovdata/2009_12_11_nm_lawenforcement.csv","GEOLINKID","numbers","(^([0-9]+[.]+[0-9]+)|(0)$)"
"/data/datasets/datagov/data/data/datagovdata/2009_12_11_nm_lawenforcement.csv","NAICSCODE","numbers","(^([0-9]+[.]+[0-9]+)|(0)$)"
"/data/datasets/datagov/data/data/datagovdata/2009_12_11_nm_lawenforcement.csv","ORI","uri",".*?$(?<!\.aspx)"
"/data/datasets/datagov/data/data/datagovdata/2009_12_11_nm_lawenforcement.csv","LEMAS_ID","numbers","(^([0-9]+[.]+[0-9]+)|(0)$)"
"/data/datasets/datagov/data/data/datagovdata/2009_12_11_nm_lawenforcement.csv","GEOPREC","uri",".*?$(?<!\.aspx)"
"/data/datasets/datagov/data/data/datagovdata/2009_12_11_nm_lawenforcement.csv","COUNTY","uri",".*?$(?<!\.aspx)"
"/data/datasets/datagov/data/data/datagovdata/2009_12_11_nm_lawenforcement.csv","ST_VENDOR","uri",".*?$(?<!\.aspx)"
"/data/datasets/datagov/data/data/datagovdata/2009_12_11_nm_lawenforcement.csv","SECCLASS","uri",".*?$(?<!\.aspx)"
"/data/datasets/datagov/data/data/datagovdata/2009_12_11_nm_lawenforcement.csv","EMERGTEL","address_or_phone","(\d{4,6})"
"/data/datasets/datagov/data/data/datagovdata/2009_12_11_nm_lawenforcement.csv","ZIP","numbers","(^([0-9]+[.]+[0-9]+)|(0)$)"
"/data/datasets/datagov/data/data/datagovdata/2009_12_11_nm_lawenforcement.csv","CONTDATE","address_or_phone","(\d{4,6})"
"/data/datasets/datagov/data/data/datagovdata/2009_12_11_nm_lawenforcement.csv","ADDRESS2","uri",".*?$(?<!\.aspx)"
"/data/datasets/datagov/data/data/datagovdata/2009_12_11_nm_lawenforcement.csv","PHONELOC","uri",".*?$(?<!\.aspx)"
"/data/datasets/datagov/data/data/datagovdata/2009_12_11_nm_lawenforcement.csv","TELEPHONE","address_or_phone","(\d{4,6})"
"/data/datasets/datagov/data/data/datagovdata/2009_12_11_nm_lawenforcement.csv","AGENCY","uri",".*?$(?<!\.aspx)"
"/data/datasets/datagov/data/data/datagovdata/2009_12_11_nm_lawenforcement.csv","CONTHOW","uri",".*?$(?<!\.aspx)"
"/data/datasets/datagov/data/data/datagovdata/2009_12_11_nm_lawenforcement.csv","Y","numbers","(^([0-9]+[.]+[0-9]+)|(0)$)"
"/data/datasets/datagov/data/data/datagovdata/2009_12_11_nm_lawenforcement.csv","GEOHOW","uri",".*?$(?<!\.aspx)"
"/data/datasets/datagov/data/data/datagovdata/2009_12_11_nm_lawenforcement.csv","FACTYPE","uri",".*?$(?<!\.aspx)"
"/data/datasets/datagov/data/data/datagovdata/2009_12_11_nm_lawenforcement.csv","GEODATE","address_or_phone","(\d{4,6})"
"/data/datasets/datagov/data/data/datagovdata/2009_12_11_nm_lawenforcement.csv","STATE","uri",".*?$(?<!\.aspx)"
"/data/datasets/datagov/data/data/datagovdata/2009_12_11_nm_lawenforcement.csv","ZIPP4","numbers","(^([0-9]+[.]+[0-9]+)|(0)$)"
"/data/datasets/datagov/data/data/datagovdata/2009_12_11_nm_lawenforcement.csv","EMERPHONE","strings","[^""\r\n]*"
"/data/datasets/datagov/data/data/datagovdata/2009_12_11_nm_lawenforcement.csv","X","numbers","(^([0-9]+[.]+[0-9]+)|(0)$)"
"/data/datasets/datagov/data/data/datagovdata/2009_12_11_nm_lawenforcement.csv","NAICSDESCR","uri",".*?$(?<!\.aspx)"
"/data/datasets/datagov/data/data/datagovdata/2009_12_11_nm_lawenforcement.csv","CI","uri",".*?$(?<!\.aspx)"
"/data/datasets/datagov/data/data/datagovdata/2009_12_11_nm_lawenforcement.csv","ID","numbers","(^([0-9]+[.]+[0-9]+)|(0)$)"
"/data/datasets/datagov/data/data/datagovdata/2009_12_11_nm_lawenforcement.csv","CITY","uri",".*?$(?<!\.aspx)"
"/data/datasets/datagov/data/data/datagovdata/2009_12_11_nm_lawenforcement.csv","EMERGTITLE","uri",".*?$(?<!\.aspx)"
"/data/datasets/datagov/data/data/datagovdata/2009_12_11_nm_lawenforcement.csv","DIRECTIONS","strings","[^""\r\n]*"
