"file_name","column_name","label","regex"
"/data/datasets/datagov/data/data/datagovdata/energy-star-certified-residential-dishwashers.csv","US Federal Standard (gallons/cycle)","numbers","^\d*$"
"/data/datasets/datagov/data/data/datagovdata/energy-star-certified-residential-dishwashers.csv","Model Number","strings","[^""\r\n]*"
"/data/datasets/datagov/data/data/datagovdata/energy-star-certified-residential-dishwashers.csv","Meets ENERGY STAR Most Efficient 2015 Criteria","uri",".*?$(?<!\.aspx)"
"/data/datasets/datagov/data/data/datagovdata/energy-star-certified-residential-dishwashers.csv","Annual Energy Use (kWh/yr)","numbers","^\d*$"
"/data/datasets/datagov/data/data/datagovdata/energy-star-certified-residential-dishwashers.csv","Type","uri",".*?$(?<!\.aspx)"
"/data/datasets/datagov/data/data/datagovdata/energy-star-certified-residential-dishwashers.csv","US Federal Standard (kWh/yr)","numbers","^\d*$"
"/data/datasets/datagov/data/data/datagovdata/energy-star-certified-residential-dishwashers.csv","Brand Name","uri",".*?$(?<!\.aspx)"
"/data/datasets/datagov/data/data/datagovdata/energy-star-certified-residential-dishwashers.csv","Date Available On Market","strings","[^""\r\n]*"
"/data/datasets/datagov/data/data/datagovdata/energy-star-certified-residential-dishwashers.csv","Additional Model Information","strings","[^""\r\n]*"
"/data/datasets/datagov/data/data/datagovdata/energy-star-certified-residential-dishwashers.csv","ENERGY STAR Unique ID","numbers","^\d*$"
"/data/datasets/datagov/data/data/datagovdata/energy-star-certified-residential-dishwashers.csv","% Better than US Federal Standard (gallons/cycle)","numbers","^\d*$"
"/data/datasets/datagov/data/data/datagovdata/energy-star-certified-residential-dishwashers.csv","CB Model Identifier","strings","[^""\r\n]*"
"/data/datasets/datagov/data/data/datagovdata/energy-star-certified-residential-dishwashers.csv","% Better than US Federal Standard (kWh/yr)","numbers","^\d*$"
"/data/datasets/datagov/data/data/datagovdata/energy-star-certified-residential-dishwashers.csv"," Date Qualified ","strings","[^""\r\n]*"
"/data/datasets/datagov/data/data/datagovdata/energy-star-certified-residential-dishwashers.csv","Energy Factor (EF)","numbers","^\d*$"
"/data/datasets/datagov/data/data/datagovdata/energy-star-certified-residential-dishwashers.csv","Markets","uri",".*?$(?<!\.aspx)"
"/data/datasets/datagov/data/data/datagovdata/energy-star-certified-residential-dishwashers.csv","Water Use (gallons/cycle)","numbers","^\d*$"
