"file_name","column_name","label","regex"
"/data/datasets/datagov/data/data/datagovdata/table-23-34-visitor-accommodations-by-county-1975-to-2013-number-of-units.csv","State                   total","numbers","^(\d|,)*\.?\d*$"
"/data/datasets/datagov/data/data/datagovdata/table-23-34-visitor-accommodations-by-county-1975-to-2013-number-of-units.csv","Hawaii        County","numbers","^(\d|,)*\.?\d*$"
"/data/datasets/datagov/data/data/datagovdata/table-23-34-visitor-accommodations-by-county-1975-to-2013-number-of-units.csv","Year","numbers","^(\d|,)*\.?\d*$"
"/data/datasets/datagov/data/data/datagovdata/table-23-34-visitor-accommodations-by-county-1975-to-2013-number-of-units.csv","City & County of Honolulu","numbers","^(\d|,)*\.?\d*$"
"/data/datasets/datagov/data/data/datagovdata/table-23-34-visitor-accommodations-by-county-1975-to-2013-number-of-units.csv","Maui        County","numbers","^(\d|,)*\.?\d*$"
"/data/datasets/datagov/data/data/datagovdata/table-23-34-visitor-accommodations-by-county-1975-to-2013-number-of-units.csv","Kauai        County","numbers","^(\d|,)*\.?\d*$"
