"file_name","column_name","label","regex"
"/data/datasets/datagov/data/data/datagovdata/expenditures-esd-jefferson-county-fy-2013-5edc6.csv","Object","numbers","^\$?\d+(\.(\d{2}))?$"
"/data/datasets/datagov/data/data/datagovdata/expenditures-esd-jefferson-county-fy-2013-5edc6.csv","District","uri",".*?$(?<!\.aspx)"
"/data/datasets/datagov/data/data/datagovdata/expenditures-esd-jefferson-county-fy-2013-5edc6.csv","Vendor Name","uri",".*?$(?<!\.aspx)"
"/data/datasets/datagov/data/data/datagovdata/expenditures-esd-jefferson-county-fy-2013-5edc6.csv","Object Title","uri",".*?$(?<!\.aspx)"
"/data/datasets/datagov/data/data/datagovdata/expenditures-esd-jefferson-county-fy-2013-5edc6.csv","ID","numbers","^\$?\d+(\.(\d{2}))?$"
"/data/datasets/datagov/data/data/datagovdata/expenditures-esd-jefferson-county-fy-2013-5edc6.csv","Expense","numbers","^\$?\d+(\.(\d{2}))?$"
"/data/datasets/datagov/data/data/datagovdata/expenditures-esd-jefferson-county-fy-2013-5edc6.csv","Vendor State","uri",".*?$(?<!\.aspx)"
"/data/datasets/datagov/data/data/datagovdata/expenditures-esd-jefferson-county-fy-2013-5edc6.csv","Fund Name","uri",".*?$(?<!\.aspx)"
