"file_name","column_name","label","regex"
"/data/datasets/datagov/data/data/datagovdata/nola-cultural-products-districts.csv","Shape_area","numbers","^(\d|,)*\.?\d*$"
"/data/datasets/datagov/data/data/datagovdata/nola-cultural-products-districts.csv","Shape_len","numbers","^(\d|,)*\.?\d*$"
"/data/datasets/datagov/data/data/datagovdata/nola-cultural-products-districts.csv","Name","strings","[^""\r\n]*"
"/data/datasets/datagov/data/data/datagovdata/nola-cultural-products-districts.csv","Ordinance","uri",".*?$(?<!\.aspx)"
"/data/datasets/datagov/data/data/datagovdata/nola-cultural-products-districts.csv","the_geom","strings","[^""\r\n]*"
