"file_name","column_name","label","regex"
"/data/datasets/datagov/data/data/datagovdata/tgr2006se_soco_puma5.csv","PUMA5","numbers","^\d*$"
"/data/datasets/datagov/data/data/datagovdata/tgr2006se_soco_puma5.csv","COUNTY","numbers","^\d*$"
"/data/datasets/datagov/data/data/datagovdata/tgr2006se_soco_puma5.csv","GIST_ID","numbers","^\d*$"
