"file_name","column_name","label","regex"
"/data/datasets/datagov/data/data/datagovdata/2014-ep-indicators-calendar-monthly-landscape.csv","Unnamed: 2","uri",".*?$(?<!\.aspx)"
"/data/datasets/datagov/data/data/datagovdata/2014-ep-indicators-calendar-monthly-landscape.csv","Unnamed: 1","uri",".*?$(?<!\.aspx)"
"/data/datasets/datagov/data/data/datagovdata/2014-ep-indicators-calendar-monthly-landscape.csv","Unnamed: 3","uri",".*?$(?<!\.aspx)"
"/data/datasets/datagov/data/data/datagovdata/2014-ep-indicators-calendar-monthly-landscape.csv","Unnamed: 0","uri",".*?$(?<!\.aspx)"
