"file_name","column_name","label","regex"
"/data/datasets/datagov/data/data/datagovdata/adult-tobacco-use-5eb8f.csv","Historical Data","numbers","(^([0-9]+[.]+[0-9]+)|(0)$)"
"/data/datasets/datagov/data/data/datagovdata/adult-tobacco-use-5eb8f.csv","Target","numbers","(^([0-9]+[.]+[0-9]+)|(0)$)"
"/data/datasets/datagov/data/data/datagovdata/adult-tobacco-use-5eb8f.csv","Years","numbers","(^([0-9]+[.]+[0-9]+)|(0)$)"
