"file_name","column_name","label","regex"
"/data/datasets/datagov/data/data/datagovdata/population-of-selected-asian-race-subgroups-in-new-york-city-by-borough-6e1f2.csv","Total Asian - Laotian","numbers","^\d*$"
"/data/datasets/datagov/data/data/datagovdata/population-of-selected-asian-race-subgroups-in-new-york-city-by-borough-6e1f2.csv","Total Asian - Chinese and Taiwanese","numbers","^\d*$"
"/data/datasets/datagov/data/data/datagovdata/population-of-selected-asian-race-subgroups-in-new-york-city-by-borough-6e1f2.csv","Asian in Combination with Another Race","numbers","^\d*$"
"/data/datasets/datagov/data/data/datagovdata/population-of-selected-asian-race-subgroups-in-new-york-city-by-borough-6e1f2.csv"," Total Asian - Indonesian","numbers","^\d*$"
"/data/datasets/datagov/data/data/datagovdata/population-of-selected-asian-race-subgroups-in-new-york-city-by-borough-6e1f2.csv","Total Asian - Burmese ","numbers","^\d*$"
"/data/datasets/datagov/data/data/datagovdata/population-of-selected-asian-race-subgroups-in-new-york-city-by-borough-6e1f2.csv","Total Asian - Thai","numbers","^\d*$"
"/data/datasets/datagov/data/data/datagovdata/population-of-selected-asian-race-subgroups-in-new-york-city-by-borough-6e1f2.csv","Total Asian - Nepalese","numbers","^\d*$"
"/data/datasets/datagov/data/data/datagovdata/population-of-selected-asian-race-subgroups-in-new-york-city-by-borough-6e1f2.csv","Other Asian and Persons of Two or More Asian Categories","numbers","^\d*$"
"/data/datasets/datagov/data/data/datagovdata/population-of-selected-asian-race-subgroups-in-new-york-city-by-borough-6e1f2.csv","Total Asian - Hmong","numbers","^\d*$"
"/data/datasets/datagov/data/data/datagovdata/population-of-selected-asian-race-subgroups-in-new-york-city-by-borough-6e1f2.csv","Total Asian - Cambodian","numbers","^\d*$"
"/data/datasets/datagov/data/data/datagovdata/population-of-selected-asian-race-subgroups-in-new-york-city-by-borough-6e1f2.csv","Total Asian - Sri Lankan","numbers","^\d*$"
"/data/datasets/datagov/data/data/datagovdata/population-of-selected-asian-race-subgroups-in-new-york-city-by-borough-6e1f2.csv","Total Asian - Pakistani","numbers","^\d*$"
"/data/datasets/datagov/data/data/datagovdata/population-of-selected-asian-race-subgroups-in-new-york-city-by-borough-6e1f2.csv","Total Asian - Bhutanese","numbers","^\d*$"
"/data/datasets/datagov/data/data/datagovdata/population-of-selected-asian-race-subgroups-in-new-york-city-by-borough-6e1f2.csv","Total Asian - Indian","numbers","^\d*$"
"/data/datasets/datagov/data/data/datagovdata/population-of-selected-asian-race-subgroups-in-new-york-city-by-borough-6e1f2.csv","Total Asian - Malaysian","numbers","^\d*$"
"/data/datasets/datagov/data/data/datagovdata/population-of-selected-asian-race-subgroups-in-new-york-city-by-borough-6e1f2.csv","Total Asian - Bangladeshi","numbers","^\d*$"
"/data/datasets/datagov/data/data/datagovdata/population-of-selected-asian-race-subgroups-in-new-york-city-by-borough-6e1f2.csv","Total Asian - Korean","numbers","^\d*$"
"/data/datasets/datagov/data/data/datagovdata/population-of-selected-asian-race-subgroups-in-new-york-city-by-borough-6e1f2.csv","Total Asian - Japanese","numbers","^\d*$"
"/data/datasets/datagov/data/data/datagovdata/population-of-selected-asian-race-subgroups-in-new-york-city-by-borough-6e1f2.csv","Year","numbers","^\d*$"
"/data/datasets/datagov/data/data/datagovdata/population-of-selected-asian-race-subgroups-in-new-york-city-by-borough-6e1f2.csv","Total Asian - Vietnamese","numbers","^\d*$"
"/data/datasets/datagov/data/data/datagovdata/population-of-selected-asian-race-subgroups-in-new-york-city-by-borough-6e1f2.csv","Borough","uri",".*?$(?<!\.aspx)"
"/data/datasets/datagov/data/data/datagovdata/population-of-selected-asian-race-subgroups-in-new-york-city-by-borough-6e1f2.csv","Total Asian Only","numbers","^\d*$"
"/data/datasets/datagov/data/data/datagovdata/population-of-selected-asian-race-subgroups-in-new-york-city-by-borough-6e1f2.csv","Total Asian - Filipino","numbers","^\d*$"
