"file_name","column_name","label","regex"
"/data/datasets/datagov/data/data/datagovdata/annual-coal-consumption-by-country-1980-2009-12cb0.csv","2005","uri",".*?$(?<!\.aspx)"
"/data/datasets/datagov/data/data/datagovdata/annual-coal-consumption-by-country-1980-2009-12cb0.csv","1980","uri",".*?$(?<!\.aspx)"
"/data/datasets/datagov/data/data/datagovdata/annual-coal-consumption-by-country-1980-2009-12cb0.csv","1993","uri",".*?$(?<!\.aspx)"
"/data/datasets/datagov/data/data/datagovdata/annual-coal-consumption-by-country-1980-2009-12cb0.csv","1995","uri",".*?$(?<!\.aspx)"
"/data/datasets/datagov/data/data/datagovdata/annual-coal-consumption-by-country-1980-2009-12cb0.csv","1986","uri",".*?$(?<!\.aspx)"
"/data/datasets/datagov/data/data/datagovdata/annual-coal-consumption-by-country-1980-2009-12cb0.csv","1981","uri",".*?$(?<!\.aspx)"
"/data/datasets/datagov/data/data/datagovdata/annual-coal-consumption-by-country-1980-2009-12cb0.csv","1998","uri",".*?$(?<!\.aspx)"
"/data/datasets/datagov/data/data/datagovdata/annual-coal-consumption-by-country-1980-2009-12cb0.csv","2001","uri",".*?$(?<!\.aspx)"
"/data/datasets/datagov/data/data/datagovdata/annual-coal-consumption-by-country-1980-2009-12cb0.csv","1994","uri",".*?$(?<!\.aspx)"
"/data/datasets/datagov/data/data/datagovdata/annual-coal-consumption-by-country-1980-2009-12cb0.csv","1987","uri",".*?$(?<!\.aspx)"
"/data/datasets/datagov/data/data/datagovdata/annual-coal-consumption-by-country-1980-2009-12cb0.csv","1985","uri",".*?$(?<!\.aspx)"
"/data/datasets/datagov/data/data/datagovdata/annual-coal-consumption-by-country-1980-2009-12cb0.csv","2006","uri",".*?$(?<!\.aspx)"
"/data/datasets/datagov/data/data/datagovdata/annual-coal-consumption-by-country-1980-2009-12cb0.csv","2002","uri",".*?$(?<!\.aspx)"
"/data/datasets/datagov/data/data/datagovdata/annual-coal-consumption-by-country-1980-2009-12cb0.csv","1997","uri",".*?$(?<!\.aspx)"
"/data/datasets/datagov/data/data/datagovdata/annual-coal-consumption-by-country-1980-2009-12cb0.csv","1984","uri",".*?$(?<!\.aspx)"
"/data/datasets/datagov/data/data/datagovdata/annual-coal-consumption-by-country-1980-2009-12cb0.csv","1982","uri",".*?$(?<!\.aspx)"
"/data/datasets/datagov/data/data/datagovdata/annual-coal-consumption-by-country-1980-2009-12cb0.csv","1991","uri",".*?$(?<!\.aspx)"
"/data/datasets/datagov/data/data/datagovdata/annual-coal-consumption-by-country-1980-2009-12cb0.csv","1996","uri",".*?$(?<!\.aspx)"
"/data/datasets/datagov/data/data/datagovdata/annual-coal-consumption-by-country-1980-2009-12cb0.csv","Unnamed: 0","uri",".*?$(?<!\.aspx)"
"/data/datasets/datagov/data/data/datagovdata/annual-coal-consumption-by-country-1980-2009-12cb0.csv","2007","uri",".*?$(?<!\.aspx)"
"/data/datasets/datagov/data/data/datagovdata/annual-coal-consumption-by-country-1980-2009-12cb0.csv","2008","uri",".*?$(?<!\.aspx)"
"/data/datasets/datagov/data/data/datagovdata/annual-coal-consumption-by-country-1980-2009-12cb0.csv","2003","uri",".*?$(?<!\.aspx)"
"/data/datasets/datagov/data/data/datagovdata/annual-coal-consumption-by-country-1980-2009-12cb0.csv","2009","uri",".*?$(?<!\.aspx)"
"/data/datasets/datagov/data/data/datagovdata/annual-coal-consumption-by-country-1980-2009-12cb0.csv","1988","uri",".*?$(?<!\.aspx)"
"/data/datasets/datagov/data/data/datagovdata/annual-coal-consumption-by-country-1980-2009-12cb0.csv","1983","uri",".*?$(?<!\.aspx)"
"/data/datasets/datagov/data/data/datagovdata/annual-coal-consumption-by-country-1980-2009-12cb0.csv","1990","uri",".*?$(?<!\.aspx)"
"/data/datasets/datagov/data/data/datagovdata/annual-coal-consumption-by-country-1980-2009-12cb0.csv","1992","uri",".*?$(?<!\.aspx)"
"/data/datasets/datagov/data/data/datagovdata/annual-coal-consumption-by-country-1980-2009-12cb0.csv","2004","uri",".*?$(?<!\.aspx)"
"/data/datasets/datagov/data/data/datagovdata/annual-coal-consumption-by-country-1980-2009-12cb0.csv","1999","uri",".*?$(?<!\.aspx)"
"/data/datasets/datagov/data/data/datagovdata/annual-coal-consumption-by-country-1980-2009-12cb0.csv","1989","uri",".*?$(?<!\.aspx)"
"/data/datasets/datagov/data/data/datagovdata/annual-coal-consumption-by-country-1980-2009-12cb0.csv","2000","uri",".*?$(?<!\.aspx)"
