"file_name","column_name","label","regex"
"/data/datasets/datagov/data/data/datagovdata/fiscal-year-2012-tax-credits-638e1.csv","Tax Credit Description","strings","[^""\r\n]*"
"/data/datasets/datagov/data/data/datagovdata/fiscal-year-2012-tax-credits-638e1.csv","Credit Amount","numbers","^\$?\d+(\.(\d{2}))?$"
"/data/datasets/datagov/data/data/datagovdata/fiscal-year-2012-tax-credits-638e1.csv","Year","numbers","^\$?\d+(\.(\d{2}))?$"
"/data/datasets/datagov/data/data/datagovdata/fiscal-year-2012-tax-credits-638e1.csv","Tax Credit Type","strings","[^""\r\n]*"
"/data/datasets/datagov/data/data/datagovdata/fiscal-year-2012-tax-credits-638e1.csv","Name","uri",".*?$(?<!\.aspx)"
"/data/datasets/datagov/data/data/datagovdata/fiscal-year-2012-tax-credits-638e1.csv","Fiscal Year","uri",".*?$(?<!\.aspx)"
