"file_name","column_name","label","regex"
"/data/datasets/datagov/data/data/datagovdata/shared-ride-passengers-at-port-authority-of-ny-nj-airports-beginning-2005.csv","Month","numbers","^\d*$"
"/data/datasets/datagov/data/data/datagovdata/shared-ride-passengers-at-port-authority-of-ny-nj-airports-beginning-2005.csv","Shared Ride Passengers ","numbers","^\d*$"
"/data/datasets/datagov/data/data/datagovdata/shared-ride-passengers-at-port-authority-of-ny-nj-airports-beginning-2005.csv","Year","numbers","^\d*$"
"/data/datasets/datagov/data/data/datagovdata/shared-ride-passengers-at-port-authority-of-ny-nj-airports-beginning-2005.csv","Airport","uri",".*?$(?<!\.aspx)"
