"file_name","column_name","label","regex"
"/data/datasets/datagov/data/data/datagovdata/asthma-prevalence-adults-18-and-older-by-year-1995-to-2010.csv","Measure","uri",".*?$(?<!\.aspx)"
"/data/datasets/datagov/data/data/datagovdata/asthma-prevalence-adults-18-and-older-by-year-1995-to-2010.csv","95% CI Upper Limit","numbers","^(\d|,)*\.?\d*$"
"/data/datasets/datagov/data/data/datagovdata/asthma-prevalence-adults-18-and-older-by-year-1995-to-2010.csv","95% CI Lower Limit","numbers","^(\d|,)*\.?\d*$"
"/data/datasets/datagov/data/data/datagovdata/asthma-prevalence-adults-18-and-older-by-year-1995-to-2010.csv","Year","numbers","^(\d|,)*\.?\d*$"
"/data/datasets/datagov/data/data/datagovdata/asthma-prevalence-adults-18-and-older-by-year-1995-to-2010.csv","Percent","numbers","^(\d|,)*\.?\d*$"
