"file_name","column_name","label","regex"
"/data/datasets/datagov/data/data/datagovdata/list-of-contractors-doing-business-with-the-city-of-chicago-f48fa.csv","ADDRESS LINE 1","strings","[^""\r\n]*"
"/data/datasets/datagov/data/data/datagovdata/list-of-contractors-doing-business-with-the-city-of-chicago-f48fa.csv","VENDOR ID","address_or_phone","(\d{4,6})"
"/data/datasets/datagov/data/data/datagovdata/list-of-contractors-doing-business-with-the-city-of-chicago-f48fa.csv","ADDRESS LINE 2","uri",".*?$(?<!\.aspx)"
"/data/datasets/datagov/data/data/datagovdata/list-of-contractors-doing-business-with-the-city-of-chicago-f48fa.csv","CITY","uri",".*?$(?<!\.aspx)"
"/data/datasets/datagov/data/data/datagovdata/list-of-contractors-doing-business-with-the-city-of-chicago-f48fa.csv","ZIP CODE","address_or_phone","(\d{4,6})"
"/data/datasets/datagov/data/data/datagovdata/list-of-contractors-doing-business-with-the-city-of-chicago-f48fa.csv","STATE","uri",".*?$(?<!\.aspx)"
"/data/datasets/datagov/data/data/datagovdata/list-of-contractors-doing-business-with-the-city-of-chicago-f48fa.csv","VENDOR","strings","[^""\r\n]*"
