"file_name","column_name","label","regex"
"/data/datasets/datagov/data/data/datagovdata/applicant-information-from-7-1-2013-to-6-30-2014-03e0e.csv","Female","numbers","^\d*$"
"/data/datasets/datagov/data/data/datagovdata/applicant-information-from-7-1-2013-to-6-30-2014-03e0e.csv","Hispanic","numbers","^\d*$"
"/data/datasets/datagov/data/data/datagovdata/applicant-information-from-7-1-2013-to-6-30-2014-03e0e.csv","UnknownEthnicity","numbers","^\d*$"
"/data/datasets/datagov/data/data/datagovdata/applicant-information-from-7-1-2013-to-6-30-2014-03e0e.csv","Job Number","strings","[^""\r\n]*"
"/data/datasets/datagov/data/data/datagovdata/applicant-information-from-7-1-2013-to-6-30-2014-03e0e.csv","American Indian/ Alaskan Native","numbers","^\d*$"
"/data/datasets/datagov/data/data/datagovdata/applicant-information-from-7-1-2013-to-6-30-2014-03e0e.csv","Black","numbers","^\d*$"
"/data/datasets/datagov/data/data/datagovdata/applicant-information-from-7-1-2013-to-6-30-2014-03e0e.csv","Apps Received","numbers","^\d*$"
"/data/datasets/datagov/data/data/datagovdata/applicant-information-from-7-1-2013-to-6-30-2014-03e0e.csv","Filipino","numbers","^\d*$"
"/data/datasets/datagov/data/data/datagovdata/applicant-information-from-7-1-2013-to-6-30-2014-03e0e.csv","Caucasian","numbers","^\d*$"
"/data/datasets/datagov/data/data/datagovdata/applicant-information-from-7-1-2013-to-6-30-2014-03e0e.csv","Job Description","strings","[^""\r\n]*"
"/data/datasets/datagov/data/data/datagovdata/applicant-information-from-7-1-2013-to-6-30-2014-03e0e.csv","Unknown_Gender","numbers","^\d*$"
"/data/datasets/datagov/data/data/datagovdata/applicant-information-from-7-1-2013-to-6-30-2014-03e0e.csv","Male","numbers","^\d*$"
"/data/datasets/datagov/data/data/datagovdata/applicant-information-from-7-1-2013-to-6-30-2014-03e0e.csv","Asian","numbers","^\d*$"
