"file_name","column_name","label","regex"
"/data/datasets/datagov/data/data/datagovdata/iquery-measles-data-eb3b3.csv","Ethnicity","uri",".*?$(?<!\.aspx)"
"/data/datasets/datagov/data/data/datagovdata/iquery-measles-data-eb3b3.csv","IL","uri",".*?$(?<!\.aspx)"
"/data/datasets/datagov/data/data/datagovdata/iquery-measles-data-eb3b3.csv","Race","uri",".*?$(?<!\.aspx)"
"/data/datasets/datagov/data/data/datagovdata/iquery-measles-data-eb3b3.csv","YearText","uri",".*?$(?<!\.aspx)"
"/data/datasets/datagov/data/data/datagovdata/iquery-measles-data-eb3b3.csv","AgeGroup","uri",".*?$(?<!\.aspx)"
"/data/datasets/datagov/data/data/datagovdata/iquery-measles-data-eb3b3.csv","Year","numbers","^\d$"
"/data/datasets/datagov/data/data/datagovdata/iquery-measles-data-eb3b3.csv","AgeGroupText","uri",".*?$(?<!\.aspx)"
"/data/datasets/datagov/data/data/datagovdata/iquery-measles-data-eb3b3.csv","Disease","uri",".*?$(?<!\.aspx)"
"/data/datasets/datagov/data/data/datagovdata/iquery-measles-data-eb3b3.csv","Count","numbers","^\d$"
"/data/datasets/datagov/data/data/datagovdata/iquery-measles-data-eb3b3.csv","StateOrCounty","uri",".*?$(?<!\.aspx)"
"/data/datasets/datagov/data/data/datagovdata/iquery-measles-data-eb3b3.csv","Gender","uri",".*?$(?<!\.aspx)"
