"file_name","column_name","label","regex"
"/data/datasets/datagov/data/data/datagovdata/tgr2006se_rioa_zcta500.csv","COUNTY","numbers","^\d*$"
"/data/datasets/datagov/data/data/datagovdata/tgr2006se_rioa_zcta500.csv","ZCTA","uri",".*?$(?<!\.aspx)"
"/data/datasets/datagov/data/data/datagovdata/tgr2006se_rioa_zcta500.csv","GIST_ID","numbers","^\d*$"
