"file_name","column_name","label","regex"
"/data/datasets/datagov/data/data/datagovdata/oklahoma-state-parks.csv","PHONE1","uri",".*?$(?<!\.aspx)"
"/data/datasets/datagov/data/data/datagovdata/oklahoma-state-parks.csv","Location","uri",".*?$(?<!\.aspx)"
"/data/datasets/datagov/data/data/datagovdata/oklahoma-state-parks.csv","LATITUDE","numbers","^(\d|,)*\.?\d*$"
"/data/datasets/datagov/data/data/datagovdata/oklahoma-state-parks.csv","LONGITUDE","numbers","^(\d|,)*\.?\d*$"
"/data/datasets/datagov/data/data/datagovdata/oklahoma-state-parks.csv","ZIP","numbers","^(\d|,)*\.?\d*$"
"/data/datasets/datagov/data/data/datagovdata/oklahoma-state-parks.csv","ADDRESS","strings","[^""\r\n]*"
"/data/datasets/datagov/data/data/datagovdata/oklahoma-state-parks.csv","CITY","uri",".*?$(?<!\.aspx)"
"/data/datasets/datagov/data/data/datagovdata/oklahoma-state-parks.csv","State Parks","strings","[^""\r\n]*"
"/data/datasets/datagov/data/data/datagovdata/oklahoma-state-parks.csv","PHONE2","uri",".*?$(?<!\.aspx)"
"/data/datasets/datagov/data/data/datagovdata/oklahoma-state-parks.csv","STATE","uri",".*?$(?<!\.aspx)"
