"file_name","column_name","label","regex"
"/data/datasets/datagov/data/data/datagovdata/street-use-permits-7b50a.csv","Latitude","numbers","^-?\d*(\.\d+)?$"
"/data/datasets/datagov/data/data/datagovdata/street-use-permits-7b50a.csv","Status","uri",".*?$(?<!\.aspx)"
"/data/datasets/datagov/data/data/datagovdata/street-use-permits-7b50a.csv","Permit Type","uri",".*?$(?<!\.aspx)"
"/data/datasets/datagov/data/data/datagovdata/street-use-permits-7b50a.csv","permit_address","uri",".*?$(?<!\.aspx)"
"/data/datasets/datagov/data/data/datagovdata/street-use-permits-7b50a.csv","Cross Street 2","strings","[^""\r\n]*"
"/data/datasets/datagov/data/data/datagovdata/street-use-permits-7b50a.csv","Agent","uri",".*?$(?<!\.aspx)"
"/data/datasets/datagov/data/data/datagovdata/street-use-permits-7b50a.csv","Approved Date","strings","[^""\r\n]*"
"/data/datasets/datagov/data/data/datagovdata/street-use-permits-7b50a.csv","CurbRampWork","uri",".*?$(?<!\.aspx)"
"/data/datasets/datagov/data/data/datagovdata/street-use-permits-7b50a.csv","Y","numbers","^-?\d*(\.\d+)?$"
"/data/datasets/datagov/data/data/datagovdata/street-use-permits-7b50a.csv","Cross Street 1","strings","[^""\r\n]*"
"/data/datasets/datagov/data/data/datagovdata/street-use-permits-7b50a.csv","AgentPhone","uri",".*?$(?<!\.aspx)"
"/data/datasets/datagov/data/data/datagovdata/street-use-permits-7b50a.csv","Longitude","numbers","^-?\d*(\.\d+)?$"
"/data/datasets/datagov/data/data/datagovdata/street-use-permits-7b50a.csv","permit_end_date","strings","[^""\r\n]*"
"/data/datasets/datagov/data/data/datagovdata/street-use-permits-7b50a.csv","24/7 Contact","strings","[^""\r\n]*"
"/data/datasets/datagov/data/data/datagovdata/street-use-permits-7b50a.csv","Permit Purpose","strings","[^""\r\n]*"
"/data/datasets/datagov/data/data/datagovdata/street-use-permits-7b50a.csv","permit_zipcode","numbers","^-?\d*(\.\d+)?$"
"/data/datasets/datagov/data/data/datagovdata/street-use-permits-7b50a.csv","streetname","uri",".*?$(?<!\.aspx)"
"/data/datasets/datagov/data/data/datagovdata/street-use-permits-7b50a.csv","permit_number","uri",".*?$(?<!\.aspx)"
"/data/datasets/datagov/data/data/datagovdata/street-use-permits-7b50a.csv","cnn","numbers","^-?\d*(\.\d+)?$"
"/data/datasets/datagov/data/data/datagovdata/street-use-permits-7b50a.csv","Inspector","uri",".*?$(?<!\.aspx)"
"/data/datasets/datagov/data/data/datagovdata/street-use-permits-7b50a.csv","X","numbers","^-?\d*(\.\d+)?$"
"/data/datasets/datagov/data/data/datagovdata/street-use-permits-7b50a.csv","permit_start_date","strings","[^""\r\n]*"
