"file_name","column_name","label","regex"
"/data/datasets/datagov/data/data/datagovdata/ss10pusa.csv","FDRATXP","numbers","^\d*$"
"/data/datasets/datagov/data/data/datagovdata/ss10pusa.csv","FDEYEP","numbers","^\d*$"
"/data/datasets/datagov/data/data/datagovdata/ss10pusa.csv","DEAR","numbers","^\d*$"
"/data/datasets/datagov/data/data/datagovdata/ss10pusa.csv","SOCP","uri",".*?$(?<!\.aspx)"
"/data/datasets/datagov/data/data/datagovdata/ss10pusa.csv","pwgtp47","numbers","^\d*$"
"/data/datasets/datagov/data/data/datagovdata/ss10pusa.csv","DOUT","numbers","^\d*$"
"/data/datasets/datagov/data/data/datagovdata/ss10pusa.csv","RELP","numbers","^\d*$"
"/data/datasets/datagov/data/data/datagovdata/ss10pusa.csv","FESRP","numbers","^\d*$"
"/data/datasets/datagov/data/data/datagovdata/ss10pusa.csv","MLPG","numbers","^\d*$"
"/data/datasets/datagov/data/data/datagovdata/ss10pusa.csv","FDEARP","numbers","^\d*$"
"/data/datasets/datagov/data/data/datagovdata/ss10pusa.csv","MAR","numbers","^\d*$"
"/data/datasets/datagov/data/data/datagovdata/ss10pusa.csv","FGCLP","numbers","^\d*$"
"/data/datasets/datagov/data/data/datagovdata/ss10pusa.csv","pwgtp41","numbers","^\d*$"
"/data/datasets/datagov/data/data/datagovdata/ss10pusa.csv","FCITP","numbers","^\d*$"
"/data/datasets/datagov/data/data/datagovdata/ss10pusa.csv","FMARHDP","numbers","^\d*$"
"/data/datasets/datagov/data/data/datagovdata/ss10pusa.csv","CITWP","numbers","^\d*$"
"/data/datasets/datagov/data/data/datagovdata/ss10pusa.csv","FJWDP","numbers","^\d*$"
"/data/datasets/datagov/data/data/datagovdata/ss10pusa.csv","WAGP","numbers","^\d*$"
"/data/datasets/datagov/data/data/datagovdata/ss10pusa.csv","pwgtp27","numbers","^\d*$"
"/data/datasets/datagov/data/data/datagovdata/ss10pusa.csv","ANC","numbers","^\d*$"
"/data/datasets/datagov/data/data/datagovdata/ss10pusa.csv","pwgtp26","numbers","^\d*$"
"/data/datasets/datagov/data/data/datagovdata/ss10pusa.csv","pwgtp40","numbers","^\d*$"
"/data/datasets/datagov/data/data/datagovdata/ss10pusa.csv","pwgtp66","numbers","^\d*$"
"/data/datasets/datagov/data/data/datagovdata/ss10pusa.csv","POVPIP","numbers","^\d*$"
"/data/datasets/datagov/data/data/datagovdata/ss10pusa.csv","pwgtp24","numbers","^\d*$"
"/data/datasets/datagov/data/data/datagovdata/ss10pusa.csv","POWSP","numbers","^\d*$"
"/data/datasets/datagov/data/data/datagovdata/ss10pusa.csv","pwgtp77","numbers","^\d*$"
"/data/datasets/datagov/data/data/datagovdata/ss10pusa.csv","FHINS2P","numbers","^\d*$"
"/data/datasets/datagov/data/data/datagovdata/ss10pusa.csv","pwgtp31","numbers","^\d*$"
"/data/datasets/datagov/data/data/datagovdata/ss10pusa.csv","JWMNP","numbers","^\d*$"
"/data/datasets/datagov/data/data/datagovdata/ss10pusa.csv","pwgtp21","numbers","^\d*$"
"/data/datasets/datagov/data/data/datagovdata/ss10pusa.csv","FLANP","numbers","^\d*$"
"/data/datasets/datagov/data/data/datagovdata/ss10pusa.csv","pwgtp57","numbers","^\d*$"
"/data/datasets/datagov/data/data/datagovdata/ss10pusa.csv","FOD2P","numbers","^\d*$"
"/data/datasets/datagov/data/data/datagovdata/ss10pusa.csv","FSSIP","numbers","^\d*$"
"/data/datasets/datagov/data/data/datagovdata/ss10pusa.csv","pwgtp64","numbers","^\d*$"
"/data/datasets/datagov/data/data/datagovdata/ss10pusa.csv","ESP","numbers","^\d*$"
"/data/datasets/datagov/data/data/datagovdata/ss10pusa.csv","SFR","numbers","^\d*$"
"/data/datasets/datagov/data/data/datagovdata/ss10pusa.csv","PAOC","numbers","^\d*$"
"/data/datasets/datagov/data/data/datagovdata/ss10pusa.csv","MLPH","numbers","^\d*$"
"/data/datasets/datagov/data/data/datagovdata/ss10pusa.csv","FHINS1P","numbers","^\d*$"
"/data/datasets/datagov/data/data/datagovdata/ss10pusa.csv","NWAV","numbers","^\d*$"
"/data/datasets/datagov/data/data/datagovdata/ss10pusa.csv","pwgtp23","numbers","^\d*$"
"/data/datasets/datagov/data/data/datagovdata/ss10pusa.csv","pwgtp65","numbers","^\d*$"
"/data/datasets/datagov/data/data/datagovdata/ss10pusa.csv","WKL","numbers","^\d*$"
"/data/datasets/datagov/data/data/datagovdata/ss10pusa.csv","pwgtp45","numbers","^\d*$"
"/data/datasets/datagov/data/data/datagovdata/ss10pusa.csv","CIT","numbers","^\d*$"
"/data/datasets/datagov/data/data/datagovdata/ss10pusa.csv","RAC1P","numbers","^\d*$"
"/data/datasets/datagov/data/data/datagovdata/ss10pusa.csv","pwgtp13","numbers","^\d*$"
"/data/datasets/datagov/data/data/datagovdata/ss10pusa.csv","FAGEP","numbers","^\d*$"
"/data/datasets/datagov/data/data/datagovdata/ss10pusa.csv","WAOB","numbers","^\d*$"
"/data/datasets/datagov/data/data/datagovdata/ss10pusa.csv","ANC1P","numbers","^\d*$"
"/data/datasets/datagov/data/data/datagovdata/ss10pusa.csv","JWTR","numbers","^\d*$"
"/data/datasets/datagov/data/data/datagovdata/ss10pusa.csv","DECADE","numbers","^\d*$"
"/data/datasets/datagov/data/data/datagovdata/ss10pusa.csv","FGCMP","numbers","^\d*$"
"/data/datasets/datagov/data/data/datagovdata/ss10pusa.csv","pwgtp1","numbers","^\d*$"
"/data/datasets/datagov/data/data/datagovdata/ss10pusa.csv","FSCHP","numbers","^\d*$"
"/data/datasets/datagov/data/data/datagovdata/ss10pusa.csv","FMILSP","numbers","^\d*$"
"/data/datasets/datagov/data/data/datagovdata/ss10pusa.csv","pwgtp6","numbers","^\d*$"
"/data/datasets/datagov/data/data/datagovdata/ss10pusa.csv","FMIGP","numbers","^\d*$"
"/data/datasets/datagov/data/data/datagovdata/ss10pusa.csv","pwgtp60","numbers","^\d*$"
"/data/datasets/datagov/data/data/datagovdata/ss10pusa.csv","pwgtp22","numbers","^\d*$"
"/data/datasets/datagov/data/data/datagovdata/ss10pusa.csv","FDOUTP","numbers","^\d*$"
"/data/datasets/datagov/data/data/datagovdata/ss10pusa.csv","pwgtp14","numbers","^\d*$"
"/data/datasets/datagov/data/data/datagovdata/ss10pusa.csv","pwgtp37","numbers","^\d*$"
"/data/datasets/datagov/data/data/datagovdata/ss10pusa.csv","pwgtp18","numbers","^\d*$"
"/data/datasets/datagov/data/data/datagovdata/ss10pusa.csv","HINS4","numbers","^\d*$"
"/data/datasets/datagov/data/data/datagovdata/ss10pusa.csv","FHINS3P","numbers","^\d*$"
"/data/datasets/datagov/data/data/datagovdata/ss10pusa.csv","FOCCP","numbers","^\d*$"
"/data/datasets/datagov/data/data/datagovdata/ss10pusa.csv","FPAP","numbers","^\d*$"
"/data/datasets/datagov/data/data/datagovdata/ss10pusa.csv","FRACP","numbers","^\d*$"
"/data/datasets/datagov/data/data/datagovdata/ss10pusa.csv","AGEP","numbers","^\d*$"
"/data/datasets/datagov/data/data/datagovdata/ss10pusa.csv","HINS3","numbers","^\d*$"
"/data/datasets/datagov/data/data/datagovdata/ss10pusa.csv","GCR","numbers","^\d*$"
"/data/datasets/datagov/data/data/datagovdata/ss10pusa.csv","pwgtp2","numbers","^\d*$"
"/data/datasets/datagov/data/data/datagovdata/ss10pusa.csv","pwgtp78","numbers","^\d*$"
"/data/datasets/datagov/data/data/datagovdata/ss10pusa.csv","SEMP","numbers","^\d*$"
"/data/datasets/datagov/data/data/datagovdata/ss10pusa.csv","FWKWP","numbers","^\d*$"
"/data/datasets/datagov/data/data/datagovdata/ss10pusa.csv","SCH","numbers","^\d*$"
"/data/datasets/datagov/data/data/datagovdata/ss10pusa.csv","MARHW","numbers","^\d*$"
"/data/datasets/datagov/data/data/datagovdata/ss10pusa.csv","MIGPUMA","numbers","^\d*$"
"/data/datasets/datagov/data/data/datagovdata/ss10pusa.csv","FCITWP","numbers","^\d*$"
"/data/datasets/datagov/data/data/datagovdata/ss10pusa.csv","RT","uri",".*?$(?<!\.aspx)"
"/data/datasets/datagov/data/data/datagovdata/ss10pusa.csv","pwgtp59","numbers","^\d*$"
"/data/datasets/datagov/data/data/datagovdata/ss10pusa.csv","pwgtp36","numbers","^\d*$"
"/data/datasets/datagov/data/data/datagovdata/ss10pusa.csv","MIGSP","numbers","^\d*$"
"/data/datasets/datagov/data/data/datagovdata/ss10pusa.csv","DREM","numbers","^\d*$"
"/data/datasets/datagov/data/data/datagovdata/ss10pusa.csv","FPOBP","numbers","^\d*$"
"/data/datasets/datagov/data/data/datagovdata/ss10pusa.csv","FENGP","numbers","^\d*$"
"/data/datasets/datagov/data/data/datagovdata/ss10pusa.csv","SCHL","numbers","^\d*$"
"/data/datasets/datagov/data/data/datagovdata/ss10pusa.csv","pwgtp46","numbers","^\d*$"
"/data/datasets/datagov/data/data/datagovdata/ss10pusa.csv","FOD1P","numbers","^\d*$"
"/data/datasets/datagov/data/data/datagovdata/ss10pusa.csv","FYOEP","numbers","^\d*$"
"/data/datasets/datagov/data/data/datagovdata/ss10pusa.csv","pwgtp15","numbers","^\d*$"
"/data/datasets/datagov/data/data/datagovdata/ss10pusa.csv","NWRE","numbers","^\d*$"
"/data/datasets/datagov/data/data/datagovdata/ss10pusa.csv","pwgtp4","numbers","^\d*$"
"/data/datasets/datagov/data/data/datagovdata/ss10pusa.csv","LANP","numbers","^\d*$"
"/data/datasets/datagov/data/data/datagovdata/ss10pusa.csv","NOP","numbers","^\d*$"
"/data/datasets/datagov/data/data/datagovdata/ss10pusa.csv","FDRATP","numbers","^\d*$"
"/data/datasets/datagov/data/data/datagovdata/ss10pusa.csv","pwgtp16","numbers","^\d*$"
"/data/datasets/datagov/data/data/datagovdata/ss10pusa.csv","ST","numbers","^\d*$"
"/data/datasets/datagov/data/data/datagovdata/ss10pusa.csv","POBP","numbers","^\d*$"
"/data/datasets/datagov/data/data/datagovdata/ss10pusa.csv","pwgtp33","numbers","^\d*$"
"/data/datasets/datagov/data/data/datagovdata/ss10pusa.csv","HINS2","numbers","^\d*$"
"/data/datasets/datagov/data/data/datagovdata/ss10pusa.csv","FFERP","numbers","^\d*$"
"/data/datasets/datagov/data/data/datagovdata/ss10pusa.csv","FOIP","numbers","^\d*$"
"/data/datasets/datagov/data/data/datagovdata/ss10pusa.csv","FDREMP","numbers","^\d*$"
"/data/datasets/datagov/data/data/datagovdata/ss10pusa.csv","pwgtp74","numbers","^\d*$"
"/data/datasets/datagov/data/data/datagovdata/ss10pusa.csv","pwgtp10","numbers","^\d*$"
"/data/datasets/datagov/data/data/datagovdata/ss10pusa.csv","HINS1","numbers","^\d*$"
"/data/datasets/datagov/data/data/datagovdata/ss10pusa.csv","FPOWSP","numbers","^\d*$"
"/data/datasets/datagov/data/data/datagovdata/ss10pusa.csv","pwgtp50","numbers","^\d*$"
"/data/datasets/datagov/data/data/datagovdata/ss10pusa.csv","MARHD","numbers","^\d*$"
"/data/datasets/datagov/data/data/datagovdata/ss10pusa.csv","FMIGSP","numbers","^\d*$"
"/data/datasets/datagov/data/data/datagovdata/ss10pusa.csv","pwgtp76","numbers","^\d*$"
"/data/datasets/datagov/data/data/datagovdata/ss10pusa.csv","pwgtp69","numbers","^\d*$"
"/data/datasets/datagov/data/data/datagovdata/ss10pusa.csv","DDRS","numbers","^\d*$"
"/data/datasets/datagov/data/data/datagovdata/ss10pusa.csv","HINS7","numbers","^\d*$"
"/data/datasets/datagov/data/data/datagovdata/ss10pusa.csv","pwgtp34","numbers","^\d*$"
"/data/datasets/datagov/data/data/datagovdata/ss10pusa.csv","FANCP","numbers","^\d*$"
"/data/datasets/datagov/data/data/datagovdata/ss10pusa.csv","FJWMNP","numbers","^\d*$"
"/data/datasets/datagov/data/data/datagovdata/ss10pusa.csv","MLPA","numbers","^\d*$"
"/data/datasets/datagov/data/data/datagovdata/ss10pusa.csv","pwgtp9","numbers","^\d*$"
"/data/datasets/datagov/data/data/datagovdata/ss10pusa.csv","HINS6","numbers","^\d*$"
"/data/datasets/datagov/data/data/datagovdata/ss10pusa.csv","FMARHTP","numbers","^\d*$"
"/data/datasets/datagov/data/data/datagovdata/ss10pusa.csv","pwgtp70","numbers","^\d*$"
"/data/datasets/datagov/data/data/datagovdata/ss10pusa.csv","QTRBIR","numbers","^\d*$"
"/data/datasets/datagov/data/data/datagovdata/ss10pusa.csv","pwgtp11","numbers","^\d*$"
"/data/datasets/datagov/data/data/datagovdata/ss10pusa.csv","SCHG","numbers","^\d*$"
"/data/datasets/datagov/data/data/datagovdata/ss10pusa.csv","COW","numbers","^\d*$"
"/data/datasets/datagov/data/data/datagovdata/ss10pusa.csv","RACAIAN","numbers","^\d*$"
"/data/datasets/datagov/data/data/datagovdata/ss10pusa.csv","pwgtp19","numbers","^\d*$"
"/data/datasets/datagov/data/data/datagovdata/ss10pusa.csv","pwgtp73","numbers","^\d*$"
"/data/datasets/datagov/data/data/datagovdata/ss10pusa.csv","MARHT","numbers","^\d*$"
"/data/datasets/datagov/data/data/datagovdata/ss10pusa.csv","MLPC","numbers","^\d*$"
"/data/datasets/datagov/data/data/datagovdata/ss10pusa.csv","FHINS4P","numbers","^\d*$"
"/data/datasets/datagov/data/data/datagovdata/ss10pusa.csv","FHINS6P","numbers","^\d*$"
"/data/datasets/datagov/data/data/datagovdata/ss10pusa.csv","pwgtp79","numbers","^\d*$"
"/data/datasets/datagov/data/data/datagovdata/ss10pusa.csv","GCM","numbers","^\d*$"
"/data/datasets/datagov/data/data/datagovdata/ss10pusa.csv","pwgtp7","numbers","^\d*$"
"/data/datasets/datagov/data/data/datagovdata/ss10pusa.csv","RAC3P","numbers","^\d*$"
"/data/datasets/datagov/data/data/datagovdata/ss10pusa.csv","SSP","numbers","^\d*$"
"/data/datasets/datagov/data/data/datagovdata/ss10pusa.csv","LANX","numbers","^\d*$"
"/data/datasets/datagov/data/data/datagovdata/ss10pusa.csv","pwgtp30","numbers","^\d*$"
"/data/datasets/datagov/data/data/datagovdata/ss10pusa.csv","pwgtp17","numbers","^\d*$"
"/data/datasets/datagov/data/data/datagovdata/ss10pusa.csv","MIG","numbers","^\d*$"
"/data/datasets/datagov/data/data/datagovdata/ss10pusa.csv","pwgtp52","numbers","^\d*$"
"/data/datasets/datagov/data/data/datagovdata/ss10pusa.csv","pwgtp8","numbers","^\d*$"
"/data/datasets/datagov/data/data/datagovdata/ss10pusa.csv","FSCHLP","numbers","^\d*$"
"/data/datasets/datagov/data/data/datagovdata/ss10pusa.csv","pwgtp48","numbers","^\d*$"
"/data/datasets/datagov/data/data/datagovdata/ss10pusa.csv","RACNUM","numbers","^\d*$"
"/data/datasets/datagov/data/data/datagovdata/ss10pusa.csv","ANC2P","numbers","^\d*$"
"/data/datasets/datagov/data/data/datagovdata/ss10pusa.csv","JWDP","numbers","^\d*$"
"/data/datasets/datagov/data/data/datagovdata/ss10pusa.csv","MLPF","numbers","^\d*$"
"/data/datasets/datagov/data/data/datagovdata/ss10pusa.csv","FMARHMP","numbers","^\d*$"
"/data/datasets/datagov/data/data/datagovdata/ss10pusa.csv","MLPB","numbers","^\d*$"
"/data/datasets/datagov/data/data/datagovdata/ss10pusa.csv","SCIENGP","numbers","^\d*$"
"/data/datasets/datagov/data/data/datagovdata/ss10pusa.csv","PRIVCOV","numbers","^\d*$"
"/data/datasets/datagov/data/data/datagovdata/ss10pusa.csv","RETP","numbers","^\d*$"
"/data/datasets/datagov/data/data/datagovdata/ss10pusa.csv","pwgtp43","numbers","^\d*$"
"/data/datasets/datagov/data/data/datagovdata/ss10pusa.csv","GCL","numbers","^\d*$"
"/data/datasets/datagov/data/data/datagovdata/ss10pusa.csv","FHINS4C","numbers","^\d*$"
"/data/datasets/datagov/data/data/datagovdata/ss10pusa.csv","FLANXP","numbers","^\d*$"
"/data/datasets/datagov/data/data/datagovdata/ss10pusa.csv","NWAB","numbers","^\d*$"
"/data/datasets/datagov/data/data/datagovdata/ss10pusa.csv","pwgtp80","numbers","^\d*$"
"/data/datasets/datagov/data/data/datagovdata/ss10pusa.csv","PERNP","numbers","^\d*$"
"/data/datasets/datagov/data/data/datagovdata/ss10pusa.csv","MIL","numbers","^\d*$"
"/data/datasets/datagov/data/data/datagovdata/ss10pusa.csv","pwgtp42","numbers","^\d*$"
"/data/datasets/datagov/data/data/datagovdata/ss10pusa.csv","pwgtp61","numbers","^\d*$"
"/data/datasets/datagov/data/data/datagovdata/ss10pusa.csv","SSIP","numbers","^\d*$"
"/data/datasets/datagov/data/data/datagovdata/ss10pusa.csv","pwgtp58","numbers","^\d*$"
"/data/datasets/datagov/data/data/datagovdata/ss10pusa.csv","FSEMP","numbers","^\d*$"
"/data/datasets/datagov/data/data/datagovdata/ss10pusa.csv","NWLA","numbers","^\d*$"
"/data/datasets/datagov/data/data/datagovdata/ss10pusa.csv","FHINS3C","numbers","^\d*$"
"/data/datasets/datagov/data/data/datagovdata/ss10pusa.csv","WKW","numbers","^\d*$"
"/data/datasets/datagov/data/data/datagovdata/ss10pusa.csv","INTP","numbers","^\d*$"
"/data/datasets/datagov/data/data/datagovdata/ss10pusa.csv","FDDRSP","numbers","^\d*$"
"/data/datasets/datagov/data/data/datagovdata/ss10pusa.csv","ENG","numbers","^\d*$"
"/data/datasets/datagov/data/data/datagovdata/ss10pusa.csv","JWAP","numbers","^\d*$"
"/data/datasets/datagov/data/data/datagovdata/ss10pusa.csv","pwgtp12","numbers","^\d*$"
"/data/datasets/datagov/data/data/datagovdata/ss10pusa.csv","ADJINC","numbers","^\d*$"
"/data/datasets/datagov/data/data/datagovdata/ss10pusa.csv","FMILPP","numbers","^\d*$"
"/data/datasets/datagov/data/data/datagovdata/ss10pusa.csv","FWAGP","numbers","^\d*$"
"/data/datasets/datagov/data/data/datagovdata/ss10pusa.csv","FDPHYP","numbers","^\d*$"
"/data/datasets/datagov/data/data/datagovdata/ss10pusa.csv","WKHP","numbers","^\d*$"
"/data/datasets/datagov/data/data/datagovdata/ss10pusa.csv","SFN","numbers","^\d*$"
"/data/datasets/datagov/data/data/datagovdata/ss10pusa.csv","FHINS7P","numbers","^\d*$"
"/data/datasets/datagov/data/data/datagovdata/ss10pusa.csv","pwgtp29","numbers","^\d*$"
"/data/datasets/datagov/data/data/datagovdata/ss10pusa.csv","pwgtp54","numbers","^\d*$"
"/data/datasets/datagov/data/data/datagovdata/ss10pusa.csv","pwgtp51","numbers","^\d*$"
"/data/datasets/datagov/data/data/datagovdata/ss10pusa.csv","HISP","numbers","^\d*$"
"/data/datasets/datagov/data/data/datagovdata/ss10pusa.csv","HINS5","numbers","^\d*$"
"/data/datasets/datagov/data/data/datagovdata/ss10pusa.csv","pwgtp39","numbers","^\d*$"
"/data/datasets/datagov/data/data/datagovdata/ss10pusa.csv","VPS","numbers","^\d*$"
"/data/datasets/datagov/data/data/datagovdata/ss10pusa.csv","YOEP","numbers","^\d*$"
"/data/datasets/datagov/data/data/datagovdata/ss10pusa.csv","pwgtp71","numbers","^\d*$"
"/data/datasets/datagov/data/data/datagovdata/ss10pusa.csv","pwgtp20","numbers","^\d*$"
"/data/datasets/datagov/data/data/datagovdata/ss10pusa.csv","PINCP","numbers","^\d*$"
"/data/datasets/datagov/data/data/datagovdata/ss10pusa.csv","MLPI","numbers","^\d*$"
"/data/datasets/datagov/data/data/datagovdata/ss10pusa.csv","RACWHT","numbers","^\d*$"
"/data/datasets/datagov/data/data/datagovdata/ss10pusa.csv","OC","numbers","^\d*$"
"/data/datasets/datagov/data/data/datagovdata/ss10pusa.csv","MLPD","numbers","^\d*$"
"/data/datasets/datagov/data/data/datagovdata/ss10pusa.csv","DRIVESP","numbers","^\d*$"
"/data/datasets/datagov/data/data/datagovdata/ss10pusa.csv","PUMA","numbers","^\d*$"
"/data/datasets/datagov/data/data/datagovdata/ss10pusa.csv","DRATX","numbers","^\d*$"
"/data/datasets/datagov/data/data/datagovdata/ss10pusa.csv","FSCHGP","numbers","^\d*$"
"/data/datasets/datagov/data/data/datagovdata/ss10pusa.csv","ESR","numbers","^\d*$"
"/data/datasets/datagov/data/data/datagovdata/ss10pusa.csv","FHISP","numbers","^\d*$"
"/data/datasets/datagov/data/data/datagovdata/ss10pusa.csv","pwgtp44","numbers","^\d*$"
"/data/datasets/datagov/data/data/datagovdata/ss10pusa.csv","FCOWP","numbers","^\d*$"
"/data/datasets/datagov/data/data/datagovdata/ss10pusa.csv","FHINS5C","numbers","^\d*$"
"/data/datasets/datagov/data/data/datagovdata/ss10pusa.csv","pwgtp63","numbers","^\d*$"
"/data/datasets/datagov/data/data/datagovdata/ss10pusa.csv","RACNHPI","numbers","^\d*$"
"/data/datasets/datagov/data/data/datagovdata/ss10pusa.csv","FWRKP","numbers","^\d*$"
"/data/datasets/datagov/data/data/datagovdata/ss10pusa.csv","NWLK","numbers","^\d*$"
"/data/datasets/datagov/data/data/datagovdata/ss10pusa.csv","FWKLP","numbers","^\d*$"
"/data/datasets/datagov/data/data/datagovdata/ss10pusa.csv","PWGTP","numbers","^\d*$"
"/data/datasets/datagov/data/data/datagovdata/ss10pusa.csv","OCCP","numbers","^\d*$"
"/data/datasets/datagov/data/data/datagovdata/ss10pusa.csv","RACASN","numbers","^\d*$"
"/data/datasets/datagov/data/data/datagovdata/ss10pusa.csv","RACSOR","numbers","^\d*$"
"/data/datasets/datagov/data/data/datagovdata/ss10pusa.csv","FRETP","numbers","^\d*$"
"/data/datasets/datagov/data/data/datagovdata/ss10pusa.csv","pwgtp62","numbers","^\d*$"
"/data/datasets/datagov/data/data/datagovdata/ss10pusa.csv","HICOV","numbers","^\d*$"
"/data/datasets/datagov/data/data/datagovdata/ss10pusa.csv","MARHM","numbers","^\d*$"
"/data/datasets/datagov/data/data/datagovdata/ss10pusa.csv","pwgtp3","numbers","^\d*$"
"/data/datasets/datagov/data/data/datagovdata/ss10pusa.csv","JWRIP","numbers","^\d*$"
"/data/datasets/datagov/data/data/datagovdata/ss10pusa.csv","MSP","numbers","^\d*$"
"/data/datasets/datagov/data/data/datagovdata/ss10pusa.csv","FFODP","numbers","^\d*$"
"/data/datasets/datagov/data/data/datagovdata/ss10pusa.csv","SERIALNO","numbers","^\d*$"
"/data/datasets/datagov/data/data/datagovdata/ss10pusa.csv","FER","numbers","^\d*$"
"/data/datasets/datagov/data/data/datagovdata/ss10pusa.csv","FGCRP","numbers","^\d*$"
"/data/datasets/datagov/data/data/datagovdata/ss10pusa.csv","pwgtp49","numbers","^\d*$"
"/data/datasets/datagov/data/data/datagovdata/ss10pusa.csv","WRK","numbers","^\d*$"
"/data/datasets/datagov/data/data/datagovdata/ss10pusa.csv","SPORDER","numbers","^\d*$"
"/data/datasets/datagov/data/data/datagovdata/ss10pusa.csv","DIS","numbers","^\d*$"
"/data/datasets/datagov/data/data/datagovdata/ss10pusa.csv","PUBCOV","numbers","^\d*$"
"/data/datasets/datagov/data/data/datagovdata/ss10pusa.csv","FSSP","numbers","^\d*$"
"/data/datasets/datagov/data/data/datagovdata/ss10pusa.csv","FSEXP","numbers","^\d*$"
"/data/datasets/datagov/data/data/datagovdata/ss10pusa.csv","pwgtp32","numbers","^\d*$"
"/data/datasets/datagov/data/data/datagovdata/ss10pusa.csv","SCIENGRLP","numbers","^\d*$"
"/data/datasets/datagov/data/data/datagovdata/ss10pusa.csv","RC","numbers","^\d*$"
"/data/datasets/datagov/data/data/datagovdata/ss10pusa.csv","MLPK","numbers","^\d*$"
"/data/datasets/datagov/data/data/datagovdata/ss10pusa.csv","pwgtp68","numbers","^\d*$"
"/data/datasets/datagov/data/data/datagovdata/ss10pusa.csv","FINTP","numbers","^\d*$"
"/data/datasets/datagov/data/data/datagovdata/ss10pusa.csv","pwgtp53","numbers","^\d*$"
"/data/datasets/datagov/data/data/datagovdata/ss10pusa.csv","DEYE","numbers","^\d*$"
"/data/datasets/datagov/data/data/datagovdata/ss10pusa.csv","DRAT","numbers","^\d*$"
"/data/datasets/datagov/data/data/datagovdata/ss10pusa.csv","pwgtp38","numbers","^\d*$"
"/data/datasets/datagov/data/data/datagovdata/ss10pusa.csv","INDP","numbers","^\d*$"
"/data/datasets/datagov/data/data/datagovdata/ss10pusa.csv","OIP","numbers","^\d*$"
"/data/datasets/datagov/data/data/datagovdata/ss10pusa.csv","MLPE","numbers","^\d*$"
"/data/datasets/datagov/data/data/datagovdata/ss10pusa.csv","pwgtp55","numbers","^\d*$"
"/data/datasets/datagov/data/data/datagovdata/ss10pusa.csv","FHINS5P","numbers","^\d*$"
"/data/datasets/datagov/data/data/datagovdata/ss10pusa.csv","pwgtp5","numbers","^\d*$"
"/data/datasets/datagov/data/data/datagovdata/ss10pusa.csv","FRELP","numbers","^\d*$"
"/data/datasets/datagov/data/data/datagovdata/ss10pusa.csv","FJWTRP","numbers","^\d*$"
"/data/datasets/datagov/data/data/datagovdata/ss10pusa.csv","MLPJ","numbers","^\d*$"
"/data/datasets/datagov/data/data/datagovdata/ss10pusa.csv","pwgtp25","numbers","^\d*$"
"/data/datasets/datagov/data/data/datagovdata/ss10pusa.csv","DPHY","numbers","^\d*$"
"/data/datasets/datagov/data/data/datagovdata/ss10pusa.csv","FINDP","numbers","^\d*$"
"/data/datasets/datagov/data/data/datagovdata/ss10pusa.csv","MARHYP","numbers","^\d*$"
"/data/datasets/datagov/data/data/datagovdata/ss10pusa.csv","PAP","numbers","^\d*$"
"/data/datasets/datagov/data/data/datagovdata/ss10pusa.csv","FJWRIP","numbers","^\d*$"
"/data/datasets/datagov/data/data/datagovdata/ss10pusa.csv","FMARHWP","numbers","^\d*$"
"/data/datasets/datagov/data/data/datagovdata/ss10pusa.csv","POWPUMA","numbers","^\d*$"
"/data/datasets/datagov/data/data/datagovdata/ss10pusa.csv","pwgtp75","numbers","^\d*$"
"/data/datasets/datagov/data/data/datagovdata/ss10pusa.csv","FMARHYP","numbers","^\d*$"
"/data/datasets/datagov/data/data/datagovdata/ss10pusa.csv","RACBLK","numbers","^\d*$"
"/data/datasets/datagov/data/data/datagovdata/ss10pusa.csv","FWKHP","numbers","^\d*$"
"/data/datasets/datagov/data/data/datagovdata/ss10pusa.csv","NATIVITY","numbers","^\d*$"
"/data/datasets/datagov/data/data/datagovdata/ss10pusa.csv","FMARP","numbers","^\d*$"
"/data/datasets/datagov/data/data/datagovdata/ss10pusa.csv","pwgtp72","numbers","^\d*$"
"/data/datasets/datagov/data/data/datagovdata/ss10pusa.csv","NAICSP","uri",".*?$(?<!\.aspx)"
"/data/datasets/datagov/data/data/datagovdata/ss10pusa.csv","SEX","numbers","^\d*$"
"/data/datasets/datagov/data/data/datagovdata/ss10pusa.csv","pwgtp56","numbers","^\d*$"
"/data/datasets/datagov/data/data/datagovdata/ss10pusa.csv","RAC2P","numbers","^\d*$"
"/data/datasets/datagov/data/data/datagovdata/ss10pusa.csv","pwgtp28","numbers","^\d*$"
"/data/datasets/datagov/data/data/datagovdata/ss10pusa.csv","pwgtp35","numbers","^\d*$"
"/data/datasets/datagov/data/data/datagovdata/ss10pusa.csv","pwgtp67","numbers","^\d*$"
