"file_name","column_name","label","regex"
"/data/datasets/datagov/data/data/datagovdata/LAP_January_2010.csv","var3","numbers","^\d*$"
"/data/datasets/datagov/data/data/datagovdata/LAP_January_2010.csv","var5","numbers","^\d*$"
"/data/datasets/datagov/data/data/datagovdata/LAP_January_2010.csv","var2","uri",".*?$(?<!\.aspx)"
"/data/datasets/datagov/data/data/datagovdata/LAP_January_2010.csv","var4","numbers","^\d*$"
"/data/datasets/datagov/data/data/datagovdata/LAP_January_2010.csv","var1","uri",".*?$(?<!\.aspx)"
