"file_name","column_name","label","regex"
"/data/datasets/datagov/data/data/datagovdata/wdfw-salmonid-stock-inventory-population-escapement-e07d8.csv","Comments","strings","[^""\r\n]*"
"/data/datasets/datagov/data/data/datagovdata/wdfw-salmonid-stock-inventory-population-escapement-e07d8.csv","Population Name","strings","[^""\r\n]*"
"/data/datasets/datagov/data/data/datagovdata/wdfw-salmonid-stock-inventory-population-escapement-e07d8.csv","Calculation Type","uri",".*?$(?<!\.aspx)"
"/data/datasets/datagov/data/data/datagovdata/wdfw-salmonid-stock-inventory-population-escapement-e07d8.csv","Escapement Methodology Description","strings","[^""\r\n]*"
"/data/datasets/datagov/data/data/datagovdata/wdfw-salmonid-stock-inventory-population-escapement-e07d8.csv","Escapement Methodology","strings","[^""\r\n]*"
"/data/datasets/datagov/data/data/datagovdata/wdfw-salmonid-stock-inventory-population-escapement-e07d8.csv","Species","uri",".*?$(?<!\.aspx)"
"/data/datasets/datagov/data/data/datagovdata/wdfw-salmonid-stock-inventory-population-escapement-e07d8.csv","Year","numbers","^(\d|,)*\.?\d*$"
"/data/datasets/datagov/data/data/datagovdata/wdfw-salmonid-stock-inventory-population-escapement-e07d8.csv","Data Type","uri",".*?$(?<!\.aspx)"
"/data/datasets/datagov/data/data/datagovdata/wdfw-salmonid-stock-inventory-population-escapement-e07d8.csv","Sub-Population Name","strings","[^""\r\n]*"
"/data/datasets/datagov/data/data/datagovdata/wdfw-salmonid-stock-inventory-population-escapement-e07d8.csv","Last Updated","strings","[^""\r\n]*"
"/data/datasets/datagov/data/data/datagovdata/wdfw-salmonid-stock-inventory-population-escapement-e07d8.csv","Abundance Quantity","numbers","^(\d|,)*\.?\d*$"
"/data/datasets/datagov/data/data/datagovdata/wdfw-salmonid-stock-inventory-population-escapement-e07d8.csv","Biologist Methodology Description","strings","[^""\r\n]*"
"/data/datasets/datagov/data/data/datagovdata/wdfw-salmonid-stock-inventory-population-escapement-e07d8.csv","Production Type","uri",".*?$(?<!\.aspx)"
"/data/datasets/datagov/data/data/datagovdata/wdfw-salmonid-stock-inventory-population-escapement-e07d8.csv","Stock Number","numbers","^(\d|,)*\.?\d*$"
"/data/datasets/datagov/data/data/datagovdata/wdfw-salmonid-stock-inventory-population-escapement-e07d8.csv","Data Series","numbers","^(\d|,)*\.?\d*$"
