"file_name","column_name","label","regex"
"/data/datasets/datagov/data/data/datagovdata/tgr2006se_eddy_lpy.csv","LANDPOLY","numbers","^\d*$"
"/data/datasets/datagov/data/data/datagovdata/tgr2006se_eddy_lpy.csv","FILEID","numbers","^\d*$"
"/data/datasets/datagov/data/data/datagovdata/tgr2006se_eddy_lpy.csv","LANDNAME","uri",".*?$(?<!\.aspx)"
"/data/datasets/datagov/data/data/datagovdata/tgr2006se_eddy_lpy.csv","COUNTY","numbers","^\d*$"
"/data/datasets/datagov/data/data/datagovdata/tgr2006se_eddy_lpy.csv","CENID","uri",".*?$(?<!\.aspx)"
"/data/datasets/datagov/data/data/datagovdata/tgr2006se_eddy_lpy.csv","GIST_ID","numbers","^\d*$"
"/data/datasets/datagov/data/data/datagovdata/tgr2006se_eddy_lpy.csv","CFCC","uri",".*?$(?<!\.aspx)"
"/data/datasets/datagov/data/data/datagovdata/tgr2006se_eddy_lpy.csv","POLYID","numbers","^\d*$"
