"file_name","column_name","label","regex"
"/data/datasets/datagov/data/data/datagovdata/school-safe-rooms.csv","Historical Data","numbers","^\d*$"
"/data/datasets/datagov/data/data/datagovdata/school-safe-rooms.csv","Target","numbers","^\d*$"
"/data/datasets/datagov/data/data/datagovdata/school-safe-rooms.csv","Years","numbers","^\d*$"
