"file_name","column_name","label","regex"
"/data/datasets/mitdwh/Time_month.csv","Calendar Month Name","uri",".*?$(?<!\.aspx)"
"/data/datasets/mitdwh/Time_month.csv","Start Date","strings","[^""\r\n]*"
"/data/datasets/mitdwh/Time_month.csv","End Date","strings","[^""\r\n]*"
"/data/datasets/mitdwh/Time_month.csv","Financial Aid Year","numbers","^(\d|,)*\.?\d*$"
"/data/datasets/mitdwh/Time_month.csv","Fiscal Period Description","uri",".*?$(?<!\.aspx)"
"/data/datasets/mitdwh/Time_month.csv","Calendar Year","numbers","^(\d|,)*\.?\d*$"
"/data/datasets/mitdwh/Time_month.csv","Is Previous Fiscal Period","uri",".*?$(?<!\.aspx)"
"/data/datasets/mitdwh/Time_month.csv","Time Month Key","numbers","^(\d|,)*\.?\d*$"
"/data/datasets/mitdwh/Time_month.csv","Academic Year","numbers","^(\d|,)*\.?\d*$"
"/data/datasets/mitdwh/Time_month.csv","Is Current Fiscal Period","uri",".*?$(?<!\.aspx)"
"/data/datasets/mitdwh/Time_month.csv","Calendar Period","address_or_phone","(\d{4,6})"
"/data/datasets/mitdwh/Time_month.csv","Academic Term","address_or_phone","(\d{4,6})"
"/data/datasets/mitdwh/Time_month.csv","Fiscal Period Selector","address_or_phone","(\d{4,6})"
"/data/datasets/mitdwh/Time_month.csv","Fiscal Year Quarter","uri",".*?$(?<!\.aspx)"
"/data/datasets/mitdwh/Time_month.csv","Financial Aid Year Desc","uri",".*?$(?<!\.aspx)"
"/data/datasets/mitdwh/Time_month.csv","Fy Quarter Code","uri",".*?$(?<!\.aspx)"
"/data/datasets/mitdwh/Time_month.csv","Fiscal Period","numbers","^(\d|,)*\.?\d*$"
"/data/datasets/mitdwh/Time_month.csv","Calendar Period Description","uri",".*?$(?<!\.aspx)"
"/data/datasets/mitdwh/Time_month.csv","Academic Term Description","uri",".*?$(?<!\.aspx)"
"/data/datasets/mitdwh/Time_month.csv","Is Closing Period","uri",".*?$(?<!\.aspx)"
"/data/datasets/mitdwh/Time_month.csv","Fiscal Year","numbers","^(\d|,)*\.?\d*$"
"/data/datasets/mitdwh/Time_month.csv","Is Current Fiscal Year","uri",".*?$(?<!\.aspx)"
"/data/datasets/mitdwh/Time_month.csv","Calendar Month","numbers","^(\d|,)*\.?\d*$"
