"file_name","column_name","label","regex"
"/data/datasets/datagov/data/data/datagovdata/dcla-programs-funding-for-fy2010-e93d0.csv","Orgname","strings","[^""\r\n]*"
"/data/datasets/datagov/data/data/datagovdata/dcla-programs-funding-for-fy2010-e93d0.csv","Application Number","uri",".*?$(?<!\.aspx)"
"/data/datasets/datagov/data/data/datagovdata/dcla-programs-funding-for-fy2010-e93d0.csv","FY10 Programs $","numbers","^\$?\d+(\.(\d{2}))?$"
