"file_name","column_name","label","regex"
"/data/datasets/datagov/data/data/datagovdata/monthly-recipients-assistance-units-fy98.csv","TFA-Two Parent Recipients","strings","[^""\r\n]*"
"/data/datasets/datagov/data/data/datagovdata/monthly-recipients-assistance-units-fy98.csv","TFA-Regular Cases","strings","[^""\r\n]*"
"/data/datasets/datagov/data/data/datagovdata/monthly-recipients-assistance-units-fy98.csv","State Supplement-Disabled","strings","[^""\r\n]*"
"/data/datasets/datagov/data/data/datagovdata/monthly-recipients-assistance-units-fy98.csv","Town Code","numbers","^(\d|,)*\.?\d*$"
"/data/datasets/datagov/data/data/datagovdata/monthly-recipients-assistance-units-fy98.csv","Total Medicaid Recipients","strings","[^""\r\n]*"
"/data/datasets/datagov/data/data/datagovdata/monthly-recipients-assistance-units-fy98.csv","State Supplement-Total","strings","[^""\r\n]*"
"/data/datasets/datagov/data/data/datagovdata/monthly-recipients-assistance-units-fy98.csv","SNAP Cases","strings","[^""\r\n]*"
"/data/datasets/datagov/data/data/datagovdata/monthly-recipients-assistance-units-fy98.csv","State Supplement-Aged","strings","[^""\r\n]*"
"/data/datasets/datagov/data/data/datagovdata/monthly-recipients-assistance-units-fy98.csv","TFA-Regular Recipients","strings","[^""\r\n]*"
"/data/datasets/datagov/data/data/datagovdata/monthly-recipients-assistance-units-fy98.csv","State Supplement-Blind","strings","[^""\r\n]*"
"/data/datasets/datagov/data/data/datagovdata/monthly-recipients-assistance-units-fy98.csv","TFA-Two Parent Cases","strings","[^""\r\n]*"
"/data/datasets/datagov/data/data/datagovdata/monthly-recipients-assistance-units-fy98.csv","Town Name","strings","[^""\r\n]*"
"/data/datasets/datagov/data/data/datagovdata/monthly-recipients-assistance-units-fy98.csv","Total Medicaid Cases","strings","[^""\r\n]*"
"/data/datasets/datagov/data/data/datagovdata/monthly-recipients-assistance-units-fy98.csv","SNAP Recipients","strings","[^""\r\n]*"
