"file_name","column_name","label","regex"
"/data/datasets/datagov/data/data/datagovdata/idva-grant-payout-data-c8485.csv","Grant Amount","numbers","^\$?\d+(\.(\d{2}))?$"
"/data/datasets/datagov/data/data/datagovdata/idva-grant-payout-data-c8485.csv","Grant Category","uri",".*?$(?<!\.aspx)"
"/data/datasets/datagov/data/data/datagovdata/idva-grant-payout-data-c8485.csv","Organization","strings","[^""\r\n]*"
