"file_name","column_name","label","regex"
"/data/datasets/datagov/data/data/datagovdata/tgr2006se_luna_lka.csv","COUSUBR","numbers","^(\d|,)*\.?\d*$"
"/data/datasets/datagov/data/data/datagovdata/tgr2006se_luna_lka.csv","COUSUBL","numbers","^(\d|,)*\.?\d*$"
"/data/datasets/datagov/data/data/datagovdata/tgr2006se_luna_lka.csv","COUNTYR","numbers","^(\d|,)*\.?\d*$"
"/data/datasets/datagov/data/data/datagovdata/tgr2006se_luna_lka.csv","TOADDL","numbers","^(\d|,)*\.?\d*$"
"/data/datasets/datagov/data/data/datagovdata/tgr2006se_luna_lka.csv","STATER","numbers","^(\d|,)*\.?\d*$"
"/data/datasets/datagov/data/data/datagovdata/tgr2006se_luna_lka.csv","TRACTL","numbers","^(\d|,)*\.?\d*$"
"/data/datasets/datagov/data/data/datagovdata/tgr2006se_luna_lka.csv","FRIADDR","uri",".*?$(?<!\.aspx)"
"/data/datasets/datagov/data/data/datagovdata/tgr2006se_luna_lka.csv","STATEL","numbers","^(\d|,)*\.?\d*$"
"/data/datasets/datagov/data/data/datagovdata/tgr2006se_luna_lka.csv","TRACTR","numbers","^(\d|,)*\.?\d*$"
"/data/datasets/datagov/data/data/datagovdata/tgr2006se_luna_lka.csv","COUNTYL","numbers","^(\d|,)*\.?\d*$"
"/data/datasets/datagov/data/data/datagovdata/tgr2006se_luna_lka.csv","TOIADDR","uri",".*?$(?<!\.aspx)"
"/data/datasets/datagov/data/data/datagovdata/tgr2006se_luna_lka.csv","CFCC","uri",".*?$(?<!\.aspx)"
"/data/datasets/datagov/data/data/datagovdata/tgr2006se_luna_lka.csv","TOIADDL","uri",".*?$(?<!\.aspx)"
"/data/datasets/datagov/data/data/datagovdata/tgr2006se_luna_lka.csv","FRADDR","numbers","^(\d|,)*\.?\d*$"
"/data/datasets/datagov/data/data/datagovdata/tgr2006se_luna_lka.csv","AIHHTLI","numbers","^(\d|,)*\.?\d*$"
"/data/datasets/datagov/data/data/datagovdata/tgr2006se_luna_lka.csv","SOURCE","uri",".*?$(?<!\.aspx)"
"/data/datasets/datagov/data/data/datagovdata/tgr2006se_luna_lka.csv","TLID","numbers","^(\d|,)*\.?\d*$"
"/data/datasets/datagov/data/data/datagovdata/tgr2006se_luna_lka.csv","PLACER","numbers","^(\d|,)*\.?\d*$"
"/data/datasets/datagov/data/data/datagovdata/tgr2006se_luna_lka.csv","BLOCKL","numbers","^(\d|,)*\.?\d*$"
"/data/datasets/datagov/data/data/datagovdata/tgr2006se_luna_lka.csv","ZIPL","numbers","^(\d|,)*\.?\d*$"
"/data/datasets/datagov/data/data/datagovdata/tgr2006se_luna_lka.csv","FETYPE","uri",".*?$(?<!\.aspx)"
"/data/datasets/datagov/data/data/datagovdata/tgr2006se_luna_lka.csv","TNODE","numbers","^(\d|,)*\.?\d*$"
"/data/datasets/datagov/data/data/datagovdata/tgr2006se_luna_lka.csv","FNODE","numbers","^(\d|,)*\.?\d*$"
"/data/datasets/datagov/data/data/datagovdata/tgr2006se_luna_lka.csv","LENGTH","numbers","^(\d|,)*\.?\d*$"
"/data/datasets/datagov/data/data/datagovdata/tgr2006se_luna_lka.csv","FRADDL","numbers","^(\d|,)*\.?\d*$"
"/data/datasets/datagov/data/data/datagovdata/tgr2006se_luna_lka.csv","PLACEL","numbers","^(\d|,)*\.?\d*$"
"/data/datasets/datagov/data/data/datagovdata/tgr2006se_luna_lka.csv","FRIADDL","uri",".*?$(?<!\.aspx)"
"/data/datasets/datagov/data/data/datagovdata/tgr2006se_luna_lka.csv","CFCC2","uri",".*?$(?<!\.aspx)"
"/data/datasets/datagov/data/data/datagovdata/tgr2006se_luna_lka.csv","AIHHTLR","numbers","^(\d|,)*\.?\d*$"
"/data/datasets/datagov/data/data/datagovdata/tgr2006se_luna_lka.csv","FEDIRS","uri",".*?$(?<!\.aspx)"
"/data/datasets/datagov/data/data/datagovdata/tgr2006se_luna_lka.csv","ZIPR","numbers","^(\d|,)*\.?\d*$"
"/data/datasets/datagov/data/data/datagovdata/tgr2006se_luna_lka.csv","BLOCKR","numbers","^(\d|,)*\.?\d*$"
"/data/datasets/datagov/data/data/datagovdata/tgr2006se_luna_lka.csv","CENSUS1","numbers","^(\d|,)*\.?\d*$"
"/data/datasets/datagov/data/data/datagovdata/tgr2006se_luna_lka.csv","CFCC1","uri",".*?$(?<!\.aspx)"
"/data/datasets/datagov/data/data/datagovdata/tgr2006se_luna_lka.csv","FENAME","uri",".*?$(?<!\.aspx)"
"/data/datasets/datagov/data/data/datagovdata/tgr2006se_luna_lka.csv","CENSUS2","numbers","^(\d|,)*\.?\d*$"
"/data/datasets/datagov/data/data/datagovdata/tgr2006se_luna_lka.csv","TOADDR","numbers","^(\d|,)*\.?\d*$"
"/data/datasets/datagov/data/data/datagovdata/tgr2006se_luna_lka.csv","FEDIRP","uri",".*?$(?<!\.aspx)"
