"file_name","column_name","label","regex"
"/data/datasets/datagov/data/data/datagovdata/g20131sc.csv","0000001","numbers","^(\d|,)*\.?\d*$"
"/data/datasets/datagov/data/data/datagovdata/g20131sc.csv","04000US45","uri",".*?$(?<!\.aspx)"
"/data/datasets/datagov/data/data/datagovdata/g20131sc.csv","040","numbers","^(\d|,)*\.?\d*$"
"/data/datasets/datagov/data/data/datagovdata/g20131sc.csv","Unnamed: 26","numbers","^(\d|,)*\.?\d*$"
"/data/datasets/datagov/data/data/datagovdata/g20131sc.csv","Unnamed: 41","numbers","^(\d|,)*\.?\d*$"
"/data/datasets/datagov/data/data/datagovdata/g20131sc.csv","45","numbers","^(\d|,)*\.?\d*$"
"/data/datasets/datagov/data/data/datagovdata/g20131sc.csv","Unnamed: 43","uri",".*?$(?<!\.aspx)"
"/data/datasets/datagov/data/data/datagovdata/g20131sc.csv","ACSSF","uri",".*?$(?<!\.aspx)"
"/data/datasets/datagov/data/data/datagovdata/g20131sc.csv","SC","uri",".*?$(?<!\.aspx)"
"/data/datasets/datagov/data/data/datagovdata/g20131sc.csv","00","uri",".*?$(?<!\.aspx)"
"/data/datasets/datagov/data/data/datagovdata/g20131sc.csv","South Carolina","uri",".*?$(?<!\.aspx)"
"/data/datasets/datagov/data/data/datagovdata/g20131sc.csv","Unnamed: 46","numbers","^(\d|,)*\.?\d*$"
"/data/datasets/datagov/data/data/datagovdata/g20131sc.csv","Unnamed: 22","numbers","^(\d|,)*\.?\d*$"
"/data/datasets/datagov/data/data/datagovdata/g20131sc.csv","Unnamed: 42","uri",".*?$(?<!\.aspx)"
"/data/datasets/datagov/data/data/datagovdata/g20131sc.csv","Unnamed: 12","numbers","^(\d|,)*\.?\d*$"
"/data/datasets/datagov/data/data/datagovdata/g20131sc.csv","Unnamed: 10","numbers","^(\d|,)*\.?\d*$"
"/data/datasets/datagov/data/data/datagovdata/g20131sc.csv","Unnamed: 32","numbers","^(\d|,)*\.?\d*$"
