"file_name","column_name","label","regex"
"/data/datasets/datagov/data/data/datagovdata/report-card-2f-vsat-overall-satisfaction-kauai-by-mma-81f01.csv","Japan","numbers","^(\d|,)*\.?\d*$"
"/data/datasets/datagov/data/data/datagovdata/report-card-2f-vsat-overall-satisfaction-kauai-by-mma-81f01.csv","Year","numbers","^(\d|,)*\.?\d*$"
"/data/datasets/datagov/data/data/datagovdata/report-card-2f-vsat-overall-satisfaction-kauai-by-mma-81f01.csv","U.S.","numbers","^(\d|,)*\.?\d*$"
"/data/datasets/datagov/data/data/datagovdata/report-card-2f-vsat-overall-satisfaction-kauai-by-mma-81f01.csv","Europe","numbers","^(\d|,)*\.?\d*$"
"/data/datasets/datagov/data/data/datagovdata/report-card-2f-vsat-overall-satisfaction-kauai-by-mma-81f01.csv","Oceania","numbers","^(\d|,)*\.?\d*$"
"/data/datasets/datagov/data/data/datagovdata/report-card-2f-vsat-overall-satisfaction-kauai-by-mma-81f01.csv","Canada","numbers","^(\d|,)*\.?\d*$"
