"file_name","column_name","label","regex"
"/data/datasets/datagov/data/data/datagovdata/revolving-funds-march-2012-9f3cc.csv","Agency Number","numbers","^\$?\d+(\.(\d{2}))?$"
"/data/datasets/datagov/data/data/datagovdata/revolving-funds-march-2012-9f3cc.csv","Class Description","uri",".*?$(?<!\.aspx)"
"/data/datasets/datagov/data/data/datagovdata/revolving-funds-march-2012-9f3cc.csv","Total Amount","numbers","^\$?\d+(\.(\d{2}))?$"
"/data/datasets/datagov/data/data/datagovdata/revolving-funds-march-2012-9f3cc.csv","Agency Name","uri",".*?$(?<!\.aspx)"
"/data/datasets/datagov/data/data/datagovdata/revolving-funds-march-2012-9f3cc.csv","Statutory Reference","uri",".*?$(?<!\.aspx)"
"/data/datasets/datagov/data/data/datagovdata/revolving-funds-march-2012-9f3cc.csv","Calendar Year","numbers","^\$?\d+(\.(\d{2}))?$"
"/data/datasets/datagov/data/data/datagovdata/revolving-funds-march-2012-9f3cc.csv","Month","numbers","^\$?\d+(\.(\d{2}))?$"
"/data/datasets/datagov/data/data/datagovdata/revolving-funds-march-2012-9f3cc.csv","Class Field","numbers","^\$?\d+(\.(\d{2}))?$"
