"file_name","column_name","label","regex"
"/data/datasets/datagov/data/data/datagovdata/performance-metrics-chicago-park-district-comptroller-accounts-payable-aging-d00b2.csv","Target","uri","9[0-9]"
"/data/datasets/datagov/data/data/datagovdata/performance-metrics-chicago-park-district-comptroller-accounts-payable-aging-d00b2.csv","Month","uri","9[0-9]"
"/data/datasets/datagov/data/data/datagovdata/performance-metrics-chicago-park-district-comptroller-accounts-payable-aging-d00b2.csv","% of Invoices Paid within Target","numbers","^[-+]?\d+(\.\d+)?|[-+]?\.\d+?$"
