"file_name","column_name","label","regex"
"/data/datasets/datagov/data/data/datagovdata/energy-star-certified-boilers.csv","Model Number","strings","[^""\r\n]*"
"/data/datasets/datagov/data/data/datagovdata/energy-star-certified-boilers.csv","Fuel Type","uri",".*?$(?<!\.aspx)"
"/data/datasets/datagov/data/data/datagovdata/energy-star-certified-boilers.csv","Efficiency (AFUE)","numbers","^\d*$"
"/data/datasets/datagov/data/data/datagovdata/energy-star-certified-boilers.csv","Markets","uri",".*?$(?<!\.aspx)"
"/data/datasets/datagov/data/data/datagovdata/energy-star-certified-boilers.csv","Model Name","strings","[^""\r\n]*"
"/data/datasets/datagov/data/data/datagovdata/energy-star-certified-boilers.csv","Can Integrate Hot Water Heating","uri",".*?$(?<!\.aspx)"
"/data/datasets/datagov/data/data/datagovdata/energy-star-certified-boilers.csv","Date Available On Market","strings","[^""\r\n]*"
"/data/datasets/datagov/data/data/datagovdata/energy-star-certified-boilers.csv","Additional Model Information","strings","[^""\r\n]*"
"/data/datasets/datagov/data/data/datagovdata/energy-star-certified-boilers.csv","ENERGY STAR Unique ID","numbers","^\d*$"
"/data/datasets/datagov/data/data/datagovdata/energy-star-certified-boilers.csv","Product Type","uri",".*?$(?<!\.aspx)"
"/data/datasets/datagov/data/data/datagovdata/energy-star-certified-boilers.csv","Date Certified","strings","[^""\r\n]*"
"/data/datasets/datagov/data/data/datagovdata/energy-star-certified-boilers.csv","ENERGY STAR Partner","strings","[^""\r\n]*"
"/data/datasets/datagov/data/data/datagovdata/energy-star-certified-boilers.csv","Meets ENERGY STAR Most Efficient 2015 Criteria","uri",".*?$(?<!\.aspx)"
"/data/datasets/datagov/data/data/datagovdata/energy-star-certified-boilers.csv","Brand Name","strings","[^""\r\n]*"
"/data/datasets/datagov/data/data/datagovdata/energy-star-certified-boilers.csv","CB Model Identifier","strings","[^""\r\n]*"
