"file_name","column_name","label","regex"
"/data/datasets/datagov/data/data/datagovdata/2014-state-of-oklahoma-personal-property-list.csv","Property Description","strings","[^""\r\n]*"
"/data/datasets/datagov/data/data/datagovdata/2014-state-of-oklahoma-personal-property-list.csv","Property Type","uri",".*?$(?<!\.aspx)"
"/data/datasets/datagov/data/data/datagovdata/2014-state-of-oklahoma-personal-property-list.csv","Property Classification","uri",".*?$(?<!\.aspx)"
"/data/datasets/datagov/data/data/datagovdata/2014-state-of-oklahoma-personal-property-list.csv","State Agency","uri",".*?$(?<!\.aspx)"
"/data/datasets/datagov/data/data/datagovdata/2014-state-of-oklahoma-personal-property-list.csv","Date Property Acquired/ Install Date","strings","[^""\r\n]*"
"/data/datasets/datagov/data/data/datagovdata/2014-state-of-oklahoma-personal-property-list.csv","List Value/ Acquisition Cost","numbers","^\$?\d+(\.(\d{2}))?$"
"/data/datasets/datagov/data/data/datagovdata/2014-state-of-oklahoma-personal-property-list.csv","Property Name","strings","[^""\r\n]*"
"/data/datasets/datagov/data/data/datagovdata/2014-state-of-oklahoma-personal-property-list.csv","Agency Code","numbers","^\$?\d+(\.(\d{2}))?$"
