"file_name","column_name","label","regex"
"/data/datasets/datagov/data/data/datagovdata/contracts-judicial-department-as-of-june-30-2010-c3809.csv","Award Title","strings","[^""\r\n]*"
"/data/datasets/datagov/data/data/datagovdata/contracts-judicial-department-as-of-june-30-2010-c3809.csv","Company Name","strings","[^""\r\n]*"
"/data/datasets/datagov/data/data/datagovdata/contracts-judicial-department-as-of-june-30-2010-c3809.csv","*Award Type","uri",".*?$(?<!\.aspx)"
"/data/datasets/datagov/data/data/datagovdata/contracts-judicial-department-as-of-june-30-2010-c3809.csv","Total Contract Value                              with amendments","numbers","^\$?\d+(\.(\d{2}))?$"
"/data/datasets/datagov/data/data/datagovdata/contracts-judicial-department-as-of-june-30-2010-c3809.csv","Company Address","uri",".*?$(?<!\.aspx)"
"/data/datasets/datagov/data/data/datagovdata/contracts-judicial-department-as-of-june-30-2010-c3809.csv","Original Contract Value","numbers","^\$?\d+(\.(\d{2}))?$"
"/data/datasets/datagov/data/data/datagovdata/contracts-judicial-department-as-of-june-30-2010-c3809.csv","Contract Expiration Date                                                            ","strings","[^""\r\n]*"
"/data/datasets/datagov/data/data/datagovdata/contracts-judicial-department-as-of-june-30-2010-c3809.csv","Award Number","uri",".*?$(?<!\.aspx)"
"/data/datasets/datagov/data/data/datagovdata/contracts-judicial-department-as-of-june-30-2010-c3809.csv","Contract Effective Date                                                              ","strings","[^""\r\n]*"
"/data/datasets/datagov/data/data/datagovdata/contracts-judicial-department-as-of-june-30-2010-c3809.csv","Company Phone","uri",".*?$(?<!\.aspx)"
"/data/datasets/datagov/data/data/datagovdata/contracts-judicial-department-as-of-june-30-2010-c3809.csv","Total Amendment Value","numbers","^\$?\d+(\.(\d{2}))?$"
