"file_name","column_name","label","regex"
"/data/datasets/datagov/data/data/datagovdata/tfencelshp.csv","MINOR4","numbers","^(\d|,)*\.?\d*$"
"/data/datasets/datagov/data/data/datagovdata/tfencelshp.csv","MINOR1","numbers","^(\d|,)*\.?\d*$"
"/data/datasets/datagov/data/data/datagovdata/tfencelshp.csv","MAJOR3","numbers","^(\d|,)*\.?\d*$"
"/data/datasets/datagov/data/data/datagovdata/tfencelshp.csv","ID04_ID","numbers","^(\d|,)*\.?\d*$"
"/data/datasets/datagov/data/data/datagovdata/tfencelshp.csv","MINOR3","numbers","^(\d|,)*\.?\d*$"
"/data/datasets/datagov/data/data/datagovdata/tfencelshp.csv","LPOLY_","numbers","^(\d|,)*\.?\d*$"
"/data/datasets/datagov/data/data/datagovdata/tfencelshp.csv","FNODE_","numbers","^(\d|,)*\.?\d*$"
"/data/datasets/datagov/data/data/datagovdata/tfencelshp.csv","MAJOR5","numbers","^(\d|,)*\.?\d*$"
"/data/datasets/datagov/data/data/datagovdata/tfencelshp.csv","NAME","uri",".*?$(?<!\.aspx)"
"/data/datasets/datagov/data/data/datagovdata/tfencelshp.csv","MINOR5","numbers","^(\d|,)*\.?\d*$"
"/data/datasets/datagov/data/data/datagovdata/tfencelshp.csv","RPOLY_","numbers","^(\d|,)*\.?\d*$"
"/data/datasets/datagov/data/data/datagovdata/tfencelshp.csv","Q100_ID","numbers","^(\d|,)*\.?\d*$"
"/data/datasets/datagov/data/data/datagovdata/tfencelshp.csv","MAJOR4","numbers","^(\d|,)*\.?\d*$"
"/data/datasets/datagov/data/data/datagovdata/tfencelshp.csv","ABBREV","uri",".*?$(?<!\.aspx)"
"/data/datasets/datagov/data/data/datagovdata/tfencelshp.csv","MAJOR2","numbers","^(\d|,)*\.?\d*$"
"/data/datasets/datagov/data/data/datagovdata/tfencelshp.csv","LENGTH","numbers","^(\d|,)*\.?\d*$"
"/data/datasets/datagov/data/data/datagovdata/tfencelshp.csv","NM04_","numbers","^(\d|,)*\.?\d*$"
"/data/datasets/datagov/data/data/datagovdata/tfencelshp.csv","MINOR2","numbers","^(\d|,)*\.?\d*$"
"/data/datasets/datagov/data/data/datagovdata/tfencelshp.csv","MAJOR1","numbers","^(\d|,)*\.?\d*$"
"/data/datasets/datagov/data/data/datagovdata/tfencelshp.csv","AREA","numbers","^(\d|,)*\.?\d*$"
"/data/datasets/datagov/data/data/datagovdata/tfencelshp.csv","TNODE_","numbers","^(\d|,)*\.?\d*$"
"/data/datasets/datagov/data/data/datagovdata/tfencelshp.csv","Q100_","numbers","^(\d|,)*\.?\d*$"
"/data/datasets/datagov/data/data/datagovdata/tfencelshp.csv","NM04_ID","numbers","^(\d|,)*\.?\d*$"
"/data/datasets/datagov/data/data/datagovdata/tfencelshp.csv","ID04_","numbers","^(\d|,)*\.?\d*$"
"/data/datasets/datagov/data/data/datagovdata/tfencelshp.csv","PERIMETER","numbers","^(\d|,)*\.?\d*$"
