"file_name","column_name","label","regex"
"/data/datasets/datagov/data/data/datagovdata/performance-metrics-business-affairs-consumer-protection-retail-food-licenses-4ae67.csv","Target Days to Issue License","numbers","^\d$"
"/data/datasets/datagov/data/data/datagovdata/performance-metrics-business-affairs-consumer-protection-retail-food-licenses-4ae67.csv","Average Days to Issue License","numbers","^\d$"
"/data/datasets/datagov/data/data/datagovdata/performance-metrics-business-affairs-consumer-protection-retail-food-licenses-4ae67.csv","Median Days to Issue License","numbers","^\d$"
"/data/datasets/datagov/data/data/datagovdata/performance-metrics-business-affairs-consumer-protection-retail-food-licenses-4ae67.csv","Weeks Target Was Achieved","numbers","^\d$"
"/data/datasets/datagov/data/data/datagovdata/performance-metrics-business-affairs-consumer-protection-retail-food-licenses-4ae67.csv","Weeks Target Was Not Achieved","numbers","^\d$"
"/data/datasets/datagov/data/data/datagovdata/performance-metrics-business-affairs-consumer-protection-retail-food-licenses-4ae67.csv","Total Licenses Issued","numbers","^\d$"
"/data/datasets/datagov/data/data/datagovdata/performance-metrics-business-affairs-consumer-protection-retail-food-licenses-4ae67.csv","Quarter","uri",".*?$(?<!\.aspx)"
"/data/datasets/datagov/data/data/datagovdata/performance-metrics-business-affairs-consumer-protection-retail-food-licenses-4ae67.csv","Week","uri",".*?$(?<!\.aspx)"
