"file_name","column_name","label","regex"
"/data/datasets/datagov/data/data/datagovdata/graduation-outcomes-citywide-classes-of-2005-2011-ethnicity-98de8.csv","Total Grads Pct of cohort","numbers","(^([0-9]+[.]+[0-9]+)|(0)$)"
"/data/datasets/datagov/data/data/datagovdata/graduation-outcomes-citywide-classes-of-2005-2011-ethnicity-98de8.csv","Total Grads Num","numbers","(^([0-9]+[.]+[0-9]+)|(0)$)"
"/data/datasets/datagov/data/data/datagovdata/graduation-outcomes-citywide-classes-of-2005-2011-ethnicity-98de8.csv","Regents w/o Advanced Num","strings","[^""\r\n]*"
"/data/datasets/datagov/data/data/datagovdata/graduation-outcomes-citywide-classes-of-2005-2011-ethnicity-98de8.csv","Advanced Regents Pct of grads","strings","[^""\r\n]*"
"/data/datasets/datagov/data/data/datagovdata/graduation-outcomes-citywide-classes-of-2005-2011-ethnicity-98de8.csv","Advanced Regents Pct of cohort","strings","[^""\r\n]*"
"/data/datasets/datagov/data/data/datagovdata/graduation-outcomes-citywide-classes-of-2005-2011-ethnicity-98de8.csv","Dropped Out Pct of cohort","numbers","(^([0-9]+[.]+[0-9]+)|(0)$)"
"/data/datasets/datagov/data/data/datagovdata/graduation-outcomes-citywide-classes-of-2005-2011-ethnicity-98de8.csv","Cohort Year","numbers","(^([0-9]+[.]+[0-9]+)|(0)$)"
"/data/datasets/datagov/data/data/datagovdata/graduation-outcomes-citywide-classes-of-2005-2011-ethnicity-98de8.csv","Regents w/o Advanced Pct of grads","strings","[^""\r\n]*"
"/data/datasets/datagov/data/data/datagovdata/graduation-outcomes-citywide-classes-of-2005-2011-ethnicity-98de8.csv","Local Num","numbers","(^([0-9]+[.]+[0-9]+)|(0)$)"
"/data/datasets/datagov/data/data/datagovdata/graduation-outcomes-citywide-classes-of-2005-2011-ethnicity-98de8.csv","Total Cohort Num","numbers","(^([0-9]+[.]+[0-9]+)|(0)$)"
"/data/datasets/datagov/data/data/datagovdata/graduation-outcomes-citywide-classes-of-2005-2011-ethnicity-98de8.csv","Total Regents Pct of cohort","numbers","(^([0-9]+[.]+[0-9]+)|(0)$)"
"/data/datasets/datagov/data/data/datagovdata/graduation-outcomes-citywide-classes-of-2005-2011-ethnicity-98de8.csv","Local Pct of grads","numbers","(^([0-9]+[.]+[0-9]+)|(0)$)"
"/data/datasets/datagov/data/data/datagovdata/graduation-outcomes-citywide-classes-of-2005-2011-ethnicity-98de8.csv","Still Enrolled Num","numbers","(^([0-9]+[.]+[0-9]+)|(0)$)"
"/data/datasets/datagov/data/data/datagovdata/graduation-outcomes-citywide-classes-of-2005-2011-ethnicity-98de8.csv","Total Regents Num","numbers","(^([0-9]+[.]+[0-9]+)|(0)$)"
"/data/datasets/datagov/data/data/datagovdata/graduation-outcomes-citywide-classes-of-2005-2011-ethnicity-98de8.csv","Regents w/o Advanced Pct of cohort","strings","[^""\r\n]*"
"/data/datasets/datagov/data/data/datagovdata/graduation-outcomes-citywide-classes-of-2005-2011-ethnicity-98de8.csv","Local Pct of cohort","numbers","(^([0-9]+[.]+[0-9]+)|(0)$)"
"/data/datasets/datagov/data/data/datagovdata/graduation-outcomes-citywide-classes-of-2005-2011-ethnicity-98de8.csv","Advanced Regents Num","strings","[^""\r\n]*"
"/data/datasets/datagov/data/data/datagovdata/graduation-outcomes-citywide-classes-of-2005-2011-ethnicity-98de8.csv","Cohort Category","uri",".*?$(?<!\.aspx)"
"/data/datasets/datagov/data/data/datagovdata/graduation-outcomes-citywide-classes-of-2005-2011-ethnicity-98de8.csv","Still Enrolled Pct of cohort","numbers","(^([0-9]+[.]+[0-9]+)|(0)$)"
"/data/datasets/datagov/data/data/datagovdata/graduation-outcomes-citywide-classes-of-2005-2011-ethnicity-98de8.csv","Demographic","uri",".*?$(?<!\.aspx)"
"/data/datasets/datagov/data/data/datagovdata/graduation-outcomes-citywide-classes-of-2005-2011-ethnicity-98de8.csv","Total Regents Pct of grads","numbers","(^([0-9]+[.]+[0-9]+)|(0)$)"
"/data/datasets/datagov/data/data/datagovdata/graduation-outcomes-citywide-classes-of-2005-2011-ethnicity-98de8.csv","Dropped Out Num","numbers","(^([0-9]+[.]+[0-9]+)|(0)$)"
