"file_name","column_name","label","regex"
"/data/datasets/datagov/data/data/datagovdata/pet-data-2014-foster-3624d.csv","Animals Fostered","numbers","^\d*$"
"/data/datasets/datagov/data/data/datagovdata/pet-data-2014-foster-3624d.csv","Month","uri",".*?$(?<!\.aspx)"
