"file_name","column_name","label","regex"
"/data/datasets/datagov/data/data/datagovdata/missouri-zip-codes-by-county-city-a85bf.csv","county","uri",".*?$(?<!\.aspx)"
"/data/datasets/datagov/data/data/datagovdata/missouri-zip-codes-by-county-city-a85bf.csv","city","uri",".*?$(?<!\.aspx)"
"/data/datasets/datagov/data/data/datagovdata/missouri-zip-codes-by-county-city-a85bf.csv","zip code","numbers","^\d*$"
