"file_name","column_name","label","regex"
"/data/datasets/datagov/data/data/datagovdata/impaired-driving-death-rate-by-age-and-gender-2012-region-9-san-francisco-10199.csv","All Ages","numbers","^(\d|,)*\.?\d*$"
"/data/datasets/datagov/data/data/datagovdata/impaired-driving-death-rate-by-age-and-gender-2012-region-9-san-francisco-10199.csv","Female","numbers","^(\d|,)*\.?\d*$"
"/data/datasets/datagov/data/data/datagovdata/impaired-driving-death-rate-by-age-and-gender-2012-region-9-san-francisco-10199.csv","Location","uri","^[^\\\/\?\*\""\'\>\<\:\|]*$"
"/data/datasets/datagov/data/data/datagovdata/impaired-driving-death-rate-by-age-and-gender-2012-region-9-san-francisco-10199.csv","Ages 0-20","numbers","^(\d|,)*\.?\d*$"
"/data/datasets/datagov/data/data/datagovdata/impaired-driving-death-rate-by-age-and-gender-2012-region-9-san-francisco-10199.csv","Ages 21-34","numbers","^(\d|,)*\.?\d*$"
"/data/datasets/datagov/data/data/datagovdata/impaired-driving-death-rate-by-age-and-gender-2012-region-9-san-francisco-10199.csv","Ages 35+","numbers","^(\d|,)*\.?\d*$"
"/data/datasets/datagov/data/data/datagovdata/impaired-driving-death-rate-by-age-and-gender-2012-region-9-san-francisco-10199.csv","Male","numbers","^(\d|,)*\.?\d*$"
"/data/datasets/datagov/data/data/datagovdata/impaired-driving-death-rate-by-age-and-gender-2012-region-9-san-francisco-10199.csv","State","uri","^[^\\\/\?\*\""\'\>\<\:\|]*$"
