"file_name","column_name","label","regex"
"/data/datasets/datagov/data/data/datagovdata/most-popular-baby-names-by-sex-and-mothers-ethnic-group-new-york-city-8c742.csv","ETHCTY","uri",".*?$(?<!\.aspx)"
"/data/datasets/datagov/data/data/datagovdata/most-popular-baby-names-by-sex-and-mothers-ethnic-group-new-york-city-8c742.csv","NM","uri",".*?$(?<!\.aspx)"
"/data/datasets/datagov/data/data/datagovdata/most-popular-baby-names-by-sex-and-mothers-ethnic-group-new-york-city-8c742.csv","CNT","numbers","^\d*$"
"/data/datasets/datagov/data/data/datagovdata/most-popular-baby-names-by-sex-and-mothers-ethnic-group-new-york-city-8c742.csv","BRTH_YR","numbers","^\d*$"
"/data/datasets/datagov/data/data/datagovdata/most-popular-baby-names-by-sex-and-mothers-ethnic-group-new-york-city-8c742.csv","RNK","numbers","^\d*$"
"/data/datasets/datagov/data/data/datagovdata/most-popular-baby-names-by-sex-and-mothers-ethnic-group-new-york-city-8c742.csv","GNDR","uri",".*?$(?<!\.aspx)"
