"file_name","column_name","label","regex"
"/data/datasets/datagov/data/data/datagovdata/retirement-insurance-applications-filed-via-the-internet.csv","Field C","uri",".*?$(?<!\.aspx)"
"/data/datasets/datagov/data/data/datagovdata/retirement-insurance-applications-filed-via-the-internet.csv","Field D","uri",".*?$(?<!\.aspx)"
"/data/datasets/datagov/data/data/datagovdata/retirement-insurance-applications-filed-via-the-internet.csv","Field A","strings","[^""\r\n]*"
"/data/datasets/datagov/data/data/datagovdata/retirement-insurance-applications-filed-via-the-internet.csv","Field B","uri",".*?$(?<!\.aspx)"
