"file_name","column_name","label","regex"
"/data/datasets/datagov/data/data/datagovdata/snake-juvenile-abundance-10302012-c11d2.csv","Occupied River Miles","numbers","^(\d|,)*\.?\d*$"
"/data/datasets/datagov/data/data/datagovdata/snake-juvenile-abundance-10302012-c11d2.csv","Population/Stock Number","numbers","^(\d|,)*\.?\d*$"
"/data/datasets/datagov/data/data/datagovdata/snake-juvenile-abundance-10302012-c11d2.csv","Abundance ","numbers","^(\d|,)*\.?\d*$"
"/data/datasets/datagov/data/data/datagovdata/snake-juvenile-abundance-10302012-c11d2.csv","Species","strings","[^""\r\n]*"
"/data/datasets/datagov/data/data/datagovdata/snake-juvenile-abundance-10302012-c11d2.csv","Density","numbers","^(\d|,)*\.?\d*$"
"/data/datasets/datagov/data/data/datagovdata/snake-juvenile-abundance-10302012-c11d2.csv","Migration Year","numbers","^(\d|,)*\.?\d*$"
