"file_name","column_name","label","regex"
"/data/datasets/datagov/data/data/datagovdata/performance-metrics-streets-sanitation-garbage-cart-requests-3b6b7.csv","Total Completed Requests","numbers","^\d$"
"/data/datasets/datagov/data/data/datagovdata/performance-metrics-streets-sanitation-garbage-cart-requests-3b6b7.csv","Average Days to Complete Garbage Cart Request","numbers","^\d$"
"/data/datasets/datagov/data/data/datagovdata/performance-metrics-streets-sanitation-garbage-cart-requests-3b6b7.csv","Week","uri",".*?$(?<!\.aspx)"
"/data/datasets/datagov/data/data/datagovdata/performance-metrics-streets-sanitation-garbage-cart-requests-3b6b7.csv","Target Response Time (Days)","numbers","^\d$"
"/data/datasets/datagov/data/data/datagovdata/performance-metrics-streets-sanitation-garbage-cart-requests-3b6b7.csv","Median Days to Respond to Garbage Cart Request","numbers","^\d$"
