"file_name","column_name","label","regex"
"/data/datasets/datagov/data/data/datagovdata/public-assistance-cases-with-earned-income-beginning-april-2006.csv","SNA Non-MOE Average Gross Earned Income","numbers","^\$?\d+(\.(\d{2}))?$"
"/data/datasets/datagov/data/data/datagovdata/public-assistance-cases-with-earned-income-beginning-april-2006.csv","TANF Average Net Earned Income","numbers","^\$?\d+(\.(\d{2}))?$"
"/data/datasets/datagov/data/data/datagovdata/public-assistance-cases-with-earned-income-beginning-april-2006.csv","District","uri",".*?$(?<!\.aspx)"
"/data/datasets/datagov/data/data/datagovdata/public-assistance-cases-with-earned-income-beginning-april-2006.csv","Year","numbers","^\$?\d+(\.(\d{2}))?$"
"/data/datasets/datagov/data/data/datagovdata/public-assistance-cases-with-earned-income-beginning-april-2006.csv","SNA MOE Average Net Earned Income","numbers","^\$?\d+(\.(\d{2}))?$"
"/data/datasets/datagov/data/data/datagovdata/public-assistance-cases-with-earned-income-beginning-april-2006.csv","SNA MOE Average Gross Earned Income","numbers","^\$?\d+(\.(\d{2}))?$"
"/data/datasets/datagov/data/data/datagovdata/public-assistance-cases-with-earned-income-beginning-april-2006.csv","SNA MOE Cases with Earned Income","numbers","^\$?\d+(\.(\d{2}))?$"
"/data/datasets/datagov/data/data/datagovdata/public-assistance-cases-with-earned-income-beginning-april-2006.csv","TANF Average Gross Earned Income","numbers","^\$?\d+(\.(\d{2}))?$"
"/data/datasets/datagov/data/data/datagovdata/public-assistance-cases-with-earned-income-beginning-april-2006.csv","SNA Non-MOE Average Net Earned Income","numbers","^\$?\d+(\.(\d{2}))?$"
"/data/datasets/datagov/data/data/datagovdata/public-assistance-cases-with-earned-income-beginning-april-2006.csv","Month Code","numbers","^\$?\d+(\.(\d{2}))?$"
"/data/datasets/datagov/data/data/datagovdata/public-assistance-cases-with-earned-income-beginning-april-2006.csv","Month","uri",".*?$(?<!\.aspx)"
"/data/datasets/datagov/data/data/datagovdata/public-assistance-cases-with-earned-income-beginning-april-2006.csv","SNA Non-MOE Cases with Earned Income","numbers","^\$?\d+(\.(\d{2}))?$"
"/data/datasets/datagov/data/data/datagovdata/public-assistance-cases-with-earned-income-beginning-april-2006.csv","TANF Cases with Earned Income","numbers","^\$?\d+(\.(\d{2}))?$"
"/data/datasets/datagov/data/data/datagovdata/public-assistance-cases-with-earned-income-beginning-april-2006.csv","District Code","numbers","^\$?\d+(\.(\d{2}))?$"
