"file_name","column_name","label","regex"
"/data/datasets/datagov/data/data/datagovdata/lobbyist-data-expenditures-small.csv","CLIENT_ID","numbers","^\d*$"
"/data/datasets/datagov/data/data/datagovdata/lobbyist-data-expenditures-small.csv","LOBBYIST_LAST_NAME","uri",".*?$(?<!\.aspx)"
"/data/datasets/datagov/data/data/datagovdata/lobbyist-data-expenditures-small.csv","TOTAL_EXPENSES","numbers","^\d*$"
"/data/datasets/datagov/data/data/datagovdata/lobbyist-data-expenditures-small.csv","LOBBYIST_ID","numbers","^\d*$"
"/data/datasets/datagov/data/data/datagovdata/lobbyist-data-expenditures-small.csv","CLIENT_NAME","strings","[^""\r\n]*"
"/data/datasets/datagov/data/data/datagovdata/lobbyist-data-expenditures-small.csv","COMPENSATION_ID","numbers","^\d*$"
"/data/datasets/datagov/data/data/datagovdata/lobbyist-data-expenditures-small.csv","PERSONAL_SUSTENANCE_EXPENSE","numbers","^\d*$"
"/data/datasets/datagov/data/data/datagovdata/lobbyist-data-expenditures-small.csv","LOBBYIST_FIRST_NAME","uri",".*?$(?<!\.aspx)"
"/data/datasets/datagov/data/data/datagovdata/lobbyist-data-expenditures-small.csv","COMPENSATION_TO_OTHERS_EXPENSE","numbers","^\d*$"
"/data/datasets/datagov/data/data/datagovdata/lobbyist-data-expenditures-small.csv","PERIOD_END","strings","[^""\r\n]*"
"/data/datasets/datagov/data/data/datagovdata/lobbyist-data-expenditures-small.csv","PERIOD_START","strings","[^""\r\n]*"
"/data/datasets/datagov/data/data/datagovdata/lobbyist-data-expenditures-small.csv","OFFICE_EXPENSE","numbers","^\d*$"
"/data/datasets/datagov/data/data/datagovdata/lobbyist-data-expenditures-small.csv","OTHER_EXPENSES","numbers","^\d*$"
"/data/datasets/datagov/data/data/datagovdata/lobbyist-data-expenditures-small.csv","PUBLIC_EDUCATION_EXPENSE","numbers","^\d*$"
"/data/datasets/datagov/data/data/datagovdata/lobbyist-data-expenditures-small.csv","CREATED_DATE","strings","[^""\r\n]*"
"/data/datasets/datagov/data/data/datagovdata/lobbyist-data-expenditures-small.csv","LOBBYIST_MIDDLE_INITIAL","uri",".*?$(?<!\.aspx)"
