"file_name","column_name","label","regex"
"/data/datasets/datagov/data/data/datagovdata/performance-metrics-streets-sanitation-tree-debris-fea94.csv","Median Days to Repond to Tree Debris Removal Request","numbers","^\d$"
"/data/datasets/datagov/data/data/datagovdata/performance-metrics-streets-sanitation-tree-debris-fea94.csv","Average Days to Complete Tree Debris Requests","numbers","^\d$"
"/data/datasets/datagov/data/data/datagovdata/performance-metrics-streets-sanitation-tree-debris-fea94.csv","Total Completed Requests","numbers","^\d$"
"/data/datasets/datagov/data/data/datagovdata/performance-metrics-streets-sanitation-tree-debris-fea94.csv","Week","uri",".*?$(?<!\.aspx)"
"/data/datasets/datagov/data/data/datagovdata/performance-metrics-streets-sanitation-tree-debris-fea94.csv","Target Response Time (Days)","numbers","^\d$"
