"file_name","column_name","label","regex"
"/data/datasets/datagov/data/data/datagovdata/idph-modular-dwellings-48de4.csv","Address","uri",".*?$(?<!\.aspx)"
"/data/datasets/datagov/data/data/datagovdata/idph-modular-dwellings-48de4.csv","Phone Number","strings","[^""\r\n]*"
"/data/datasets/datagov/data/data/datagovdata/idph-modular-dwellings-48de4.csv","Zip","numbers","^\d*$"
"/data/datasets/datagov/data/data/datagovdata/idph-modular-dwellings-48de4.csv","Status","uri",".*?$(?<!\.aspx)"
"/data/datasets/datagov/data/data/datagovdata/idph-modular-dwellings-48de4.csv","City","uri",".*?$(?<!\.aspx)"
"/data/datasets/datagov/data/data/datagovdata/idph-modular-dwellings-48de4.csv","Name of Manufacturer","strings","[^""\r\n]*"
"/data/datasets/datagov/data/data/datagovdata/idph-modular-dwellings-48de4.csv","State","uri",".*?$(?<!\.aspx)"
