"file_name","column_name","label","regex"
"/data/datasets/datagov/data/data/datagovdata/adoption-child-custody-advocacy-adoptive-adoption-investigation-data-2008-9a4f5.csv","Efficiencies","numbers","^\d$"
"/data/datasets/datagov/data/data/datagovdata/adoption-child-custody-advocacy-adoptive-adoption-investigation-data-2008-9a4f5.csv","Inputs","numbers","^\d$"
"/data/datasets/datagov/data/data/datagovdata/adoption-child-custody-advocacy-adoptive-adoption-investigation-data-2008-9a4f5.csv","Outcomes","numbers","^\d$"
"/data/datasets/datagov/data/data/datagovdata/adoption-child-custody-advocacy-adoptive-adoption-investigation-data-2008-9a4f5.csv","Output Workloads","numbers","^\d$"
"/data/datasets/datagov/data/data/datagovdata/adoption-child-custody-advocacy-adoptive-adoption-investigation-data-2008-9a4f5.csv","Effectiveness","numbers","^\d$"
"/data/datasets/datagov/data/data/datagovdata/adoption-child-custody-advocacy-adoptive-adoption-investigation-data-2008-9a4f5.csv","Month","uri",".*?$(?<!\.aspx)"
"/data/datasets/datagov/data/data/datagovdata/adoption-child-custody-advocacy-adoptive-adoption-investigation-data-2008-9a4f5.csv","Output Demands","numbers","^\d$"
