"file_name","column_name","label","regex"
"/data/datasets/datagov/data/data/datagovdata/comparison-of-actual-earnings-to-estimated-earnings-fiscal-year-to-date-june-30-2011.csv","Revenues (Actual)","numbers","^\$?\d+(\.(\d{2}))?$"
"/data/datasets/datagov/data/data/datagovdata/comparison-of-actual-earnings-to-estimated-earnings-fiscal-year-to-date-june-30-2011.csv","Percent","uri",".*?$(?<!\.aspx)"
"/data/datasets/datagov/data/data/datagovdata/comparison-of-actual-earnings-to-estimated-earnings-fiscal-year-to-date-june-30-2011.csv","Variance","uri",".*?$(?<!\.aspx)"
"/data/datasets/datagov/data/data/datagovdata/comparison-of-actual-earnings-to-estimated-earnings-fiscal-year-to-date-june-30-2011.csv","Revenues (Estimate)","numbers","^\$?\d+(\.(\d{2}))?$"
"/data/datasets/datagov/data/data/datagovdata/comparison-of-actual-earnings-to-estimated-earnings-fiscal-year-to-date-june-30-2011.csv","Type","uri",".*?$(?<!\.aspx)"
