"file_name","column_name","label","regex"
"/data/datasets/datagov/data/data/datagovdata/business-license-data-91f63.csv","LIC CODE","numbers","^(\d|,)*\.?\d*$"
"/data/datasets/datagov/data/data/datagovdata/business-license-data-91f63.csv","Location 1","uri","^[^\\\/\?\*\""\'\>\<\:\|]*$"
"/data/datasets/datagov/data/data/datagovdata/business-license-data-91f63.csv","NAME","strings","[^""\r\n]*"
"/data/datasets/datagov/data/data/datagovdata/business-license-data-91f63.csv","BUSINESS ADDR","strings","[^""\r\n]*"
"/data/datasets/datagov/data/data/datagovdata/business-license-data-91f63.csv","LIC DESCR","strings","[^""\r\n]*"
"/data/datasets/datagov/data/data/datagovdata/business-license-data-91f63.csv","CUST NO","numbers","^(\d|,)*\.?\d*$"
