"file_name","column_name","label","regex"
"/data/datasets/datagov/data/data/datagovdata/dop-adult-supervision-intakes-by-calendar-year-21edc.csv","Borough","uri",".*?$(?<!\.aspx)"
"/data/datasets/datagov/data/data/datagovdata/dop-adult-supervision-intakes-by-calendar-year-21edc.csv","Calendar Year","numbers","^\d*$"
"/data/datasets/datagov/data/data/datagovdata/dop-adult-supervision-intakes-by-calendar-year-21edc.csv","Client Total","numbers","^\d*$"
