"file_name","column_name","label","regex"
"/data/datasets/datagov/data/data/datagovdata/oklahoma-lottery-commission-retailer-ranking-from-july-1-2010-june-30-2011-a8a40.csv","MSR","numbers","^\$?\d+(\.(\d{2}))?$"
"/data/datasets/datagov/data/data/datagovdata/oklahoma-lottery-commission-retailer-ranking-from-july-1-2010-june-30-2011-a8a40.csv","Weeks Active","numbers","^\$?\d+(\.(\d{2}))?$"
"/data/datasets/datagov/data/data/datagovdata/oklahoma-lottery-commission-retailer-ranking-from-july-1-2010-june-30-2011-a8a40.csv","Phone","uri",".*?$(?<!\.aspx)"
"/data/datasets/datagov/data/data/datagovdata/oklahoma-lottery-commission-retailer-ranking-from-july-1-2010-june-30-2011-a8a40.csv","Online Sales Amt","numbers","^\$?\d+(\.(\d{2}))?$"
"/data/datasets/datagov/data/data/datagovdata/oklahoma-lottery-commission-retailer-ranking-from-july-1-2010-june-30-2011-a8a40.csv","Rank","numbers","^\$?\d+(\.(\d{2}))?$"
"/data/datasets/datagov/data/data/datagovdata/oklahoma-lottery-commission-retailer-ranking-from-july-1-2010-june-30-2011-a8a40.csv","Terminal Type","uri",".*?$(?<!\.aspx)"
"/data/datasets/datagov/data/data/datagovdata/oklahoma-lottery-commission-retailer-ranking-from-july-1-2010-june-30-2011-a8a40.csv","Name","uri",".*?$(?<!\.aspx)"
"/data/datasets/datagov/data/data/datagovdata/oklahoma-lottery-commission-retailer-ranking-from-july-1-2010-june-30-2011-a8a40.csv","City","uri",".*?$(?<!\.aspx)"
"/data/datasets/datagov/data/data/datagovdata/oklahoma-lottery-commission-retailer-ranking-from-july-1-2010-june-30-2011-a8a40.csv","Total Sales Amt","numbers","^\$?\d+(\.(\d{2}))?$"
"/data/datasets/datagov/data/data/datagovdata/oklahoma-lottery-commission-retailer-ranking-from-july-1-2010-june-30-2011-a8a40.csv","Instant Sales Amt","numbers","^\$?\d+(\.(\d{2}))?$"
"/data/datasets/datagov/data/data/datagovdata/oklahoma-lottery-commission-retailer-ranking-from-july-1-2010-june-30-2011-a8a40.csv","Retailer","numbers","^\$?\d+(\.(\d{2}))?$"
