"file_name","column_name","label","regex"
"/data/datasets/datagov/data/data/datagovdata/csc-seattle-f5e57.csv","Location","uri","^[^\\\/\?\*\""\'\>\<\:\|]*$"
"/data/datasets/datagov/data/data/datagovdata/csc-seattle-f5e57.csv","Name","uri","^[^\\\/\?\*\""\'\>\<\:\|]*$"
"/data/datasets/datagov/data/data/datagovdata/csc-seattle-f5e57.csv","Hours","strings","[^""\r\n]*"
