"file_name","column_name","label","regex"
"/data/datasets/mitdwh/Academic_term_parameter.csv","Is Current Term","uri",".*?$(?<!\.aspx)"
"/data/datasets/mitdwh/Academic_term_parameter.csv","Term Start Date","strings","[^""\r\n]*"
"/data/datasets/mitdwh/Academic_term_parameter.csv","Term Last Day Before Next Term","strings","[^""\r\n]*"
"/data/datasets/mitdwh/Academic_term_parameter.csv","Term Code","address_or_phone","(\d{4,6})"
"/data/datasets/mitdwh/Academic_term_parameter.csv","Term Parameter","uri",".*?$(?<!\.aspx)"
"/data/datasets/mitdwh/Academic_term_parameter.csv","Term End Date","strings","[^""\r\n]*"
"/data/datasets/mitdwh/Academic_term_parameter.csv","Term Description","uri",".*?$(?<!\.aspx)"
"/data/datasets/mitdwh/Academic_term_parameter.csv","Term Indicator","uri",".*?$(?<!\.aspx)"
