"file_name","column_name","label","regex"
"/data/datasets/datagov/data/data/datagovdata/concrete-hardware-weekly-repair-schedule-be31f.csv","Borough","uri",".*?$(?<!\.aspx)"
"/data/datasets/datagov/data/data/datagovdata/concrete-hardware-weekly-repair-schedule-be31f.csv","Day & Date","strings","[^""\r\n]*"
"/data/datasets/datagov/data/data/datagovdata/concrete-hardware-weekly-repair-schedule-be31f.csv","Location","strings","[^""\r\n]*"
"/data/datasets/datagov/data/data/datagovdata/concrete-hardware-weekly-repair-schedule-be31f.csv","Details","uri",".*?$(?<!\.aspx)"
