"file_name","column_name","label","regex"
"/data/datasets/datagov/data/data/datagovdata/maryland-per-capita-personal-income-projections-in-constant-2009-dollars-1970-2040-d3d84.csv","Date created","strings","[^""\r\n]*"
"/data/datasets/datagov/data/data/datagovdata/maryland-per-capita-personal-income-projections-in-constant-2009-dollars-1970-2040-d3d84.csv","Carroll County","numbers","^\$?\d+(\.(\d{2}))?$"
"/data/datasets/datagov/data/data/datagovdata/maryland-per-capita-personal-income-projections-in-constant-2009-dollars-1970-2040-d3d84.csv","Garrett County","numbers","^\$?\d+(\.(\d{2}))?$"
"/data/datasets/datagov/data/data/datagovdata/maryland-per-capita-personal-income-projections-in-constant-2009-dollars-1970-2040-d3d84.csv","Cecil County","numbers","^\$?\d+(\.(\d{2}))?$"
"/data/datasets/datagov/data/data/datagovdata/maryland-per-capita-personal-income-projections-in-constant-2009-dollars-1970-2040-d3d84.csv","Kent County","numbers","^\$?\d+(\.(\d{2}))?$"
"/data/datasets/datagov/data/data/datagovdata/maryland-per-capita-personal-income-projections-in-constant-2009-dollars-1970-2040-d3d84.csv","MARYLAND","numbers","^\$?\d+(\.(\d{2}))?$"
"/data/datasets/datagov/data/data/datagovdata/maryland-per-capita-personal-income-projections-in-constant-2009-dollars-1970-2040-d3d84.csv","St. Mary's County","numbers","^\$?\d+(\.(\d{2}))?$"
"/data/datasets/datagov/data/data/datagovdata/maryland-per-capita-personal-income-projections-in-constant-2009-dollars-1970-2040-d3d84.csv","Washington County","numbers","^\$?\d+(\.(\d{2}))?$"
"/data/datasets/datagov/data/data/datagovdata/maryland-per-capita-personal-income-projections-in-constant-2009-dollars-1970-2040-d3d84.csv","Anne Arundel County","numbers","^\$?\d+(\.(\d{2}))?$"
"/data/datasets/datagov/data/data/datagovdata/maryland-per-capita-personal-income-projections-in-constant-2009-dollars-1970-2040-d3d84.csv","Baltimore City","numbers","^\$?\d+(\.(\d{2}))?$"
"/data/datasets/datagov/data/data/datagovdata/maryland-per-capita-personal-income-projections-in-constant-2009-dollars-1970-2040-d3d84.csv","Caroline County","numbers","^\$?\d+(\.(\d{2}))?$"
"/data/datasets/datagov/data/data/datagovdata/maryland-per-capita-personal-income-projections-in-constant-2009-dollars-1970-2040-d3d84.csv","Prince George's County","numbers","^\$?\d+(\.(\d{2}))?$"
"/data/datasets/datagov/data/data/datagovdata/maryland-per-capita-personal-income-projections-in-constant-2009-dollars-1970-2040-d3d84.csv","Calvert County","numbers","^\$?\d+(\.(\d{2}))?$"
"/data/datasets/datagov/data/data/datagovdata/maryland-per-capita-personal-income-projections-in-constant-2009-dollars-1970-2040-d3d84.csv","Somerset County","numbers","^\$?\d+(\.(\d{2}))?$"
"/data/datasets/datagov/data/data/datagovdata/maryland-per-capita-personal-income-projections-in-constant-2009-dollars-1970-2040-d3d84.csv","Allegany County","numbers","^\$?\d+(\.(\d{2}))?$"
"/data/datasets/datagov/data/data/datagovdata/maryland-per-capita-personal-income-projections-in-constant-2009-dollars-1970-2040-d3d84.csv","Montgomery County","numbers","^\$?\d+(\.(\d{2}))?$"
"/data/datasets/datagov/data/data/datagovdata/maryland-per-capita-personal-income-projections-in-constant-2009-dollars-1970-2040-d3d84.csv","Dorchester County","numbers","^\$?\d+(\.(\d{2}))?$"
"/data/datasets/datagov/data/data/datagovdata/maryland-per-capita-personal-income-projections-in-constant-2009-dollars-1970-2040-d3d84.csv","Queen Anne's County","numbers","^\$?\d+(\.(\d{2}))?$"
"/data/datasets/datagov/data/data/datagovdata/maryland-per-capita-personal-income-projections-in-constant-2009-dollars-1970-2040-d3d84.csv","Frederick County","numbers","^\$?\d+(\.(\d{2}))?$"
"/data/datasets/datagov/data/data/datagovdata/maryland-per-capita-personal-income-projections-in-constant-2009-dollars-1970-2040-d3d84.csv","Talbot County","numbers","^\$?\d+(\.(\d{2}))?$"
"/data/datasets/datagov/data/data/datagovdata/maryland-per-capita-personal-income-projections-in-constant-2009-dollars-1970-2040-d3d84.csv","Wicomico County","numbers","^\$?\d+(\.(\d{2}))?$"
"/data/datasets/datagov/data/data/datagovdata/maryland-per-capita-personal-income-projections-in-constant-2009-dollars-1970-2040-d3d84.csv","Harford County","numbers","^\$?\d+(\.(\d{2}))?$"
"/data/datasets/datagov/data/data/datagovdata/maryland-per-capita-personal-income-projections-in-constant-2009-dollars-1970-2040-d3d84.csv","Worcester County","numbers","^\$?\d+(\.(\d{2}))?$"
"/data/datasets/datagov/data/data/datagovdata/maryland-per-capita-personal-income-projections-in-constant-2009-dollars-1970-2040-d3d84.csv","Charles County","numbers","^\$?\d+(\.(\d{2}))?$"
"/data/datasets/datagov/data/data/datagovdata/maryland-per-capita-personal-income-projections-in-constant-2009-dollars-1970-2040-d3d84.csv","Year","numbers","^\$?\d+(\.(\d{2}))?$"
"/data/datasets/datagov/data/data/datagovdata/maryland-per-capita-personal-income-projections-in-constant-2009-dollars-1970-2040-d3d84.csv","Howard County","numbers","^\$?\d+(\.(\d{2}))?$"
"/data/datasets/datagov/data/data/datagovdata/maryland-per-capita-personal-income-projections-in-constant-2009-dollars-1970-2040-d3d84.csv","Baltimore County","numbers","^\$?\d+(\.(\d{2}))?$"
