"file_name","column_name","label","regex"
"/data/datasets/datagov/data/data/datagovdata/social-security-administration-quarterly-data-for-asian-pacific-islander-language-preferen.csv","Data for Asian & Pacific Islander Spoken Language Preferences among Initial Claims - End Stage Renal Disease (ESRD)","uri",".*?$(?<!\.aspx)"
"/data/datasets/datagov/data/data/datagovdata/social-security-administration-quarterly-data-for-asian-pacific-islander-language-preferen.csv","Unnamed: 2","uri",".*?$(?<!\.aspx)"
"/data/datasets/datagov/data/data/datagovdata/social-security-administration-quarterly-data-for-asian-pacific-islander-language-preferen.csv","Unnamed: 6","uri",".*?$(?<!\.aspx)"
"/data/datasets/datagov/data/data/datagovdata/social-security-administration-quarterly-data-for-asian-pacific-islander-language-preferen.csv","Unnamed: 1","uri",".*?$(?<!\.aspx)"
"/data/datasets/datagov/data/data/datagovdata/social-security-administration-quarterly-data-for-asian-pacific-islander-language-preferen.csv","Unnamed: 4","uri",".*?$(?<!\.aspx)"
"/data/datasets/datagov/data/data/datagovdata/social-security-administration-quarterly-data-for-asian-pacific-islander-language-preferen.csv","Unnamed: 3","uri",".*?$(?<!\.aspx)"
"/data/datasets/datagov/data/data/datagovdata/social-security-administration-quarterly-data-for-asian-pacific-islander-language-preferen.csv","Unnamed: 5","uri",".*?$(?<!\.aspx)"
"/data/datasets/datagov/data/data/datagovdata/social-security-administration-quarterly-data-for-asian-pacific-islander-language-preferen.csv","Unnamed: 8","uri",".*?$(?<!\.aspx)"
"/data/datasets/datagov/data/data/datagovdata/social-security-administration-quarterly-data-for-asian-pacific-islander-language-preferen.csv","Unnamed: 7","uri",".*?$(?<!\.aspx)"
