"file_name","column_name","label","regex"
"/data/datasets/datagov/data/data/datagovdata/number-of-employments-employed-by-qhtbs-by-employment-status.csv","Full Time","numbers","^\d*$"
"/data/datasets/datagov/data/data/datagovdata/number-of-employments-employed-by-qhtbs-by-employment-status.csv","Temporary/Seasonal","numbers","^\d*$"
"/data/datasets/datagov/data/data/datagovdata/number-of-employments-employed-by-qhtbs-by-employment-status.csv","Effective Date","strings","[^""\r\n]*"
"/data/datasets/datagov/data/data/datagovdata/number-of-employments-employed-by-qhtbs-by-employment-status.csv","Part Time","numbers","^\d*$"
"/data/datasets/datagov/data/data/datagovdata/number-of-employments-employed-by-qhtbs-by-employment-status.csv","Total Employees","numbers","^\d*$"
"/data/datasets/datagov/data/data/datagovdata/number-of-employments-employed-by-qhtbs-by-employment-status.csv","Industry","uri",".*?$(?<!\.aspx)"
