"file_name","column_name","label","regex"
"/data/datasets/datagov/data/data/datagovdata/online-state-license-applications.csv","Historical Data","numbers","(^([0-9]+[.]+[0-9]+)|(0)$)"
"/data/datasets/datagov/data/data/datagovdata/online-state-license-applications.csv","Target","numbers","(^([0-9]+[.]+[0-9]+)|(0)$)"
"/data/datasets/datagov/data/data/datagovdata/online-state-license-applications.csv","Years","numbers","(^([0-9]+[.]+[0-9]+)|(0)$)"
