"file_name","column_name","label","regex"
"/data/datasets/datagov/data/data/datagovdata/fdny-vital-statistics-db36e.csv","Vital Statistic Name","strings","[^""\r\n]*"
"/data/datasets/datagov/data/data/datagovdata/fdny-vital-statistics-db36e.csv","Year","numbers","^\d*$"
"/data/datasets/datagov/data/data/datagovdata/fdny-vital-statistics-db36e.csv","Vital Statist Unit of Measure","strings","[^""\r\n]*"
"/data/datasets/datagov/data/data/datagovdata/fdny-vital-statistics-db36e.csv","Vtail Statistic Value","strings","[^""\r\n]*"
