"file_name","column_name","label","regex"
"/data/datasets/datagov/data/data/datagovdata/tenure-of-officers-against-whom-allegations-were-substantiated-2005-2009-9758f.csv","2007","uri",".*?$(?<!\.aspx)"
"/data/datasets/datagov/data/data/datagovdata/tenure-of-officers-against-whom-allegations-were-substantiated-2005-2009-9758f.csv","Tenure","uri",".*?$(?<!\.aspx)"
"/data/datasets/datagov/data/data/datagovdata/tenure-of-officers-against-whom-allegations-were-substantiated-2005-2009-9758f.csv","2008","uri",".*?$(?<!\.aspx)"
"/data/datasets/datagov/data/data/datagovdata/tenure-of-officers-against-whom-allegations-were-substantiated-2005-2009-9758f.csv","2009","uri",".*?$(?<!\.aspx)"
"/data/datasets/datagov/data/data/datagovdata/tenure-of-officers-against-whom-allegations-were-substantiated-2005-2009-9758f.csv","2005","uri",".*?$(?<!\.aspx)"
"/data/datasets/datagov/data/data/datagovdata/tenure-of-officers-against-whom-allegations-were-substantiated-2005-2009-9758f.csv","2006","uri",".*?$(?<!\.aspx)"
