"file_name","column_name","label","regex"
"/data/datasets/datagov/data/data/datagovdata/tgr2006se_rioa_urbcu.csv","COUNTY","numbers","^\d$"
"/data/datasets/datagov/data/data/datagovdata/tgr2006se_rioa_urbcu.csv","NAME","uri",".*?$(?<!\.aspx)"
"/data/datasets/datagov/data/data/datagovdata/tgr2006se_rioa_urbcu.csv","GIST_ID","numbers","^\d$"
"/data/datasets/datagov/data/data/datagovdata/tgr2006se_rioa_urbcu.csv","UACODE","numbers","^\d$"
"/data/datasets/datagov/data/data/datagovdata/tgr2006se_rioa_urbcu.csv","LSADC","numbers","^\d$"
"/data/datasets/datagov/data/data/datagovdata/tgr2006se_rioa_urbcu.csv","ENTITY","uri",".*?$(?<!\.aspx)"
"/data/datasets/datagov/data/data/datagovdata/tgr2006se_rioa_urbcu.csv","PLACEDC","numbers","^\d$"
