"file_name","column_name","label","regex"
"/data/datasets/datagov/data/data/datagovdata/power-generation-for-ladwp-48256.csv","Plant Name","uri",".*?$(?<!\.aspx)"
"/data/datasets/datagov/data/data/datagovdata/power-generation-for-ladwp-48256.csv","Unit in Plant","strings","[^""\r\n]*"
"/data/datasets/datagov/data/data/datagovdata/power-generation-for-ladwp-48256.csv","Generator Nameplate (kW)","numbers","^(\d|,)*\.?\d*$"
"/data/datasets/datagov/data/data/datagovdata/power-generation-for-ladwp-48256.csv","Net Max Capability (kW)","numbers","^(\d|,)*\.?\d*$"
"/data/datasets/datagov/data/data/datagovdata/power-generation-for-ladwp-48256.csv","Type of Generation","uri",".*?$(?<!\.aspx)"
"/data/datasets/datagov/data/data/datagovdata/power-generation-for-ladwp-48256.csv","COD","numbers","^(\d|,)*\.?\d*$"
