"file_name","column_name","label","regex"
"/data/datasets/datagov/data/data/datagovdata/opa-complaint-tracker-task-language.csv","DATA FIELD","strings","[^""\r\n]*"
"/data/datasets/datagov/data/data/datagovdata/opa-complaint-tracker-task-language.csv","COMPLAINT STATUS","strings","[^""\r\n]*"
