"file_name","column_name","label","regex"
"/data/datasets/datagov/data/data/datagovdata/tgr2006se_sant_zcta3cu.csv","ZCTA3","numbers","^\d*$"
"/data/datasets/datagov/data/data/datagovdata/tgr2006se_sant_zcta3cu.csv","COUNTY","numbers","^\d*$"
"/data/datasets/datagov/data/data/datagovdata/tgr2006se_sant_zcta3cu.csv","GIST_ID","numbers","^\d*$"
