"file_name","column_name","label","regex"
"/data/datasets/datagov/data/data/datagovdata/dycd-after-school-programs-nda-educational-high-school-progams-b9cc5.csv","Location 1","uri","^[^\\\/\?\*\""\'\>\<\:\|]*$"
"/data/datasets/datagov/data/data/datagovdata/dycd-after-school-programs-nda-educational-high-school-progams-b9cc5.csv","BOROUGH / COMMUNITY","uri","^[^\\\/\?\*\""\'\>\<\:\|]*$"
"/data/datasets/datagov/data/data/datagovdata/dycd-after-school-programs-nda-educational-high-school-progams-b9cc5.csv","PROGRAM","uri","^[^\\\/\?\*\""\'\>\<\:\|]*$"
"/data/datasets/datagov/data/data/datagovdata/dycd-after-school-programs-nda-educational-high-school-progams-b9cc5.csv","PROGRAM TYPE","uri","^[^\\\/\?\*\""\'\>\<\:\|]*$"
"/data/datasets/datagov/data/data/datagovdata/dycd-after-school-programs-nda-educational-high-school-progams-b9cc5.csv","AGENCY","strings","[^""\r\n]*"
"/data/datasets/datagov/data/data/datagovdata/dycd-after-school-programs-nda-educational-high-school-progams-b9cc5.csv","Grade Level / Age Group ","uri","^[^\\\/\?\*\""\'\>\<\:\|]*$"
"/data/datasets/datagov/data/data/datagovdata/dycd-after-school-programs-nda-educational-high-school-progams-b9cc5.csv","SITE NAME","strings","[^""\r\n]*"
"/data/datasets/datagov/data/data/datagovdata/dycd-after-school-programs-nda-educational-high-school-progams-b9cc5.csv","Contact Number","uri","^[^\\\/\?\*\""\'\>\<\:\|]*$"
