"file_name","column_name","label","regex"
"/data/datasets/datagov/data/data/datagovdata/the-omnibus-surveys-omnibus-monthly-survey-2002-sept-csv-data.csv","G0880","numbers","^(\d|,)*\.?\d*$"
"/data/datasets/datagov/data/data/datagovdata/the-omnibus-surveys-omnibus-monthly-survey-2002-sept-csv-data.csv","B0352C","numbers","^(\d|,)*\.?\d*$"
"/data/datasets/datagov/data/data/datagovdata/the-omnibus-surveys-omnibus-monthly-survey-2002-sept-csv-data.csv","G0851O","numbers","^(\d|,)*\.?\d*$"
"/data/datasets/datagov/data/data/datagovdata/the-omnibus-surveys-omnibus-monthly-survey-2002-sept-csv-data.csv","CASEID","numbers","^(\d|,)*\.?\d*$"
"/data/datasets/datagov/data/data/datagovdata/the-omnibus-surveys-omnibus-monthly-survey-2002-sept-csv-data.csv","G0851C","numbers","^(\d|,)*\.?\d*$"
"/data/datasets/datagov/data/data/datagovdata/the-omnibus-surveys-omnibus-monthly-survey-2002-sept-csv-data.csv","B2321","numbers","^(\d|,)*\.?\d*$"
"/data/datasets/datagov/data/data/datagovdata/the-omnibus-surveys-omnibus-monthly-survey-2002-sept-csv-data.csv","G0851P","numbers","^(\d|,)*\.?\d*$"
"/data/datasets/datagov/data/data/datagovdata/the-omnibus-surveys-omnibus-monthly-survey-2002-sept-csv-data.csv","G0851B","numbers","^(\d|,)*\.?\d*$"
"/data/datasets/datagov/data/data/datagovdata/the-omnibus-surveys-omnibus-monthly-survey-2002-sept-csv-data.csv","G0852L","numbers","^(\d|,)*\.?\d*$"
"/data/datasets/datagov/data/data/datagovdata/the-omnibus-surveys-omnibus-monthly-survey-2002-sept-csv-data.csv","SE0205","numbers","^(\d|,)*\.?\d*$"
"/data/datasets/datagov/data/data/datagovdata/the-omnibus-surveys-omnibus-monthly-survey-2002-sept-csv-data.csv","B2314","strings","[^""\r\n]*"
"/data/datasets/datagov/data/data/datagovdata/the-omnibus-surveys-omnibus-monthly-survey-2002-sept-csv-data.csv","G1252C","numbers","^(\d|,)*\.?\d*$"
"/data/datasets/datagov/data/data/datagovdata/the-omnibus-surveys-omnibus-monthly-survey-2002-sept-csv-data.csv","D0402G","strings","[^""\r\n]*"
"/data/datasets/datagov/data/data/datagovdata/the-omnibus-surveys-omnibus-monthly-survey-2002-sept-csv-data.csv","G0851A","numbers","^(\d|,)*\.?\d*$"
"/data/datasets/datagov/data/data/datagovdata/the-omnibus-surveys-omnibus-monthly-survey-2002-sept-csv-data.csv","G0551","numbers","^(\d|,)*\.?\d*$"
"/data/datasets/datagov/data/data/datagovdata/the-omnibus-surveys-omnibus-monthly-survey-2002-sept-csv-data.csv","G0780","uri",".*?$(?<!\.aspx)"
"/data/datasets/datagov/data/data/datagovdata/the-omnibus-surveys-omnibus-monthly-survey-2002-sept-csv-data.csv","METRO","numbers","^(\d|,)*\.?\d*$"
"/data/datasets/datagov/data/data/datagovdata/the-omnibus-surveys-omnibus-monthly-survey-2002-sept-csv-data.csv","SE0180","numbers","^(\d|,)*\.?\d*$"
"/data/datasets/datagov/data/data/datagovdata/the-omnibus-surveys-omnibus-monthly-survey-2002-sept-csv-data.csv","G3001A","numbers","^(\d|,)*\.?\d*$"
"/data/datasets/datagov/data/data/datagovdata/the-omnibus-surveys-omnibus-monthly-survey-2002-sept-csv-data.csv","G0210","numbers","^(\d|,)*\.?\d*$"
"/data/datasets/datagov/data/data/datagovdata/the-omnibus-surveys-omnibus-monthly-survey-2002-sept-csv-data.csv","D0300","numbers","^(\d|,)*\.?\d*$"
"/data/datasets/datagov/data/data/datagovdata/the-omnibus-surveys-omnibus-monthly-survey-2002-sept-csv-data.csv","PHN_FACT","numbers","^(\d|,)*\.?\d*$"
"/data/datasets/datagov/data/data/datagovdata/the-omnibus-surveys-omnibus-monthly-survey-2002-sept-csv-data.csv","D0402B","numbers","^(\d|,)*\.?\d*$"
"/data/datasets/datagov/data/data/datagovdata/the-omnibus-surveys-omnibus-monthly-survey-2002-sept-csv-data.csv","G1252B","numbers","^(\d|,)*\.?\d*$"
"/data/datasets/datagov/data/data/datagovdata/the-omnibus-surveys-omnibus-monthly-survey-2002-sept-csv-data.csv","G0501","numbers","^(\d|,)*\.?\d*$"
"/data/datasets/datagov/data/data/datagovdata/the-omnibus-surveys-omnibus-monthly-survey-2002-sept-csv-data.csv","D0900","numbers","^(\d|,)*\.?\d*$"
"/data/datasets/datagov/data/data/datagovdata/the-omnibus-surveys-omnibus-monthly-survey-2002-sept-csv-data.csv","G0902B","numbers","^(\d|,)*\.?\d*$"
"/data/datasets/datagov/data/data/datagovdata/the-omnibus-surveys-omnibus-monthly-survey-2002-sept-csv-data.csv","D0107","numbers","^(\d|,)*\.?\d*$"
"/data/datasets/datagov/data/data/datagovdata/the-omnibus-surveys-omnibus-monthly-survey-2002-sept-csv-data.csv","D0553","numbers","^(\d|,)*\.?\d*$"
"/data/datasets/datagov/data/data/datagovdata/the-omnibus-surveys-omnibus-monthly-survey-2002-sept-csv-data.csv","B2950","numbers","^(\d|,)*\.?\d*$"
"/data/datasets/datagov/data/data/datagovdata/the-omnibus-surveys-omnibus-monthly-survey-2002-sept-csv-data.csv","SE0210A","numbers","^(\d|,)*\.?\d*$"
"/data/datasets/datagov/data/data/datagovdata/the-omnibus-surveys-omnibus-monthly-survey-2002-sept-csv-data.csv","WD_FACT","numbers","^(\d|,)*\.?\d*$"
"/data/datasets/datagov/data/data/datagovdata/the-omnibus-surveys-omnibus-monthly-survey-2002-sept-csv-data.csv","B2341","numbers","^(\d|,)*\.?\d*$"
"/data/datasets/datagov/data/data/datagovdata/the-omnibus-surveys-omnibus-monthly-survey-2002-sept-csv-data.csv","D1101","numbers","^(\d|,)*\.?\d*$"
"/data/datasets/datagov/data/data/datagovdata/the-omnibus-surveys-omnibus-monthly-survey-2002-sept-csv-data.csv","D0402F","numbers","^(\d|,)*\.?\d*$"
"/data/datasets/datagov/data/data/datagovdata/the-omnibus-surveys-omnibus-monthly-survey-2002-sept-csv-data.csv","D0402C","numbers","^(\d|,)*\.?\d*$"
"/data/datasets/datagov/data/data/datagovdata/the-omnibus-surveys-omnibus-monthly-survey-2002-sept-csv-data.csv","G0902C","numbers","^(\d|,)*\.?\d*$"
"/data/datasets/datagov/data/data/datagovdata/the-omnibus-surveys-omnibus-monthly-survey-2002-sept-csv-data.csv","G0302","numbers","^(\d|,)*\.?\d*$"
"/data/datasets/datagov/data/data/datagovdata/the-omnibus-surveys-omnibus-monthly-survey-2002-sept-csv-data.csv","B0103","numbers","^(\d|,)*\.?\d*$"
"/data/datasets/datagov/data/data/datagovdata/the-omnibus-surveys-omnibus-monthly-survey-2002-sept-csv-data.csv","G1259B","numbers","^(\d|,)*\.?\d*$"
"/data/datasets/datagov/data/data/datagovdata/the-omnibus-surveys-omnibus-monthly-survey-2002-sept-csv-data.csv","G3051A","numbers","^(\d|,)*\.?\d*$"
"/data/datasets/datagov/data/data/datagovdata/the-omnibus-surveys-omnibus-monthly-survey-2002-sept-csv-data.csv","SE0100","numbers","^(\d|,)*\.?\d*$"
"/data/datasets/datagov/data/data/datagovdata/the-omnibus-surveys-omnibus-monthly-survey-2002-sept-csv-data.csv","B2751","numbers","^(\d|,)*\.?\d*$"
"/data/datasets/datagov/data/data/datagovdata/the-omnibus-surveys-omnibus-monthly-survey-2002-sept-csv-data.csv","D0110","numbers","^(\d|,)*\.?\d*$"
"/data/datasets/datagov/data/data/datagovdata/the-omnibus-surveys-omnibus-monthly-survey-2002-sept-csv-data.csv","B3000","numbers","^(\d|,)*\.?\d*$"
"/data/datasets/datagov/data/data/datagovdata/the-omnibus-surveys-omnibus-monthly-survey-2002-sept-csv-data.csv","SE0160","numbers","^(\d|,)*\.?\d*$"
"/data/datasets/datagov/data/data/datagovdata/the-omnibus-surveys-omnibus-monthly-survey-2002-sept-csv-data.csv","B2701A","numbers","^(\d|,)*\.?\d*$"
"/data/datasets/datagov/data/data/datagovdata/the-omnibus-surveys-omnibus-monthly-survey-2002-sept-csv-data.csv","SE0300A","numbers","^(\d|,)*\.?\d*$"
"/data/datasets/datagov/data/data/datagovdata/the-omnibus-surveys-omnibus-monthly-survey-2002-sept-csv-data.csv","B0153","numbers","^(\d|,)*\.?\d*$"
"/data/datasets/datagov/data/data/datagovdata/the-omnibus-surveys-omnibus-monthly-survey-2002-sept-csv-data.csv","G1259C","numbers","^(\d|,)*\.?\d*$"
"/data/datasets/datagov/data/data/datagovdata/the-omnibus-surveys-omnibus-monthly-survey-2002-sept-csv-data.csv","CREGION","numbers","^(\d|,)*\.?\d*$"
"/data/datasets/datagov/data/data/datagovdata/the-omnibus-surveys-omnibus-monthly-survey-2002-sept-csv-data.csv","G0103","numbers","^(\d|,)*\.?\d*$"
"/data/datasets/datagov/data/data/datagovdata/the-omnibus-surveys-omnibus-monthly-survey-2002-sept-csv-data.csv","G0852I","numbers","^(\d|,)*\.?\d*$"
"/data/datasets/datagov/data/data/datagovdata/the-omnibus-surveys-omnibus-monthly-survey-2002-sept-csv-data.csv","D0402A","numbers","^(\d|,)*\.?\d*$"
"/data/datasets/datagov/data/data/datagovdata/the-omnibus-surveys-omnibus-monthly-survey-2002-sept-csv-data.csv","SE0210B","uri",".*?$(?<!\.aspx)"
"/data/datasets/datagov/data/data/datagovdata/the-omnibus-surveys-omnibus-monthly-survey-2002-sept-csv-data.csv","D0350","numbers","^(\d|,)*\.?\d*$"
"/data/datasets/datagov/data/data/datagovdata/the-omnibus-surveys-omnibus-monthly-survey-2002-sept-csv-data.csv","DVERSION","numbers","^(\d|,)*\.?\d*$"
"/data/datasets/datagov/data/data/datagovdata/the-omnibus-surveys-omnibus-monthly-survey-2002-sept-csv-data.csv","SE0175","numbers","^(\d|,)*\.?\d*$"
"/data/datasets/datagov/data/data/datagovdata/the-omnibus-surveys-omnibus-monthly-survey-2002-sept-csv-data.csv","G0401","numbers","^(\d|,)*\.?\d*$"
"/data/datasets/datagov/data/data/datagovdata/the-omnibus-surveys-omnibus-monthly-survey-2002-sept-csv-data.csv","FNLWGT","numbers","^(\d|,)*\.?\d*$"
"/data/datasets/datagov/data/data/datagovdata/the-omnibus-surveys-omnibus-monthly-survey-2002-sept-csv-data.csv","B3100","numbers","^(\d|,)*\.?\d*$"
"/data/datasets/datagov/data/data/datagovdata/the-omnibus-surveys-omnibus-monthly-survey-2002-sept-csv-data.csv","G1151A","numbers","^(\d|,)*\.?\d*$"
"/data/datasets/datagov/data/data/datagovdata/the-omnibus-surveys-omnibus-monthly-survey-2002-sept-csv-data.csv","B2976","numbers","^(\d|,)*\.?\d*$"
"/data/datasets/datagov/data/data/datagovdata/the-omnibus-surveys-omnibus-monthly-survey-2002-sept-csv-data.csv","B0352A","numbers","^(\d|,)*\.?\d*$"
"/data/datasets/datagov/data/data/datagovdata/the-omnibus-surveys-omnibus-monthly-survey-2002-sept-csv-data.csv","SE0215A","numbers","^(\d|,)*\.?\d*$"
"/data/datasets/datagov/data/data/datagovdata/the-omnibus-surveys-omnibus-monthly-survey-2002-sept-csv-data.csv","G0701","numbers","^(\d|,)*\.?\d*$"
"/data/datasets/datagov/data/data/datagovdata/the-omnibus-surveys-omnibus-monthly-survey-2002-sept-csv-data.csv","G0652","numbers","^(\d|,)*\.?\d*$"
"/data/datasets/datagov/data/data/datagovdata/the-omnibus-surveys-omnibus-monthly-survey-2002-sept-csv-data.csv","G0150","numbers","^(\d|,)*\.?\d*$"
"/data/datasets/datagov/data/data/datagovdata/the-omnibus-surveys-omnibus-monthly-survey-2002-sept-csv-data.csv","B2801","numbers","^(\d|,)*\.?\d*$"
"/data/datasets/datagov/data/data/datagovdata/the-omnibus-surveys-omnibus-monthly-survey-2002-sept-csv-data.csv","G0601","numbers","^(\d|,)*\.?\d*$"
"/data/datasets/datagov/data/data/datagovdata/the-omnibus-surveys-omnibus-monthly-survey-2002-sept-csv-data.csv","TIMEZONE","uri",".*?$(?<!\.aspx)"
"/data/datasets/datagov/data/data/datagovdata/the-omnibus-surveys-omnibus-monthly-survey-2002-sept-csv-data.csv","G1002A","numbers","^(\d|,)*\.?\d*$"
"/data/datasets/datagov/data/data/datagovdata/the-omnibus-surveys-omnibus-monthly-survey-2002-sept-csv-data.csv","G0902D","numbers","^(\d|,)*\.?\d*$"
"/data/datasets/datagov/data/data/datagovdata/the-omnibus-surveys-omnibus-monthly-survey-2002-sept-csv-data.csv","D0061","numbers","^(\d|,)*\.?\d*$"
"/data/datasets/datagov/data/data/datagovdata/the-omnibus-surveys-omnibus-monthly-survey-2002-sept-csv-data.csv","G0201","numbers","^(\d|,)*\.?\d*$"
"/data/datasets/datagov/data/data/datagovdata/the-omnibus-surveys-omnibus-monthly-survey-2002-sept-csv-data.csv","D0104","numbers","^(\d|,)*\.?\d*$"
"/data/datasets/datagov/data/data/datagovdata/the-omnibus-surveys-omnibus-monthly-survey-2002-sept-csv-data.csv","B0320A","numbers","^(\d|,)*\.?\d*$"
"/data/datasets/datagov/data/data/datagovdata/the-omnibus-surveys-omnibus-monthly-survey-2002-sept-csv-data.csv","G0350","numbers","^(\d|,)*\.?\d*$"
"/data/datasets/datagov/data/data/datagovdata/the-omnibus-surveys-omnibus-monthly-survey-2002-sept-csv-data.csv","G0851H","numbers","^(\d|,)*\.?\d*$"
"/data/datasets/datagov/data/data/datagovdata/the-omnibus-surveys-omnibus-monthly-survey-2002-sept-csv-data.csv","B2701C","numbers","^(\d|,)*\.?\d*$"
"/data/datasets/datagov/data/data/datagovdata/the-omnibus-surveys-omnibus-monthly-survey-2002-sept-csv-data.csv","D0402D","numbers","^(\d|,)*\.?\d*$"
"/data/datasets/datagov/data/data/datagovdata/the-omnibus-surveys-omnibus-monthly-survey-2002-sept-csv-data.csv","G1151C","numbers","^(\d|,)*\.?\d*$"
"/data/datasets/datagov/data/data/datagovdata/the-omnibus-surveys-omnibus-monthly-survey-2002-sept-csv-data.csv","G0851D","numbers","^(\d|,)*\.?\d*$"
"/data/datasets/datagov/data/data/datagovdata/the-omnibus-surveys-omnibus-monthly-survey-2002-sept-csv-data.csv","B0310","numbers","^(\d|,)*\.?\d*$"
"/data/datasets/datagov/data/data/datagovdata/the-omnibus-surveys-omnibus-monthly-survey-2002-sept-csv-data.csv","D0105","numbers","^(\d|,)*\.?\d*$"
"/data/datasets/datagov/data/data/datagovdata/the-omnibus-surveys-omnibus-monthly-survey-2002-sept-csv-data.csv","B2600","numbers","^(\d|,)*\.?\d*$"
"/data/datasets/datagov/data/data/datagovdata/the-omnibus-surveys-omnibus-monthly-survey-2002-sept-csv-data.csv","B2334","numbers","^(\d|,)*\.?\d*$"
"/data/datasets/datagov/data/data/datagovdata/the-omnibus-surveys-omnibus-monthly-survey-2002-sept-csv-data.csv","G0851K","numbers","^(\d|,)*\.?\d*$"
"/data/datasets/datagov/data/data/datagovdata/the-omnibus-surveys-omnibus-monthly-survey-2002-sept-csv-data.csv","G0851J","numbers","^(\d|,)*\.?\d*$"
"/data/datasets/datagov/data/data/datagovdata/the-omnibus-surveys-omnibus-monthly-survey-2002-sept-csv-data.csv","B2701B","numbers","^(\d|,)*\.?\d*$"
"/data/datasets/datagov/data/data/datagovdata/the-omnibus-surveys-omnibus-monthly-survey-2002-sept-csv-data.csv","G1052A","numbers","^(\d|,)*\.?\d*$"
"/data/datasets/datagov/data/data/datagovdata/the-omnibus-surveys-omnibus-monthly-survey-2002-sept-csv-data.csv","G0902E","numbers","^(\d|,)*\.?\d*$"
"/data/datasets/datagov/data/data/datagovdata/the-omnibus-surveys-omnibus-monthly-survey-2002-sept-csv-data.csv","G1151B","numbers","^(\d|,)*\.?\d*$"
"/data/datasets/datagov/data/data/datagovdata/the-omnibus-surveys-omnibus-monthly-survey-2002-sept-csv-data.csv","G0852M","numbers","^(\d|,)*\.?\d*$"
"/data/datasets/datagov/data/data/datagovdata/the-omnibus-surveys-omnibus-monthly-survey-2002-sept-csv-data.csv","D1102","uri",".*?$(?<!\.aspx)"
"/data/datasets/datagov/data/data/datagovdata/the-omnibus-surveys-omnibus-monthly-survey-2002-sept-csv-data.csv","G3051B","uri",".*?$(?<!\.aspx)"
"/data/datasets/datagov/data/data/datagovdata/the-omnibus-surveys-omnibus-monthly-survey-2002-sept-csv-data.csv","BASEWGT","numbers","^(\d|,)*\.?\d*$"
"/data/datasets/datagov/data/data/datagovdata/the-omnibus-surveys-omnibus-monthly-survey-2002-sept-csv-data.csv","D0106","numbers","^(\d|,)*\.?\d*$"
"/data/datasets/datagov/data/data/datagovdata/the-omnibus-surveys-omnibus-monthly-survey-2002-sept-csv-data.csv","D0402E","numbers","^(\d|,)*\.?\d*$"
"/data/datasets/datagov/data/data/datagovdata/the-omnibus-surveys-omnibus-monthly-survey-2002-sept-csv-data.csv","D0450","numbers","^(\d|,)*\.?\d*$"
"/data/datasets/datagov/data/data/datagovdata/the-omnibus-surveys-omnibus-monthly-survey-2002-sept-csv-data.csv","G0952A","numbers","^(\d|,)*\.?\d*$"
"/data/datasets/datagov/data/data/datagovdata/the-omnibus-surveys-omnibus-monthly-survey-2002-sept-csv-data.csv","G1002B","numbers","^(\d|,)*\.?\d*$"
"/data/datasets/datagov/data/data/datagovdata/the-omnibus-surveys-omnibus-monthly-survey-2002-sept-csv-data.csv","D0751","numbers","^(\d|,)*\.?\d*$"
"/data/datasets/datagov/data/data/datagovdata/the-omnibus-surveys-omnibus-monthly-survey-2002-sept-csv-data.csv","STATE","uri",".*?$(?<!\.aspx)"
"/data/datasets/datagov/data/data/datagovdata/the-omnibus-surveys-omnibus-monthly-survey-2002-sept-csv-data.csv","ENDTIME","strings","[^""\r\n]*"
"/data/datasets/datagov/data/data/datagovdata/the-omnibus-surveys-omnibus-monthly-survey-2002-sept-csv-data.csv","G1002C","numbers","^(\d|,)*\.?\d*$"
"/data/datasets/datagov/data/data/datagovdata/the-omnibus-surveys-omnibus-monthly-survey-2002-sept-csv-data.csv","G1102A","numbers","^(\d|,)*\.?\d*$"
"/data/datasets/datagov/data/data/datagovdata/the-omnibus-surveys-omnibus-monthly-survey-2002-sept-csv-data.csv","CEN_FACT","numbers","^(\d|,)*\.?\d*$"
"/data/datasets/datagov/data/data/datagovdata/the-omnibus-surveys-omnibus-monthly-survey-2002-sept-csv-data.csv","B2311C","numbers","^(\d|,)*\.?\d*$"
"/data/datasets/datagov/data/data/datagovdata/the-omnibus-surveys-omnibus-monthly-survey-2002-sept-csv-data.csv","G0751","numbers","^(\d|,)*\.?\d*$"
"/data/datasets/datagov/data/data/datagovdata/the-omnibus-surveys-omnibus-monthly-survey-2002-sept-csv-data.csv","NR_FACT","numbers","^(\d|,)*\.?\d*$"
"/data/datasets/datagov/data/data/datagovdata/the-omnibus-surveys-omnibus-monthly-survey-2002-sept-csv-data.csv","G1259A","numbers","^(\d|,)*\.?\d*$"
"/data/datasets/datagov/data/data/datagovdata/the-omnibus-surveys-omnibus-monthly-survey-2002-sept-csv-data.csv","G1203A","numbers","^(\d|,)*\.?\d*$"
"/data/datasets/datagov/data/data/datagovdata/the-omnibus-surveys-omnibus-monthly-survey-2002-sept-csv-data.csv","B2312B","numbers","^(\d|,)*\.?\d*$"
"/data/datasets/datagov/data/data/datagovdata/the-omnibus-surveys-omnibus-monthly-survey-2002-sept-csv-data.csv","B2851","numbers","^(\d|,)*\.?\d*$"
"/data/datasets/datagov/data/data/datagovdata/the-omnibus-surveys-omnibus-monthly-survey-2002-sept-csv-data.csv","INLNGTH","numbers","^(\d|,)*\.?\d*$"
"/data/datasets/datagov/data/data/datagovdata/the-omnibus-surveys-omnibus-monthly-survey-2002-sept-csv-data.csv","CENDIV","numbers","^(\d|,)*\.?\d*$"
"/data/datasets/datagov/data/data/datagovdata/the-omnibus-surveys-omnibus-monthly-survey-2002-sept-csv-data.csv","SE0165","numbers","^(\d|,)*\.?\d*$"
"/data/datasets/datagov/data/data/datagovdata/the-omnibus-surveys-omnibus-monthly-survey-2002-sept-csv-data.csv","SE0202","numbers","^(\d|,)*\.?\d*$"
"/data/datasets/datagov/data/data/datagovdata/the-omnibus-surveys-omnibus-monthly-survey-2002-sept-csv-data.csv","G0851F","numbers","^(\d|,)*\.?\d*$"
"/data/datasets/datagov/data/data/datagovdata/the-omnibus-surveys-omnibus-monthly-survey-2002-sept-csv-data.csv","D0501","numbers","^(\d|,)*\.?\d*$"
"/data/datasets/datagov/data/data/datagovdata/the-omnibus-surveys-omnibus-monthly-survey-2002-sept-csv-data.csv","PER_FACT","numbers","^(\d|,)*\.?\d*$"
"/data/datasets/datagov/data/data/datagovdata/the-omnibus-surveys-omnibus-monthly-survey-2002-sept-csv-data.csv","B0315","numbers","^(\d|,)*\.?\d*$"
"/data/datasets/datagov/data/data/datagovdata/the-omnibus-surveys-omnibus-monthly-survey-2002-sept-csv-data.csv","SE0300B","strings","[^""\r\n]*"
"/data/datasets/datagov/data/data/datagovdata/the-omnibus-surveys-omnibus-monthly-survey-2002-sept-csv-data.csv","B2311B","numbers","^(\d|,)*\.?\d*$"
"/data/datasets/datagov/data/data/datagovdata/the-omnibus-surveys-omnibus-monthly-survey-2002-sept-csv-data.csv","B0320B","numbers","^(\d|,)*\.?\d*$"
"/data/datasets/datagov/data/data/datagovdata/the-omnibus-surveys-omnibus-monthly-survey-2002-sept-csv-data.csv","STARTIM","strings","[^""\r\n]*"
"/data/datasets/datagov/data/data/datagovdata/the-omnibus-surveys-omnibus-monthly-survey-2002-sept-csv-data.csv","B2311A","numbers","^(\d|,)*\.?\d*$"
"/data/datasets/datagov/data/data/datagovdata/the-omnibus-surveys-omnibus-monthly-survey-2002-sept-csv-data.csv","G0851G","numbers","^(\d|,)*\.?\d*$"
"/data/datasets/datagov/data/data/datagovdata/the-omnibus-surveys-omnibus-monthly-survey-2002-sept-csv-data.csv","D0404","numbers","^(\d|,)*\.?\d*$"
"/data/datasets/datagov/data/data/datagovdata/the-omnibus-surveys-omnibus-monthly-survey-2002-sept-csv-data.csv","B2312A","numbers","^(\d|,)*\.?\d*$"
"/data/datasets/datagov/data/data/datagovdata/the-omnibus-surveys-omnibus-monthly-survey-2002-sept-csv-data.csv","D0251","numbers","^(\d|,)*\.?\d*$"
"/data/datasets/datagov/data/data/datagovdata/the-omnibus-surveys-omnibus-monthly-survey-2002-sept-csv-data.csv","B2333","numbers","^(\d|,)*\.?\d*$"
"/data/datasets/datagov/data/data/datagovdata/the-omnibus-surveys-omnibus-monthly-survey-2002-sept-csv-data.csv","SE0170","numbers","^(\d|,)*\.?\d*$"
"/data/datasets/datagov/data/data/datagovdata/the-omnibus-surveys-omnibus-monthly-survey-2002-sept-csv-data.csv","SE0215B","uri",".*?$(?<!\.aspx)"
"/data/datasets/datagov/data/data/datagovdata/the-omnibus-surveys-omnibus-monthly-survey-2002-sept-csv-data.csv","B0320C","numbers","^(\d|,)*\.?\d*$"
"/data/datasets/datagov/data/data/datagovdata/the-omnibus-surveys-omnibus-monthly-survey-2002-sept-csv-data.csv","G1252A","numbers","^(\d|,)*\.?\d*$"
"/data/datasets/datagov/data/data/datagovdata/the-omnibus-surveys-omnibus-monthly-survey-2002-sept-csv-data.csv","G0251","numbers","^(\d|,)*\.?\d*$"
"/data/datasets/datagov/data/data/datagovdata/the-omnibus-surveys-omnibus-monthly-survey-2002-sept-csv-data.csv","B0352B","numbers","^(\d|,)*\.?\d*$"
"/data/datasets/datagov/data/data/datagovdata/the-omnibus-surveys-omnibus-monthly-survey-2002-sept-csv-data.csv","B2900","numbers","^(\d|,)*\.?\d*$"
"/data/datasets/datagov/data/data/datagovdata/the-omnibus-surveys-omnibus-monthly-survey-2002-sept-csv-data.csv","G0851E","numbers","^(\d|,)*\.?\d*$"
"/data/datasets/datagov/data/data/datagovdata/the-omnibus-surveys-omnibus-monthly-survey-2002-sept-csv-data.csv","G0453","numbers","^(\d|,)*\.?\d*$"
"/data/datasets/datagov/data/data/datagovdata/the-omnibus-surveys-omnibus-monthly-survey-2002-sept-csv-data.csv","G0555","numbers","^(\d|,)*\.?\d*$"
