"file_name","column_name","label","regex"
"/data/datasets/datagov/data/data/datagovdata/idhs-fy-07-caseloads.csv","TOTAL FOOD STAMPS","numbers","^(\d|,)*\.?\d*$"
"/data/datasets/datagov/data/data/datagovdata/idhs-fy-07-caseloads.csv","GENERAL ASSIST TRANSITIONAL","numbers","^(\d|,)*\.?\d*$"
"/data/datasets/datagov/data/data/datagovdata/idhs-fy-07-caseloads.csv","GENERAL ASSIST FAMILY","numbers","^(\d|,)*\.?\d*$"
"/data/datasets/datagov/data/data/datagovdata/idhs-fy-07-caseloads.csv","MANG","numbers","^(\d|,)*\.?\d*$"
"/data/datasets/datagov/data/data/datagovdata/idhs-fy-07-caseloads.csv","REFUGEE","numbers","^(\d|,)*\.?\d*$"
"/data/datasets/datagov/data/data/datagovdata/idhs-fy-07-caseloads.csv","NON-ASSIST FOOD STAMPS","numbers","^(\d|,)*\.?\d*$"
"/data/datasets/datagov/data/data/datagovdata/idhs-fy-07-caseloads.csv","FY 2007","uri",".*?$(?<!\.aspx)"
"/data/datasets/datagov/data/data/datagovdata/idhs-fy-07-caseloads.csv","TANF","numbers","^(\d|,)*\.?\d*$"
"/data/datasets/datagov/data/data/datagovdata/idhs-fy-07-caseloads.csv","TOTAL","numbers","^(\d|,)*\.?\d*$"
"/data/datasets/datagov/data/data/datagovdata/idhs-fy-07-caseloads.csv","AABD","numbers","^(\d|,)*\.?\d*$"
