"file_name","column_name","label","regex"
"/data/datasets/datagov/data/data/datagovdata/state-university-construction-fund-sucf-contracts-beginning-1995.csv","Location 1","uri","^[^\\\/\?\*\""\'\>\<\:\|]*$"
"/data/datasets/datagov/data/data/datagovdata/state-university-construction-fund-sucf-contracts-beginning-1995.csv","MWBE","uri","^[^\\\/\?\*\""\'\>\<\:\|]*$"
"/data/datasets/datagov/data/data/datagovdata/state-university-construction-fund-sucf-contracts-beginning-1995.csv","Status","uri","^[^\\\/\?\*\""\'\>\<\:\|]*$"
"/data/datasets/datagov/data/data/datagovdata/state-university-construction-fund-sucf-contracts-beginning-1995.csv","City","uri","^[^\\\/\?\*\""\'\>\<\:\|]*$"
"/data/datasets/datagov/data/data/datagovdata/state-university-construction-fund-sucf-contracts-beginning-1995.csv","Award Type","uri","^[^\\\/\?\*\""\'\>\<\:\|]*$"
"/data/datasets/datagov/data/data/datagovdata/state-university-construction-fund-sucf-contracts-beginning-1995.csv","State","uri","^[^\\\/\?\*\""\'\>\<\:\|]*$"
"/data/datasets/datagov/data/data/datagovdata/state-university-construction-fund-sucf-contracts-beginning-1995.csv","Zip Code","numbers","^(\d|,)*\.?\d*$"
"/data/datasets/datagov/data/data/datagovdata/state-university-construction-fund-sucf-contracts-beginning-1995.csv","Expended Amount LTD","numbers","^(\d|,)*\.?\d*$"
"/data/datasets/datagov/data/data/datagovdata/state-university-construction-fund-sucf-contracts-beginning-1995.csv","Remaining Balance","numbers","^(\d|,)*\.?\d*$"
"/data/datasets/datagov/data/data/datagovdata/state-university-construction-fund-sucf-contracts-beginning-1995.csv","Number of Bids","numbers","^(\d|,)*\.?\d*$"
"/data/datasets/datagov/data/data/datagovdata/state-university-construction-fund-sucf-contracts-beginning-1995.csv","Contract End Date","strings","[^""\r\n]*"
"/data/datasets/datagov/data/data/datagovdata/state-university-construction-fund-sucf-contracts-beginning-1995.csv","Contract Number","uri","^[^\\\/\?\*\""\'\>\<\:\|]*$"
"/data/datasets/datagov/data/data/datagovdata/state-university-construction-fund-sucf-contracts-beginning-1995.csv","Title","strings","[^""\r\n]*"
"/data/datasets/datagov/data/data/datagovdata/state-university-construction-fund-sucf-contracts-beginning-1995.csv","MWBE Proposals","numbers","^(\d|,)*\.?\d*$"
"/data/datasets/datagov/data/data/datagovdata/state-university-construction-fund-sucf-contracts-beginning-1995.csv","Address Line 1","uri","^[^\\\/\?\*\""\'\>\<\:\|]*$"
"/data/datasets/datagov/data/data/datagovdata/state-university-construction-fund-sucf-contracts-beginning-1995.csv","Vendor Name","strings","[^""\r\n]*"
"/data/datasets/datagov/data/data/datagovdata/state-university-construction-fund-sucf-contracts-beginning-1995.csv","Expended Amount YTD","numbers","^(\d|,)*\.?\d*$"
"/data/datasets/datagov/data/data/datagovdata/state-university-construction-fund-sucf-contracts-beginning-1995.csv","Address Line 2","uri","^[^\\\/\?\*\""\'\>\<\:\|]*$"
"/data/datasets/datagov/data/data/datagovdata/state-university-construction-fund-sucf-contracts-beginning-1995.csv","Project Number","uri","^[^\\\/\?\*\""\'\>\<\:\|]*$"
"/data/datasets/datagov/data/data/datagovdata/state-university-construction-fund-sucf-contracts-beginning-1995.csv","Procurement Type","strings","[^""\r\n]*"
"/data/datasets/datagov/data/data/datagovdata/state-university-construction-fund-sucf-contracts-beginning-1995.csv","Country","uri","^[^\\\/\?\*\""\'\>\<\:\|]*$"
"/data/datasets/datagov/data/data/datagovdata/state-university-construction-fund-sucf-contracts-beginning-1995.csv","Contract Amount","numbers","^(\d|,)*\.?\d*$"
"/data/datasets/datagov/data/data/datagovdata/state-university-construction-fund-sucf-contracts-beginning-1995.csv","Contract Award Date","strings","[^""\r\n]*"
