"file_name","column_name","label","regex"
"/data/datasets/datagov/data/data/datagovdata/tlf561shp.csv","PERIMETER","numbers","^(\d|,)*\.?\d*$"
"/data/datasets/datagov/data/data/datagovdata/tlf561shp.csv","AREA","uri",".*?$(?<!\.aspx)"
"/data/datasets/datagov/data/data/datagovdata/tlf561shp.csv","BLOCK","address_or_phone","(\d{4,6})"
"/data/datasets/datagov/data/data/datagovdata/tlf561shp.csv","TLF05061_I","numbers","^(\d|,)*\.?\d*$"
"/data/datasets/datagov/data/data/datagovdata/tlf561shp.csv","TLF05061_","numbers","^(\d|,)*\.?\d*$"
