"file_name","column_name","label","regex"
"/data/datasets/datagov/data/data/datagovdata/ss09pusc.csv","PWGTP75","numbers","^\d*$"
"/data/datasets/datagov/data/data/datagovdata/ss09pusc.csv","SOCP","uri",".*?$(?<!\.aspx)"
"/data/datasets/datagov/data/data/datagovdata/ss09pusc.csv","FESRP","numbers","^\d*$"
"/data/datasets/datagov/data/data/datagovdata/ss09pusc.csv","NWAV","numbers","^\d*$"
"/data/datasets/datagov/data/data/datagovdata/ss09pusc.csv","PWGTP3","numbers","^\d*$"
"/data/datasets/datagov/data/data/datagovdata/ss09pusc.csv","MAR","numbers","^\d*$"
"/data/datasets/datagov/data/data/datagovdata/ss09pusc.csv","PWGTP32","numbers","^\d*$"
"/data/datasets/datagov/data/data/datagovdata/ss09pusc.csv","FGCLP","numbers","^\d*$"
"/data/datasets/datagov/data/data/datagovdata/ss09pusc.csv","FCITP","numbers","^\d*$"
"/data/datasets/datagov/data/data/datagovdata/ss09pusc.csv","FJWDP","numbers","^\d*$"
"/data/datasets/datagov/data/data/datagovdata/ss09pusc.csv","WAGP","numbers","^\d*$"
"/data/datasets/datagov/data/data/datagovdata/ss09pusc.csv","ANC","numbers","^\d*$"
"/data/datasets/datagov/data/data/datagovdata/ss09pusc.csv","PWGTP79","numbers","^\d*$"
"/data/datasets/datagov/data/data/datagovdata/ss09pusc.csv","POVPIP","numbers","^\d*$"
"/data/datasets/datagov/data/data/datagovdata/ss09pusc.csv","POWSP","numbers","^\d*$"
"/data/datasets/datagov/data/data/datagovdata/ss09pusc.csv","PWGTP30","numbers","^\d*$"
"/data/datasets/datagov/data/data/datagovdata/ss09pusc.csv","PWGTP76","numbers","^\d*$"
"/data/datasets/datagov/data/data/datagovdata/ss09pusc.csv","PWGTP20","numbers","^\d*$"
"/data/datasets/datagov/data/data/datagovdata/ss09pusc.csv","JWMNP","numbers","^\d*$"
"/data/datasets/datagov/data/data/datagovdata/ss09pusc.csv","FLANP","numbers","^\d*$"
"/data/datasets/datagov/data/data/datagovdata/ss09pusc.csv","PWGTP77","numbers","^\d*$"
"/data/datasets/datagov/data/data/datagovdata/ss09pusc.csv","FSSIP","numbers","^\d*$"
"/data/datasets/datagov/data/data/datagovdata/ss09pusc.csv","PWGTP27","numbers","^\d*$"
"/data/datasets/datagov/data/data/datagovdata/ss09pusc.csv","ESP","numbers","^\d*$"
"/data/datasets/datagov/data/data/datagovdata/ss09pusc.csv","SFR","numbers","^\d*$"
"/data/datasets/datagov/data/data/datagovdata/ss09pusc.csv","PAOC","numbers","^\d*$"
"/data/datasets/datagov/data/data/datagovdata/ss09pusc.csv","PWGTP66","numbers","^\d*$"
"/data/datasets/datagov/data/data/datagovdata/ss09pusc.csv","MLPH","numbers","^\d*$"
"/data/datasets/datagov/data/data/datagovdata/ss09pusc.csv","MLPG","numbers","^\d*$"
"/data/datasets/datagov/data/data/datagovdata/ss09pusc.csv","PWGTP73","numbers","^\d*$"
"/data/datasets/datagov/data/data/datagovdata/ss09pusc.csv","WKL","numbers","^\d*$"
"/data/datasets/datagov/data/data/datagovdata/ss09pusc.csv","CIT","numbers","^\d*$"
"/data/datasets/datagov/data/data/datagovdata/ss09pusc.csv","PWGTP61","numbers","^\d*$"
"/data/datasets/datagov/data/data/datagovdata/ss09pusc.csv","RAC1P","numbers","^\d*$"
"/data/datasets/datagov/data/data/datagovdata/ss09pusc.csv","PWGTP21","numbers","^\d*$"
"/data/datasets/datagov/data/data/datagovdata/ss09pusc.csv","PWGTP72","numbers","^\d*$"
"/data/datasets/datagov/data/data/datagovdata/ss09pusc.csv","FAGEP","numbers","^\d*$"
"/data/datasets/datagov/data/data/datagovdata/ss09pusc.csv","WAOB","numbers","^\d*$"
"/data/datasets/datagov/data/data/datagovdata/ss09pusc.csv","ANC1P","numbers","^\d*$"
"/data/datasets/datagov/data/data/datagovdata/ss09pusc.csv","JWTR","numbers","^\d*$"
"/data/datasets/datagov/data/data/datagovdata/ss09pusc.csv","DECADE","numbers","^\d*$"
"/data/datasets/datagov/data/data/datagovdata/ss09pusc.csv","FGCMP","numbers","^\d*$"
"/data/datasets/datagov/data/data/datagovdata/ss09pusc.csv","PWGTP45","numbers","^\d*$"
"/data/datasets/datagov/data/data/datagovdata/ss09pusc.csv","PWGTP26","numbers","^\d*$"
"/data/datasets/datagov/data/data/datagovdata/ss09pusc.csv","PWGTP12","numbers","^\d*$"
"/data/datasets/datagov/data/data/datagovdata/ss09pusc.csv","FSCHP","numbers","^\d*$"
"/data/datasets/datagov/data/data/datagovdata/ss09pusc.csv","FMILSP","numbers","^\d*$"
"/data/datasets/datagov/data/data/datagovdata/ss09pusc.csv","PWGTP50","numbers","^\d*$"
"/data/datasets/datagov/data/data/datagovdata/ss09pusc.csv","FMIGP","numbers","^\d*$"
"/data/datasets/datagov/data/data/datagovdata/ss09pusc.csv","PWGTP65","numbers","^\d*$"
"/data/datasets/datagov/data/data/datagovdata/ss09pusc.csv","PWGTP23","numbers","^\d*$"
"/data/datasets/datagov/data/data/datagovdata/ss09pusc.csv","PWGTP8","numbers","^\d*$"
"/data/datasets/datagov/data/data/datagovdata/ss09pusc.csv","FSCHGP","numbers","^\d*$"
"/data/datasets/datagov/data/data/datagovdata/ss09pusc.csv","FOCCP","numbers","^\d*$"
"/data/datasets/datagov/data/data/datagovdata/ss09pusc.csv","FRACP","numbers","^\d*$"
"/data/datasets/datagov/data/data/datagovdata/ss09pusc.csv","AGEP","numbers","^\d*$"
"/data/datasets/datagov/data/data/datagovdata/ss09pusc.csv","RACAIAN","numbers","^\d*$"
"/data/datasets/datagov/data/data/datagovdata/ss09pusc.csv","PWGTP","numbers","^\d*$"
"/data/datasets/datagov/data/data/datagovdata/ss09pusc.csv","PWGTP54","numbers","^\d*$"
"/data/datasets/datagov/data/data/datagovdata/ss09pusc.csv","PWGTP13","numbers","^\d*$"
"/data/datasets/datagov/data/data/datagovdata/ss09pusc.csv","SEMP","numbers","^\d*$"
"/data/datasets/datagov/data/data/datagovdata/ss09pusc.csv","PWGTP6","numbers","^\d*$"
"/data/datasets/datagov/data/data/datagovdata/ss09pusc.csv","FWKWP","numbers","^\d*$"
"/data/datasets/datagov/data/data/datagovdata/ss09pusc.csv","PWGTP60","numbers","^\d*$"
"/data/datasets/datagov/data/data/datagovdata/ss09pusc.csv","SCH","numbers","^\d*$"
"/data/datasets/datagov/data/data/datagovdata/ss09pusc.csv","PINCP","numbers","^\d*$"
"/data/datasets/datagov/data/data/datagovdata/ss09pusc.csv","PWGTP49","numbers","^\d*$"
"/data/datasets/datagov/data/data/datagovdata/ss09pusc.csv","PWGTP7","numbers","^\d*$"
"/data/datasets/datagov/data/data/datagovdata/ss09pusc.csv","RT","uri",".*?$(?<!\.aspx)"
"/data/datasets/datagov/data/data/datagovdata/ss09pusc.csv","MIGSP","numbers","^\d*$"
"/data/datasets/datagov/data/data/datagovdata/ss09pusc.csv","PWGTP56","numbers","^\d*$"
"/data/datasets/datagov/data/data/datagovdata/ss09pusc.csv","FPOBP","numbers","^\d*$"
"/data/datasets/datagov/data/data/datagovdata/ss09pusc.csv","PWGTP71","numbers","^\d*$"
"/data/datasets/datagov/data/data/datagovdata/ss09pusc.csv","PWGTP10","numbers","^\d*$"
"/data/datasets/datagov/data/data/datagovdata/ss09pusc.csv","FENGP","numbers","^\d*$"
"/data/datasets/datagov/data/data/datagovdata/ss09pusc.csv","SCHL","numbers","^\d*$"
"/data/datasets/datagov/data/data/datagovdata/ss09pusc.csv","FJWTRP","numbers","^\d*$"
"/data/datasets/datagov/data/data/datagovdata/ss09pusc.csv","FYOEP","numbers","^\d*$"
"/data/datasets/datagov/data/data/datagovdata/ss09pusc.csv","PWGTP47","numbers","^\d*$"
"/data/datasets/datagov/data/data/datagovdata/ss09pusc.csv","NWRE","numbers","^\d*$"
"/data/datasets/datagov/data/data/datagovdata/ss09pusc.csv","PWGTP52","numbers","^\d*$"
"/data/datasets/datagov/data/data/datagovdata/ss09pusc.csv","LANP","numbers","^\d*$"
"/data/datasets/datagov/data/data/datagovdata/ss09pusc.csv","PWGTP48","numbers","^\d*$"
"/data/datasets/datagov/data/data/datagovdata/ss09pusc.csv","ST","numbers","^\d*$"
"/data/datasets/datagov/data/data/datagovdata/ss09pusc.csv","POBP","numbers","^\d*$"
"/data/datasets/datagov/data/data/datagovdata/ss09pusc.csv","FFERP","numbers","^\d*$"
"/data/datasets/datagov/data/data/datagovdata/ss09pusc.csv","PWGTP57","numbers","^\d*$"
"/data/datasets/datagov/data/data/datagovdata/ss09pusc.csv","PWGTP28","numbers","^\d*$"
"/data/datasets/datagov/data/data/datagovdata/ss09pusc.csv","PWGTP80","numbers","^\d*$"
"/data/datasets/datagov/data/data/datagovdata/ss09pusc.csv","REL","numbers","^\d*$"
"/data/datasets/datagov/data/data/datagovdata/ss09pusc.csv","FPOWSP","numbers","^\d*$"
"/data/datasets/datagov/data/data/datagovdata/ss09pusc.csv","PWGTP11","numbers","^\d*$"
"/data/datasets/datagov/data/data/datagovdata/ss09pusc.csv","PWGTP4","numbers","^\d*$"
"/data/datasets/datagov/data/data/datagovdata/ss09pusc.csv","PWGTP15","numbers","^\d*$"
"/data/datasets/datagov/data/data/datagovdata/ss09pusc.csv","FMIGSP","numbers","^\d*$"
"/data/datasets/datagov/data/data/datagovdata/ss09pusc.csv","PWGTP42","numbers","^\d*$"
"/data/datasets/datagov/data/data/datagovdata/ss09pusc.csv","PWGTP24","numbers","^\d*$"
"/data/datasets/datagov/data/data/datagovdata/ss09pusc.csv","PWGTP1","numbers","^\d*$"
"/data/datasets/datagov/data/data/datagovdata/ss09pusc.csv","FANCP","numbers","^\d*$"
"/data/datasets/datagov/data/data/datagovdata/ss09pusc.csv","FJWMNP","numbers","^\d*$"
"/data/datasets/datagov/data/data/datagovdata/ss09pusc.csv","MLPA","numbers","^\d*$"
"/data/datasets/datagov/data/data/datagovdata/ss09pusc.csv","PWGTP22","numbers","^\d*$"
"/data/datasets/datagov/data/data/datagovdata/ss09pusc.csv","QTRBIR","numbers","^\d*$"
"/data/datasets/datagov/data/data/datagovdata/ss09pusc.csv","SCHG","numbers","^\d*$"
"/data/datasets/datagov/data/data/datagovdata/ss09pusc.csv","COW","numbers","^\d*$"
"/data/datasets/datagov/data/data/datagovdata/ss09pusc.csv","PWGTP69","numbers","^\d*$"
"/data/datasets/datagov/data/data/datagovdata/ss09pusc.csv","MLPC","numbers","^\d*$"
"/data/datasets/datagov/data/data/datagovdata/ss09pusc.csv","PWGTP40","numbers","^\d*$"
"/data/datasets/datagov/data/data/datagovdata/ss09pusc.csv","PWGTP78","numbers","^\d*$"
"/data/datasets/datagov/data/data/datagovdata/ss09pusc.csv","FMARP","numbers","^\d*$"
"/data/datasets/datagov/data/data/datagovdata/ss09pusc.csv","GCM","numbers","^\d*$"
"/data/datasets/datagov/data/data/datagovdata/ss09pusc.csv","PWGTP51","numbers","^\d*$"
"/data/datasets/datagov/data/data/datagovdata/ss09pusc.csv","RAC3P","numbers","^\d*$"
"/data/datasets/datagov/data/data/datagovdata/ss09pusc.csv","SSP","numbers","^\d*$"
"/data/datasets/datagov/data/data/datagovdata/ss09pusc.csv","LANX","numbers","^\d*$"
"/data/datasets/datagov/data/data/datagovdata/ss09pusc.csv","MIG","numbers","^\d*$"
"/data/datasets/datagov/data/data/datagovdata/ss09pusc.csv","FSCHLP","numbers","^\d*$"
"/data/datasets/datagov/data/data/datagovdata/ss09pusc.csv","PWGTP44","numbers","^\d*$"
"/data/datasets/datagov/data/data/datagovdata/ss09pusc.csv","RACNUM","numbers","^\d*$"
"/data/datasets/datagov/data/data/datagovdata/ss09pusc.csv","ANC2P","numbers","^\d*$"
"/data/datasets/datagov/data/data/datagovdata/ss09pusc.csv","JWDP","numbers","^\d*$"
"/data/datasets/datagov/data/data/datagovdata/ss09pusc.csv","MLPF","numbers","^\d*$"
"/data/datasets/datagov/data/data/datagovdata/ss09pusc.csv","MLPB","numbers","^\d*$"
"/data/datasets/datagov/data/data/datagovdata/ss09pusc.csv","PWGTP35","numbers","^\d*$"
"/data/datasets/datagov/data/data/datagovdata/ss09pusc.csv","PWGTP67","numbers","^\d*$"
"/data/datasets/datagov/data/data/datagovdata/ss09pusc.csv","RETP","numbers","^\d*$"
"/data/datasets/datagov/data/data/datagovdata/ss09pusc.csv","GCL","numbers","^\d*$"
"/data/datasets/datagov/data/data/datagovdata/ss09pusc.csv","FLANXP","numbers","^\d*$"
"/data/datasets/datagov/data/data/datagovdata/ss09pusc.csv","NWAB","numbers","^\d*$"
"/data/datasets/datagov/data/data/datagovdata/ss09pusc.csv","PERNP","numbers","^\d*$"
"/data/datasets/datagov/data/data/datagovdata/ss09pusc.csv","MIL","numbers","^\d*$"
"/data/datasets/datagov/data/data/datagovdata/ss09pusc.csv","SSIP","numbers","^\d*$"
"/data/datasets/datagov/data/data/datagovdata/ss09pusc.csv","PWGTP37","numbers","^\d*$"
"/data/datasets/datagov/data/data/datagovdata/ss09pusc.csv","FSEMP","numbers","^\d*$"
"/data/datasets/datagov/data/data/datagovdata/ss09pusc.csv","HISP","numbers","^\d*$"
"/data/datasets/datagov/data/data/datagovdata/ss09pusc.csv","WKW","numbers","^\d*$"
"/data/datasets/datagov/data/data/datagovdata/ss09pusc.csv","INTP","numbers","^\d*$"
"/data/datasets/datagov/data/data/datagovdata/ss09pusc.csv","ENG","numbers","^\d*$"
"/data/datasets/datagov/data/data/datagovdata/ss09pusc.csv","JWAP","numbers","^\d*$"
"/data/datasets/datagov/data/data/datagovdata/ss09pusc.csv","PWGTP38","numbers","^\d*$"
"/data/datasets/datagov/data/data/datagovdata/ss09pusc.csv","ADJINC","numbers","^\d*$"
"/data/datasets/datagov/data/data/datagovdata/ss09pusc.csv","FMILPP","numbers","^\d*$"
"/data/datasets/datagov/data/data/datagovdata/ss09pusc.csv","WKHP","numbers","^\d*$"
"/data/datasets/datagov/data/data/datagovdata/ss09pusc.csv","PWGTP31","numbers","^\d*$"
"/data/datasets/datagov/data/data/datagovdata/ss09pusc.csv","PWGTP55","numbers","^\d*$"
"/data/datasets/datagov/data/data/datagovdata/ss09pusc.csv","NWLA","numbers","^\d*$"
"/data/datasets/datagov/data/data/datagovdata/ss09pusc.csv","VPS","numbers","^\d*$"
"/data/datasets/datagov/data/data/datagovdata/ss09pusc.csv","PWGTP70","numbers","^\d*$"
"/data/datasets/datagov/data/data/datagovdata/ss09pusc.csv","YOEP","numbers","^\d*$"
"/data/datasets/datagov/data/data/datagovdata/ss09pusc.csv","MIGPUMA","numbers","^\d*$"
"/data/datasets/datagov/data/data/datagovdata/ss09pusc.csv","MLPI","numbers","^\d*$"
"/data/datasets/datagov/data/data/datagovdata/ss09pusc.csv","RACWHT","numbers","^\d*$"
"/data/datasets/datagov/data/data/datagovdata/ss09pusc.csv","OC","numbers","^\d*$"
"/data/datasets/datagov/data/data/datagovdata/ss09pusc.csv","MLPD","numbers","^\d*$"
"/data/datasets/datagov/data/data/datagovdata/ss09pusc.csv","DRIVESP","numbers","^\d*$"
"/data/datasets/datagov/data/data/datagovdata/ss09pusc.csv","JWRIP","numbers","^\d*$"
"/data/datasets/datagov/data/data/datagovdata/ss09pusc.csv","FWAGP","numbers","^\d*$"
"/data/datasets/datagov/data/data/datagovdata/ss09pusc.csv","GCR","numbers","^\d*$"
"/data/datasets/datagov/data/data/datagovdata/ss09pusc.csv","PWGTP29","numbers","^\d*$"
"/data/datasets/datagov/data/data/datagovdata/ss09pusc.csv","ESR","numbers","^\d*$"
"/data/datasets/datagov/data/data/datagovdata/ss09pusc.csv","FHISP","numbers","^\d*$"
"/data/datasets/datagov/data/data/datagovdata/ss09pusc.csv","FCOWP","numbers","^\d*$"
"/data/datasets/datagov/data/data/datagovdata/ss09pusc.csv","PWGTP64","numbers","^\d*$"
"/data/datasets/datagov/data/data/datagovdata/ss09pusc.csv","RACNHPI","numbers","^\d*$"
"/data/datasets/datagov/data/data/datagovdata/ss09pusc.csv","PWGTP63","numbers","^\d*$"
"/data/datasets/datagov/data/data/datagovdata/ss09pusc.csv","NWLK","numbers","^\d*$"
"/data/datasets/datagov/data/data/datagovdata/ss09pusc.csv","FWKLP","numbers","^\d*$"
"/data/datasets/datagov/data/data/datagovdata/ss09pusc.csv","MSP","numbers","^\d*$"
"/data/datasets/datagov/data/data/datagovdata/ss09pusc.csv","PWGTP58","numbers","^\d*$"
"/data/datasets/datagov/data/data/datagovdata/ss09pusc.csv","RACASN","numbers","^\d*$"
"/data/datasets/datagov/data/data/datagovdata/ss09pusc.csv","PWGTP46","numbers","^\d*$"
"/data/datasets/datagov/data/data/datagovdata/ss09pusc.csv","RACSOR","numbers","^\d*$"
"/data/datasets/datagov/data/data/datagovdata/ss09pusc.csv","FRETP","numbers","^\d*$"
"/data/datasets/datagov/data/data/datagovdata/ss09pusc.csv","FINTP","numbers","^\d*$"
"/data/datasets/datagov/data/data/datagovdata/ss09pusc.csv","SFN","numbers","^\d*$"
"/data/datasets/datagov/data/data/datagovdata/ss09pusc.csv","PWGTP39","numbers","^\d*$"
"/data/datasets/datagov/data/data/datagovdata/ss09pusc.csv","PWGTP14","numbers","^\d*$"
"/data/datasets/datagov/data/data/datagovdata/ss09pusc.csv","PUMA","numbers","^\d*$"
"/data/datasets/datagov/data/data/datagovdata/ss09pusc.csv","PWGTP18","numbers","^\d*$"
"/data/datasets/datagov/data/data/datagovdata/ss09pusc.csv","PWGTP9","numbers","^\d*$"
"/data/datasets/datagov/data/data/datagovdata/ss09pusc.csv","OCCP","numbers","^\d*$"
"/data/datasets/datagov/data/data/datagovdata/ss09pusc.csv","serialno","numbers","^\d*$"
"/data/datasets/datagov/data/data/datagovdata/ss09pusc.csv","FER","numbers","^\d*$"
"/data/datasets/datagov/data/data/datagovdata/ss09pusc.csv","FGCRP","numbers","^\d*$"
"/data/datasets/datagov/data/data/datagovdata/ss09pusc.csv","PWGTP2","numbers","^\d*$"
"/data/datasets/datagov/data/data/datagovdata/ss09pusc.csv","NAICSP","uri",".*?$(?<!\.aspx)"
"/data/datasets/datagov/data/data/datagovdata/ss09pusc.csv","FWKHP","numbers","^\d*$"
"/data/datasets/datagov/data/data/datagovdata/ss09pusc.csv","FSSP","numbers","^\d*$"
"/data/datasets/datagov/data/data/datagovdata/ss09pusc.csv","FSEXP","numbers","^\d*$"
"/data/datasets/datagov/data/data/datagovdata/ss09pusc.csv","RC","numbers","^\d*$"
"/data/datasets/datagov/data/data/datagovdata/ss09pusc.csv","MLPK","numbers","^\d*$"
"/data/datasets/datagov/data/data/datagovdata/ss09pusc.csv","PWGTP33","numbers","^\d*$"
"/data/datasets/datagov/data/data/datagovdata/ss09pusc.csv","PWGTP36","numbers","^\d*$"
"/data/datasets/datagov/data/data/datagovdata/ss09pusc.csv","PWGTP62","numbers","^\d*$"
"/data/datasets/datagov/data/data/datagovdata/ss09pusc.csv","PWGTP59","numbers","^\d*$"
"/data/datasets/datagov/data/data/datagovdata/ss09pusc.csv","FPAP","numbers","^\d*$"
"/data/datasets/datagov/data/data/datagovdata/ss09pusc.csv","INDP","numbers","^\d*$"
"/data/datasets/datagov/data/data/datagovdata/ss09pusc.csv","PWGTP43","numbers","^\d*$"
"/data/datasets/datagov/data/data/datagovdata/ss09pusc.csv","OIP","numbers","^\d*$"
"/data/datasets/datagov/data/data/datagovdata/ss09pusc.csv","MLPE","numbers","^\d*$"
"/data/datasets/datagov/data/data/datagovdata/ss09pusc.csv","FOIP","numbers","^\d*$"
"/data/datasets/datagov/data/data/datagovdata/ss09pusc.csv","PWGTP19","numbers","^\d*$"
"/data/datasets/datagov/data/data/datagovdata/ss09pusc.csv","PWGTP53","numbers","^\d*$"
"/data/datasets/datagov/data/data/datagovdata/ss09pusc.csv","FRELP","numbers","^\d*$"
"/data/datasets/datagov/data/data/datagovdata/ss09pusc.csv","PWGTP68","numbers","^\d*$"
"/data/datasets/datagov/data/data/datagovdata/ss09pusc.csv","MLPJ","numbers","^\d*$"
"/data/datasets/datagov/data/data/datagovdata/ss09pusc.csv","PWGTP16","numbers","^\d*$"
"/data/datasets/datagov/data/data/datagovdata/ss09pusc.csv","SPORDER","numbers","^\d*$"
"/data/datasets/datagov/data/data/datagovdata/ss09pusc.csv","PWGTP41","numbers","^\d*$"
"/data/datasets/datagov/data/data/datagovdata/ss09pusc.csv","FINDP","numbers","^\d*$"
"/data/datasets/datagov/data/data/datagovdata/ss09pusc.csv","PAP","numbers","^\d*$"
"/data/datasets/datagov/data/data/datagovdata/ss09pusc.csv","FJWRIP","numbers","^\d*$"
"/data/datasets/datagov/data/data/datagovdata/ss09pusc.csv","PWGTP74","numbers","^\d*$"
"/data/datasets/datagov/data/data/datagovdata/ss09pusc.csv","POWPUMA","numbers","^\d*$"
"/data/datasets/datagov/data/data/datagovdata/ss09pusc.csv","RACBLK","numbers","^\d*$"
"/data/datasets/datagov/data/data/datagovdata/ss09pusc.csv","NATIVITY","numbers","^\d*$"
"/data/datasets/datagov/data/data/datagovdata/ss09pusc.csv","PWGTP5","numbers","^\d*$"
"/data/datasets/datagov/data/data/datagovdata/ss09pusc.csv","SEX","numbers","^\d*$"
"/data/datasets/datagov/data/data/datagovdata/ss09pusc.csv","PWGTP25","numbers","^\d*$"
"/data/datasets/datagov/data/data/datagovdata/ss09pusc.csv","PWGTP17","numbers","^\d*$"
"/data/datasets/datagov/data/data/datagovdata/ss09pusc.csv","RAC2P","numbers","^\d*$"
"/data/datasets/datagov/data/data/datagovdata/ss09pusc.csv","PWGTP34","numbers","^\d*$"
