"file_name","column_name","label","regex"
"/data/datasets/datagov/data/data/datagovdata/cdc-pramstat-data-for-2002-590ac.csv","LocationDesc","uri",".*?$(?<!\.aspx)"
"/data/datasets/datagov/data/data/datagovdata/cdc-pramstat-data-for-2002-590ac.csv","Break_Out_Category","strings","[^""\r\n]*"
"/data/datasets/datagov/data/data/datagovdata/cdc-pramstat-data-for-2002-590ac.csv","Break_Out","strings","[^""\r\n]*"
"/data/datasets/datagov/data/data/datagovdata/cdc-pramstat-data-for-2002-590ac.csv","ResponseId","uri",".*?$(?<!\.aspx)"
"/data/datasets/datagov/data/data/datagovdata/cdc-pramstat-data-for-2002-590ac.csv","Class","strings","[^""\r\n]*"
"/data/datasets/datagov/data/data/datagovdata/cdc-pramstat-data-for-2002-590ac.csv","Response","strings","[^""\r\n]*"
"/data/datasets/datagov/data/data/datagovdata/cdc-pramstat-data-for-2002-590ac.csv","Question","strings","[^""\r\n]*"
"/data/datasets/datagov/data/data/datagovdata/cdc-pramstat-data-for-2002-590ac.csv","Topic","uri",".*?$(?<!\.aspx)"
"/data/datasets/datagov/data/data/datagovdata/cdc-pramstat-data-for-2002-590ac.csv","BreakOutCategoryid","uri",".*?$(?<!\.aspx)"
"/data/datasets/datagov/data/data/datagovdata/cdc-pramstat-data-for-2002-590ac.csv","Data_Value","numbers","^(\d|,)*\.?\d*$"
"/data/datasets/datagov/data/data/datagovdata/cdc-pramstat-data-for-2002-590ac.csv","TopicId","uri",".*?$(?<!\.aspx)"
"/data/datasets/datagov/data/data/datagovdata/cdc-pramstat-data-for-2002-590ac.csv","Data_Value_Footnote_Symbol","strings","[^""\r\n]*"
"/data/datasets/datagov/data/data/datagovdata/cdc-pramstat-data-for-2002-590ac.csv","Data_Value_Footnote","uri",".*?$(?<!\.aspx)"
"/data/datasets/datagov/data/data/datagovdata/cdc-pramstat-data-for-2002-590ac.csv","DataSource","uri",".*?$(?<!\.aspx)"
"/data/datasets/datagov/data/data/datagovdata/cdc-pramstat-data-for-2002-590ac.csv","Data_Value_Unit","uri",".*?$(?<!\.aspx)"
"/data/datasets/datagov/data/data/datagovdata/cdc-pramstat-data-for-2002-590ac.csv","High_Confidence_Limit","numbers","^(\d|,)*\.?\d*$"
"/data/datasets/datagov/data/data/datagovdata/cdc-pramstat-data-for-2002-590ac.csv","Low_Confidence_Limit","numbers","^(\d|,)*\.?\d*$"
"/data/datasets/datagov/data/data/datagovdata/cdc-pramstat-data-for-2002-590ac.csv","BreakOutId","uri",".*?$(?<!\.aspx)"
"/data/datasets/datagov/data/data/datagovdata/cdc-pramstat-data-for-2002-590ac.csv","LocationAbbr","uri",".*?$(?<!\.aspx)"
"/data/datasets/datagov/data/data/datagovdata/cdc-pramstat-data-for-2002-590ac.csv","Year","numbers","^(\d|,)*\.?\d*$"
"/data/datasets/datagov/data/data/datagovdata/cdc-pramstat-data-for-2002-590ac.csv","Data_Value_Type","uri",".*?$(?<!\.aspx)"
"/data/datasets/datagov/data/data/datagovdata/cdc-pramstat-data-for-2002-590ac.csv","Sample_Size","numbers","^(\d|,)*\.?\d*$"
"/data/datasets/datagov/data/data/datagovdata/cdc-pramstat-data-for-2002-590ac.csv","ClassId","uri",".*?$(?<!\.aspx)"
"/data/datasets/datagov/data/data/datagovdata/cdc-pramstat-data-for-2002-590ac.csv","QuestionId","uri",".*?$(?<!\.aspx)"
"/data/datasets/datagov/data/data/datagovdata/cdc-pramstat-data-for-2002-590ac.csv","LocationId","numbers","^(\d|,)*\.?\d*$"
"/data/datasets/datagov/data/data/datagovdata/cdc-pramstat-data-for-2002-590ac.csv","Geolocation","uri",".*?$(?<!\.aspx)"
