"file_name","column_name","label","regex"
"/data/datasets/datagov/data/data/datagovdata/ss13husd.csv","WGTP70","numbers","^\d*$"
"/data/datasets/datagov/data/data/datagovdata/ss13husd.csv","FRMSP","numbers","^\d*$"
"/data/datasets/datagov/data/data/datagovdata/ss13husd.csv","WGTP26","numbers","^\d*$"
"/data/datasets/datagov/data/data/datagovdata/ss13husd.csv","ACR","numbers","^\d*$"
"/data/datasets/datagov/data/data/datagovdata/ss13husd.csv","RNTM","numbers","^\d*$"
"/data/datasets/datagov/data/data/datagovdata/ss13husd.csv","SMP","numbers","^\d*$"
"/data/datasets/datagov/data/data/datagovdata/ss13husd.csv","SMOCP","numbers","^\d*$"
"/data/datasets/datagov/data/data/datagovdata/ss13husd.csv","FMVP","numbers","^\d*$"
"/data/datasets/datagov/data/data/datagovdata/ss13husd.csv","WGTP72","numbers","^\d*$"
"/data/datasets/datagov/data/data/datagovdata/ss13husd.csv","TOIL","numbers","^\d*$"
"/data/datasets/datagov/data/data/datagovdata/ss13husd.csv","TAXP","numbers","^\d*$"
"/data/datasets/datagov/data/data/datagovdata/ss13husd.csv","FMRGXP","numbers","^\d*$"
"/data/datasets/datagov/data/data/datagovdata/ss13husd.csv","WGTP1","numbers","^\d*$"
"/data/datasets/datagov/data/data/datagovdata/ss13husd.csv","WGTP43","numbers","^\d*$"
"/data/datasets/datagov/data/data/datagovdata/ss13husd.csv","WGTP27","numbers","^\d*$"
"/data/datasets/datagov/data/data/datagovdata/ss13husd.csv","TYPE","numbers","^\d*$"
"/data/datasets/datagov/data/data/datagovdata/ss13husd.csv","WGTP4","numbers","^\d*$"
"/data/datasets/datagov/data/data/datagovdata/ss13husd.csv","FHFLP","numbers","^\d*$"
"/data/datasets/datagov/data/data/datagovdata/ss13husd.csv","FSMP","numbers","^\d*$"
"/data/datasets/datagov/data/data/datagovdata/ss13husd.csv","FRNTP","numbers","^\d*$"
"/data/datasets/datagov/data/data/datagovdata/ss13husd.csv","FSMXHP","numbers","^\d*$"
"/data/datasets/datagov/data/data/datagovdata/ss13husd.csv","WGTP73","numbers","^\d*$"
"/data/datasets/datagov/data/data/datagovdata/ss13husd.csv","HHL","numbers","^\d*$"
"/data/datasets/datagov/data/data/datagovdata/ss13husd.csv","PARTNER","numbers","^\d*$"
"/data/datasets/datagov/data/data/datagovdata/ss13husd.csv","BDSP","numbers","^\d*$"
"/data/datasets/datagov/data/data/datagovdata/ss13husd.csv","WGTP2","numbers","^\d*$"
"/data/datasets/datagov/data/data/datagovdata/ss13husd.csv","ELEP","numbers","^\d*$"
"/data/datasets/datagov/data/data/datagovdata/ss13husd.csv","HUPAC","numbers","^\d*$"
"/data/datasets/datagov/data/data/datagovdata/ss13husd.csv","WATP","numbers","^\d*$"
"/data/datasets/datagov/data/data/datagovdata/ss13husd.csv","FELEP","numbers","^\d*$"
"/data/datasets/datagov/data/data/datagovdata/ss13husd.csv","VACS","numbers","^\d*$"
"/data/datasets/datagov/data/data/datagovdata/ss13husd.csv","FTOILP","numbers","^\d*$"
"/data/datasets/datagov/data/data/datagovdata/ss13husd.csv","FRWATP","numbers","^\d*$"
"/data/datasets/datagov/data/data/datagovdata/ss13husd.csv","OCPIP","numbers","^\d*$"
"/data/datasets/datagov/data/data/datagovdata/ss13husd.csv","WGTP54","numbers","^\d*$"
"/data/datasets/datagov/data/data/datagovdata/ss13husd.csv","FACRP","numbers","^\d*$"
"/data/datasets/datagov/data/data/datagovdata/ss13husd.csv","WGTP48","numbers","^\d*$"
"/data/datasets/datagov/data/data/datagovdata/ss13husd.csv","MV","numbers","^\d*$"
"/data/datasets/datagov/data/data/datagovdata/ss13husd.csv","WGTP45","numbers","^\d*$"
"/data/datasets/datagov/data/data/datagovdata/ss13husd.csv","WGTP47","numbers","^\d*$"
"/data/datasets/datagov/data/data/datagovdata/ss13husd.csv","FSMOCP","numbers","^\d*$"
"/data/datasets/datagov/data/data/datagovdata/ss13husd.csv","BLD","numbers","^\d*$"
"/data/datasets/datagov/data/data/datagovdata/ss13husd.csv","WGTP39","numbers","^\d*$"
"/data/datasets/datagov/data/data/datagovdata/ss13husd.csv","FS","numbers","^\d*$"
"/data/datasets/datagov/data/data/datagovdata/ss13husd.csv","WORKSTAT","numbers","^\d*$"
"/data/datasets/datagov/data/data/datagovdata/ss13husd.csv","FAGSP","numbers","^\d*$"
"/data/datasets/datagov/data/data/datagovdata/ss13husd.csv","WGTP69","numbers","^\d*$"
"/data/datasets/datagov/data/data/datagovdata/ss13husd.csv","FINCP","numbers","^\d*$"
"/data/datasets/datagov/data/data/datagovdata/ss13husd.csv","FRWATPRP","numbers","^\d*$"
"/data/datasets/datagov/data/data/datagovdata/ss13husd.csv","WGTP49","numbers","^\d*$"
"/data/datasets/datagov/data/data/datagovdata/ss13husd.csv","FMRGP","numbers","^\d*$"
"/data/datasets/datagov/data/data/datagovdata/ss13husd.csv","WGTP37","numbers","^\d*$"
"/data/datasets/datagov/data/data/datagovdata/ss13husd.csv","WGTP16","numbers","^\d*$"
"/data/datasets/datagov/data/data/datagovdata/ss13husd.csv","WGTP58","numbers","^\d*$"
"/data/datasets/datagov/data/data/datagovdata/ss13husd.csv","REGION","numbers","^\d*$"
"/data/datasets/datagov/data/data/datagovdata/ss13husd.csv","AGS","numbers","^\d*$"
"/data/datasets/datagov/data/data/datagovdata/ss13husd.csv","FVEHP","numbers","^\d*$"
"/data/datasets/datagov/data/data/datagovdata/ss13husd.csv","WGTP74","numbers","^\d*$"
"/data/datasets/datagov/data/data/datagovdata/ss13husd.csv","RT","uri",".*?$(?<!\.aspx)"
"/data/datasets/datagov/data/data/datagovdata/ss13husd.csv","BATH","numbers","^\d*$"
"/data/datasets/datagov/data/data/datagovdata/ss13husd.csv","FVALP","numbers","^\d*$"
"/data/datasets/datagov/data/data/datagovdata/ss13husd.csv","NR","numbers","^\d*$"
"/data/datasets/datagov/data/data/datagovdata/ss13husd.csv","WIF","numbers","^\d*$"
"/data/datasets/datagov/data/data/datagovdata/ss13husd.csv","FREFRP","numbers","^\d*$"
"/data/datasets/datagov/data/data/datagovdata/ss13husd.csv","WGTP65","numbers","^\d*$"
"/data/datasets/datagov/data/data/datagovdata/ss13husd.csv","WGTP66","numbers","^\d*$"
"/data/datasets/datagov/data/data/datagovdata/ss13husd.csv","WGTP15","numbers","^\d*$"
"/data/datasets/datagov/data/data/datagovdata/ss13husd.csv","ST","numbers","^\d*$"
"/data/datasets/datagov/data/data/datagovdata/ss13husd.csv","BUS","numbers","^\d*$"
"/data/datasets/datagov/data/data/datagovdata/ss13husd.csv","FHINCP","numbers","^\d*$"
"/data/datasets/datagov/data/data/datagovdata/ss13husd.csv","MRGT","numbers","^\d*$"
"/data/datasets/datagov/data/data/datagovdata/ss13husd.csv","FINSP","numbers","^\d*$"
"/data/datasets/datagov/data/data/datagovdata/ss13husd.csv","WGTP68","numbers","^\d*$"
"/data/datasets/datagov/data/data/datagovdata/ss13husd.csv","FFULP","numbers","^\d*$"
"/data/datasets/datagov/data/data/datagovdata/ss13husd.csv","FMHP","numbers","^\d*$"
"/data/datasets/datagov/data/data/datagovdata/ss13husd.csv","WGTP9","numbers","^\d*$"
"/data/datasets/datagov/data/data/datagovdata/ss13husd.csv","WGTP41","numbers","^\d*$"
"/data/datasets/datagov/data/data/datagovdata/ss13husd.csv","WGTP35","numbers","^\d*$"
"/data/datasets/datagov/data/data/datagovdata/ss13husd.csv","WGTP67","numbers","^\d*$"
"/data/datasets/datagov/data/data/datagovdata/ss13husd.csv","WGTP80","numbers","^\d*$"
"/data/datasets/datagov/data/data/datagovdata/ss13husd.csv","WGTP62","numbers","^\d*$"
"/data/datasets/datagov/data/data/datagovdata/ss13husd.csv","FGRNTP","numbers","^\d*$"
"/data/datasets/datagov/data/data/datagovdata/ss13husd.csv","VEH","numbers","^\d*$"
"/data/datasets/datagov/data/data/datagovdata/ss13husd.csv","WGTP30","numbers","^\d*$"
"/data/datasets/datagov/data/data/datagovdata/ss13husd.csv","PUMA10","numbers","^\d*$"
"/data/datasets/datagov/data/data/datagovdata/ss13husd.csv","PSF","numbers","^\d*$"
"/data/datasets/datagov/data/data/datagovdata/ss13husd.csv","FRNTMP","numbers","^\d*$"
"/data/datasets/datagov/data/data/datagovdata/ss13husd.csv","WGTP20","numbers","^\d*$"
"/data/datasets/datagov/data/data/datagovdata/ss13husd.csv","WKEXREL","numbers","^\d*$"
"/data/datasets/datagov/data/data/datagovdata/ss13husd.csv","NP","numbers","^\d*$"
"/data/datasets/datagov/data/data/datagovdata/ss13husd.csv","REFR","numbers","^\d*$"
"/data/datasets/datagov/data/data/datagovdata/ss13husd.csv","FGASP","numbers","^\d*$"
"/data/datasets/datagov/data/data/datagovdata/ss13husd.csv","ADJHSG","numbers","^\d*$"
"/data/datasets/datagov/data/data/datagovdata/ss13husd.csv","STOV","numbers","^\d*$"
"/data/datasets/datagov/data/data/datagovdata/ss13husd.csv","FVACSP","numbers","^\d*$"
"/data/datasets/datagov/data/data/datagovdata/ss13husd.csv","WGTP51","numbers","^\d*$"
"/data/datasets/datagov/data/data/datagovdata/ss13husd.csv","WGTP22","numbers","^\d*$"
"/data/datasets/datagov/data/data/datagovdata/ss13husd.csv","WGTP77","numbers","^\d*$"
"/data/datasets/datagov/data/data/datagovdata/ss13husd.csv","HUGCL","numbers","^\d*$"
"/data/datasets/datagov/data/data/datagovdata/ss13husd.csv","SMX","numbers","^\d*$"
"/data/datasets/datagov/data/data/datagovdata/ss13husd.csv","FBATHP","numbers","^\d*$"
"/data/datasets/datagov/data/data/datagovdata/ss13husd.csv","WGTP76","numbers","^\d*$"
"/data/datasets/datagov/data/data/datagovdata/ss13husd.csv","RMSP","numbers","^\d*$"
"/data/datasets/datagov/data/data/datagovdata/ss13husd.csv","PUMA00","numbers","^\d*$"
"/data/datasets/datagov/data/data/datagovdata/ss13husd.csv","FTELP","numbers","^\d*$"
"/data/datasets/datagov/data/data/datagovdata/ss13husd.csv","R60","numbers","^\d*$"
"/data/datasets/datagov/data/data/datagovdata/ss13husd.csv","FKITP","numbers","^\d*$"
"/data/datasets/datagov/data/data/datagovdata/ss13husd.csv","WGTP12","numbers","^\d*$"
"/data/datasets/datagov/data/data/datagovdata/ss13husd.csv","FCONP","numbers","^\d*$"
"/data/datasets/datagov/data/data/datagovdata/ss13husd.csv","WGTP61","numbers","^\d*$"
"/data/datasets/datagov/data/data/datagovdata/ss13husd.csv","WGTP23","numbers","^\d*$"
"/data/datasets/datagov/data/data/datagovdata/ss13husd.csv","HHT","numbers","^\d*$"
"/data/datasets/datagov/data/data/datagovdata/ss13husd.csv","FYBLP","numbers","^\d*$"
"/data/datasets/datagov/data/data/datagovdata/ss13husd.csv","FBUSP","numbers","^\d*$"
"/data/datasets/datagov/data/data/datagovdata/ss13husd.csv","SVAL","numbers","^\d*$"
"/data/datasets/datagov/data/data/datagovdata/ss13husd.csv","WGTP36","numbers","^\d*$"
"/data/datasets/datagov/data/data/datagovdata/ss13husd.csv","WGTP19","numbers","^\d*$"
"/data/datasets/datagov/data/data/datagovdata/ss13husd.csv","WGTP18","numbers","^\d*$"
"/data/datasets/datagov/data/data/datagovdata/ss13husd.csv","WGTP79","numbers","^\d*$"
"/data/datasets/datagov/data/data/datagovdata/ss13husd.csv","NOC","numbers","^\d*$"
"/data/datasets/datagov/data/data/datagovdata/ss13husd.csv","WGTP46","numbers","^\d*$"
"/data/datasets/datagov/data/data/datagovdata/ss13husd.csv","FTENP","numbers","^\d*$"
"/data/datasets/datagov/data/data/datagovdata/ss13husd.csv","WGTP28","numbers","^\d*$"
"/data/datasets/datagov/data/data/datagovdata/ss13husd.csv","RNTP","numbers","^\d*$"
"/data/datasets/datagov/data/data/datagovdata/ss13husd.csv","DIVISION","numbers","^\d*$"
"/data/datasets/datagov/data/data/datagovdata/ss13husd.csv","ADJINC","numbers","^\d*$"
"/data/datasets/datagov/data/data/datagovdata/ss13husd.csv","HUPARC","numbers","^\d*$"
"/data/datasets/datagov/data/data/datagovdata/ss13husd.csv","MRGP","numbers","^\d*$"
"/data/datasets/datagov/data/data/datagovdata/ss13husd.csv","WGTP55","numbers","^\d*$"
"/data/datasets/datagov/data/data/datagovdata/ss13husd.csv","LNGI","numbers","^\d*$"
"/data/datasets/datagov/data/data/datagovdata/ss13husd.csv","NPP","numbers","^\d*$"
"/data/datasets/datagov/data/data/datagovdata/ss13husd.csv","NRC","numbers","^\d*$"
"/data/datasets/datagov/data/data/datagovdata/ss13husd.csv","WGTP5","numbers","^\d*$"
"/data/datasets/datagov/data/data/datagovdata/ss13husd.csv","WGTP71","numbers","^\d*$"
"/data/datasets/datagov/data/data/datagovdata/ss13husd.csv","YBL","numbers","^\d*$"
"/data/datasets/datagov/data/data/datagovdata/ss13husd.csv","WGTP14","numbers","^\d*$"
"/data/datasets/datagov/data/data/datagovdata/ss13husd.csv","MHP","numbers","^\d*$"
"/data/datasets/datagov/data/data/datagovdata/ss13husd.csv","WGTP64","numbers","^\d*$"
"/data/datasets/datagov/data/data/datagovdata/ss13husd.csv","PLM","numbers","^\d*$"
"/data/datasets/datagov/data/data/datagovdata/ss13husd.csv","WGTP52","numbers","^\d*$"
"/data/datasets/datagov/data/data/datagovdata/ss13husd.csv","WGTP25","numbers","^\d*$"
"/data/datasets/datagov/data/data/datagovdata/ss13husd.csv","RWAT","numbers","^\d*$"
"/data/datasets/datagov/data/data/datagovdata/ss13husd.csv","FBDSP","numbers","^\d*$"
"/data/datasets/datagov/data/data/datagovdata/ss13husd.csv","WGTP53","numbers","^\d*$"
"/data/datasets/datagov/data/data/datagovdata/ss13husd.csv","WGTP57","numbers","^\d*$"
"/data/datasets/datagov/data/data/datagovdata/ss13husd.csv","R18","numbers","^\d*$"
"/data/datasets/datagov/data/data/datagovdata/ss13husd.csv","FBLDP","numbers","^\d*$"
"/data/datasets/datagov/data/data/datagovdata/ss13husd.csv","INSP","numbers","^\d*$"
"/data/datasets/datagov/data/data/datagovdata/ss13husd.csv","WGTP75","numbers","^\d*$"
"/data/datasets/datagov/data/data/datagovdata/ss13husd.csv","FFINCP","numbers","^\d*$"
"/data/datasets/datagov/data/data/datagovdata/ss13husd.csv","WGTP11","numbers","^\d*$"
"/data/datasets/datagov/data/data/datagovdata/ss13husd.csv","SINK","numbers","^\d*$"
"/data/datasets/datagov/data/data/datagovdata/ss13husd.csv","WGTP44","numbers","^\d*$"
"/data/datasets/datagov/data/data/datagovdata/ss13husd.csv","GRPIP","numbers","^\d*$"
"/data/datasets/datagov/data/data/datagovdata/ss13husd.csv","FPARC","numbers","^\d*$"
"/data/datasets/datagov/data/data/datagovdata/ss13husd.csv","WGTP10","numbers","^\d*$"
"/data/datasets/datagov/data/data/datagovdata/ss13husd.csv","HINCP","numbers","^\d*$"
"/data/datasets/datagov/data/data/datagovdata/ss13husd.csv","WGTP56","numbers","^\d*$"
"/data/datasets/datagov/data/data/datagovdata/ss13husd.csv","WGTP17","numbers","^\d*$"
"/data/datasets/datagov/data/data/datagovdata/ss13husd.csv","WGTP42","numbers","^\d*$"
"/data/datasets/datagov/data/data/datagovdata/ss13husd.csv","WGTP38","numbers","^\d*$"
"/data/datasets/datagov/data/data/datagovdata/ss13husd.csv","serialno","numbers","^\d*$"
"/data/datasets/datagov/data/data/datagovdata/ss13husd.csv","MRGX","numbers","^\d*$"
"/data/datasets/datagov/data/data/datagovdata/ss13husd.csv","WGTP78","numbers","^\d*$"
"/data/datasets/datagov/data/data/datagovdata/ss13husd.csv","WGTP7","numbers","^\d*$"
"/data/datasets/datagov/data/data/datagovdata/ss13husd.csv","WGTP29","numbers","^\d*$"
"/data/datasets/datagov/data/data/datagovdata/ss13husd.csv","FPLMP","numbers","^\d*$"
"/data/datasets/datagov/data/data/datagovdata/ss13husd.csv","FTAXP","numbers","^\d*$"
"/data/datasets/datagov/data/data/datagovdata/ss13husd.csv","GASP","numbers","^\d*$"
"/data/datasets/datagov/data/data/datagovdata/ss13husd.csv","WGTP40","numbers","^\d*$"
"/data/datasets/datagov/data/data/datagovdata/ss13husd.csv","WGTP63","numbers","^\d*$"
"/data/datasets/datagov/data/data/datagovdata/ss13husd.csv","WGTP32","numbers","^\d*$"
"/data/datasets/datagov/data/data/datagovdata/ss13husd.csv","RWATPR","numbers","^\d*$"
"/data/datasets/datagov/data/data/datagovdata/ss13husd.csv","WGTP59","numbers","^\d*$"
"/data/datasets/datagov/data/data/datagovdata/ss13husd.csv","KIT","numbers","^\d*$"
"/data/datasets/datagov/data/data/datagovdata/ss13husd.csv","WGTP31","numbers","^\d*$"
"/data/datasets/datagov/data/data/datagovdata/ss13husd.csv","VALP","numbers","^\d*$"
"/data/datasets/datagov/data/data/datagovdata/ss13husd.csv","FES","numbers","^\d*$"
"/data/datasets/datagov/data/data/datagovdata/ss13husd.csv","GRNTP","numbers","^\d*$"
"/data/datasets/datagov/data/data/datagovdata/ss13husd.csv","WGTP6","numbers","^\d*$"
"/data/datasets/datagov/data/data/datagovdata/ss13husd.csv","MULTG","numbers","^\d*$"
"/data/datasets/datagov/data/data/datagovdata/ss13husd.csv","WGTP24","numbers","^\d*$"
"/data/datasets/datagov/data/data/datagovdata/ss13husd.csv","WGTP3","numbers","^\d*$"
"/data/datasets/datagov/data/data/datagovdata/ss13husd.csv","NPF","numbers","^\d*$"
"/data/datasets/datagov/data/data/datagovdata/ss13husd.csv","FSTOVP","numbers","^\d*$"
"/data/datasets/datagov/data/data/datagovdata/ss13husd.csv","WGTP33","numbers","^\d*$"
"/data/datasets/datagov/data/data/datagovdata/ss13husd.csv","RESMODE","numbers","^\d*$"
"/data/datasets/datagov/data/data/datagovdata/ss13husd.csv","WGTP50","numbers","^\d*$"
"/data/datasets/datagov/data/data/datagovdata/ss13husd.csv","TEN","numbers","^\d*$"
"/data/datasets/datagov/data/data/datagovdata/ss13husd.csv","SRNT","numbers","^\d*$"
"/data/datasets/datagov/data/data/datagovdata/ss13husd.csv","WGTP8","numbers","^\d*$"
"/data/datasets/datagov/data/data/datagovdata/ss13husd.csv","CONP","numbers","^\d*$"
"/data/datasets/datagov/data/data/datagovdata/ss13husd.csv","FSINKP","numbers","^\d*$"
"/data/datasets/datagov/data/data/datagovdata/ss13husd.csv","WGTP60","numbers","^\d*$"
"/data/datasets/datagov/data/data/datagovdata/ss13husd.csv","HUPAOC","numbers","^\d*$"
"/data/datasets/datagov/data/data/datagovdata/ss13husd.csv","FMRGIP","numbers","^\d*$"
"/data/datasets/datagov/data/data/datagovdata/ss13husd.csv","R65","numbers","^\d*$"
"/data/datasets/datagov/data/data/datagovdata/ss13husd.csv","FULP","numbers","^\d*$"
"/data/datasets/datagov/data/data/datagovdata/ss13husd.csv","FFSP","numbers","^\d*$"
"/data/datasets/datagov/data/data/datagovdata/ss13husd.csv","TEL","numbers","^\d*$"
"/data/datasets/datagov/data/data/datagovdata/ss13husd.csv","MRGI","numbers","^\d*$"
"/data/datasets/datagov/data/data/datagovdata/ss13husd.csv","WGTP21","numbers","^\d*$"
"/data/datasets/datagov/data/data/datagovdata/ss13husd.csv","WGTP34","numbers","^\d*$"
"/data/datasets/datagov/data/data/datagovdata/ss13husd.csv","WGTP13","numbers","^\d*$"
"/data/datasets/datagov/data/data/datagovdata/ss13husd.csv","FWATP","numbers","^\d*$"
"/data/datasets/datagov/data/data/datagovdata/ss13husd.csv","WGTP","numbers","^\d*$"
"/data/datasets/datagov/data/data/datagovdata/ss13husd.csv","FMRGTP","numbers","^\d*$"
"/data/datasets/datagov/data/data/datagovdata/ss13husd.csv","HFL","numbers","^\d*$"
"/data/datasets/datagov/data/data/datagovdata/ss13husd.csv","FSMXSP","numbers","^\d*$"
