"file_name","column_name","label","regex"
"/data/datasets/datagov/data/data/datagovdata/total-king-county-population-2000-2010-331a3.csv","Population 2010","numbers","^(\+|-)?\d+$"
"/data/datasets/datagov/data/data/datagovdata/total-king-county-population-2000-2010-331a3.csv","Percent Change","uri",".*?$(?<!\.aspx)"
"/data/datasets/datagov/data/data/datagovdata/total-king-county-population-2000-2010-331a3.csv","Population 2000","numbers","^(\+|-)?\d+$"
"/data/datasets/datagov/data/data/datagovdata/total-king-county-population-2000-2010-331a3.csv","Demographic","uri",".*?$(?<!\.aspx)"
"/data/datasets/datagov/data/data/datagovdata/total-king-county-population-2000-2010-331a3.csv","2010 Percent","uri",".*?$(?<!\.aspx)"
"/data/datasets/datagov/data/data/datagovdata/total-king-county-population-2000-2010-331a3.csv","Change","numbers","^(\+|-)?\d+$"
