"file_name","column_name","label","regex"
"/data/datasets/datagov/data/data/datagovdata/new-york-state-budget-vetoes-2015-16.csv","Bill","uri",".*?$(?<!\.aspx)"
"/data/datasets/datagov/data/data/datagovdata/new-york-state-budget-vetoes-2015-16.csv","Agency","uri",".*?$(?<!\.aspx)"
"/data/datasets/datagov/data/data/datagovdata/new-york-state-budget-vetoes-2015-16.csv","Amount","numbers","^\d*$"
"/data/datasets/datagov/data/data/datagovdata/new-york-state-budget-vetoes-2015-16.csv","Veto Number","numbers","^\d*$"
"/data/datasets/datagov/data/data/datagovdata/new-york-state-budget-vetoes-2015-16.csv","Line From","numbers","^\d*$"
"/data/datasets/datagov/data/data/datagovdata/new-york-state-budget-vetoes-2015-16.csv","Fund Type","uri",".*?$(?<!\.aspx)"
"/data/datasets/datagov/data/data/datagovdata/new-york-state-budget-vetoes-2015-16.csv","Page To","numbers","^\d*$"
"/data/datasets/datagov/data/data/datagovdata/new-york-state-budget-vetoes-2015-16.csv","Page From","numbers","^\d*$"
"/data/datasets/datagov/data/data/datagovdata/new-york-state-budget-vetoes-2015-16.csv","Line To","numbers","^\d*$"
"/data/datasets/datagov/data/data/datagovdata/new-york-state-budget-vetoes-2015-16.csv","Purpose","strings","[^""\r\n]*"
"/data/datasets/datagov/data/data/datagovdata/new-york-state-budget-vetoes-2015-16.csv","Justification Text","strings","[^""\r\n]*"
