"file_name","column_name","label","regex"
"/data/datasets/chemical/chembl_21/csvdata/public.compound_properties.csv","hba_lipinski","numbers","^(\d|,)*\.?\d*$"
"/data/datasets/chemical/chembl_21/csvdata/public.compound_properties.csv","num_lipinski_ro5_violations","numbers","^(\d|,)*\.?\d*$"
"/data/datasets/chemical/chembl_21/csvdata/public.compound_properties.csv","num_ro5_violations","numbers","^(\d|,)*\.?\d*$"
"/data/datasets/chemical/chembl_21/csvdata/public.compound_properties.csv","mw_monoisotopic","numbers","^(\d|,)*\.?\d*$"
"/data/datasets/chemical/chembl_21/csvdata/public.compound_properties.csv","acd_logp","numbers","^(\d|,)*\.?\d*$"
"/data/datasets/chemical/chembl_21/csvdata/public.compound_properties.csv","aromatic_rings","numbers","^(\d|,)*\.?\d*$"
"/data/datasets/chemical/chembl_21/csvdata/public.compound_properties.csv","hbd_lipinski","numbers","^(\d|,)*\.?\d*$"
"/data/datasets/chemical/chembl_21/csvdata/public.compound_properties.csv","alogp","numbers","^(\d|,)*\.?\d*$"
"/data/datasets/chemical/chembl_21/csvdata/public.compound_properties.csv","acd_most_apka","numbers","^(\d|,)*\.?\d*$"
"/data/datasets/chemical/chembl_21/csvdata/public.compound_properties.csv","ro3_pass","uri",".*?$(?<!\.aspx)"
"/data/datasets/chemical/chembl_21/csvdata/public.compound_properties.csv","acd_logd","numbers","^(\d|,)*\.?\d*$"
"/data/datasets/chemical/chembl_21/csvdata/public.compound_properties.csv","molecular_species","uri",".*?$(?<!\.aspx)"
"/data/datasets/chemical/chembl_21/csvdata/public.compound_properties.csv","qed_weighted","numbers","^(\d|,)*\.?\d*$"
"/data/datasets/chemical/chembl_21/csvdata/public.compound_properties.csv","hba","numbers","^(\d|,)*\.?\d*$"
"/data/datasets/chemical/chembl_21/csvdata/public.compound_properties.csv","full_molformula","uri",".*?$(?<!\.aspx)"
"/data/datasets/chemical/chembl_21/csvdata/public.compound_properties.csv","full_mwt","numbers","^(\d|,)*\.?\d*$"
"/data/datasets/chemical/chembl_21/csvdata/public.compound_properties.csv","psa","numbers","^(\d|,)*\.?\d*$"
"/data/datasets/chemical/chembl_21/csvdata/public.compound_properties.csv","molregno","numbers","^(\d|,)*\.?\d*$"
"/data/datasets/chemical/chembl_21/csvdata/public.compound_properties.csv","heavy_atoms","numbers","^(\d|,)*\.?\d*$"
"/data/datasets/chemical/chembl_21/csvdata/public.compound_properties.csv","num_alerts","numbers","^(\d|,)*\.?\d*$"
"/data/datasets/chemical/chembl_21/csvdata/public.compound_properties.csv","hbd","numbers","^(\d|,)*\.?\d*$"
"/data/datasets/chemical/chembl_21/csvdata/public.compound_properties.csv","rtb","numbers","^(\d|,)*\.?\d*$"
"/data/datasets/chemical/chembl_21/csvdata/public.compound_properties.csv","acd_most_bpka","numbers","^(\d|,)*\.?\d*$"
"/data/datasets/chemical/chembl_21/csvdata/public.compound_properties.csv","mw_freebase","numbers","^(\d|,)*\.?\d*$"
