"file_name","column_name","label","regex"
"/data/datasets/datagov/data/data/datagovdata/idot-aeronautics-copy-of-flight-instruction-locations-30c7d.csv","Phone #","uri",".*?$(?<!\.aspx)"
"/data/datasets/datagov/data/data/datagovdata/idot-aeronautics-copy-of-flight-instruction-locations-30c7d.csv","Multi-Eng.","uri",".*?$(?<!\.aspx)"
"/data/datasets/datagov/data/data/datagovdata/idot-aeronautics-copy-of-flight-instruction-locations-30c7d.csv","Flight School Name","uri",".*?$(?<!\.aspx)"
"/data/datasets/datagov/data/data/datagovdata/idot-aeronautics-copy-of-flight-instruction-locations-30c7d.csv","E-Mail","uri",".*?$(?<!\.aspx)"
"/data/datasets/datagov/data/data/datagovdata/idot-aeronautics-copy-of-flight-instruction-locations-30c7d.csv","Airport","strings","[^""\r\n]*"
"/data/datasets/datagov/data/data/datagovdata/idot-aeronautics-copy-of-flight-instruction-locations-30c7d.csv","Sport","uri",".*?$(?<!\.aspx)"
"/data/datasets/datagov/data/data/datagovdata/idot-aeronautics-copy-of-flight-instruction-locations-30c7d.csv","Gliders","uri",".*?$(?<!\.aspx)"
"/data/datasets/datagov/data/data/datagovdata/idot-aeronautics-copy-of-flight-instruction-locations-30c7d.csv","Website","uri",".*?$(?<!\.aspx)"
"/data/datasets/datagov/data/data/datagovdata/idot-aeronautics-copy-of-flight-instruction-locations-30c7d.csv","City","uri",".*?$(?<!\.aspx)"
"/data/datasets/datagov/data/data/datagovdata/idot-aeronautics-copy-of-flight-instruction-locations-30c7d.csv","Ultralights","uri",".*?$(?<!\.aspx)"
