"file_name","column_name","label","regex"
"/data/datasets/datagov/data/data/datagovdata/resources-f9146.csv","2013 Adopted","numbers","^(\+|-)?\d+$"
"/data/datasets/datagov/data/data/datagovdata/resources-f9146.csv","RevenueTableCategory","uri",".*?$(?<!\.aspx)"
"/data/datasets/datagov/data/data/datagovdata/resources-f9146.csv","2014 Endorsed","numbers","^(\+|-)?\d+$"
"/data/datasets/datagov/data/data/datagovdata/resources-f9146.csv","Dept","uri",".*?$(?<!\.aspx)"
"/data/datasets/datagov/data/data/datagovdata/resources-f9146.csv","FundName","uri",".*?$(?<!\.aspx)"
"/data/datasets/datagov/data/data/datagovdata/resources-f9146.csv","2012 Actual","numbers","^(\+|-)?\d+$"
"/data/datasets/datagov/data/data/datagovdata/resources-f9146.csv","2014 Proposed","numbers","^(\+|-)?\d+$"
"/data/datasets/datagov/data/data/datagovdata/resources-f9146.csv","RevenueSourceName","strings","[^""\r\n]*"
