"file_name","column_name","label","regex"
"/data/datasets/datagov/data/data/datagovdata/summer-food-service-program-participation.csv","Summer Food Service Program 2015 Participation Goal","numbers","^[-+]?\d+(\.\d+)?|[-+]?\.\d+?$"
"/data/datasets/datagov/data/data/datagovdata/summer-food-service-program-participation.csv"," Year","uri",".*?$(?<!\.aspx)"
"/data/datasets/datagov/data/data/datagovdata/summer-food-service-program-participation.csv","Free/Reduced Lunch Participation","numbers","^[-+]?\d+(\.\d+)?|[-+]?\.\d+?$"
"/data/datasets/datagov/data/data/datagovdata/summer-food-service-program-participation.csv","Summer Food Service Program ADP","numbers","^[-+]?\d+(\.\d+)?|[-+]?\.\d+?$"
"/data/datasets/datagov/data/data/datagovdata/summer-food-service-program-participation.csv","% F/R Lunch Participants that eat Summer Meals","numbers","^[-+]?\d+(\.\d+)?|[-+]?\.\d+?$"
