"file_name","column_name","label","regex"
"/data/datasets/datagov/data/data/datagovdata/pipeline-q2-2012-65ac2.csv","LANDUSE","strings","[^""\r\n]*"
"/data/datasets/datagov/data/data/datagovdata/pipeline-q2-2012-65ac2.csv","Location 1","uri","^[^\\\/\?\*\""\'\>\<\:\|]*$"
"/data/datasets/datagov/data/data/datagovdata/pipeline-q2-2012-65ac2.csv","CONTACTCITY","uri","^[^\\\/\?\*\""\'\>\<\:\|]*$"
"/data/datasets/datagov/data/data/datagovdata/pipeline-q2-2012-65ac2.csv","Units","numbers","^-?\d*(\.\d+)?$"
"/data/datasets/datagov/data/data/datagovdata/pipeline-q2-2012-65ac2.csv","FirstFiled","uri","^[^\\\/\?\*\""\'\>\<\:\|]*$"
"/data/datasets/datagov/data/data/datagovdata/pipeline-q2-2012-65ac2.csv","Net Office","numbers","^-?\d*(\.\d+)?$"
"/data/datasets/datagov/data/data/datagovdata/pipeline-q2-2012-65ac2.csv","Net Prod, Dist, Rep","numbers","^-?\d*(\.\d+)?$"
"/data/datasets/datagov/data/data/datagovdata/pipeline-q2-2012-65ac2.csv","Net Cult, Inst, Educ","numbers","^-?\d*(\.\d+)?$"
"/data/datasets/datagov/data/data/datagovdata/pipeline-q2-2012-65ac2.csv","CONTACTPHONE","uri","^[^\\\/\?\*\""\'\>\<\:\|]*$"
"/data/datasets/datagov/data/data/datagovdata/pipeline-q2-2012-65ac2.csv","ObjectID","numbers","^-?\d*(\.\d+)?$"
"/data/datasets/datagov/data/data/datagovdata/pipeline-q2-2012-65ac2.csv","Net Added SF","numbers","^-?\d*(\.\d+)?$"
"/data/datasets/datagov/data/data/datagovdata/pipeline-q2-2012-65ac2.csv","Planning Neighborhood","strings","[^""\r\n]*"
"/data/datasets/datagov/data/data/datagovdata/pipeline-q2-2012-65ac2.csv","LOT","uri","^[^\\\/\?\*\""\'\>\<\:\|]*$"
"/data/datasets/datagov/data/data/datagovdata/pipeline-q2-2012-65ac2.csv","Planning ID","numbers","^-?\d*(\.\d+)?$"
"/data/datasets/datagov/data/data/datagovdata/pipeline-q2-2012-65ac2.csv","Net Visitor","numbers","^-?\d*(\.\d+)?$"
"/data/datasets/datagov/data/data/datagovdata/pipeline-q2-2012-65ac2.csv","Total GSF (Commercial)","numbers","^-?\d*(\.\d+)?$"
"/data/datasets/datagov/data/data/datagovdata/pipeline-q2-2012-65ac2.csv","Medical","numbers","^-?\d*(\.\d+)?$"
"/data/datasets/datagov/data/data/datagovdata/pipeline-q2-2012-65ac2.csv","Best Date","uri","^[^\\\/\?\*\""\'\>\<\:\|]*$"
"/data/datasets/datagov/data/data/datagovdata/pipeline-q2-2012-65ac2.csv","Ret, Ent","numbers","^-?\d*(\.\d+)?$"
"/data/datasets/datagov/data/data/datagovdata/pipeline-q2-2012-65ac2.csv","Traffic Analysis Zone","numbers","^-?\d*(\.\d+)?$"
"/data/datasets/datagov/data/data/datagovdata/pipeline-q2-2012-65ac2.csv","Sponsor Name","uri","^[^\\\/\?\*\""\'\>\<\:\|]*$"
"/data/datasets/datagov/data/data/datagovdata/pipeline-q2-2012-65ac2.csv","Best Stat","uri","^[^\\\/\?\*\""\'\>\<\:\|]*$"
"/data/datasets/datagov/data/data/datagovdata/pipeline-q2-2012-65ac2.csv","Block Lot","uri","^[^\\\/\?\*\""\'\>\<\:\|]*$"
"/data/datasets/datagov/data/data/datagovdata/pipeline-q2-2012-65ac2.csv","BLOCK","uri","^[^\\\/\?\*\""\'\>\<\:\|]*$"
"/data/datasets/datagov/data/data/datagovdata/pipeline-q2-2012-65ac2.csv","DBI Project Description","strings","[^""\r\n]*"
"/data/datasets/datagov/data/data/datagovdata/pipeline-q2-2012-65ac2.csv","Net Medical","numbers","^-?\d*(\.\d+)?$"
"/data/datasets/datagov/data/data/datagovdata/pipeline-q2-2012-65ac2.csv","Sponsor Firm","strings","[^""\r\n]*"
"/data/datasets/datagov/data/data/datagovdata/pipeline-q2-2012-65ac2.csv","DBI Filed","uri","^[^\\\/\?\*\""\'\>\<\:\|]*$"
"/data/datasets/datagov/data/data/datagovdata/pipeline-q2-2012-65ac2.csv","Planning Project Description","strings","[^""\r\n]*"
"/data/datasets/datagov/data/data/datagovdata/pipeline-q2-2012-65ac2.csv","HEIGHTLIMIT","strings","[^""\r\n]*"
"/data/datasets/datagov/data/data/datagovdata/pipeline-q2-2012-65ac2.csv","Prod, Dist, Rep","numbers","^-?\d*(\.\d+)?$"
"/data/datasets/datagov/data/data/datagovdata/pipeline-q2-2012-65ac2.csv","Net Added Units","numbers","^-?\d*(\.\d+)?$"
"/data/datasets/datagov/data/data/datagovdata/pipeline-q2-2012-65ac2.csv","Zoning Generalized","uri","^[^\\\/\?\*\""\'\>\<\:\|]*$"
"/data/datasets/datagov/data/data/datagovdata/pipeline-q2-2012-65ac2.csv","DBI Permit ID","numbers","^-?\d*(\.\d+)?$"
"/data/datasets/datagov/data/data/datagovdata/pipeline-q2-2012-65ac2.csv","ZONING","uri","^[^\\\/\?\*\""\'\>\<\:\|]*$"
"/data/datasets/datagov/data/data/datagovdata/pipeline-q2-2012-65ac2.csv","Net Ret, Ent","numbers","^-?\d*(\.\d+)?$"
"/data/datasets/datagov/data/data/datagovdata/pipeline-q2-2012-65ac2.csv","EntitlementStatus","numbers","^-?\d*(\.\d+)?$"
"/data/datasets/datagov/data/data/datagovdata/pipeline-q2-2012-65ac2.csv","Cult, Inst, Educ","numbers","^-?\d*(\.\d+)?$"
"/data/datasets/datagov/data/data/datagovdata/pipeline-q2-2012-65ac2.csv","FULLNAME","uri","^[^\\\/\?\*\""\'\>\<\:\|]*$"
"/data/datasets/datagov/data/data/datagovdata/pipeline-q2-2012-65ac2.csv","sort","strings","[^""\r\n]*"
"/data/datasets/datagov/data/data/datagovdata/pipeline-q2-2012-65ac2.csv","CONTACTADD","uri","^[^\\\/\?\*\""\'\>\<\:\|]*$"
"/data/datasets/datagov/data/data/datagovdata/pipeline-q2-2012-65ac2.csv","Zoning Simplified","uri","^[^\\\/\?\*\""\'\>\<\:\|]*$"
"/data/datasets/datagov/data/data/datagovdata/pipeline-q2-2012-65ac2.csv","Office","numbers","^-?\d*(\.\d+)?$"
"/data/datasets/datagov/data/data/datagovdata/pipeline-q2-2012-65ac2.csv","Planning Filed","uri","^[^\\\/\?\*\""\'\>\<\:\|]*$"
"/data/datasets/datagov/data/data/datagovdata/pipeline-q2-2012-65ac2.csv","Visitor","numbers","^-?\d*(\.\d+)?$"
