"file_name","column_name","label","regex"
"/data/datasets/datagov/data/data/datagovdata/ability-to-speak-english-by-marital-status-a49a2.csv","Not at All","numbers","^\d*$"
"/data/datasets/datagov/data/data/datagovdata/ability-to-speak-english-by-marital-status-a49a2.csv","Marital Status","uri",".*?$(?<!\.aspx)"
"/data/datasets/datagov/data/data/datagovdata/ability-to-speak-english-by-marital-status-a49a2.csv","Not Well","numbers","^\d*$"
"/data/datasets/datagov/data/data/datagovdata/ability-to-speak-english-by-marital-status-a49a2.csv","Well","numbers","^\d*$"
