"file_name","column_name","label","regex"
"/data/datasets/datagov/data/data/datagovdata/gnispop.csv","DATE_EDITE","strings","[^""\r\n]*"
"/data/datasets/datagov/data/data/datagovdata/gnispop.csv","PR_LON_DEC","numbers","^(\d|,)*\.?\d*$"
"/data/datasets/datagov/data/data/datagovdata/gnispop.csv","MAP_NAME","uri",".*?$(?<!\.aspx)"
"/data/datasets/datagov/data/data/datagovdata/gnispop.csv","PR_LAT_DEC","numbers","^(\d|,)*\.?\d*$"
"/data/datasets/datagov/data/data/datagovdata/gnispop.csv","FEATURE_CL","uri",".*?$(?<!\.aspx)"
"/data/datasets/datagov/data/data/datagovdata/gnispop.csv","FEATURE_ID","numbers","^(\d|,)*\.?\d*$"
"/data/datasets/datagov/data/data/datagovdata/gnispop.csv","PR_LON_DMS","address_or_phone","(\d{4,6})"
"/data/datasets/datagov/data/data/datagovdata/gnispop.csv","COUNTY_NAM","uri",".*?$(?<!\.aspx)"
"/data/datasets/datagov/data/data/datagovdata/gnispop.csv","SO_LAT_DEC","numbers","^(\d|,)*\.?\d*$"
"/data/datasets/datagov/data/data/datagovdata/gnispop.csv","STATE_ALPH","uri",".*?$(?<!\.aspx)"
"/data/datasets/datagov/data/data/datagovdata/gnispop.csv","COUNTY_NUM","numbers","^(\d|,)*\.?\d*$"
"/data/datasets/datagov/data/data/datagovdata/gnispop.csv","PR_LAT_DMS","address_or_phone","(\d{4,6})"
"/data/datasets/datagov/data/data/datagovdata/gnispop.csv","DATE_CREAT","address_or_phone","(\d{4,6})"
"/data/datasets/datagov/data/data/datagovdata/gnispop.csv","FEATURE_NA","uri",".*?$(?<!\.aspx)"
"/data/datasets/datagov/data/data/datagovdata/gnispop.csv","STATE_NUM","numbers","^(\d|,)*\.?\d*$"
"/data/datasets/datagov/data/data/datagovdata/gnispop.csv","ELEV_IN_FT","numbers","^(\d|,)*\.?\d*$"
"/data/datasets/datagov/data/data/datagovdata/gnispop.csv","SO_LAT_DMS","numbers","^(\d|,)*\.?\d*$"
"/data/datasets/datagov/data/data/datagovdata/gnispop.csv","SO_LON_DMS","numbers","^(\d|,)*\.?\d*$"
"/data/datasets/datagov/data/data/datagovdata/gnispop.csv","ELEV_IN_M","numbers","^(\d|,)*\.?\d*$"
"/data/datasets/datagov/data/data/datagovdata/gnispop.csv","SO_LON_DEC","numbers","^(\d|,)*\.?\d*$"
