"file_name","column_name","label","regex"
"/data/datasets/datagov/data/data/datagovdata/sandy-damage-estimates-based-on-fema-ia-registrant-inspection-data.csv","FL_4plus","numbers","^(\d|,)*\.?\d*$"
"/data/datasets/datagov/data/data/datagovdata/sandy-damage-estimates-based-on-fema-ia-registrant-inspection-data.csv","No_inspect","numbers","^(\d|,)*\.?\d*$"
"/data/datasets/datagov/data/data/datagovdata/sandy-damage-estimates-based-on-fema-ia-registrant-inspection-data.csv","FL_1_to_4","numbers","^(\d|,)*\.?\d*$"
"/data/datasets/datagov/data/data/datagovdata/sandy-damage-estimates-based-on-fema-ia-registrant-inspection-data.csv","dmg_o_mf","numbers","^(\d|,)*\.?\d*$"
"/data/datasets/datagov/data/data/datagovdata/sandy-damage-estimates-based-on-fema-ia-registrant-inspection-data.csv","C_tot_hsg","numbers","^(\d|,)*\.?\d*$"
"/data/datasets/datagov/data/data/datagovdata/sandy-damage-estimates-based-on-fema-ia-registrant-inspection-data.csv","dmg_o_miss","numbers","^(\d|,)*\.?\d*$"
"/data/datasets/datagov/data/data/datagovdata/sandy-damage-estimates-based-on-fema-ia-registrant-inspection-data.csv","FL_B_ge_2","numbers","^(\d|,)*\.?\d*$"
"/data/datasets/datagov/data/data/datagovdata/sandy-damage-estimates-based-on-fema-ia-registrant-inspection-data.csv","Total_regi","numbers","^(\d|,)*\.?\d*$"
"/data/datasets/datagov/data/data/datagovdata/sandy-damage-estimates-based-on-fema-ia-registrant-inspection-data.csv","total_dmg","numbers","^(\d|,)*\.?\d*$"
"/data/datasets/datagov/data/data/datagovdata/sandy-damage-estimates-based-on-fema-ia-registrant-inspection-data.csv","dmg_r_miss","numbers","^(\d|,)*\.?\d*$"
"/data/datasets/datagov/data/data/datagovdata/sandy-damage-estimates-based-on-fema-ia-registrant-inspection-data.csv","dmg_o_ins","numbers","^(\d|,)*\.?\d*$"
"/data/datasets/datagov/data/data/datagovdata/sandy-damage-estimates-based-on-fema-ia-registrant-inspection-data.csv","GEOID","numbers","^(\d|,)*\.?\d*$"
"/data/datasets/datagov/data/data/datagovdata/sandy-damage-estimates-based-on-fema-ia-registrant-inspection-data.csv","dmg_r_mf","numbers","^(\d|,)*\.?\d*$"
"/data/datasets/datagov/data/data/datagovdata/sandy-damage-estimates-based-on-fema-ia-registrant-inspection-data.csv","dmg_o_sf","numbers","^(\d|,)*\.?\d*$"
"/data/datasets/datagov/data/data/datagovdata/sandy-damage-estimates-based-on-fema-ia-registrant-inspection-data.csv","C_vac_sea","numbers","^(\d|,)*\.?\d*$"
"/data/datasets/datagov/data/data/datagovdata/sandy-damage-estimates-based-on-fema-ia-registrant-inspection-data.csv","pct_dmg_ns","numbers","^(\d|,)*\.?\d*$"
"/data/datasets/datagov/data/data/datagovdata/sandy-damage-estimates-based-on-fema-ia-registrant-inspection-data.csv","FL_B_lt_2","numbers","^(\d|,)*\.?\d*$"
"/data/datasets/datagov/data/data/datagovdata/sandy-damage-estimates-based-on-fema-ia-registrant-inspection-data.csv","non_flood_","numbers","^(\d|,)*\.?\d*$"
"/data/datasets/datagov/data/data/datagovdata/sandy-damage-estimates-based-on-fema-ia-registrant-inspection-data.csv","FL_LT_1","numbers","^(\d|,)*\.?\d*$"
"/data/datasets/datagov/data/data/datagovdata/sandy-damage-estimates-based-on-fema-ia-registrant-inspection-data.csv","dmg_o_ni","numbers","^(\d|,)*\.?\d*$"
"/data/datasets/datagov/data/data/datagovdata/sandy-damage-estimates-based-on-fema-ia-registrant-inspection-data.csv","dmg_r_sf","numbers","^(\d|,)*\.?\d*$"
