"file_name","column_name","label","regex"
"/data/datasets/datagov/data/data/datagovdata/health-and-human-services-prequalification-catalog-b04f0.csv","Service Description","strings","[^""\r\n]*"
"/data/datasets/datagov/data/data/datagovdata/health-and-human-services-prequalification-catalog-b04f0.csv","Service Area","strings","[^""\r\n]*"
