"file_name","column_name","label","regex"
"/data/datasets/datagov/data/data/datagovdata/table-13-wastewater-recycled.csv","Wastewater reused (MGD)","numbers","(^([0-9]+[.]+[0-9]+)|(0)$)"
"/data/datasets/datagov/data/data/datagovdata/table-13-wastewater-recycled.csv","Percentage Reused","numbers","(^([0-9]+[.]+[0-9]+)|(0)$)"
"/data/datasets/datagov/data/data/datagovdata/table-13-wastewater-recycled.csv","Calendar Year","numbers","(^([0-9]+[.]+[0-9]+)|(0)$)"
"/data/datasets/datagov/data/data/datagovdata/table-13-wastewater-recycled.csv","#","numbers","(^([0-9]+[.]+[0-9]+)|(0)$)"
"/data/datasets/datagov/data/data/datagovdata/table-13-wastewater-recycled.csv","Total Wastewater Treated (MGD)*","numbers","(^([0-9]+[.]+[0-9]+)|(0)$)"
