"file_name","column_name","label","regex"
"/data/datasets/datagov/data/data/datagovdata/g20123oh.csv","0000001","numbers","^(\d|,)*\.?\d*$"
"/data/datasets/datagov/data/data/datagovdata/g20123oh.csv","040","numbers","^(\d|,)*\.?\d*$"
"/data/datasets/datagov/data/data/datagovdata/g20123oh.csv","Unnamed: 26","numbers","^(\d|,)*\.?\d*$"
"/data/datasets/datagov/data/data/datagovdata/g20123oh.csv","Unnamed: 41","numbers","^(\d|,)*\.?\d*$"
"/data/datasets/datagov/data/data/datagovdata/g20123oh.csv","Unnamed: 43","uri",".*?$(?<!\.aspx)"
"/data/datasets/datagov/data/data/datagovdata/g20123oh.csv","ACSSF","uri",".*?$(?<!\.aspx)"
"/data/datasets/datagov/data/data/datagovdata/g20123oh.csv","Unnamed: 11","numbers","^(\d|,)*\.?\d*$"
"/data/datasets/datagov/data/data/datagovdata/g20123oh.csv","00","uri",".*?$(?<!\.aspx)"
"/data/datasets/datagov/data/data/datagovdata/g20123oh.csv","04000US39","uri",".*?$(?<!\.aspx)"
"/data/datasets/datagov/data/data/datagovdata/g20123oh.csv","Unnamed: 46","numbers","^(\d|,)*\.?\d*$"
"/data/datasets/datagov/data/data/datagovdata/g20123oh.csv","Unnamed: 22","numbers","^(\d|,)*\.?\d*$"
"/data/datasets/datagov/data/data/datagovdata/g20123oh.csv","OH","uri",".*?$(?<!\.aspx)"
"/data/datasets/datagov/data/data/datagovdata/g20123oh.csv","39","numbers","^(\d|,)*\.?\d*$"
"/data/datasets/datagov/data/data/datagovdata/g20123oh.csv","Unnamed: 12","numbers","^(\d|,)*\.?\d*$"
"/data/datasets/datagov/data/data/datagovdata/g20123oh.csv","Ohio","uri",".*?$(?<!\.aspx)"
"/data/datasets/datagov/data/data/datagovdata/g20123oh.csv","Unnamed: 10","numbers","^(\d|,)*\.?\d*$"
"/data/datasets/datagov/data/data/datagovdata/g20123oh.csv","Unnamed: 32","numbers","^(\d|,)*\.?\d*$"
"/data/datasets/datagov/data/data/datagovdata/g20123oh.csv","Unnamed: 42","uri",".*?$(?<!\.aspx)"
