"file_name","column_name","label","regex"
"/data/datasets/datagov/data/data/datagovdata/directory-of-nycha-norc-program-core-services-5670f.csv","Type of Service","uri",".*?$(?<!\.aspx)"
"/data/datasets/datagov/data/data/datagovdata/directory-of-nycha-norc-program-core-services-5670f.csv","Year","numbers","^(\d|,)*\.?\d*$"
"/data/datasets/datagov/data/data/datagovdata/directory-of-nycha-norc-program-core-services-5670f.csv","Residents","numbers","^(\d|,)*\.?\d*$"
"/data/datasets/datagov/data/data/datagovdata/directory-of-nycha-norc-program-core-services-5670f.csv","Units of Service","numbers","^(\d|,)*\.?\d*$"
