"file_name","column_name","label","regex"
"/data/datasets/datagov/data/data/datagovdata/idha-fy11-vr-served-by-county-04b34.csv","County","uri",".*?$(?<!\.aspx)"
"/data/datasets/datagov/data/data/datagovdata/idha-fy11-vr-served-by-county-04b34.csv","Number of Persons with Disabilities Receiving Employment Services","numbers","^\d*$"
