"file_name","column_name","label","regex"
"/data/datasets/datagov/data/data/datagovdata/licensed-vetrinarians-statewide-77887.csv","LICENSE DATE","strings","[^""\r\n]*"
"/data/datasets/datagov/data/data/datagovdata/licensed-vetrinarians-statewide-77887.csv","LOCATION","uri",".*?$(?<!\.aspx)"
"/data/datasets/datagov/data/data/datagovdata/licensed-vetrinarians-statewide-77887.csv","BUSINESS COUNTY","uri",".*?$(?<!\.aspx)"
"/data/datasets/datagov/data/data/datagovdata/licensed-vetrinarians-statewide-77887.csv","LICENSE NUMBER","numbers","^(\d|,)*\.?\d*$"
"/data/datasets/datagov/data/data/datagovdata/licensed-vetrinarians-statewide-77887.csv","BUSINESS PHONE","numbers","^(\d|,)*\.?\d*$"
"/data/datasets/datagov/data/data/datagovdata/licensed-vetrinarians-statewide-77887.csv","CONTACT NAME","uri",".*?$(?<!\.aspx)"
