"file_name","column_name","label","regex"
"/data/datasets/datagov/data/data/datagovdata/business-parks.csv","ZIPCODE","numbers","^(\d|,)*\.?\d*$"
"/data/datasets/datagov/data/data/datagovdata/business-parks.csv","ADDRESS","uri",".*?$(?<!\.aspx)"
"/data/datasets/datagov/data/data/datagovdata/business-parks.csv","PHONE","uri",".*?$(?<!\.aspx)"
"/data/datasets/datagov/data/data/datagovdata/business-parks.csv","DATA","uri",".*?$(?<!\.aspx)"
"/data/datasets/datagov/data/data/datagovdata/business-parks.csv","URL","strings","[^""\r\n]*"
"/data/datasets/datagov/data/data/datagovdata/business-parks.csv","OBJECTID","numbers","^(\d|,)*\.?\d*$"
"/data/datasets/datagov/data/data/datagovdata/business-parks.csv","NAME","uri",".*?$(?<!\.aspx)"
"/data/datasets/datagov/data/data/datagovdata/business-parks.csv","CATEGORY","uri",".*?$(?<!\.aspx)"
"/data/datasets/datagov/data/data/datagovdata/business-parks.csv","CITY","uri",".*?$(?<!\.aspx)"
"/data/datasets/datagov/data/data/datagovdata/business-parks.csv","POINT_X","numbers","^(\d|,)*\.?\d*$"
"/data/datasets/datagov/data/data/datagovdata/business-parks.csv","POINT_Y","numbers","^(\d|,)*\.?\d*$"
"/data/datasets/datagov/data/data/datagovdata/business-parks.csv","SHAPE","uri",".*?$(?<!\.aspx)"
