"file_name","column_name","label","regex"
"/data/datasets/datagov/data/data/datagovdata/medicare-hospital-spending-per-patient-national.csv","Score","numbers","^\$?\d+(\.(\d{2}))?$"
"/data/datasets/datagov/data/data/datagovdata/medicare-hospital-spending-per-patient-national.csv","National Median","numbers","^\$?\d+(\.(\d{2}))?$"
"/data/datasets/datagov/data/data/datagovdata/medicare-hospital-spending-per-patient-national.csv","Measure Name","uri",".*?$(?<!\.aspx)"
"/data/datasets/datagov/data/data/datagovdata/medicare-hospital-spending-per-patient-national.csv","Measure Start Date","strings","[^""\r\n]*"
"/data/datasets/datagov/data/data/datagovdata/medicare-hospital-spending-per-patient-national.csv","Measure End Date","strings","[^""\r\n]*"
"/data/datasets/datagov/data/data/datagovdata/medicare-hospital-spending-per-patient-national.csv","Measure ID","uri",".*?$(?<!\.aspx)"
