"file_name","column_name","label","regex"
"/data/datasets/datagov/data/data/datagovdata/envista-projects-for-utility-excavation-and-paving-679e2.csv","duration","numbers","^-?\d*(\.\d+)?$"
"/data/datasets/datagov/data/data/datagovdata/envista-projects-for-utility-excavation-and-paving-679e2.csv","Latitude","numbers","^-?\d*(\.\d+)?$"
"/data/datasets/datagov/data/data/datagovdata/envista-projects-for-utility-excavation-and-paving-679e2.csv","project_type","uri",".*?$(?<!\.aspx)"
"/data/datasets/datagov/data/data/datagovdata/envista-projects-for-utility-excavation-and-paving-679e2.csv","start_date","strings","[^""\r\n]*"
"/data/datasets/datagov/data/data/datagovdata/envista-projects-for-utility-excavation-and-paving-679e2.csv","dpw_project_class","uri",".*?$(?<!\.aspx)"
"/data/datasets/datagov/data/data/datagovdata/envista-projects-for-utility-excavation-and-paving-679e2.csv","facility_subindicator","strings","[^""\r\n]*"
"/data/datasets/datagov/data/data/datagovdata/envista-projects-for-utility-excavation-and-paving-679e2.csv","facility_type_description","strings","[^""\r\n]*"
"/data/datasets/datagov/data/data/datagovdata/envista-projects-for-utility-excavation-and-paving-679e2.csv","modify_date","strings","[^""\r\n]*"
"/data/datasets/datagov/data/data/datagovdata/envista-projects-for-utility-excavation-and-paving-679e2.csv","limits","strings","[^""\r\n]*"
"/data/datasets/datagov/data/data/datagovdata/envista-projects-for-utility-excavation-and-paving-679e2.csv","project_name_full","strings","[^""\r\n]*"
"/data/datasets/datagov/data/data/datagovdata/envista-projects-for-utility-excavation-and-paving-679e2.csv","project_id","uri",".*?$(?<!\.aspx)"
"/data/datasets/datagov/data/data/datagovdata/envista-projects-for-utility-excavation-and-paving-679e2.csv","Y","numbers","^-?\d*(\.\d+)?$"
"/data/datasets/datagov/data/data/datagovdata/envista-projects-for-utility-excavation-and-paving-679e2.csv","Longitude","numbers","^-?\d*(\.\d+)?$"
"/data/datasets/datagov/data/data/datagovdata/envista-projects-for-utility-excavation-and-paving-679e2.csv","location","uri",".*?$(?<!\.aspx)"
"/data/datasets/datagov/data/data/datagovdata/envista-projects-for-utility-excavation-and-paving-679e2.csv","description_full","strings","[^""\r\n]*"
"/data/datasets/datagov/data/data/datagovdata/envista-projects-for-utility-excavation-and-paving-679e2.csv","street_name","uri",".*?$(?<!\.aspx)"
"/data/datasets/datagov/data/data/datagovdata/envista-projects-for-utility-excavation-and-paving-679e2.csv","facility_indicator","strings","[^""\r\n]*"
"/data/datasets/datagov/data/data/datagovdata/envista-projects-for-utility-excavation-and-paving-679e2.csv","cnn","numbers","^-?\d*(\.\d+)?$"
"/data/datasets/datagov/data/data/datagovdata/envista-projects-for-utility-excavation-and-paving-679e2.csv","X","numbers","^-?\d*(\.\d+)?$"
"/data/datasets/datagov/data/data/datagovdata/envista-projects-for-utility-excavation-and-paving-679e2.csv","project_url","uri",".*?$(?<!\.aspx)"
"/data/datasets/datagov/data/data/datagovdata/envista-projects-for-utility-excavation-and-paving-679e2.csv","project_status","uri",".*?$(?<!\.aspx)"
"/data/datasets/datagov/data/data/datagovdata/envista-projects-for-utility-excavation-and-paving-679e2.csv","group_code","uri",".*?$(?<!\.aspx)"
"/data/datasets/datagov/data/data/datagovdata/envista-projects-for-utility-excavation-and-paving-679e2.csv","end_date","strings","[^""\r\n]*"
"/data/datasets/datagov/data/data/datagovdata/envista-projects-for-utility-excavation-and-paving-679e2.csv","owner","strings","[^""\r\n]*"
"/data/datasets/datagov/data/data/datagovdata/envista-projects-for-utility-excavation-and-paving-679e2.csv","facility_type","uri",".*?$(?<!\.aspx)"
"/data/datasets/datagov/data/data/datagovdata/envista-projects-for-utility-excavation-and-paving-679e2.csv","create_date","strings","[^""\r\n]*"
