"file_name","column_name","label","regex"
"/data/datasets/datagov/data/data/datagovdata/online-motor-vehicle-renewals.csv","Historical Data","numbers","^(\d|,)*\.?\d*$"
"/data/datasets/datagov/data/data/datagovdata/online-motor-vehicle-renewals.csv","Target","numbers","^(\d|,)*\.?\d*$"
"/data/datasets/datagov/data/data/datagovdata/online-motor-vehicle-renewals.csv","Years","numbers","^(\d|,)*\.?\d*$"
