"file_name","column_name","label","regex"
"/data/datasets/datagov/data/data/datagovdata/foia-request-log-aviation-7d7a9.csv","DUE DATE","strings","[^""\r\n]*"
"/data/datasets/datagov/data/data/datagovdata/foia-request-log-aviation-7d7a9.csv","DESCRIPTION OF REQUEST","strings","[^""\r\n]*"
"/data/datasets/datagov/data/data/datagovdata/foia-request-log-aviation-7d7a9.csv","REQUESTOR NAME","uri",".*?$(?<!\.aspx)"
"/data/datasets/datagov/data/data/datagovdata/foia-request-log-aviation-7d7a9.csv","DATE RECEIVED","strings","[^""\r\n]*"
"/data/datasets/datagov/data/data/datagovdata/foia-request-log-aviation-7d7a9.csv","ORGANIZATION","strings","[^""\r\n]*"
