"file_name","column_name","label","regex"
"/data/datasets/datagov/data/data/datagovdata/crime-safety-2010-2012-5a953.csv","gunhom12","numbers","^(\d|,)*\.?\d*$"
"/data/datasets/datagov/data/data/datagovdata/crime-safety-2010-2012-5a953.csv","crime12","numbers","^(\d|,)*\.?\d*$"
"/data/datasets/datagov/data/data/datagovdata/crime-safety-2010-2012-5a953.csv","viol10","numbers","^(\d|,)*\.?\d*$"
"/data/datasets/datagov/data/data/datagovdata/crime-safety-2010-2012-5a953.csv","juvdrug11","numbers","^(\d|,)*\.?\d*$"
"/data/datasets/datagov/data/data/datagovdata/crime-safety-2010-2012-5a953.csv","prop12","numbers","^(\d|,)*\.?\d*$"
"/data/datasets/datagov/data/data/datagovdata/crime-safety-2010-2012-5a953.csv","caslt11","numbers","^(\d|,)*\.?\d*$"
"/data/datasets/datagov/data/data/datagovdata/crime-safety-2010-2012-5a953.csv","domvio10","numbers","^(\d|,)*\.?\d*$"
"/data/datasets/datagov/data/data/datagovdata/crime-safety-2010-2012-5a953.csv","caracc11","numbers","^(\d|,)*\.?\d*$"
"/data/datasets/datagov/data/data/datagovdata/crime-safety-2010-2012-5a953.csv","narc11","numbers","^(\d|,)*\.?\d*$"
"/data/datasets/datagov/data/data/datagovdata/crime-safety-2010-2012-5a953.csv","domvio11","numbers","^(\d|,)*\.?\d*$"
"/data/datasets/datagov/data/data/datagovdata/crime-safety-2010-2012-5a953.csv","viol12","numbers","^(\d|,)*\.?\d*$"
"/data/datasets/datagov/data/data/datagovdata/crime-safety-2010-2012-5a953.csv","CSA2010","strings","[^""\r\n]*"
"/data/datasets/datagov/data/data/datagovdata/crime-safety-2010-2012-5a953.csv","juvarr11","numbers","^(\d|,)*\.?\d*$"
"/data/datasets/datagov/data/data/datagovdata/crime-safety-2010-2012-5a953.csv","crime11","numbers","^(\d|,)*\.?\d*$"
"/data/datasets/datagov/data/data/datagovdata/crime-safety-2010-2012-5a953.csv","viol11","numbers","^(\d|,)*\.?\d*$"
"/data/datasets/datagov/data/data/datagovdata/crime-safety-2010-2012-5a953.csv","juvviol11","numbers","^(\d|,)*\.?\d*$"
"/data/datasets/datagov/data/data/datagovdata/crime-safety-2010-2012-5a953.csv","gunhom11","numbers","^(\d|,)*\.?\d*$"
"/data/datasets/datagov/data/data/datagovdata/crime-safety-2010-2012-5a953.csv","prop11","numbers","^(\d|,)*\.?\d*$"
"/data/datasets/datagov/data/data/datagovdata/crime-safety-2010-2012-5a953.csv","crime10","numbers","^(\d|,)*\.?\d*$"
"/data/datasets/datagov/data/data/datagovdata/crime-safety-2010-2012-5a953.csv","shoot11","numbers","^(\d|,)*\.?\d*$"
