"file_name","column_name","label","regex"
"/data/datasets/datagov/data/data/datagovdata/rates-of-tbi-related-deaths-by-age-group-united-states-20012010-956de.csv","45–64 yr","numbers","^(\d|,)*\.?\d*$"
"/data/datasets/datagov/data/data/datagovdata/rates-of-tbi-related-deaths-by-age-group-united-states-20012010-956de.csv","15–24 yr","numbers","^(\d|,)*\.?\d*$"
"/data/datasets/datagov/data/data/datagovdata/rates-of-tbi-related-deaths-by-age-group-united-states-20012010-956de.csv","5–14 yr","numbers","^(\d|,)*\.?\d*$"
"/data/datasets/datagov/data/data/datagovdata/rates-of-tbi-related-deaths-by-age-group-united-states-20012010-956de.csv","0–4 yr","numbers","^(\d|,)*\.?\d*$"
"/data/datasets/datagov/data/data/datagovdata/rates-of-tbi-related-deaths-by-age-group-united-states-20012010-956de.csv","25–44 yr","numbers","^(\d|,)*\.?\d*$"
"/data/datasets/datagov/data/data/datagovdata/rates-of-tbi-related-deaths-by-age-group-united-states-20012010-956de.csv","Years","uri",".*?$(?<!\.aspx)"
"/data/datasets/datagov/data/data/datagovdata/rates-of-tbi-related-deaths-by-age-group-united-states-20012010-956de.csv","65+ yr","numbers","^(\d|,)*\.?\d*$"
