"file_name","column_name","label","regex"
"/data/datasets/datagov/data/data/datagovdata/employee-compensation-53987.csv","Employee Identifier","numbers","^(\d|,)*\.?\d*$"
"/data/datasets/datagov/data/data/datagovdata/employee-compensation-53987.csv","Job Code","uri",".*?$(?<!\.aspx)"
"/data/datasets/datagov/data/data/datagovdata/employee-compensation-53987.csv","Salaries","numbers","^(\d|,)*\.?\d*$"
"/data/datasets/datagov/data/data/datagovdata/employee-compensation-53987.csv","Job","strings","[^""\r\n]*"
"/data/datasets/datagov/data/data/datagovdata/employee-compensation-53987.csv","Overtime","numbers","^(\d|,)*\.?\d*$"
"/data/datasets/datagov/data/data/datagovdata/employee-compensation-53987.csv","Organization Group","uri",".*?$(?<!\.aspx)"
"/data/datasets/datagov/data/data/datagovdata/employee-compensation-53987.csv","Department Code","uri",".*?$(?<!\.aspx)"
"/data/datasets/datagov/data/data/datagovdata/employee-compensation-53987.csv","Union","uri",".*?$(?<!\.aspx)"
"/data/datasets/datagov/data/data/datagovdata/employee-compensation-53987.csv","Total Compensation","numbers","^(\d|,)*\.?\d*$"
"/data/datasets/datagov/data/data/datagovdata/employee-compensation-53987.csv","Health/Dental","numbers","^(\d|,)*\.?\d*$"
"/data/datasets/datagov/data/data/datagovdata/employee-compensation-53987.csv","Other Benefits","numbers","^(\d|,)*\.?\d*$"
"/data/datasets/datagov/data/data/datagovdata/employee-compensation-53987.csv","Total Salary","numbers","^(\d|,)*\.?\d*$"
"/data/datasets/datagov/data/data/datagovdata/employee-compensation-53987.csv","Year Type","uri",".*?$(?<!\.aspx)"
"/data/datasets/datagov/data/data/datagovdata/employee-compensation-53987.csv","Job Family Code","uri",".*?$(?<!\.aspx)"
"/data/datasets/datagov/data/data/datagovdata/employee-compensation-53987.csv","Organization Group Code","numbers","^(\d|,)*\.?\d*$"
"/data/datasets/datagov/data/data/datagovdata/employee-compensation-53987.csv","Total Benefits","numbers","^(\d|,)*\.?\d*$"
"/data/datasets/datagov/data/data/datagovdata/employee-compensation-53987.csv","Year","numbers","^(\d|,)*\.?\d*$"
"/data/datasets/datagov/data/data/datagovdata/employee-compensation-53987.csv","Retirement","numbers","^(\d|,)*\.?\d*$"
"/data/datasets/datagov/data/data/datagovdata/employee-compensation-53987.csv","Union Code","numbers","^(\d|,)*\.?\d*$"
"/data/datasets/datagov/data/data/datagovdata/employee-compensation-53987.csv","Job Family","uri",".*?$(?<!\.aspx)"
"/data/datasets/datagov/data/data/datagovdata/employee-compensation-53987.csv","Department","strings","[^""\r\n]*"
"/data/datasets/datagov/data/data/datagovdata/employee-compensation-53987.csv","Other Salaries","numbers","^(\d|,)*\.?\d*$"
