"file_name","column_name","label","regex"
"/data/datasets/chemical/chembl_21/csvdata/public.component_domains.csv","domain_id","numbers","^\d*$"
"/data/datasets/chemical/chembl_21/csvdata/public.component_domains.csv","end_position","numbers","^\d*$"
"/data/datasets/chemical/chembl_21/csvdata/public.component_domains.csv","compd_id","numbers","^\d*$"
"/data/datasets/chemical/chembl_21/csvdata/public.component_domains.csv","component_id","numbers","^\d*$"
"/data/datasets/chemical/chembl_21/csvdata/public.component_domains.csv","start_position","numbers","^\d*$"
