"file_name","column_name","label","regex"
"/data/datasets/datagov/data/data/datagovdata/youth-admission-and-discharge-demographics-beginning-2003.csv","Transaction","uri",".*?$(?<!\.aspx)"
"/data/datasets/datagov/data/data/datagovdata/youth-admission-and-discharge-demographics-beginning-2003.csv","Number","numbers","^\d*$"
"/data/datasets/datagov/data/data/datagovdata/youth-admission-and-discharge-demographics-beginning-2003.csv","County","uri",".*?$(?<!\.aspx)"
"/data/datasets/datagov/data/data/datagovdata/youth-admission-and-discharge-demographics-beginning-2003.csv","Year","numbers","^\d*$"
"/data/datasets/datagov/data/data/datagovdata/youth-admission-and-discharge-demographics-beginning-2003.csv","Group","uri",".*?$(?<!\.aspx)"
