"file_name","column_name","label","regex"
"/data/datasets/datagov/data/data/datagovdata/state-of-hawaii-open-data-growth-b6a6b.csv","Months","uri",".*?$(?<!\.aspx)"
"/data/datasets/datagov/data/data/datagovdata/state-of-hawaii-open-data-growth-b6a6b.csv","Charts","numbers","^\d*$"
"/data/datasets/datagov/data/data/datagovdata/state-of-hawaii-open-data-growth-b6a6b.csv","Data Sets","numbers","^\d*$"
"/data/datasets/datagov/data/data/datagovdata/state-of-hawaii-open-data-growth-b6a6b.csv","Maps Added","numbers","^\d*$"
"/data/datasets/datagov/data/data/datagovdata/state-of-hawaii-open-data-growth-b6a6b.csv","Year","numbers","^\d*$"
"/data/datasets/datagov/data/data/datagovdata/state-of-hawaii-open-data-growth-b6a6b.csv","Maps","numbers","^\d*$"
"/data/datasets/datagov/data/data/datagovdata/state-of-hawaii-open-data-growth-b6a6b.csv","Quarter","numbers","^\d*$"
"/data/datasets/datagov/data/data/datagovdata/state-of-hawaii-open-data-growth-b6a6b.csv","Data Sets Added","numbers","^\d*$"
"/data/datasets/datagov/data/data/datagovdata/state-of-hawaii-open-data-growth-b6a6b.csv","Charts added","numbers","^\d*$"
