"file_name","column_name","label","regex"
"/data/datasets/datagov/data/data/datagovdata/nndss-table-ii-cryptosporidiosis-to-dengue-hemorrhagic-fever-47c1e.csv","Cryptosporidiosis, Cum 2013, flag","uri","^[^\\\/\?\*\""\'\>\<\:\|]*$"
"/data/datasets/datagov/data/data/datagovdata/nndss-table-ii-cryptosporidiosis-to-dengue-hemorrhagic-fever-47c1e.csv","Location 1","uri","^[^\\\/\?\*\""\'\>\<\:\|]*$"
"/data/datasets/datagov/data/data/datagovdata/nndss-table-ii-cryptosporidiosis-to-dengue-hemorrhagic-fever-47c1e.csv","Dengue Fever†, Previous 52 weeks Max, flag","numbers","^-?\d*(\.\d+)?$"
"/data/datasets/datagov/data/data/datagovdata/nndss-table-ii-cryptosporidiosis-to-dengue-hemorrhagic-fever-47c1e.csv","Dengue Hemorrhagic Fever§, Previous 52 weeks Max, flag","numbers","^-?\d*(\.\d+)?$"
"/data/datasets/datagov/data/data/datagovdata/nndss-table-ii-cryptosporidiosis-to-dengue-hemorrhagic-fever-47c1e.csv","Dengue Fever†, Previous 52 weeks Med, flag","numbers","^-?\d*(\.\d+)?$"
"/data/datasets/datagov/data/data/datagovdata/nndss-table-ii-cryptosporidiosis-to-dengue-hemorrhagic-fever-47c1e.csv","Dengue Hemorrhagic Fever§, Previous 52 weeks Med","numbers","^-?\d*(\.\d+)?$"
"/data/datasets/datagov/data/data/datagovdata/nndss-table-ii-cryptosporidiosis-to-dengue-hemorrhagic-fever-47c1e.csv","Dengue Hemorrhagic Fever§, Cum 2013","numbers","^-?\d*(\.\d+)?$"
"/data/datasets/datagov/data/data/datagovdata/nndss-table-ii-cryptosporidiosis-to-dengue-hemorrhagic-fever-47c1e.csv","Dengue Fever†, Current week","numbers","^-?\d*(\.\d+)?$"
"/data/datasets/datagov/data/data/datagovdata/nndss-table-ii-cryptosporidiosis-to-dengue-hemorrhagic-fever-47c1e.csv","Dengue Hemorrhagic Fever§, Cum 2014","numbers","^-?\d*(\.\d+)?$"
"/data/datasets/datagov/data/data/datagovdata/nndss-table-ii-cryptosporidiosis-to-dengue-hemorrhagic-fever-47c1e.csv","Dengue Hemorrhagic Fever§, Current week, flag","numbers","^-?\d*(\.\d+)?$"
"/data/datasets/datagov/data/data/datagovdata/nndss-table-ii-cryptosporidiosis-to-dengue-hemorrhagic-fever-47c1e.csv","Dengue Hemorrhagic Fever§, Cum 2014, flag","numbers","^-?\d*(\.\d+)?$"
"/data/datasets/datagov/data/data/datagovdata/nndss-table-ii-cryptosporidiosis-to-dengue-hemorrhagic-fever-47c1e.csv","Cryptosporidiosis, Previous 52 weeks Med","numbers","^-?\d*(\.\d+)?$"
"/data/datasets/datagov/data/data/datagovdata/nndss-table-ii-cryptosporidiosis-to-dengue-hemorrhagic-fever-47c1e.csv","Cryptosporidiosis, Previous 52 weeks Max","numbers","^-?\d*(\.\d+)?$"
"/data/datasets/datagov/data/data/datagovdata/nndss-table-ii-cryptosporidiosis-to-dengue-hemorrhagic-fever-47c1e.csv","Dengue Fever†, Current week, flag","numbers","^-?\d*(\.\d+)?$"
"/data/datasets/datagov/data/data/datagovdata/nndss-table-ii-cryptosporidiosis-to-dengue-hemorrhagic-fever-47c1e.csv","Cryptosporidiosis, Current week, flag","uri","^[^\\\/\?\*\""\'\>\<\:\|]*$"
"/data/datasets/datagov/data/data/datagovdata/nndss-table-ii-cryptosporidiosis-to-dengue-hemorrhagic-fever-47c1e.csv","Dengue Fever†, Previous 52 weeks Med","numbers","^-?\d*(\.\d+)?$"
"/data/datasets/datagov/data/data/datagovdata/nndss-table-ii-cryptosporidiosis-to-dengue-hemorrhagic-fever-47c1e.csv","Dengue Hemorrhagic Fever§, Previous 52 weeks Med, flag","numbers","^-?\d*(\.\d+)?$"
"/data/datasets/datagov/data/data/datagovdata/nndss-table-ii-cryptosporidiosis-to-dengue-hemorrhagic-fever-47c1e.csv","Dengue Hemorrhagic Fever§, Cum 2013, flag","numbers","^-?\d*(\.\d+)?$"
"/data/datasets/datagov/data/data/datagovdata/nndss-table-ii-cryptosporidiosis-to-dengue-hemorrhagic-fever-47c1e.csv","Cryptosporidiosis, Previous 52 weeks Max, flag","numbers","^-?\d*(\.\d+)?$"
"/data/datasets/datagov/data/data/datagovdata/nndss-table-ii-cryptosporidiosis-to-dengue-hemorrhagic-fever-47c1e.csv","Dengue Fever†, Cum 2014","numbers","^-?\d*(\.\d+)?$"
"/data/datasets/datagov/data/data/datagovdata/nndss-table-ii-cryptosporidiosis-to-dengue-hemorrhagic-fever-47c1e.csv","Cryptosporidiosis, Current week","numbers","^-?\d*(\.\d+)?$"
"/data/datasets/datagov/data/data/datagovdata/nndss-table-ii-cryptosporidiosis-to-dengue-hemorrhagic-fever-47c1e.csv","Dengue Fever†, Previous 52 weeks Max","numbers","^-?\d*(\.\d+)?$"
"/data/datasets/datagov/data/data/datagovdata/nndss-table-ii-cryptosporidiosis-to-dengue-hemorrhagic-fever-47c1e.csv","Dengue Fever†, Cum 2013","numbers","^-?\d*(\.\d+)?$"
"/data/datasets/datagov/data/data/datagovdata/nndss-table-ii-cryptosporidiosis-to-dengue-hemorrhagic-fever-47c1e.csv","MMWRYear","numbers","^-?\d*(\.\d+)?$"
"/data/datasets/datagov/data/data/datagovdata/nndss-table-ii-cryptosporidiosis-to-dengue-hemorrhagic-fever-47c1e.csv","Cryptosporidiosis, Previous 52 weeks Med, flag","numbers","^-?\d*(\.\d+)?$"
"/data/datasets/datagov/data/data/datagovdata/nndss-table-ii-cryptosporidiosis-to-dengue-hemorrhagic-fever-47c1e.csv","Dengue Fever†, Cum 2013, flag","numbers","^-?\d*(\.\d+)?$"
"/data/datasets/datagov/data/data/datagovdata/nndss-table-ii-cryptosporidiosis-to-dengue-hemorrhagic-fever-47c1e.csv","Cryptosporidiosis, Cum 2013","numbers","^-?\d*(\.\d+)?$"
"/data/datasets/datagov/data/data/datagovdata/nndss-table-ii-cryptosporidiosis-to-dengue-hemorrhagic-fever-47c1e.csv","Dengue Hemorrhagic Fever§, Previous 52 weeks Max","numbers","^-?\d*(\.\d+)?$"
"/data/datasets/datagov/data/data/datagovdata/nndss-table-ii-cryptosporidiosis-to-dengue-hemorrhagic-fever-47c1e.csv","Dengue Fever†, Cum 2014, flag","numbers","^-?\d*(\.\d+)?$"
"/data/datasets/datagov/data/data/datagovdata/nndss-table-ii-cryptosporidiosis-to-dengue-hemorrhagic-fever-47c1e.csv","MMWRWeek","numbers","^-?\d*(\.\d+)?$"
"/data/datasets/datagov/data/data/datagovdata/nndss-table-ii-cryptosporidiosis-to-dengue-hemorrhagic-fever-47c1e.csv","Cryptosporidiosis, Cum 2014, flag","uri","^[^\\\/\?\*\""\'\>\<\:\|]*$"
"/data/datasets/datagov/data/data/datagovdata/nndss-table-ii-cryptosporidiosis-to-dengue-hemorrhagic-fever-47c1e.csv","Cryptosporidiosis, Cum 2014","numbers","^-?\d*(\.\d+)?$"
"/data/datasets/datagov/data/data/datagovdata/nndss-table-ii-cryptosporidiosis-to-dengue-hemorrhagic-fever-47c1e.csv","Reporting Area","uri","^[^\\\/\?\*\""\'\>\<\:\|]*$"
