"file_name","column_name","label","regex"
"/data/datasets/datagov/data/data/datagovdata/solar-monthly-and-annual-average-global-horizontal-ghi-gis-data-at-40km-resolution-for-bra-1f843.csv","CSEP","numbers","^\d*$"
"/data/datasets/datagov/data/data/datagovdata/solar-monthly-and-annual-average-global-horizontal-ghi-gis-data-at-40km-resolution-for-bra-1f843.csv","LAT","numbers","^\d*$"
"/data/datasets/datagov/data/data/datagovdata/solar-monthly-and-annual-average-global-horizontal-ghi-gis-data-at-40km-resolution-for-bra-1f843.csv","COCT","numbers","^\d*$"
"/data/datasets/datagov/data/data/datagovdata/solar-monthly-and-annual-average-global-horizontal-ghi-gis-data-at-40km-resolution-for-bra-1f843.csv","CJAN","numbers","^\d*$"
"/data/datasets/datagov/data/data/datagovdata/solar-monthly-and-annual-average-global-horizontal-ghi-gis-data-at-40km-resolution-for-bra-1f843.csv","CAUG","numbers","^\d*$"
"/data/datasets/datagov/data/data/datagovdata/solar-monthly-and-annual-average-global-horizontal-ghi-gis-data-at-40km-resolution-for-bra-1f843.csv","CAPR","numbers","^\d*$"
"/data/datasets/datagov/data/data/datagovdata/solar-monthly-and-annual-average-global-horizontal-ghi-gis-data-at-40km-resolution-for-bra-1f843.csv","CNOV","numbers","^\d*$"
"/data/datasets/datagov/data/data/datagovdata/solar-monthly-and-annual-average-global-horizontal-ghi-gis-data-at-40km-resolution-for-bra-1f843.csv","CMAR","numbers","^\d*$"
"/data/datasets/datagov/data/data/datagovdata/solar-monthly-and-annual-average-global-horizontal-ghi-gis-data-at-40km-resolution-for-bra-1f843.csv","CJUL","numbers","^\d*$"
"/data/datasets/datagov/data/data/datagovdata/solar-monthly-and-annual-average-global-horizontal-ghi-gis-data-at-40km-resolution-for-bra-1f843.csv","CELL_ID","numbers","^\d*$"
"/data/datasets/datagov/data/data/datagovdata/solar-monthly-and-annual-average-global-horizontal-ghi-gis-data-at-40km-resolution-for-bra-1f843.csv","CANN","numbers","^\d*$"
"/data/datasets/datagov/data/data/datagovdata/solar-monthly-and-annual-average-global-horizontal-ghi-gis-data-at-40km-resolution-for-bra-1f843.csv","CDEC","numbers","^\d*$"
"/data/datasets/datagov/data/data/datagovdata/solar-monthly-and-annual-average-global-horizontal-ghi-gis-data-at-40km-resolution-for-bra-1f843.csv","CFEB","numbers","^\d*$"
"/data/datasets/datagov/data/data/datagovdata/solar-monthly-and-annual-average-global-horizontal-ghi-gis-data-at-40km-resolution-for-bra-1f843.csv","CJUN","numbers","^\d*$"
"/data/datasets/datagov/data/data/datagovdata/solar-monthly-and-annual-average-global-horizontal-ghi-gis-data-at-40km-resolution-for-bra-1f843.csv","THEID","numbers","^\d*$"
"/data/datasets/datagov/data/data/datagovdata/solar-monthly-and-annual-average-global-horizontal-ghi-gis-data-at-40km-resolution-for-bra-1f843.csv","CMAY","numbers","^\d*$"
"/data/datasets/datagov/data/data/datagovdata/solar-monthly-and-annual-average-global-horizontal-ghi-gis-data-at-40km-resolution-for-bra-1f843.csv","LON","numbers","^\d*$"
"/data/datasets/datagov/data/data/datagovdata/solar-monthly-and-annual-average-global-horizontal-ghi-gis-data-at-40km-resolution-for-bra-1f843.csv","ORG_CELLID","numbers","^\d*$"
