"file_name","column_name","label","regex"
"/data/datasets/datagov/data/data/datagovdata/red-light-camera-locations-abc8b.csv","INTERSECTION","strings","[^""\r\n]*"
"/data/datasets/datagov/data/data/datagovdata/red-light-camera-locations-abc8b.csv","LOCATION","uri",".*?$(?<!\.aspx)"
"/data/datasets/datagov/data/data/datagovdata/red-light-camera-locations-abc8b.csv","LATITUDE","numbers","^-?\d*(\.\d+)?$"
"/data/datasets/datagov/data/data/datagovdata/red-light-camera-locations-abc8b.csv","FIRST APPROACH","uri",".*?$(?<!\.aspx)"
"/data/datasets/datagov/data/data/datagovdata/red-light-camera-locations-abc8b.csv","LONGITUDE","numbers","^-?\d*(\.\d+)?$"
"/data/datasets/datagov/data/data/datagovdata/red-light-camera-locations-abc8b.csv","SECOND APPROACH","uri",".*?$(?<!\.aspx)"
"/data/datasets/datagov/data/data/datagovdata/red-light-camera-locations-abc8b.csv","GO LIVE DATE","strings","[^""\r\n]*"
"/data/datasets/datagov/data/data/datagovdata/red-light-camera-locations-abc8b.csv","THIRD APPROACH","uri",".*?$(?<!\.aspx)"
