"file_name","column_name","label","regex"
"/data/datasets/datagov/data/data/datagovdata/oregon-investment-advantage-fiscal-year-2013-a3350.csv","Specific Outcomes of the Program and Taxpayer Requirements**","strings","[^""\r\n]*"
"/data/datasets/datagov/data/data/datagovdata/oregon-investment-advantage-fiscal-year-2013-a3350.csv","Project Location County Code*","numbers","^\d*$"
"/data/datasets/datagov/data/data/datagovdata/oregon-investment-advantage-fiscal-year-2013-a3350.csv","Project Location Congressional District*","numbers","^\d*$"
"/data/datasets/datagov/data/data/datagovdata/oregon-investment-advantage-fiscal-year-2013-a3350.csv","Report Period End Date","strings","[^""\r\n]*"
"/data/datasets/datagov/data/data/datagovdata/oregon-investment-advantage-fiscal-year-2013-a3350.csv","Statistics and Methodology Employed","uri",".*?$(?<!\.aspx)"
"/data/datasets/datagov/data/data/datagovdata/oregon-investment-advantage-fiscal-year-2013-a3350.csv","Income Tax Benefit (not a credit)","strings","[^""\r\n]*"
"/data/datasets/datagov/data/data/datagovdata/oregon-investment-advantage-fiscal-year-2013-a3350.csv","Mailing Address*","uri",".*?$(?<!\.aspx)"
"/data/datasets/datagov/data/data/datagovdata/oregon-investment-advantage-fiscal-year-2013-a3350.csv","Agency Issuing Tax Expenditure","uri",".*?$(?<!\.aspx)"
"/data/datasets/datagov/data/data/datagovdata/oregon-investment-advantage-fiscal-year-2013-a3350.csv","Agency's Certification Decision","uri",".*?$(?<!\.aspx)"
"/data/datasets/datagov/data/data/datagovdata/oregon-investment-advantage-fiscal-year-2013-a3350.csv","Business Firm Name","strings","[^""\r\n]*"
"/data/datasets/datagov/data/data/datagovdata/oregon-investment-advantage-fiscal-year-2013-a3350.csv","ZIP Code*","numbers","^\d*$"
"/data/datasets/datagov/data/data/datagovdata/oregon-investment-advantage-fiscal-year-2013-a3350.csv","Year-round, full‐time facility jobs reported","numbers","^\d*$"
