"file_name","column_name","label","regex"
"/data/datasets/datagov/data/data/datagovdata/idhs-active-cases-by-ccr-r-and-site-fy-2011-602d5.csv","FEB","numbers","^\d*$"
"/data/datasets/datagov/data/data/datagovdata/idhs-active-cases-by-ccr-r-and-site-fy-2011-602d5.csv","JUL","numbers","^\d*$"
"/data/datasets/datagov/data/data/datagovdata/idhs-active-cases-by-ccr-r-and-site-fy-2011-602d5.csv","JAN","numbers","^\d*$"
"/data/datasets/datagov/data/data/datagovdata/idhs-active-cases-by-ccr-r-and-site-fy-2011-602d5.csv","MAR","numbers","^\d*$"
"/data/datasets/datagov/data/data/datagovdata/idhs-active-cases-by-ccr-r-and-site-fy-2011-602d5.csv","AUG","numbers","^\d*$"
"/data/datasets/datagov/data/data/datagovdata/idhs-active-cases-by-ccr-r-and-site-fy-2011-602d5.csv","OCT","numbers","^\d*$"
"/data/datasets/datagov/data/data/datagovdata/idhs-active-cases-by-ccr-r-and-site-fy-2011-602d5.csv","APR","numbers","^\d*$"
"/data/datasets/datagov/data/data/datagovdata/idhs-active-cases-by-ccr-r-and-site-fy-2011-602d5.csv","REGION","uri",".*?$(?<!\.aspx)"
"/data/datasets/datagov/data/data/datagovdata/idhs-active-cases-by-ccr-r-and-site-fy-2011-602d5.csv","MAY","numbers","^\d*$"
"/data/datasets/datagov/data/data/datagovdata/idhs-active-cases-by-ccr-r-and-site-fy-2011-602d5.csv","DEC","numbers","^\d*$"
"/data/datasets/datagov/data/data/datagovdata/idhs-active-cases-by-ccr-r-and-site-fy-2011-602d5.csv","SEP","numbers","^\d*$"
"/data/datasets/datagov/data/data/datagovdata/idhs-active-cases-by-ccr-r-and-site-fy-2011-602d5.csv","NOV","numbers","^\d*$"
"/data/datasets/datagov/data/data/datagovdata/idhs-active-cases-by-ccr-r-and-site-fy-2011-602d5.csv","JUN","numbers","^\d*$"
