"file_name","column_name","label","regex"
"/data/datasets/datagov/data/data/datagovdata/2009-campaign-contributions-fdb81.csv","SEG_IND","uri","^[^\\\/\?\*\""\'\>\<\:\|]*$"
"/data/datasets/datagov/data/data/datagovdata/2009-campaign-contributions-fdb81.csv","PAGENO","uri","^[^\\\/\?\*\""\'\>\<\:\|]*$"
"/data/datasets/datagov/data/data/datagovdata/2009-campaign-contributions-fdb81.csv","Location 1","uri","^[^\\\/\?\*\""\'\>\<\:\|]*$"
"/data/datasets/datagov/data/data/datagovdata/2009-campaign-contributions-fdb81.csv","PAY_METHOD","numbers","^(\d|,)*\.?\d*$"
"/data/datasets/datagov/data/data/datagovdata/2009-campaign-contributions-fdb81.csv","INTERMNO","numbers","^(\d|,)*\.?\d*$"
"/data/datasets/datagov/data/data/datagovdata/2009-campaign-contributions-fdb81.csv","INTST","uri","^[^\\\/\?\*\""\'\>\<\:\|]*$"
"/data/datasets/datagov/data/data/datagovdata/2009-campaign-contributions-fdb81.csv","SEQUENCENO","uri","^[^\\\/\?\*\""\'\>\<\:\|]*$"
"/data/datasets/datagov/data/data/datagovdata/2009-campaign-contributions-fdb81.csv","INTSTRNM","strings","[^""\r\n]*"
"/data/datasets/datagov/data/data/datagovdata/2009-campaign-contributions-fdb81.csv","INTZIP","numbers","^(\d|,)*\.?\d*$"
"/data/datasets/datagov/data/data/datagovdata/2009-campaign-contributions-fdb81.csv","OCCUPATION","strings","[^""\r\n]*"
"/data/datasets/datagov/data/data/datagovdata/2009-campaign-contributions-fdb81.csv","CANDMI","uri","^[^\\\/\?\*\""\'\>\<\:\|]*$"
"/data/datasets/datagov/data/data/datagovdata/2009-campaign-contributions-fdb81.csv","EMPNAME","strings","[^""\r\n]*"
"/data/datasets/datagov/data/data/datagovdata/2009-campaign-contributions-fdb81.csv","Location 2","uri","^[^\\\/\?\*\""\'\>\<\:\|]*$"
"/data/datasets/datagov/data/data/datagovdata/2009-campaign-contributions-fdb81.csv","EMPSTRNO","numbers","^(\d|,)*\.?\d*$"
"/data/datasets/datagov/data/data/datagovdata/2009-campaign-contributions-fdb81.csv","INTAPTNO","strings","[^""\r\n]*"
"/data/datasets/datagov/data/data/datagovdata/2009-campaign-contributions-fdb81.csv","REFNO","uri","^[^\\\/\?\*\""\'\>\<\:\|]*$"
"/data/datasets/datagov/data/data/datagovdata/2009-campaign-contributions-fdb81.csv","NAME","uri","^[^\\\/\?\*\""\'\>\<\:\|]*$"
"/data/datasets/datagov/data/data/datagovdata/2009-campaign-contributions-fdb81.csv","SCHEDULE","uri","^[^\\\/\?\*\""\'\>\<\:\|]*$"
"/data/datasets/datagov/data/data/datagovdata/2009-campaign-contributions-fdb81.csv","C_CODE","uri","^[^\\\/\?\*\""\'\>\<\:\|]*$"
"/data/datasets/datagov/data/data/datagovdata/2009-campaign-contributions-fdb81.csv","COMMITTEE","uri","^[^\\\/\?\*\""\'\>\<\:\|]*$"
"/data/datasets/datagov/data/data/datagovdata/2009-campaign-contributions-fdb81.csv","INTEMPSTNO","numbers","^(\d|,)*\.?\d*$"
"/data/datasets/datagov/data/data/datagovdata/2009-campaign-contributions-fdb81.csv","BOROUGHCD","uri","^[^\\\/\?\*\""\'\>\<\:\|]*$"
"/data/datasets/datagov/data/data/datagovdata/2009-campaign-contributions-fdb81.csv","PURPOSECD","uri","^[^\\\/\?\*\""\'\>\<\:\|]*$"
"/data/datasets/datagov/data/data/datagovdata/2009-campaign-contributions-fdb81.csv","CANDID","numbers","^(\d|,)*\.?\d*$"
"/data/datasets/datagov/data/data/datagovdata/2009-campaign-contributions-fdb81.csv","CANCLASS","uri","^[^\\\/\?\*\""\'\>\<\:\|]*$"
"/data/datasets/datagov/data/data/datagovdata/2009-campaign-contributions-fdb81.csv","INTEMPCITY","uri","^[^\\\/\?\*\""\'\>\<\:\|]*$"
"/data/datasets/datagov/data/data/datagovdata/2009-campaign-contributions-fdb81.csv","CANDLAST","uri","^[^\\\/\?\*\""\'\>\<\:\|]*$"
"/data/datasets/datagov/data/data/datagovdata/2009-campaign-contributions-fdb81.csv","EMPSTRNAME","uri","^[^\\\/\?\*\""\'\>\<\:\|]*$"
"/data/datasets/datagov/data/data/datagovdata/2009-campaign-contributions-fdb81.csv","INTEMPST","uri","^[^\\\/\?\*\""\'\>\<\:\|]*$"
"/data/datasets/datagov/data/data/datagovdata/2009-campaign-contributions-fdb81.csv","INT_C_CODE","uri","^[^\\\/\?\*\""\'\>\<\:\|]*$"
"/data/datasets/datagov/data/data/datagovdata/2009-campaign-contributions-fdb81.csv","REFUNDDATE","strings","[^""\r\n]*"
"/data/datasets/datagov/data/data/datagovdata/2009-campaign-contributions-fdb81.csv","FILING","numbers","^(\d|,)*\.?\d*$"
"/data/datasets/datagov/data/data/datagovdata/2009-campaign-contributions-fdb81.csv","ADJTYPECD","numbers","^(\d|,)*\.?\d*$"
"/data/datasets/datagov/data/data/datagovdata/2009-campaign-contributions-fdb81.csv","CANDFIRST","uri","^[^\\\/\?\*\""\'\>\<\:\|]*$"
"/data/datasets/datagov/data/data/datagovdata/2009-campaign-contributions-fdb81.csv","INTEMPNAME","uri","^[^\\\/\?\*\""\'\>\<\:\|]*$"
"/data/datasets/datagov/data/data/datagovdata/2009-campaign-contributions-fdb81.csv","APARTMENT","uri","^[^\\\/\?\*\""\'\>\<\:\|]*$"
"/data/datasets/datagov/data/data/datagovdata/2009-campaign-contributions-fdb81.csv","INTOCCUPA","strings","[^""\r\n]*"
"/data/datasets/datagov/data/data/datagovdata/2009-campaign-contributions-fdb81.csv","INTERMNAME","uri","^[^\\\/\?\*\""\'\>\<\:\|]*$"
"/data/datasets/datagov/data/data/datagovdata/2009-campaign-contributions-fdb81.csv","PREVAMNT","numbers","^(\d|,)*\.?\d*$"
"/data/datasets/datagov/data/data/datagovdata/2009-campaign-contributions-fdb81.csv","MATCHAMNT","numbers","^(\d|,)*\.?\d*$"
"/data/datasets/datagov/data/data/datagovdata/2009-campaign-contributions-fdb81.csv","INTEMPSTNM","uri","^[^\\\/\?\*\""\'\>\<\:\|]*$"
"/data/datasets/datagov/data/data/datagovdata/2009-campaign-contributions-fdb81.csv","STRNO","numbers","^(\d|,)*\.?\d*$"
"/data/datasets/datagov/data/data/datagovdata/2009-campaign-contributions-fdb81.csv","STRNAME","uri","^[^\\\/\?\*\""\'\>\<\:\|]*$"
"/data/datasets/datagov/data/data/datagovdata/2009-campaign-contributions-fdb81.csv","OFFICECD","numbers","^(\d|,)*\.?\d*$"
"/data/datasets/datagov/data/data/datagovdata/2009-campaign-contributions-fdb81.csv","RR_IND","uri","^[^\\\/\?\*\""\'\>\<\:\|]*$"
"/data/datasets/datagov/data/data/datagovdata/2009-campaign-contributions-fdb81.csv","AMNT","numbers","^(\d|,)*\.?\d*$"
"/data/datasets/datagov/data/data/datagovdata/2009-campaign-contributions-fdb81.csv","INTSTRNO","strings","[^""\r\n]*"
"/data/datasets/datagov/data/data/datagovdata/2009-campaign-contributions-fdb81.csv","EXEMPTCD","strings","[^""\r\n]*"
"/data/datasets/datagov/data/data/datagovdata/2009-campaign-contributions-fdb81.csv","ELECTION","numbers","^(\d|,)*\.?\d*$"
"/data/datasets/datagov/data/data/datagovdata/2009-campaign-contributions-fdb81.csv","DATE","strings","[^""\r\n]*"
