"file_name","column_name","label","regex"
"/data/datasets/datagov/data/data/datagovdata/distribution-of-abuse-of-authority-allegations-02593.csv","Abuse Type","strings","[^""\r\n]*"
"/data/datasets/datagov/data/data/datagovdata/distribution-of-abuse-of-authority-allegations-02593.csv","Year","numbers","^\d*$"
"/data/datasets/datagov/data/data/datagovdata/distribution-of-abuse-of-authority-allegations-02593.csv","Abuse Count","numbers","^\d*$"
