"file_name","column_name","label","regex"
"/data/datasets/datagov/data/data/datagovdata/contracts-ous-capital-construction-retainer-program-pc-supplements-fiscal-year-2012-d794b.csv","Retainer Period","numbers","^\$?\d+(\.(\d{2}))?$"
"/data/datasets/datagov/data/data/datagovdata/contracts-ous-capital-construction-retainer-program-pc-supplements-fiscal-year-2012-d794b.csv","Price","numbers","^\$?\d+(\.(\d{2}))?$"
"/data/datasets/datagov/data/data/datagovdata/contracts-ous-capital-construction-retainer-program-pc-supplements-fiscal-year-2012-d794b.csv","Organization","uri",".*?$(?<!\.aspx)"
"/data/datasets/datagov/data/data/datagovdata/contracts-ous-capital-construction-retainer-program-pc-supplements-fiscal-year-2012-d794b.csv","Issue Date","strings","[^""\r\n]*"
"/data/datasets/datagov/data/data/datagovdata/contracts-ous-capital-construction-retainer-program-pc-supplements-fiscal-year-2012-d794b.csv","Supplement Number","uri",".*?$(?<!\.aspx)"
"/data/datasets/datagov/data/data/datagovdata/contracts-ous-capital-construction-retainer-program-pc-supplements-fiscal-year-2012-d794b.csv","Project","strings","[^""\r\n]*"
"/data/datasets/datagov/data/data/datagovdata/contracts-ous-capital-construction-retainer-program-pc-supplements-fiscal-year-2012-d794b.csv","MWESB","uri",".*?$(?<!\.aspx)"
"/data/datasets/datagov/data/data/datagovdata/contracts-ous-capital-construction-retainer-program-pc-supplements-fiscal-year-2012-d794b.csv","Consultant","uri",".*?$(?<!\.aspx)"
