"file_name","column_name","label","regex"
"/data/datasets/datagov/data/data/datagovdata/spending-disclosure-fiscal-year-2011-0283c.csv","Department","uri",".*?$(?<!\.aspx)"
"/data/datasets/datagov/data/data/datagovdata/spending-disclosure-fiscal-year-2011-0283c.csv","Amount","numbers","^\$?\d+(\.(\d{2}))?$"
"/data/datasets/datagov/data/data/datagovdata/spending-disclosure-fiscal-year-2011-0283c.csv","Zip Code","numbers","^\$?\d+(\.(\d{2}))?$"
"/data/datasets/datagov/data/data/datagovdata/spending-disclosure-fiscal-year-2011-0283c.csv","Supplier Name","strings","[^""\r\n]*"
