"file_name","column_name","label","regex"
"/data/datasets/datagov/data/data/datagovdata/hydropower-allocations.csv","Allocation (kW)","numbers","^\d*$"
"/data/datasets/datagov/data/data/datagovdata/hydropower-allocations.csv","County","uri",".*?$(?<!\.aspx)"
"/data/datasets/datagov/data/data/datagovdata/hydropower-allocations.csv","Program","uri",".*?$(?<!\.aspx)"
"/data/datasets/datagov/data/data/datagovdata/hydropower-allocations.csv","Data valid as of","uri",".*?$(?<!\.aspx)"
"/data/datasets/datagov/data/data/datagovdata/hydropower-allocations.csv","Customer","uri",".*?$(?<!\.aspx)"
"/data/datasets/datagov/data/data/datagovdata/hydropower-allocations.csv","Region","uri",".*?$(?<!\.aspx)"
"/data/datasets/datagov/data/data/datagovdata/hydropower-allocations.csv","City","uri",".*?$(?<!\.aspx)"
"/data/datasets/datagov/data/data/datagovdata/hydropower-allocations.csv","Jobs Committed","strings","[^""\r\n]*"
