"file_name","column_name","label","regex"
"/data/datasets/datagov/data/data/datagovdata/mo-state-park-bison-locations-91ced.csv","ESN","numbers","^\d*$"
"/data/datasets/datagov/data/data/datagovdata/mo-state-park-bison-locations-91ced.csv","GPSFixUnixTimeCST","numbers","^\d*$"
"/data/datasets/datagov/data/data/datagovdata/mo-state-park-bison-locations-91ced.csv","Name","uri",".*?$(?<!\.aspx)"
"/data/datasets/datagov/data/data/datagovdata/mo-state-park-bison-locations-91ced.csv","LatLon","uri",".*?$(?<!\.aspx)"
"/data/datasets/datagov/data/data/datagovdata/mo-state-park-bison-locations-91ced.csv","GPSFixDateTime","strings","[^""\r\n]*"
"/data/datasets/datagov/data/data/datagovdata/mo-state-park-bison-locations-91ced.csv","RecordID","uri",".*?$(?<!\.aspx)"
"/data/datasets/datagov/data/data/datagovdata/mo-state-park-bison-locations-91ced.csv","Moving","uri",".*?$(?<!\.aspx)"
