"file_name","column_name","label","regex"
"/data/datasets/datagov/data/data/datagovdata/2011-disciplinary-actions-architects-and-engineers-2196f.csv","License #","uri",".*?$(?<!\.aspx)"
"/data/datasets/datagov/data/data/datagovdata/2011-disciplinary-actions-architects-and-engineers-2196f.csv","Disposition","uri",".*?$(?<!\.aspx)"
"/data/datasets/datagov/data/data/datagovdata/2011-disciplinary-actions-architects-and-engineers-2196f.csv","Name","uri",".*?$(?<!\.aspx)"
"/data/datasets/datagov/data/data/datagovdata/2011-disciplinary-actions-architects-and-engineers-2196f.csv","Company","uri",".*?$(?<!\.aspx)"
