"file_name","column_name","label","regex"
"/data/datasets/datagov/data/data/datagovdata/li-contractor-authorized-signer-data.csv","ContractorLicenseNumber","strings","[^""\r\n]*"
"/data/datasets/datagov/data/data/datagovdata/li-contractor-authorized-signer-data.csv","BusinessTypeCode","uri",".*?$(?<!\.aspx)"
"/data/datasets/datagov/data/data/datagovdata/li-contractor-authorized-signer-data.csv","ContractorLicenseTypeCodeDesc","uri",".*?$(?<!\.aspx)"
"/data/datasets/datagov/data/data/datagovdata/li-contractor-authorized-signer-data.csv","AuthorizedSigner","uri",".*?$(?<!\.aspx)"
"/data/datasets/datagov/data/data/datagovdata/li-contractor-authorized-signer-data.csv","UBI","numbers","^\d*$"
"/data/datasets/datagov/data/data/datagovdata/li-contractor-authorized-signer-data.csv","ContractorLicenseTypeCode","uri",".*?$(?<!\.aspx)"
"/data/datasets/datagov/data/data/datagovdata/li-contractor-authorized-signer-data.csv","BusinessName","strings","[^""\r\n]*"
"/data/datasets/datagov/data/data/datagovdata/li-contractor-authorized-signer-data.csv","BusinessTypeCodeDesc","uri",".*?$(?<!\.aspx)"
"/data/datasets/datagov/data/data/datagovdata/li-contractor-authorized-signer-data.csv","SignerRole","uri",".*?$(?<!\.aspx)"
