"file_name","column_name","label","regex"
"/data/datasets/datagov/data/data/datagovdata/top-50-employers-maui-county-0ff63.csv","Telephone","numbers","^\d*$"
"/data/datasets/datagov/data/data/datagovdata/top-50-employers-maui-county-0ff63.csv","Yr. Estab","numbers","^\d*$"
"/data/datasets/datagov/data/data/datagovdata/top-50-employers-maui-county-0ff63.csv","Mailing Address","uri",".*?$(?<!\.aspx)"
"/data/datasets/datagov/data/data/datagovdata/top-50-employers-maui-county-0ff63.csv","Business Location Status","uri",".*?$(?<!\.aspx)"
"/data/datasets/datagov/data/data/datagovdata/top-50-employers-maui-county-0ff63.csv","Name","uri",".*?$(?<!\.aspx)"
"/data/datasets/datagov/data/data/datagovdata/top-50-employers-maui-county-0ff63.csv","Census Tract","numbers","^\d*$"
"/data/datasets/datagov/data/data/datagovdata/top-50-employers-maui-county-0ff63.csv","Census Block Grp","numbers","^\d*$"
"/data/datasets/datagov/data/data/datagovdata/top-50-employers-maui-county-0ff63.csv","Last Update","numbers","^\d*$"
"/data/datasets/datagov/data/data/datagovdata/top-50-employers-maui-county-0ff63.csv","Annual Sales ","numbers","^\d*$"
"/data/datasets/datagov/data/data/datagovdata/top-50-employers-maui-county-0ff63.csv","Business Description","uri",".*?$(?<!\.aspx)"
"/data/datasets/datagov/data/data/datagovdata/top-50-employers-maui-county-0ff63.csv","Web Url","uri",".*?$(?<!\.aspx)"
"/data/datasets/datagov/data/data/datagovdata/top-50-employers-maui-county-0ff63.csv","Contact Last Name","uri",".*?$(?<!\.aspx)"
"/data/datasets/datagov/data/data/datagovdata/top-50-employers-maui-county-0ff63.csv","Rank","numbers","^\d*$"
"/data/datasets/datagov/data/data/datagovdata/top-50-employers-maui-county-0ff63.csv","Contact Email","email","^[\w\.=-]+@[\w\.-]+\.[\w]{2,3}$"
"/data/datasets/datagov/data/data/datagovdata/top-50-employers-maui-county-0ff63.csv","Emp Size","uri",".*?$(?<!\.aspx)"
"/data/datasets/datagov/data/data/datagovdata/top-50-employers-maui-county-0ff63.csv","Contact First Name","uri",".*?$(?<!\.aspx)"
"/data/datasets/datagov/data/data/datagovdata/top-50-employers-maui-county-0ff63.csv","Contact Title","uri",".*?$(?<!\.aspx)"
"/data/datasets/datagov/data/data/datagovdata/top-50-employers-maui-county-0ff63.csv","Release","numbers","^\d*$"
"/data/datasets/datagov/data/data/datagovdata/top-50-employers-maui-county-0ff63.csv","Toll-Free Phone","numbers","^\d*$"
"/data/datasets/datagov/data/data/datagovdata/top-50-employers-maui-county-0ff63.csv","Contact Gender","uri",".*?$(?<!\.aspx)"
"/data/datasets/datagov/data/data/datagovdata/top-50-employers-maui-county-0ff63.csv","Private-Govt","uri",".*?$(?<!\.aspx)"
"/data/datasets/datagov/data/data/datagovdata/top-50-employers-maui-county-0ff63.csv","Physical Location","uri",".*?$(?<!\.aspx)"
"/data/datasets/datagov/data/data/datagovdata/top-50-employers-maui-county-0ff63.csv","Fax Number","numbers","^\d*$"
"/data/datasets/datagov/data/data/datagovdata/top-50-employers-maui-county-0ff63.csv","Landmark Address","strings","[^""\r\n]*"
"/data/datasets/datagov/data/data/datagovdata/top-50-employers-maui-county-0ff63.csv","NAICS-Primary","numbers","^\d*$"
