"file_name","column_name","label","regex"
"/data/datasets/datagov/data/data/datagovdata/foia-request-log-license-appeal-commission-2e221.csv","DUE DATE","strings","[^""\r\n]*"
"/data/datasets/datagov/data/data/datagovdata/foia-request-log-license-appeal-commission-2e221.csv","DESCRIPTION OF REQUEST","strings","[^""\r\n]*"
"/data/datasets/datagov/data/data/datagovdata/foia-request-log-license-appeal-commission-2e221.csv","REQUESTOR NAME","uri",".*?$(?<!\.aspx)"
"/data/datasets/datagov/data/data/datagovdata/foia-request-log-license-appeal-commission-2e221.csv","DATE RECEIVED","strings","[^""\r\n]*"
"/data/datasets/datagov/data/data/datagovdata/foia-request-log-license-appeal-commission-2e221.csv","ORGANIZATION","uri",".*?$(?<!\.aspx)"
