"file_name","column_name","label","regex"
"/data/datasets/datagov/data/data/datagovdata/local-government-expenditures-fiscal-year-2010-29b1e.csv","County","uri",".*?$(?<!\.aspx)"
"/data/datasets/datagov/data/data/datagovdata/local-government-expenditures-fiscal-year-2010-29b1e.csv","County Expenditures","numbers","^[-+]?\d+(\.\d+)?|[-+]?\.\d+?$"
"/data/datasets/datagov/data/data/datagovdata/local-government-expenditures-fiscal-year-2010-29b1e.csv","Municipal Expenditures","numbers","^[-+]?\d+(\.\d+)?|[-+]?\.\d+?$"
"/data/datasets/datagov/data/data/datagovdata/local-government-expenditures-fiscal-year-2010-29b1e.csv","Total Expenditures","numbers","^[-+]?\d+(\.\d+)?|[-+]?\.\d+?$"
"/data/datasets/datagov/data/data/datagovdata/local-government-expenditures-fiscal-year-2010-29b1e.csv","Percent County","uri",".*?$(?<!\.aspx)"
"/data/datasets/datagov/data/data/datagovdata/local-government-expenditures-fiscal-year-2010-29b1e.csv","Percent Municipal","numbers","^[-+]?\d+(\.\d+)?|[-+]?\.\d+?$"
