"file_name","column_name","label","regex"
"/data/datasets/datagov/data/data/datagovdata/domestic-airline-consumer-airfare-report-detailed-fare-information-for-all-city-pair-marke-9db81.csv","numrecs","numbers","^\d*$"
"/data/datasets/datagov/data/data/datagovdata/domestic-airline-consumer-airfare-report-detailed-fare-information-for-all-city-pair-marke-9db81.csv","tbl","uri",".*?$(?<!\.aspx)"
"/data/datasets/datagov/data/data/datagovdata/domestic-airline-consumer-airfare-report-detailed-fare-information-for-all-city-pair-marke-9db81.csv","origin","strings","[^""\r\n]*"
"/data/datasets/datagov/data/data/datagovdata/domestic-airline-consumer-airfare-report-detailed-fare-information-for-all-city-pair-marke-9db81.csv","fare_lg","numbers","^\d*$"
"/data/datasets/datagov/data/data/datagovdata/domestic-airline-consumer-airfare-report-detailed-fare-information-for-all-city-pair-marke-9db81.csv","carrier_low","uri",".*?$(?<!\.aspx)"
"/data/datasets/datagov/data/data/datagovdata/domestic-airline-consumer-airfare-report-detailed-fare-information-for-all-city-pair-marke-9db81.csv","originapt","uri",".*?$(?<!\.aspx)"
"/data/datasets/datagov/data/data/datagovdata/domestic-airline-consumer-airfare-report-detailed-fare-information-for-all-city-pair-marke-9db81.csv","quart","numbers","^\d*$"
"/data/datasets/datagov/data/data/datagovdata/domestic-airline-consumer-airfare-report-detailed-fare-information-for-all-city-pair-marke-9db81.csv","carrier_lg","uri",".*?$(?<!\.aspx)"
"/data/datasets/datagov/data/data/datagovdata/domestic-airline-consumer-airfare-report-detailed-fare-information-for-all-city-pair-marke-9db81.csv","destcity","numbers","^\d*$"
"/data/datasets/datagov/data/data/datagovdata/domestic-airline-consumer-airfare-report-detailed-fare-information-for-all-city-pair-marke-9db81.csv","large_ms","numbers","^\d*$"
"/data/datasets/datagov/data/data/datagovdata/domestic-airline-consumer-airfare-report-detailed-fare-information-for-all-city-pair-marke-9db81.csv","destination","strings","[^""\r\n]*"
"/data/datasets/datagov/data/data/datagovdata/domestic-airline-consumer-airfare-report-detailed-fare-information-for-all-city-pair-marke-9db81.csv","destapt","uri",".*?$(?<!\.aspx)"
"/data/datasets/datagov/data/data/datagovdata/domestic-airline-consumer-airfare-report-detailed-fare-information-for-all-city-pair-marke-9db81.csv","origincity","numbers","^\d*$"
"/data/datasets/datagov/data/data/datagovdata/domestic-airline-consumer-airfare-report-detailed-fare-information-for-all-city-pair-marke-9db81.csv","lf_ms","numbers","^\d*$"
"/data/datasets/datagov/data/data/datagovdata/domestic-airline-consumer-airfare-report-detailed-fare-information-for-all-city-pair-marke-9db81.csv","passengers","numbers","^\d*$"
"/data/datasets/datagov/data/data/datagovdata/domestic-airline-consumer-airfare-report-detailed-fare-information-for-all-city-pair-marke-9db81.csv","fare","numbers","^\d*$"
"/data/datasets/datagov/data/data/datagovdata/domestic-airline-consumer-airfare-report-detailed-fare-information-for-all-city-pair-marke-9db81.csv","fare_low","numbers","^\d*$"
"/data/datasets/datagov/data/data/datagovdata/domestic-airline-consumer-airfare-report-detailed-fare-information-for-all-city-pair-marke-9db81.csv","distance","numbers","^\d*$"
