"file_name","column_name","label","regex"
"/data/datasets/datagov/data/data/datagovdata/noi-notice-of-intent-d5bc6.csv","Address","uri",".*?$(?<!\.aspx)"
"/data/datasets/datagov/data/data/datagovdata/noi-notice-of-intent-d5bc6.csv","CityStateZipCode","uri",".*?$(?<!\.aspx)"
"/data/datasets/datagov/data/data/datagovdata/noi-notice-of-intent-d5bc6.csv","FirstName","uri",".*?$(?<!\.aspx)"
"/data/datasets/datagov/data/data/datagovdata/noi-notice-of-intent-d5bc6.csv","Agency","strings","[^""\r\n]*"
"/data/datasets/datagov/data/data/datagovdata/noi-notice-of-intent-d5bc6.csv","Title","uri",".*?$(?<!\.aspx)"
"/data/datasets/datagov/data/data/datagovdata/noi-notice-of-intent-d5bc6.csv","LastName","uri",".*?$(?<!\.aspx)"
