"file_name","column_name","label","regex"
"/data/datasets/datagov/data/data/datagovdata/construction-bids-13-14-c59e6.csv","Version","uri",".*?$(?<!\.aspx)"
"/data/datasets/datagov/data/data/datagovdata/construction-bids-13-14-c59e6.csv","File","uri",".*?$(?<!\.aspx)"
"/data/datasets/datagov/data/data/datagovdata/construction-bids-13-14-c59e6.csv","Description","strings","[^""\r\n]*"
"/data/datasets/datagov/data/data/datagovdata/construction-bids-13-14-c59e6.csv","JobNumber","uri",".*?$(?<!\.aspx)"
"/data/datasets/datagov/data/data/datagovdata/construction-bids-13-14-c59e6.csv","Bid Opening","uri",".*?$(?<!\.aspx)"
