"file_name","column_name","label","regex"
"/data/datasets/datagov/data/data/datagovdata/labor-market-regions.csv","County","uri",".*?$(?<!\.aspx)"
"/data/datasets/datagov/data/data/datagovdata/labor-market-regions.csv","Region","uri",".*?$(?<!\.aspx)"
