"file_name","column_name","label","regex"
"/data/datasets/datagov/data/data/datagovdata/international-food-security.csv","Amount","numbers","^-?\d*(\.\d+)?$"
"/data/datasets/datagov/data/data/datagovdata/international-food-security.csv","Year","numbers","^-?\d*(\.\d+)?$"
"/data/datasets/datagov/data/data/datagovdata/international-food-security.csv","Unit","strings","[^""\r\n]*"
"/data/datasets/datagov/data/data/datagovdata/international-food-security.csv","Item","strings","[^""\r\n]*"
"/data/datasets/datagov/data/data/datagovdata/international-food-security.csv","Commodity","strings","[^""\r\n]*"
"/data/datasets/datagov/data/data/datagovdata/international-food-security.csv","Country","uri",".*?$(?<!\.aspx)"
