"file_name","column_name","label","regex"
"/data/datasets/datagov/data/data/datagovdata/tgr2006se_roos_place00.csv","FIPSCC","uri",".*?$(?<!\.aspx)"
"/data/datasets/datagov/data/data/datagovdata/tgr2006se_roos_place00.csv","COUNTY","numbers","^\d$"
"/data/datasets/datagov/data/data/datagovdata/tgr2006se_roos_place00.csv","PLACE","numbers","^\d$"
"/data/datasets/datagov/data/data/datagovdata/tgr2006se_roos_place00.csv","NAME","uri",".*?$(?<!\.aspx)"
"/data/datasets/datagov/data/data/datagovdata/tgr2006se_roos_place00.csv","GIST_ID","numbers","^\d$"
"/data/datasets/datagov/data/data/datagovdata/tgr2006se_roos_place00.csv","LSADC","numbers","^\d$"
"/data/datasets/datagov/data/data/datagovdata/tgr2006se_roos_place00.csv","ENTITY","uri",".*?$(?<!\.aspx)"
"/data/datasets/datagov/data/data/datagovdata/tgr2006se_roos_place00.csv","PLACEDC","numbers","^\d$"
