"file_name","column_name","label","regex"
"/data/datasets/datagov/data/data/datagovdata/expenditure-summary-fiscal-year-2014.csv","Agency Number","numbers","^\d*$"
"/data/datasets/datagov/data/data/datagovdata/expenditure-summary-fiscal-year-2014.csv","Account Description- Sub Class","strings","[^""\r\n]*"
"/data/datasets/datagov/data/data/datagovdata/expenditure-summary-fiscal-year-2014.csv","Fiscal Year","numbers","^\d*$"
"/data/datasets/datagov/data/data/datagovdata/expenditure-summary-fiscal-year-2014.csv","Account Description","strings","[^""\r\n]*"
"/data/datasets/datagov/data/data/datagovdata/expenditure-summary-fiscal-year-2014.csv","Accounting Period","numbers","^\d*$"
"/data/datasets/datagov/data/data/datagovdata/expenditure-summary-fiscal-year-2014.csv","Account- Sub Class","numbers","^\d*$"
"/data/datasets/datagov/data/data/datagovdata/expenditure-summary-fiscal-year-2014.csv","Agency Name","uri",".*?$(?<!\.aspx)"
"/data/datasets/datagov/data/data/datagovdata/expenditure-summary-fiscal-year-2014.csv","Amount","numbers","^\d*$"
"/data/datasets/datagov/data/data/datagovdata/expenditure-summary-fiscal-year-2014.csv","Account","numbers","^\d*$"
"/data/datasets/datagov/data/data/datagovdata/expenditure-summary-fiscal-year-2014.csv","Fund","numbers","^\d*$"
"/data/datasets/datagov/data/data/datagovdata/expenditure-summary-fiscal-year-2014.csv","Account- Major Class","numbers","^\d*$"
"/data/datasets/datagov/data/data/datagovdata/expenditure-summary-fiscal-year-2014.csv","Fund Code Description ","uri",".*?$(?<!\.aspx)"
"/data/datasets/datagov/data/data/datagovdata/expenditure-summary-fiscal-year-2014.csv","Account Description- Major Class","uri",".*?$(?<!\.aspx)"
