"file_name","column_name","label","regex"
"/data/datasets/datagov/data/data/datagovdata/levy-year-2014-real-property-tax-rates-449c7.csv","SSA URBAN DISTRICT TAX","numbers","^(\d|,)*\.?\d*$"
"/data/datasets/datagov/data/data/datagovdata/levy-year-2014-real-property-tax-rates-449c7.csv","MUNICIPAL DISTRICT","uri",".*?$(?<!\.aspx)"
"/data/datasets/datagov/data/data/datagovdata/levy-year-2014-real-property-tax-rates-449c7.csv","SSA TRANSIT TAX","numbers","^(\d|,)*\.?\d*$"
"/data/datasets/datagov/data/data/datagovdata/levy-year-2014-real-property-tax-rates-449c7.csv","SSA/MNCPPC REGIONAL TAX","numbers","^(\d|,)*\.?\d*$"
"/data/datasets/datagov/data/data/datagovdata/levy-year-2014-real-property-tax-rates-449c7.csv","SSA NOISE ABATEMENT DISTRICT","uri",".*?$(?<!\.aspx)"
"/data/datasets/datagov/data/data/datagovdata/levy-year-2014-real-property-tax-rates-449c7.csv","SSA PARKING LOT DISTRICT","uri",".*?$(?<!\.aspx)"
"/data/datasets/datagov/data/data/datagovdata/levy-year-2014-real-property-tax-rates-449c7.csv","MUNICIPAL DISTRICT TAX","numbers","^(\d|,)*\.?\d*$"
"/data/datasets/datagov/data/data/datagovdata/levy-year-2014-real-property-tax-rates-449c7.csv","SSA RECREATION TAX","numbers","^(\d|,)*\.?\d*$"
"/data/datasets/datagov/data/data/datagovdata/levy-year-2014-real-property-tax-rates-449c7.csv","TOTAL TAX RATE","numbers","^(\d|,)*\.?\d*$"
"/data/datasets/datagov/data/data/datagovdata/levy-year-2014-real-property-tax-rates-449c7.csv","SSA/MNCPPC  ADVANCED LAND ACQUISITION TAX","numbers","^(\d|,)*\.?\d*$"
"/data/datasets/datagov/data/data/datagovdata/levy-year-2014-real-property-tax-rates-449c7.csv","STATE TAX","numbers","^(\d|,)*\.?\d*$"
"/data/datasets/datagov/data/data/datagovdata/levy-year-2014-real-property-tax-rates-449c7.csv","SSA STORM DRAINAGE TAX","numbers","^(\d|,)*\.?\d*$"
"/data/datasets/datagov/data/data/datagovdata/levy-year-2014-real-property-tax-rates-449c7.csv","LEVY YEAR","numbers","^(\d|,)*\.?\d*$"
"/data/datasets/datagov/data/data/datagovdata/levy-year-2014-real-property-tax-rates-449c7.csv","SSA PARKING LOT DISTRICT TAX","numbers","^(\d|,)*\.?\d*$"
"/data/datasets/datagov/data/data/datagovdata/levy-year-2014-real-property-tax-rates-449c7.csv","SSA DEVELOPMENT DISTRICT","uri",".*?$(?<!\.aspx)"
"/data/datasets/datagov/data/data/datagovdata/levy-year-2014-real-property-tax-rates-449c7.csv","SSA NOISE ABATEMENT DISTRICT TAX","numbers","^(\d|,)*\.?\d*$"
"/data/datasets/datagov/data/data/datagovdata/levy-year-2014-real-property-tax-rates-449c7.csv","SSA DEVELOPMENT DISTRICT TAX","numbers","^(\d|,)*\.?\d*$"
"/data/datasets/datagov/data/data/datagovdata/levy-year-2014-real-property-tax-rates-449c7.csv","TAX CLASS *","numbers","^(\d|,)*\.?\d*$"
"/data/datasets/datagov/data/data/datagovdata/levy-year-2014-real-property-tax-rates-449c7.csv","SSA URBAN DISTRICT","uri",".*?$(?<!\.aspx)"
"/data/datasets/datagov/data/data/datagovdata/levy-year-2014-real-property-tax-rates-449c7.csv","SSA/MNCPPC METRO-POLITAN TAX","numbers","^(\d|,)*\.?\d*$"
"/data/datasets/datagov/data/data/datagovdata/levy-year-2014-real-property-tax-rates-449c7.csv","SSA FIRE DISTRICT TAX","numbers","^(\d|,)*\.?\d*$"
"/data/datasets/datagov/data/data/datagovdata/levy-year-2014-real-property-tax-rates-449c7.csv","TOTAL SPECIAL SERVICE AREA TAX","numbers","^(\d|,)*\.?\d*$"
"/data/datasets/datagov/data/data/datagovdata/levy-year-2014-real-property-tax-rates-449c7.csv","GENERAL COUNTY TAX","numbers","^(\d|,)*\.?\d*$"
