"file_name","column_name","label","regex"
"/data/datasets/datagov/data/data/datagovdata/stjohns_eastshp.csv","QUAD_NAME_","uri",".*?$(?<!\.aspx)"
"/data/datasets/datagov/data/data/datagovdata/stjohns_eastshp.csv","GRID_CODE","numbers","^(\d|,)*\.?\d*$"
"/data/datasets/datagov/data/data/datagovdata/stjohns_eastshp.csv","PERIMETER","numbers","^(\d|,)*\.?\d*$"
"/data/datasets/datagov/data/data/datagovdata/stjohns_eastshp.csv","AREA","numbers","^(\d|,)*\.?\d*$"
"/data/datasets/datagov/data/data/datagovdata/stjohns_eastshp.csv","STJOHNS_EA","numbers","^(\d|,)*\.?\d*$"
