"file_name","column_name","label","regex"
"/data/datasets/datagov/data/data/datagovdata/total-nonfarm-employment-fa208.csv","Historical Data","numbers","^(\d|,)*\.?\d*$"
"/data/datasets/datagov/data/data/datagovdata/total-nonfarm-employment-fa208.csv","Target","numbers","^(\d|,)*\.?\d*$"
"/data/datasets/datagov/data/data/datagovdata/total-nonfarm-employment-fa208.csv","Years","numbers","^(\d|,)*\.?\d*$"
