"file_name","column_name","label","regex"
"/data/datasets/datagov/data/data/datagovdata/childhood-lead-poisoning-surveillance-report-by-county-2002-bf4ba.csv","20-24 mcg/dL","numbers","^\d*$"
"/data/datasets/datagov/data/data/datagovdata/childhood-lead-poisoning-surveillance-report-by-county-2002-bf4ba.csv","County","uri",".*?$(?<!\.aspx)"
"/data/datasets/datagov/data/data/datagovdata/childhood-lead-poisoning-surveillance-report-by-county-2002-bf4ba.csv","25-44 mcg/dL","numbers","^\d*$"
"/data/datasets/datagov/data/data/datagovdata/childhood-lead-poisoning-surveillance-report-by-county-2002-bf4ba.csv","2000 Population of Children 6 and Under","numbers","^\d*$"
"/data/datasets/datagov/data/data/datagovdata/childhood-lead-poisoning-surveillance-report-by-county-2002-bf4ba.csv","45+ mcg/dL","numbers","^\d*$"
"/data/datasets/datagov/data/data/datagovdata/childhood-lead-poisoning-surveillance-report-by-county-2002-bf4ba.csv","15-19 mcg/dL","numbers","^\d*$"
"/data/datasets/datagov/data/data/datagovdata/childhood-lead-poisoning-surveillance-report-by-county-2002-bf4ba.csv","10-14 mcg/dL","numbers","^\d*$"
"/data/datasets/datagov/data/data/datagovdata/childhood-lead-poisoning-surveillance-report-by-county-2002-bf4ba.csv","Total Tested","numbers","^\d*$"
