"file_name","column_name","label","regex"
"/data/datasets/datagov/data/data/datagovdata/department-of-motor-vehicle-dmv-office-locations.csv","Location","uri",".*?$(?<!\.aspx)"
"/data/datasets/datagov/data/data/datagovdata/department-of-motor-vehicle-dmv-office-locations.csv","Latitude","numbers","^-?\d*(\.\d+)?$"
"/data/datasets/datagov/data/data/datagovdata/department-of-motor-vehicle-dmv-office-locations.csv","Wednesday Ending Hours","strings","[^""\r\n]*"
"/data/datasets/datagov/data/data/datagovdata/department-of-motor-vehicle-dmv-office-locations.csv","Wednesday Beginning Hours","strings","[^""\r\n]*"
"/data/datasets/datagov/data/data/datagovdata/department-of-motor-vehicle-dmv-office-locations.csv","Office Name","uri",".*?$(?<!\.aspx)"
"/data/datasets/datagov/data/data/datagovdata/department-of-motor-vehicle-dmv-office-locations.csv","City","uri",".*?$(?<!\.aspx)"
"/data/datasets/datagov/data/data/datagovdata/department-of-motor-vehicle-dmv-office-locations.csv","Saturday Beginning Hours","strings","[^""\r\n]*"
"/data/datasets/datagov/data/data/datagovdata/department-of-motor-vehicle-dmv-office-locations.csv","State","uri",".*?$(?<!\.aspx)"
"/data/datasets/datagov/data/data/datagovdata/department-of-motor-vehicle-dmv-office-locations.csv","Zip Code","numbers","^-?\d*(\.\d+)?$"
"/data/datasets/datagov/data/data/datagovdata/department-of-motor-vehicle-dmv-office-locations.csv","Street Address Line 1","uri",".*?$(?<!\.aspx)"
"/data/datasets/datagov/data/data/datagovdata/department-of-motor-vehicle-dmv-office-locations.csv","Has Kiosk?","uri",".*?$(?<!\.aspx)"
"/data/datasets/datagov/data/data/datagovdata/department-of-motor-vehicle-dmv-office-locations.csv","Longitude","numbers","^-?\d*(\.\d+)?$"
"/data/datasets/datagov/data/data/datagovdata/department-of-motor-vehicle-dmv-office-locations.csv","Friday Beginning Hours","strings","[^""\r\n]*"
"/data/datasets/datagov/data/data/datagovdata/department-of-motor-vehicle-dmv-office-locations.csv","Office Type","uri",".*?$(?<!\.aspx)"
"/data/datasets/datagov/data/data/datagovdata/department-of-motor-vehicle-dmv-office-locations.csv","Street Address Line 2","uri",".*?$(?<!\.aspx)"
"/data/datasets/datagov/data/data/datagovdata/department-of-motor-vehicle-dmv-office-locations.csv","Thursday Ending Hours","strings","[^""\r\n]*"
"/data/datasets/datagov/data/data/datagovdata/department-of-motor-vehicle-dmv-office-locations.csv","Monday Beginning Hours","strings","[^""\r\n]*"
"/data/datasets/datagov/data/data/datagovdata/department-of-motor-vehicle-dmv-office-locations.csv","Saturday Ending Hours","strings","[^""\r\n]*"
"/data/datasets/datagov/data/data/datagovdata/department-of-motor-vehicle-dmv-office-locations.csv","Tuesday Ending Hours","strings","[^""\r\n]*"
"/data/datasets/datagov/data/data/datagovdata/department-of-motor-vehicle-dmv-office-locations.csv","Thursday Beginning Hours","strings","[^""\r\n]*"
"/data/datasets/datagov/data/data/datagovdata/department-of-motor-vehicle-dmv-office-locations.csv","Public Phone Number","numbers","^-?\d*(\.\d+)?$"
"/data/datasets/datagov/data/data/datagovdata/department-of-motor-vehicle-dmv-office-locations.csv","Monday Ending Hours","strings","[^""\r\n]*"
"/data/datasets/datagov/data/data/datagovdata/department-of-motor-vehicle-dmv-office-locations.csv","Friday Ending Hours","strings","[^""\r\n]*"
"/data/datasets/datagov/data/data/datagovdata/department-of-motor-vehicle-dmv-office-locations.csv","Tuesday Beginning Hours","strings","[^""\r\n]*"
"/data/datasets/datagov/data/data/datagovdata/department-of-motor-vehicle-dmv-office-locations.csv","Public Phone Extension","numbers","^-?\d*(\.\d+)?$"
