"file_name","column_name","label","regex"
"/data/datasets/datagov/data/data/datagovdata/tl_2010_35003_roads.csv","FULLNAME","uri",".*?$(?<!\.aspx)"
"/data/datasets/datagov/data/data/datagovdata/tl_2010_35003_roads.csv","MTFCC","uri",".*?$(?<!\.aspx)"
"/data/datasets/datagov/data/data/datagovdata/tl_2010_35003_roads.csv","RTTYP","uri",".*?$(?<!\.aspx)"
"/data/datasets/datagov/data/data/datagovdata/tl_2010_35003_roads.csv","COUNTYFP","numbers","^\d*$"
"/data/datasets/datagov/data/data/datagovdata/tl_2010_35003_roads.csv","STATEFP","numbers","^\d*$"
"/data/datasets/datagov/data/data/datagovdata/tl_2010_35003_roads.csv","LINEARID","numbers","^\d*$"
