"file_name","column_name","label","regex"
"/data/datasets/datagov/data/data/datagovdata/idea-part-c-section-618-table-4-dispute-resolution-fiscal-year-2012.csv"," State","strings","[^""\r\n]*"
"/data/datasets/datagov/data/data/datagovdata/idea-part-c-section-618-table-4-dispute-resolution-fiscal-year-2012.csv","DPC Written Decisions within Timeline (30 or 45-day Part B) (3.2a.2)","numbers","^(\d|,)*\.?\d*$"
"/data/datasets/datagov/data/data/datagovdata/idea-part-c-section-618-table-4-dispute-resolution-fiscal-year-2012.csv","Mediations Held Related to Due Process Complaints (2.1a)","numbers","^(\d|,)*\.?\d*$"
"/data/datasets/datagov/data/data/datagovdata/idea-part-c-section-618-table-4-dispute-resolution-fiscal-year-2012.csv","Mediations Held Total (2.1)","numbers","^(\d|,)*\.?\d*$"
"/data/datasets/datagov/data/data/datagovdata/idea-part-c-section-618-table-4-dispute-resolution-fiscal-year-2012.csv","WSC Pending a Due Process Hearing (1.2a)","numbers","^(\d|,)*\.?\d*$"
"/data/datasets/datagov/data/data/datagovdata/idea-part-c-section-618-table-4-dispute-resolution-fiscal-year-2012.csv","WSC Withdrawn or Dismissed Total (1.3)","numbers","^(\d|,)*\.?\d*$"
"/data/datasets/datagov/data/data/datagovdata/idea-part-c-section-618-table-4-dispute-resolution-fiscal-year-2012.csv","WSC Reports within Extended Timelines (1.1c)","numbers","^(\d|,)*\.?\d*$"
"/data/datasets/datagov/data/data/datagovdata/idea-part-c-section-618-table-4-dispute-resolution-fiscal-year-2012.csv","Due Process Complaints (DPC) Total (3) ","numbers","^(\d|,)*\.?\d*$"
"/data/datasets/datagov/data/data/datagovdata/idea-part-c-section-618-table-4-dispute-resolution-fiscal-year-2012.csv","DPC Written Decisions within Extended Timeline (3.2b)","numbers","^(\d|,)*\.?\d*$"
"/data/datasets/datagov/data/data/datagovdata/idea-part-c-section-618-table-4-dispute-resolution-fiscal-year-2012.csv","Year","strings","[^""\r\n]*"
"/data/datasets/datagov/data/data/datagovdata/idea-part-c-section-618-table-4-dispute-resolution-fiscal-year-2012.csv","Mediations Held Not Related to Due Process Complaints (2.1b)","numbers","^(\d|,)*\.?\d*$"
"/data/datasets/datagov/data/data/datagovdata/idea-part-c-section-618-table-4-dispute-resolution-fiscal-year-2012.csv","DPC Hearings Pending (3.3)","numbers","^(\d|,)*\.?\d*$"
"/data/datasets/datagov/data/data/datagovdata/idea-part-c-section-618-table-4-dispute-resolution-fiscal-year-2012.csv","DPC Hearings (fully adjudicated) Total (3.2)","numbers","^(\d|,)*\.?\d*$"
"/data/datasets/datagov/data/data/datagovdata/idea-part-c-section-618-table-4-dispute-resolution-fiscal-year-2012.csv","DPC Written Decisions within Timeline (30-day Part C) (3.2a.1)","numbers","^(\d|,)*\.?\d*$"
"/data/datasets/datagov/data/data/datagovdata/idea-part-c-section-618-table-4-dispute-resolution-fiscal-year-2012.csv","Written Signed Complaints (WSC) Total (1) ","numbers","^(\d|,)*\.?\d*$"
"/data/datasets/datagov/data/data/datagovdata/idea-part-c-section-618-table-4-dispute-resolution-fiscal-year-2012.csv","WSC Reports with Findings (1.1a)","numbers","^(\d|,)*\.?\d*$"
"/data/datasets/datagov/data/data/datagovdata/idea-part-c-section-618-table-4-dispute-resolution-fiscal-year-2012.csv","Mediations Pending (2.2)","numbers","^(\d|,)*\.?\d*$"
"/data/datasets/datagov/data/data/datagovdata/idea-part-c-section-618-table-4-dispute-resolution-fiscal-year-2012.csv","Mediation Agreements Related to Due Process Complaints (2.1ai)","numbers","^(\d|,)*\.?\d*$"
"/data/datasets/datagov/data/data/datagovdata/idea-part-c-section-618-table-4-dispute-resolution-fiscal-year-2012.csv","DPC Resolution Meetings Total (3.1)","numbers","^(\d|,)*\.?\d*$"
"/data/datasets/datagov/data/data/datagovdata/idea-part-c-section-618-table-4-dispute-resolution-fiscal-year-2012.csv","Mediation Requests Total (2)","numbers","^(\d|,)*\.?\d*$"
"/data/datasets/datagov/data/data/datagovdata/idea-part-c-section-618-table-4-dispute-resolution-fiscal-year-2012.csv","WSC Reports with Timelines (1.1b)","numbers","^(\d|,)*\.?\d*$"
"/data/datasets/datagov/data/data/datagovdata/idea-part-c-section-618-table-4-dispute-resolution-fiscal-year-2012.csv","DPC Resolution Meetings - Written Settlement Agreements (3.1a)","numbers","^(\d|,)*\.?\d*$"
"/data/datasets/datagov/data/data/datagovdata/idea-part-c-section-618-table-4-dispute-resolution-fiscal-year-2012.csv","Mediations Not Held (2.3)","numbers","^(\d|,)*\.?\d*$"
"/data/datasets/datagov/data/data/datagovdata/idea-part-c-section-618-table-4-dispute-resolution-fiscal-year-2012.csv","DPC Withdrawn or Dismissed (3.4)","numbers","^(\d|,)*\.?\d*$"
"/data/datasets/datagov/data/data/datagovdata/idea-part-c-section-618-table-4-dispute-resolution-fiscal-year-2012.csv","Mediation Agreements Not Related to Due Process Complaints (2.1bi)","numbers","^(\d|,)*\.?\d*$"
"/data/datasets/datagov/data/data/datagovdata/idea-part-c-section-618-table-4-dispute-resolution-fiscal-year-2012.csv","WSC Pending Total (1.2)","numbers","^(\d|,)*\.?\d*$"
"/data/datasets/datagov/data/data/datagovdata/idea-part-c-section-618-table-4-dispute-resolution-fiscal-year-2012.csv","WSC  with Reports Issued Total (1.1)","numbers","^(\d|,)*\.?\d*$"
