"file_name","column_name","label","regex"
"/data/datasets/datagov/data/data/datagovdata/health-hospitals-outpatient-registrations-by-zip-code-2011-322b4.csv","ZIPCODE","numbers","^\d*$"
"/data/datasets/datagov/data/data/datagovdata/health-hospitals-outpatient-registrations-by-zip-code-2011-322b4.csv","Location","address_or_phone","(\d{4,6})"
"/data/datasets/datagov/data/data/datagovdata/health-hospitals-outpatient-registrations-by-zip-code-2011-322b4.csv","2011 YTD through June 2011","numbers","^\d*$"
