"file_name","column_name","label","regex"
"/data/datasets/datagov/data/data/datagovdata/adoption-child-custody-advocacy-performance-measures-adoptive-investigations-2009-f668e.csv","Statistics  ","uri",".*?$(?<!\.aspx)"
"/data/datasets/datagov/data/data/datagovdata/adoption-child-custody-advocacy-performance-measures-adoptive-investigations-2009-f668e.csv"," Jan  ","numbers","^(\d|,)*\.?\d*$"
"/data/datasets/datagov/data/data/datagovdata/adoption-child-custody-advocacy-performance-measures-adoptive-investigations-2009-f668e.csv"," Jul  ","numbers","^(\d|,)*\.?\d*$"
"/data/datasets/datagov/data/data/datagovdata/adoption-child-custody-advocacy-performance-measures-adoptive-investigations-2009-f668e.csv"," Feb  ","numbers","^(\d|,)*\.?\d*$"
"/data/datasets/datagov/data/data/datagovdata/adoption-child-custody-advocacy-performance-measures-adoptive-investigations-2009-f668e.csv"," May  ","numbers","^(\d|,)*\.?\d*$"
"/data/datasets/datagov/data/data/datagovdata/adoption-child-custody-advocacy-performance-measures-adoptive-investigations-2009-f668e.csv"," Apr  ","numbers","^(\d|,)*\.?\d*$"
"/data/datasets/datagov/data/data/datagovdata/adoption-child-custody-advocacy-performance-measures-adoptive-investigations-2009-f668e.csv"," Mar  ","numbers","^(\d|,)*\.?\d*$"
"/data/datasets/datagov/data/data/datagovdata/adoption-child-custody-advocacy-performance-measures-adoptive-investigations-2009-f668e.csv"," Oct  ","numbers","^(\d|,)*\.?\d*$"
"/data/datasets/datagov/data/data/datagovdata/adoption-child-custody-advocacy-performance-measures-adoptive-investigations-2009-f668e.csv"," Aug  ","numbers","^(\d|,)*\.?\d*$"
"/data/datasets/datagov/data/data/datagovdata/adoption-child-custody-advocacy-performance-measures-adoptive-investigations-2009-f668e.csv"," Sep  ","numbers","^(\d|,)*\.?\d*$"
"/data/datasets/datagov/data/data/datagovdata/adoption-child-custody-advocacy-performance-measures-adoptive-investigations-2009-f668e.csv"," Est. 2009  ","numbers","^(\d|,)*\.?\d*$"
"/data/datasets/datagov/data/data/datagovdata/adoption-child-custody-advocacy-performance-measures-adoptive-investigations-2009-f668e.csv"," Dec  ","numbers","^(\d|,)*\.?\d*$"
"/data/datasets/datagov/data/data/datagovdata/adoption-child-custody-advocacy-performance-measures-adoptive-investigations-2009-f668e.csv"," Nov  ","numbers","^(\d|,)*\.?\d*$"
"/data/datasets/datagov/data/data/datagovdata/adoption-child-custody-advocacy-performance-measures-adoptive-investigations-2009-f668e.csv"," Jun  ","numbers","^(\d|,)*\.?\d*$"
