"file_name","column_name","label","regex"
"/data/datasets/mitdwh/Space_unit.csv","Warehouse Load Date","strings","[^""\r\n]*"
"/data/datasets/mitdwh/Space_unit.csv","Dlc Key","strings","[^""\r\n]*"
"/data/datasets/mitdwh/Space_unit.csv","Space Unit","strings","[^""\r\n]*"
"/data/datasets/mitdwh/Space_unit.csv","Space Unit Key","numbers","^\d*$"
"/data/datasets/mitdwh/Space_unit.csv","Space Unit Code","numbers","^\d*$"
"/data/datasets/mitdwh/Space_unit.csv","Fclt Organization Key","numbers","^\d*$"
