"file_name","column_name","label","regex"
"/data/datasets/datagov/data/data/datagovdata/2014-omes-mineral-interest-inventory-list-1fc63.csv","CURRENT LESSEE","uri",".*?$(?<!\.aspx)"
"/data/datasets/datagov/data/data/datagovdata/2014-omes-mineral-interest-inventory-list-1fc63.csv","ROYALTY INTEREST","numbers","^\$?\d+(\.(\d{2}))?$"
"/data/datasets/datagov/data/data/datagovdata/2014-omes-mineral-interest-inventory-list-1fc63.csv","ACTIVE/ EXPIRED","uri",".*?$(?<!\.aspx)"
"/data/datasets/datagov/data/data/datagovdata/2014-omes-mineral-interest-inventory-list-1fc63.csv","PRODUCTION ZONE","strings","[^""\r\n]*"
"/data/datasets/datagov/data/data/datagovdata/2014-omes-mineral-interest-inventory-list-1fc63.csv","POOLED OR UNITIZED","strings","[^""\r\n]*"
"/data/datasets/datagov/data/data/datagovdata/2014-omes-mineral-interest-inventory-list-1fc63.csv","NET ACRES","numbers","^\$?\d+(\.(\d{2}))?$"
"/data/datasets/datagov/data/data/datagovdata/2014-omes-mineral-interest-inventory-list-1fc63.csv","LEGAL DESCRIPTION","strings","[^""\r\n]*"
"/data/datasets/datagov/data/data/datagovdata/2014-omes-mineral-interest-inventory-list-1fc63.csv","LATITUDE","numbers","^\$?\d+(\.(\d{2}))?$"
"/data/datasets/datagov/data/data/datagovdata/2014-omes-mineral-interest-inventory-list-1fc63.csv","TRACT #","numbers","^\$?\d+(\.(\d{2}))?$"
"/data/datasets/datagov/data/data/datagovdata/2014-omes-mineral-interest-inventory-list-1fc63.csv","WELL OPERATOR","uri",".*?$(?<!\.aspx)"
"/data/datasets/datagov/data/data/datagovdata/2014-omes-mineral-interest-inventory-list-1fc63.csv","SALE OR APPROVED DATE","strings","[^""\r\n]*"
"/data/datasets/datagov/data/data/datagovdata/2014-omes-mineral-interest-inventory-list-1fc63.csv","GROSS ACRES","numbers","^\$?\d+(\.(\d{2}))?$"
"/data/datasets/datagov/data/data/datagovdata/2014-omes-mineral-interest-inventory-list-1fc63.csv","TOWNSHIP","uri",".*?$(?<!\.aspx)"
"/data/datasets/datagov/data/data/datagovdata/2014-omes-mineral-interest-inventory-list-1fc63.csv","LONGITUDE","numbers","^\$?\d+(\.(\d{2}))?$"
"/data/datasets/datagov/data/data/datagovdata/2014-omes-mineral-interest-inventory-list-1fc63.csv","FILE #","uri",".*?$(?<!\.aspx)"
"/data/datasets/datagov/data/data/datagovdata/2014-omes-mineral-interest-inventory-list-1fc63.csv","COUNTY","uri",".*?$(?<!\.aspx)"
"/data/datasets/datagov/data/data/datagovdata/2014-omes-mineral-interest-inventory-list-1fc63.csv","RANGE","uri",".*?$(?<!\.aspx)"
"/data/datasets/datagov/data/data/datagovdata/2014-omes-mineral-interest-inventory-list-1fc63.csv","OWNER AGENCY","uri",".*?$(?<!\.aspx)"
"/data/datasets/datagov/data/data/datagovdata/2014-omes-mineral-interest-inventory-list-1fc63.csv","END OR EXPIRATION DATE","strings","[^""\r\n]*"
"/data/datasets/datagov/data/data/datagovdata/2014-omes-mineral-interest-inventory-list-1fc63.csv","SECTION","numbers","^\$?\d+(\.(\d{2}))?$"
"/data/datasets/datagov/data/data/datagovdata/2014-omes-mineral-interest-inventory-list-1fc63.csv","LEASE #","uri",".*?$(?<!\.aspx)"
"/data/datasets/datagov/data/data/datagovdata/2014-omes-mineral-interest-inventory-list-1fc63.csv","ORIGINAL LESSEE","uri",".*?$(?<!\.aspx)"
"/data/datasets/datagov/data/data/datagovdata/2014-omes-mineral-interest-inventory-list-1fc63.csv","WELL NAME","strings","[^""\r\n]*"
"/data/datasets/datagov/data/data/datagovdata/2014-omes-mineral-interest-inventory-list-1fc63.csv","ROYALTY BONUS","numbers","^\$?\d+(\.(\d{2}))?$"
