"file_name","column_name","label","regex"
"/data/datasets/datagov/data/data/datagovdata/development-credit-authority-dca-guarantee-utilization-and-claims.csv","Guarantee Percentage","numbers","^(\d|,)*\.?\d*$"
"/data/datasets/datagov/data/data/datagovdata/development-credit-authority-dca-guarantee-utilization-and-claims.csv","Primary Target Segment Code","uri",".*?$(?<!\.aspx)"
"/data/datasets/datagov/data/data/datagovdata/development-credit-authority-dca-guarantee-utilization-and-claims.csv","Cumulative Utilization Percentage","numbers","^(\d|,)*\.?\d*$"
"/data/datasets/datagov/data/data/datagovdata/development-credit-authority-dca-guarantee-utilization-and-claims.csv","Fiscal Year","numbers","^(\d|,)*\.?\d*$"
"/data/datasets/datagov/data/data/datagovdata/development-credit-authority-dca-guarantee-utilization-and-claims.csv","Cumulative Loans","numbers","^(\d|,)*\.?\d*$"
"/data/datasets/datagov/data/data/datagovdata/development-credit-authority-dca-guarantee-utilization-and-claims.csv","Partner Name","strings","[^""\r\n]*"
"/data/datasets/datagov/data/data/datagovdata/development-credit-authority-dca-guarantee-utilization-and-claims.csv","Recoveries","uri",".*?$(?<!\.aspx)"
"/data/datasets/datagov/data/data/datagovdata/development-credit-authority-dca-guarantee-utilization-and-claims.csv","Maximum Cumulative Disbursements","uri",".*?$(?<!\.aspx)"
"/data/datasets/datagov/data/data/datagovdata/development-credit-authority-dca-guarantee-utilization-and-claims.csv","Claims","uri",".*?$(?<!\.aspx)"
"/data/datasets/datagov/data/data/datagovdata/development-credit-authority-dca-guarantee-utilization-and-claims.csv","Primary Target Sector Code","uri",".*?$(?<!\.aspx)"
"/data/datasets/datagov/data/data/datagovdata/development-credit-authority-dca-guarantee-utilization-and-claims.csv","Guarantee End Date","strings","[^""\r\n]*"
"/data/datasets/datagov/data/data/datagovdata/development-credit-authority-dca-guarantee-utilization-and-claims.csv","Status","uri",".*?$(?<!\.aspx)"
"/data/datasets/datagov/data/data/datagovdata/development-credit-authority-dca-guarantee-utilization-and-claims.csv","Final Date for Placing Loans under Coverage","strings","[^""\r\n]*"
"/data/datasets/datagov/data/data/datagovdata/development-credit-authority-dca-guarantee-utilization-and-claims.csv","Guarantee Number","strings","[^""\r\n]*"
"/data/datasets/datagov/data/data/datagovdata/development-credit-authority-dca-guarantee-utilization-and-claims.csv","Credit Agreement Type","uri",".*?$(?<!\.aspx)"
"/data/datasets/datagov/data/data/datagovdata/development-credit-authority-dca-guarantee-utilization-and-claims.csv","Secondary Target Sector Codes","uri",".*?$(?<!\.aspx)"
"/data/datasets/datagov/data/data/datagovdata/development-credit-authority-dca-guarantee-utilization-and-claims.csv","Guarantee Start Date","strings","[^""\r\n]*"
"/data/datasets/datagov/data/data/datagovdata/development-credit-authority-dca-guarantee-utilization-and-claims.csv","Cumulative Utilization","uri",".*?$(?<!\.aspx)"
"/data/datasets/datagov/data/data/datagovdata/development-credit-authority-dca-guarantee-utilization-and-claims.csv","Secondary Target Segment Codes","uri",".*?$(?<!\.aspx)"
"/data/datasets/datagov/data/data/datagovdata/development-credit-authority-dca-guarantee-utilization-and-claims.csv","Country","uri",".*?$(?<!\.aspx)"
