"file_name","column_name","label","regex"
"/data/datasets/datagov/data/data/datagovdata/sat-results-e88d7.csv","Num of SAT Test Takers","uri",".*?$(?<!\.aspx)"
"/data/datasets/datagov/data/data/datagovdata/sat-results-e88d7.csv","SAT Writing Avg. Score","uri",".*?$(?<!\.aspx)"
"/data/datasets/datagov/data/data/datagovdata/sat-results-e88d7.csv","SCHOOL NAME","strings","[^""\r\n]*"
"/data/datasets/datagov/data/data/datagovdata/sat-results-e88d7.csv","SAT Math Avg. Score","uri",".*?$(?<!\.aspx)"
"/data/datasets/datagov/data/data/datagovdata/sat-results-e88d7.csv","SAT Critical Reading Avg. Score","uri",".*?$(?<!\.aspx)"
"/data/datasets/datagov/data/data/datagovdata/sat-results-e88d7.csv","DBN","numbers","^[-+]?\d+(\.\d+)?|[-+]?\.\d+?$"
