"file_name","column_name","label","regex"
"/data/datasets/datagov/data/data/datagovdata/uniform-crime-reporting-system-offenses-2013.csv","Tolland CSP","numbers","^(\d|,)*\.?\d*$"
"/data/datasets/datagov/data/data/datagovdata/uniform-crime-reporting-system-offenses-2013.csv","Summary","numbers","^(\d|,)*\.?\d*$"
"/data/datasets/datagov/data/data/datagovdata/uniform-crime-reporting-system-offenses-2013.csv","East Haven PD","numbers","^(\d|,)*\.?\d*$"
"/data/datasets/datagov/data/data/datagovdata/uniform-crime-reporting-system-offenses-2013.csv","Scotland CSP","numbers","^(\d|,)*\.?\d*$"
"/data/datasets/datagov/data/data/datagovdata/uniform-crime-reporting-system-offenses-2013.csv","New Hartford CSP","numbers","^(\d|,)*\.?\d*$"
"/data/datasets/datagov/data/data/datagovdata/uniform-crime-reporting-system-offenses-2013.csv","Sprague CSP","numbers","^(\d|,)*\.?\d*$"
"/data/datasets/datagov/data/data/datagovdata/uniform-crime-reporting-system-offenses-2013.csv","Fairfield","numbers","^(\d|,)*\.?\d*$"
"/data/datasets/datagov/data/data/datagovdata/uniform-crime-reporting-system-offenses-2013.csv","Morris CSP","numbers","^(\d|,)*\.?\d*$"
"/data/datasets/datagov/data/data/datagovdata/uniform-crime-reporting-system-offenses-2013.csv","Watertown PD","numbers","^(\d|,)*\.?\d*$"
"/data/datasets/datagov/data/data/datagovdata/uniform-crime-reporting-system-offenses-2013.csv","Capitol Police PD","numbers","^(\d|,)*\.?\d*$"
"/data/datasets/datagov/data/data/datagovdata/uniform-crime-reporting-system-offenses-2013.csv","MTA PD","numbers","^(\d|,)*\.?\d*$"
"/data/datasets/datagov/data/data/datagovdata/uniform-crime-reporting-system-offenses-2013.csv","Berlin PD","numbers","^(\d|,)*\.?\d*$"
"/data/datasets/datagov/data/data/datagovdata/uniform-crime-reporting-system-offenses-2013.csv","Meriden PD","numbers","^(\d|,)*\.?\d*$"
"/data/datasets/datagov/data/data/datagovdata/uniform-crime-reporting-system-offenses-2013.csv","Coventry PD","numbers","^(\d|,)*\.?\d*$"
"/data/datasets/datagov/data/data/datagovdata/uniform-crime-reporting-system-offenses-2013.csv","Windham CSP","numbers","^(\d|,)*\.?\d*$"
"/data/datasets/datagov/data/data/datagovdata/uniform-crime-reporting-system-offenses-2013.csv","Middletown PD","numbers","^(\d|,)*\.?\d*$"
"/data/datasets/datagov/data/data/datagovdata/uniform-crime-reporting-system-offenses-2013.csv","Woodbridge PD","numbers","^(\d|,)*\.?\d*$"
"/data/datasets/datagov/data/data/datagovdata/uniform-crime-reporting-system-offenses-2013.csv","Chaplin CSP","numbers","^(\d|,)*\.?\d*$"
"/data/datasets/datagov/data/data/datagovdata/uniform-crime-reporting-system-offenses-2013.csv","North Haven PD","numbers","^(\d|,)*\.?\d*$"
"/data/datasets/datagov/data/data/datagovdata/uniform-crime-reporting-system-offenses-2013.csv","Oxford CSP","numbers","^(\d|,)*\.?\d*$"
"/data/datasets/datagov/data/data/datagovdata/uniform-crime-reporting-system-offenses-2013.csv","Clinton PD","numbers","^(\d|,)*\.?\d*$"
"/data/datasets/datagov/data/data/datagovdata/uniform-crime-reporting-system-offenses-2013.csv","Burlington CSP","numbers","^(\d|,)*\.?\d*$"
"/data/datasets/datagov/data/data/datagovdata/uniform-crime-reporting-system-offenses-2013.csv","Hartford","numbers","^(\d|,)*\.?\d*$"
"/data/datasets/datagov/data/data/datagovdata/uniform-crime-reporting-system-offenses-2013.csv","New London PD","numbers","^(\d|,)*\.?\d*$"
"/data/datasets/datagov/data/data/datagovdata/uniform-crime-reporting-system-offenses-2013.csv","Seymour PD","numbers","^(\d|,)*\.?\d*$"
"/data/datasets/datagov/data/data/datagovdata/uniform-crime-reporting-system-offenses-2013.csv","Fairfield PD","numbers","^(\d|,)*\.?\d*$"
"/data/datasets/datagov/data/data/datagovdata/uniform-crime-reporting-system-offenses-2013.csv","New Canaan PD","numbers","^(\d|,)*\.?\d*$"
"/data/datasets/datagov/data/data/datagovdata/uniform-crime-reporting-system-offenses-2013.csv","Description","strings","[^""\r\n]*"
"/data/datasets/datagov/data/data/datagovdata/uniform-crime-reporting-system-offenses-2013.csv","Waterford PD","numbers","^(\d|,)*\.?\d*$"
"/data/datasets/datagov/data/data/datagovdata/uniform-crime-reporting-system-offenses-2013.csv","Mohegan Sun Casino CSP","numbers","^(\d|,)*\.?\d*$"
"/data/datasets/datagov/data/data/datagovdata/uniform-crime-reporting-system-offenses-2013.csv","Redding PD","numbers","^(\d|,)*\.?\d*$"
"/data/datasets/datagov/data/data/datagovdata/uniform-crime-reporting-system-offenses-2013.csv","Old Saybrook PD","numbers","^(\d|,)*\.?\d*$"
"/data/datasets/datagov/data/data/datagovdata/uniform-crime-reporting-system-offenses-2013.csv","Mansfield CSP","numbers","^(\d|,)*\.?\d*$"
"/data/datasets/datagov/data/data/datagovdata/uniform-crime-reporting-system-offenses-2013.csv","Norwich PD","numbers","^(\d|,)*\.?\d*$"
"/data/datasets/datagov/data/data/datagovdata/uniform-crime-reporting-system-offenses-2013.csv","Durham CSP","numbers","^(\d|,)*\.?\d*$"
"/data/datasets/datagov/data/data/datagovdata/uniform-crime-reporting-system-offenses-2013.csv","Salem CSP","numbers","^(\d|,)*\.?\d*$"
"/data/datasets/datagov/data/data/datagovdata/uniform-crime-reporting-system-offenses-2013.csv","North Stonington CSP","numbers","^(\d|,)*\.?\d*$"
"/data/datasets/datagov/data/data/datagovdata/uniform-crime-reporting-system-offenses-2013.csv","NonUrban","numbers","^(\d|,)*\.?\d*$"
"/data/datasets/datagov/data/data/datagovdata/uniform-crime-reporting-system-offenses-2013.csv","Ansonia PD","numbers","^(\d|,)*\.?\d*$"
"/data/datasets/datagov/data/data/datagovdata/uniform-crime-reporting-system-offenses-2013.csv","Brooklyn CSP","numbers","^(\d|,)*\.?\d*$"
"/data/datasets/datagov/data/data/datagovdata/uniform-crime-reporting-system-offenses-2013.csv","Portland PD","numbers","^(\d|,)*\.?\d*$"
"/data/datasets/datagov/data/data/datagovdata/uniform-crime-reporting-system-offenses-2013.csv","Westbrook CSP","numbers","^(\d|,)*\.?\d*$"
"/data/datasets/datagov/data/data/datagovdata/uniform-crime-reporting-system-offenses-2013.csv","Woodstock CSP","numbers","^(\d|,)*\.?\d*$"
"/data/datasets/datagov/data/data/datagovdata/uniform-crime-reporting-system-offenses-2013.csv","CSP Total","numbers","^(\d|,)*\.?\d*$"
"/data/datasets/datagov/data/data/datagovdata/uniform-crime-reporting-system-offenses-2013.csv","Beacon Falls CSP","numbers","^(\d|,)*\.?\d*$"
"/data/datasets/datagov/data/data/datagovdata/uniform-crime-reporting-system-offenses-2013.csv","New Britain PD","numbers","^(\d|,)*\.?\d*$"
"/data/datasets/datagov/data/data/datagovdata/uniform-crime-reporting-system-offenses-2013.csv","Granby PD","numbers","^(\d|,)*\.?\d*$"
"/data/datasets/datagov/data/data/datagovdata/uniform-crime-reporting-system-offenses-2013.csv","Index","numbers","^(\d|,)*\.?\d*$"
"/data/datasets/datagov/data/data/datagovdata/uniform-crime-reporting-system-offenses-2013.csv","Guilford PD","numbers","^(\d|,)*\.?\d*$"
"/data/datasets/datagov/data/data/datagovdata/uniform-crime-reporting-system-offenses-2013.csv","Thomaston PD","numbers","^(\d|,)*\.?\d*$"
"/data/datasets/datagov/data/data/datagovdata/uniform-crime-reporting-system-offenses-2013.csv","Waterbury PD","numbers","^(\d|,)*\.?\d*$"
"/data/datasets/datagov/data/data/datagovdata/uniform-crime-reporting-system-offenses-2013.csv","Connecticut","numbers","^(\d|,)*\.?\d*$"
"/data/datasets/datagov/data/data/datagovdata/uniform-crime-reporting-system-offenses-2013.csv","Middlesex","numbers","^(\d|,)*\.?\d*$"
"/data/datasets/datagov/data/data/datagovdata/uniform-crime-reporting-system-offenses-2013.csv","Haddam CSP","numbers","^(\d|,)*\.?\d*$"
"/data/datasets/datagov/data/data/datagovdata/uniform-crime-reporting-system-offenses-2013.csv","Stonington PD","numbers","^(\d|,)*\.?\d*$"
"/data/datasets/datagov/data/data/datagovdata/uniform-crime-reporting-system-offenses-2013.csv","Salisbury CSP","numbers","^(\d|,)*\.?\d*$"
"/data/datasets/datagov/data/data/datagovdata/uniform-crime-reporting-system-offenses-2013.csv","Union CSP","numbers","^(\d|,)*\.?\d*$"
"/data/datasets/datagov/data/data/datagovdata/uniform-crime-reporting-system-offenses-2013.csv","Marlborough CSP","numbers","^(\d|,)*\.?\d*$"
"/data/datasets/datagov/data/data/datagovdata/uniform-crime-reporting-system-offenses-2013.csv","New Fairfield CSP","numbers","^(\d|,)*\.?\d*$"
"/data/datasets/datagov/data/data/datagovdata/uniform-crime-reporting-system-offenses-2013.csv","Suffield PD","numbers","^(\d|,)*\.?\d*$"
"/data/datasets/datagov/data/data/datagovdata/uniform-crime-reporting-system-offenses-2013.csv","Bolton CSP","numbers","^(\d|,)*\.?\d*$"
"/data/datasets/datagov/data/data/datagovdata/uniform-crime-reporting-system-offenses-2013.csv","Griswold CSP","numbers","^(\d|,)*\.?\d*$"
"/data/datasets/datagov/data/data/datagovdata/uniform-crime-reporting-system-offenses-2013.csv","Litchfield CSP","numbers","^(\d|,)*\.?\d*$"
"/data/datasets/datagov/data/data/datagovdata/uniform-crime-reporting-system-offenses-2013.csv","Washington CSP","numbers","^(\d|,)*\.?\d*$"
"/data/datasets/datagov/data/data/datagovdata/uniform-crime-reporting-system-offenses-2013.csv","Vernon PD","numbers","^(\d|,)*\.?\d*$"
"/data/datasets/datagov/data/data/datagovdata/uniform-crime-reporting-system-offenses-2013.csv","Canterbury CSP","numbers","^(\d|,)*\.?\d*$"
"/data/datasets/datagov/data/data/datagovdata/uniform-crime-reporting-system-offenses-2013.csv","Hampton CSP","numbers","^(\d|,)*\.?\d*$"
"/data/datasets/datagov/data/data/datagovdata/uniform-crime-reporting-system-offenses-2013.csv","East Granby CSP","numbers","^(\d|,)*\.?\d*$"
"/data/datasets/datagov/data/data/datagovdata/uniform-crime-reporting-system-offenses-2013.csv","Southbury CSP","numbers","^(\d|,)*\.?\d*$"
"/data/datasets/datagov/data/data/datagovdata/uniform-crime-reporting-system-offenses-2013.csv","WCSU PD","numbers","^(\d|,)*\.?\d*$"
"/data/datasets/datagov/data/data/datagovdata/uniform-crime-reporting-system-offenses-2013.csv","Glastonbury PD","numbers","^(\d|,)*\.?\d*$"
"/data/datasets/datagov/data/data/datagovdata/uniform-crime-reporting-system-offenses-2013.csv","East Haddam CSP","numbers","^(\d|,)*\.?\d*$"
"/data/datasets/datagov/data/data/datagovdata/uniform-crime-reporting-system-offenses-2013.csv","Barkhamsted CSP","numbers","^(\d|,)*\.?\d*$"
"/data/datasets/datagov/data/data/datagovdata/uniform-crime-reporting-system-offenses-2013.csv","Norfolk CSP","numbers","^(\d|,)*\.?\d*$"
"/data/datasets/datagov/data/data/datagovdata/uniform-crime-reporting-system-offenses-2013.csv","East Hartford PD","numbers","^(\d|,)*\.?\d*$"
"/data/datasets/datagov/data/data/datagovdata/uniform-crime-reporting-system-offenses-2013.csv","Wilton PD","numbers","^(\d|,)*\.?\d*$"
"/data/datasets/datagov/data/data/datagovdata/uniform-crime-reporting-system-offenses-2013.csv","Essex CSP","numbers","^(\d|,)*\.?\d*$"
"/data/datasets/datagov/data/data/datagovdata/uniform-crime-reporting-system-offenses-2013.csv","Cornwall CSP","numbers","^(\d|,)*\.?\d*$"
"/data/datasets/datagov/data/data/datagovdata/uniform-crime-reporting-system-offenses-2013.csv","Ashford CSP","numbers","^(\d|,)*\.?\d*$"
"/data/datasets/datagov/data/data/datagovdata/uniform-crime-reporting-system-offenses-2013.csv","Lyme CSP","numbers","^(\d|,)*\.?\d*$"
"/data/datasets/datagov/data/data/datagovdata/uniform-crime-reporting-system-offenses-2013.csv","Middlefield CSP","numbers","^(\d|,)*\.?\d*$"
"/data/datasets/datagov/data/data/datagovdata/uniform-crime-reporting-system-offenses-2013.csv","CCSU PD","numbers","^(\d|,)*\.?\d*$"
"/data/datasets/datagov/data/data/datagovdata/uniform-crime-reporting-system-offenses-2013.csv","Eastford CSP","numbers","^(\d|,)*\.?\d*$"
"/data/datasets/datagov/data/data/datagovdata/uniform-crime-reporting-system-offenses-2013.csv","Naugatuck PD","numbers","^(\d|,)*\.?\d*$"
"/data/datasets/datagov/data/data/datagovdata/uniform-crime-reporting-system-offenses-2013.csv","Wolcott PD","numbers","^(\d|,)*\.?\d*$"
"/data/datasets/datagov/data/data/datagovdata/uniform-crime-reporting-system-offenses-2013.csv","Sterling CSP","numbers","^(\d|,)*\.?\d*$"
"/data/datasets/datagov/data/data/datagovdata/uniform-crime-reporting-system-offenses-2013.csv","Bridgewater CSP","numbers","^(\d|,)*\.?\d*$"
"/data/datasets/datagov/data/data/datagovdata/uniform-crime-reporting-system-offenses-2013.csv","Columbia CSP","numbers","^(\d|,)*\.?\d*$"
"/data/datasets/datagov/data/data/datagovdata/uniform-crime-reporting-system-offenses-2013.csv","Newington PD","numbers","^(\d|,)*\.?\d*$"
"/data/datasets/datagov/data/data/datagovdata/uniform-crime-reporting-system-offenses-2013.csv","Pomfret CSP","numbers","^(\d|,)*\.?\d*$"
"/data/datasets/datagov/data/data/datagovdata/uniform-crime-reporting-system-offenses-2013.csv","Brookfield PD","numbers","^(\d|,)*\.?\d*$"
"/data/datasets/datagov/data/data/datagovdata/uniform-crime-reporting-system-offenses-2013.csv","North Canaan CSP","numbers","^(\d|,)*\.?\d*$"
"/data/datasets/datagov/data/data/datagovdata/uniform-crime-reporting-system-offenses-2013.csv","Goshen CSP","numbers","^(\d|,)*\.?\d*$"
"/data/datasets/datagov/data/data/datagovdata/uniform-crime-reporting-system-offenses-2013.csv","Trumbull PD","numbers","^(\d|,)*\.?\d*$"
"/data/datasets/datagov/data/data/datagovdata/uniform-crime-reporting-system-offenses-2013.csv","Wallingford PD","numbers","^(\d|,)*\.?\d*$"
"/data/datasets/datagov/data/data/datagovdata/uniform-crime-reporting-system-offenses-2013.csv","East Hampton PD","numbers","^(\d|,)*\.?\d*$"
"/data/datasets/datagov/data/data/datagovdata/uniform-crime-reporting-system-offenses-2013.csv","Groton City PD","numbers","^(\d|,)*\.?\d*$"
"/data/datasets/datagov/data/data/datagovdata/uniform-crime-reporting-system-offenses-2013.csv","Windham","numbers","^(\d|,)*\.?\d*$"
"/data/datasets/datagov/data/data/datagovdata/uniform-crime-reporting-system-offenses-2013.csv","Stafford CSP","numbers","^(\d|,)*\.?\d*$"
"/data/datasets/datagov/data/data/datagovdata/uniform-crime-reporting-system-offenses-2013.csv","Montville CSP","numbers","^(\d|,)*\.?\d*$"
"/data/datasets/datagov/data/data/datagovdata/uniform-crime-reporting-system-offenses-2013.csv","Bethlehem CSP","numbers","^(\d|,)*\.?\d*$"
"/data/datasets/datagov/data/data/datagovdata/uniform-crime-reporting-system-offenses-2013.csv","Tolland","numbers","^(\d|,)*\.?\d*$"
"/data/datasets/datagov/data/data/datagovdata/uniform-crime-reporting-system-offenses-2013.csv","Norwalk PD","numbers","^(\d|,)*\.?\d*$"
"/data/datasets/datagov/data/data/datagovdata/uniform-crime-reporting-system-offenses-2013.csv","Colebrook CSP","numbers","^(\d|,)*\.?\d*$"
"/data/datasets/datagov/data/data/datagovdata/uniform-crime-reporting-system-offenses-2013.csv","East Windsor PD","numbers","^(\d|,)*\.?\d*$"
"/data/datasets/datagov/data/data/datagovdata/uniform-crime-reporting-system-offenses-2013.csv","Thompson CSP","numbers","^(\d|,)*\.?\d*$"
"/data/datasets/datagov/data/data/datagovdata/uniform-crime-reporting-system-offenses-2013.csv","Somers CSP","numbers","^(\d|,)*\.?\d*$"
"/data/datasets/datagov/data/data/datagovdata/uniform-crime-reporting-system-offenses-2013.csv","Enfield PD","numbers","^(\d|,)*\.?\d*$"
"/data/datasets/datagov/data/data/datagovdata/uniform-crime-reporting-system-offenses-2013.csv","Bristol PD","numbers","^(\d|,)*\.?\d*$"
"/data/datasets/datagov/data/data/datagovdata/uniform-crime-reporting-system-offenses-2013.csv","Groton Long Pt. PD","numbers","^(\d|,)*\.?\d*$"
"/data/datasets/datagov/data/data/datagovdata/uniform-crime-reporting-system-offenses-2013.csv","Branford PD","numbers","^(\d|,)*\.?\d*$"
"/data/datasets/datagov/data/data/datagovdata/uniform-crime-reporting-system-offenses-2013.csv","NIBRS","numbers","^(\d|,)*\.?\d*$"
"/data/datasets/datagov/data/data/datagovdata/uniform-crime-reporting-system-offenses-2013.csv","UCONN-Storrs PD","numbers","^(\d|,)*\.?\d*$"
"/data/datasets/datagov/data/data/datagovdata/uniform-crime-reporting-system-offenses-2013.csv","Avon PD","numbers","^(\d|,)*\.?\d*$"
"/data/datasets/datagov/data/data/datagovdata/uniform-crime-reporting-system-offenses-2013.csv","Hartford PD","numbers","^(\d|,)*\.?\d*$"
"/data/datasets/datagov/data/data/datagovdata/uniform-crime-reporting-system-offenses-2013.csv","Warren CSP","numbers","^(\d|,)*\.?\d*$"
"/data/datasets/datagov/data/data/datagovdata/uniform-crime-reporting-system-offenses-2013.csv","Groton Town PD","numbers","^(\d|,)*\.?\d*$"
"/data/datasets/datagov/data/data/datagovdata/uniform-crime-reporting-system-offenses-2013.csv","Plainfield PD","numbers","^(\d|,)*\.?\d*$"
"/data/datasets/datagov/data/data/datagovdata/uniform-crime-reporting-system-offenses-2013.csv","Bozrah CSP","numbers","^(\d|,)*\.?\d*$"
"/data/datasets/datagov/data/data/datagovdata/uniform-crime-reporting-system-offenses-2013.csv","Farmington PD","numbers","^(\d|,)*\.?\d*$"
"/data/datasets/datagov/data/data/datagovdata/uniform-crime-reporting-system-offenses-2013.csv","Chester CSP","numbers","^(\d|,)*\.?\d*$"
"/data/datasets/datagov/data/data/datagovdata/uniform-crime-reporting-system-offenses-2013.csv","Urban","numbers","^(\d|,)*\.?\d*$"
"/data/datasets/datagov/data/data/datagovdata/uniform-crime-reporting-system-offenses-2013.csv","Canaan CSP","numbers","^(\d|,)*\.?\d*$"
"/data/datasets/datagov/data/data/datagovdata/uniform-crime-reporting-system-offenses-2013.csv","Bridgeport PD","numbers","^(\d|,)*\.?\d*$"
"/data/datasets/datagov/data/data/datagovdata/uniform-crime-reporting-system-offenses-2013.csv","Plymouth PD","numbers","^(\d|,)*\.?\d*$"
"/data/datasets/datagov/data/data/datagovdata/uniform-crime-reporting-system-offenses-2013.csv","West Hartford PD","numbers","^(\d|,)*\.?\d*$"
"/data/datasets/datagov/data/data/datagovdata/uniform-crime-reporting-system-offenses-2013.csv","New York","numbers","^(\d|,)*\.?\d*$"
"/data/datasets/datagov/data/data/datagovdata/uniform-crime-reporting-system-offenses-2013.csv","Madison PD","numbers","^(\d|,)*\.?\d*$"
"/data/datasets/datagov/data/data/datagovdata/uniform-crime-reporting-system-offenses-2013.csv","Bloomfield PD","numbers","^(\d|,)*\.?\d*$"
"/data/datasets/datagov/data/data/datagovdata/uniform-crime-reporting-system-offenses-2013.csv","East Lyme CSP","numbers","^(\d|,)*\.?\d*$"
"/data/datasets/datagov/data/data/datagovdata/uniform-crime-reporting-system-offenses-2013.csv","Greenwich PD","numbers","^(\d|,)*\.?\d*$"
"/data/datasets/datagov/data/data/datagovdata/uniform-crime-reporting-system-offenses-2013.csv","Simsbury PD","numbers","^(\d|,)*\.?\d*$"
"/data/datasets/datagov/data/data/datagovdata/uniform-crime-reporting-system-offenses-2013.csv","Wethersfield PD","numbers","^(\d|,)*\.?\d*$"
"/data/datasets/datagov/data/data/datagovdata/uniform-crime-reporting-system-offenses-2013.csv","North Branford PD","numbers","^(\d|,)*\.?\d*$"
"/data/datasets/datagov/data/data/datagovdata/uniform-crime-reporting-system-offenses-2013.csv","Cromwell PD","numbers","^(\d|,)*\.?\d*$"
"/data/datasets/datagov/data/data/datagovdata/uniform-crime-reporting-system-offenses-2013.csv","Ridgefield PD","numbers","^(\d|,)*\.?\d*$"
"/data/datasets/datagov/data/data/datagovdata/uniform-crime-reporting-system-offenses-2013.csv","New Haven","numbers","^(\d|,)*\.?\d*$"
"/data/datasets/datagov/data/data/datagovdata/uniform-crime-reporting-system-offenses-2013.csv","Stamford PD","numbers","^(\d|,)*\.?\d*$"
"/data/datasets/datagov/data/data/datagovdata/uniform-crime-reporting-system-offenses-2013.csv","Yale Univ. PD","numbers","^(\d|,)*\.?\d*$"
"/data/datasets/datagov/data/data/datagovdata/uniform-crime-reporting-system-offenses-2013.csv","Danbury PD","numbers","^(\d|,)*\.?\d*$"
"/data/datasets/datagov/data/data/datagovdata/uniform-crime-reporting-system-offenses-2013.csv","Stratford PD","numbers","^(\d|,)*\.?\d*$"
"/data/datasets/datagov/data/data/datagovdata/uniform-crime-reporting-system-offenses-2013.csv","SCSU PD","numbers","^(\d|,)*\.?\d*$"
"/data/datasets/datagov/data/data/datagovdata/uniform-crime-reporting-system-offenses-2013.csv","Hartland CSP","numbers","^(\d|,)*\.?\d*$"
"/data/datasets/datagov/data/data/datagovdata/uniform-crime-reporting-system-offenses-2013.csv","Ellington CSP","numbers","^(\d|,)*\.?\d*$"
"/data/datasets/datagov/data/data/datagovdata/uniform-crime-reporting-system-offenses-2013.csv","Harwinton CSP","numbers","^(\d|,)*\.?\d*$"
"/data/datasets/datagov/data/data/datagovdata/uniform-crime-reporting-system-offenses-2013.csv","Voluntown CSP","numbers","^(\d|,)*\.?\d*$"
"/data/datasets/datagov/data/data/datagovdata/uniform-crime-reporting-system-offenses-2013.csv","Weston PD","numbers","^(\d|,)*\.?\d*$"
"/data/datasets/datagov/data/data/datagovdata/uniform-crime-reporting-system-offenses-2013.csv","Sherman CSP","numbers","^(\d|,)*\.?\d*$"
"/data/datasets/datagov/data/data/datagovdata/uniform-crime-reporting-system-offenses-2013.csv","Manchester PD","numbers","^(\d|,)*\.?\d*$"
"/data/datasets/datagov/data/data/datagovdata/uniform-crime-reporting-system-offenses-2013.csv","New Haven PD","numbers","^(\d|,)*\.?\d*$"
"/data/datasets/datagov/data/data/datagovdata/uniform-crime-reporting-system-offenses-2013.csv","Newtown PD","numbers","^(\d|,)*\.?\d*$"
"/data/datasets/datagov/data/data/datagovdata/uniform-crime-reporting-system-offenses-2013.csv","Franklin CSP","numbers","^(\d|,)*\.?\d*$"
"/data/datasets/datagov/data/data/datagovdata/uniform-crime-reporting-system-offenses-2013.csv","Milford PD","numbers","^(\d|,)*\.?\d*$"
"/data/datasets/datagov/data/data/datagovdata/uniform-crime-reporting-system-offenses-2013.csv","CTSPOther","numbers","^(\d|,)*\.?\d*$"
"/data/datasets/datagov/data/data/datagovdata/uniform-crime-reporting-system-offenses-2013.csv","Hebron CSP","numbers","^(\d|,)*\.?\d*$"
"/data/datasets/datagov/data/data/datagovdata/uniform-crime-reporting-system-offenses-2013.csv","UCONN Health Ctr. PD","numbers","^(\d|,)*\.?\d*$"
"/data/datasets/datagov/data/data/datagovdata/uniform-crime-reporting-system-offenses-2013.csv","Old Lyme CSP","numbers","^(\d|,)*\.?\d*$"
"/data/datasets/datagov/data/data/datagovdata/uniform-crime-reporting-system-offenses-2013.csv","New Milford PD","numbers","^(\d|,)*\.?\d*$"
"/data/datasets/datagov/data/data/datagovdata/uniform-crime-reporting-system-offenses-2013.csv","New London","numbers","^(\d|,)*\.?\d*$"
"/data/datasets/datagov/data/data/datagovdata/uniform-crime-reporting-system-offenses-2013.csv","Killingworth CSP","numbers","^(\d|,)*\.?\d*$"
"/data/datasets/datagov/data/data/datagovdata/uniform-crime-reporting-system-offenses-2013.csv","Bethany CSP","numbers","^(\d|,)*\.?\d*$"
"/data/datasets/datagov/data/data/datagovdata/uniform-crime-reporting-system-offenses-2013.csv","Derby PD","numbers","^(\d|,)*\.?\d*$"
"/data/datasets/datagov/data/data/datagovdata/uniform-crime-reporting-system-offenses-2013.csv","Shelton PD","numbers","^(\d|,)*\.?\d*$"
"/data/datasets/datagov/data/data/datagovdata/uniform-crime-reporting-system-offenses-2013.csv","Windsor Locks PD","numbers","^(\d|,)*\.?\d*$"
"/data/datasets/datagov/data/data/datagovdata/uniform-crime-reporting-system-offenses-2013.csv","Lisbon CSP","numbers","^(\d|,)*\.?\d*$"
"/data/datasets/datagov/data/data/datagovdata/uniform-crime-reporting-system-offenses-2013.csv","Darien PD","numbers","^(\d|,)*\.?\d*$"
"/data/datasets/datagov/data/data/datagovdata/uniform-crime-reporting-system-offenses-2013.csv","Andover","numbers","^(\d|,)*\.?\d*$"
"/data/datasets/datagov/data/data/datagovdata/uniform-crime-reporting-system-offenses-2013.csv","Prospect CSP","numbers","^(\d|,)*\.?\d*$"
"/data/datasets/datagov/data/data/datagovdata/uniform-crime-reporting-system-offenses-2013.csv","Plainville PD","numbers","^(\d|,)*\.?\d*$"
"/data/datasets/datagov/data/data/datagovdata/uniform-crime-reporting-system-offenses-2013.csv","South Windsor PD","numbers","^(\d|,)*\.?\d*$"
"/data/datasets/datagov/data/data/datagovdata/uniform-crime-reporting-system-offenses-2013.csv","Cheshire PD","numbers","^(\d|,)*\.?\d*$"
"/data/datasets/datagov/data/data/datagovdata/uniform-crime-reporting-system-offenses-2013.csv","Preston CSP","numbers","^(\d|,)*\.?\d*$"
"/data/datasets/datagov/data/data/datagovdata/uniform-crime-reporting-system-offenses-2013.csv","Willimantic PD","numbers","^(\d|,)*\.?\d*$"
"/data/datasets/datagov/data/data/datagovdata/uniform-crime-reporting-system-offenses-2013.csv","West Haven PD","numbers","^(\d|,)*\.?\d*$"
"/data/datasets/datagov/data/data/datagovdata/uniform-crime-reporting-system-offenses-2013.csv","Monroe PD","numbers","^(\d|,)*\.?\d*$"
"/data/datasets/datagov/data/data/datagovdata/uniform-crime-reporting-system-offenses-2013.csv","Woodbury CSP","numbers","^(\d|,)*\.?\d*$"
"/data/datasets/datagov/data/data/datagovdata/uniform-crime-reporting-system-offenses-2013.csv","Putnam CSP","numbers","^(\d|,)*\.?\d*$"
"/data/datasets/datagov/data/data/datagovdata/uniform-crime-reporting-system-offenses-2013.csv","Southington PD","numbers","^(\d|,)*\.?\d*$"
"/data/datasets/datagov/data/data/datagovdata/uniform-crime-reporting-system-offenses-2013.csv","Torrington PD","numbers","^(\d|,)*\.?\d*$"
"/data/datasets/datagov/data/data/datagovdata/uniform-crime-reporting-system-offenses-2013.csv","Deep River CSP","numbers","^(\d|,)*\.?\d*$"
"/data/datasets/datagov/data/data/datagovdata/uniform-crime-reporting-system-offenses-2013.csv","Roxbury CSP","numbers","^(\d|,)*\.?\d*$"
"/data/datasets/datagov/data/data/datagovdata/uniform-crime-reporting-system-offenses-2013.csv","Bethel PD","numbers","^(\d|,)*\.?\d*$"
"/data/datasets/datagov/data/data/datagovdata/uniform-crime-reporting-system-offenses-2013.csv","Westport PD","numbers","^(\d|,)*\.?\d*$"
"/data/datasets/datagov/data/data/datagovdata/uniform-crime-reporting-system-offenses-2013.csv","Kent CSP","numbers","^(\d|,)*\.?\d*$"
"/data/datasets/datagov/data/data/datagovdata/uniform-crime-reporting-system-offenses-2013.csv","Sharon CSP","numbers","^(\d|,)*\.?\d*$"
"/data/datasets/datagov/data/data/datagovdata/uniform-crime-reporting-system-offenses-2013.csv","Lebanon CSP","numbers","^(\d|,)*\.?\d*$"
"/data/datasets/datagov/data/data/datagovdata/uniform-crime-reporting-system-offenses-2013.csv","Putnam PD","numbers","^(\d|,)*\.?\d*$"
"/data/datasets/datagov/data/data/datagovdata/uniform-crime-reporting-system-offenses-2013.csv","Willington CSP","numbers","^(\d|,)*\.?\d*$"
"/data/datasets/datagov/data/data/datagovdata/uniform-crime-reporting-system-offenses-2013.csv","Ledyard CSP","numbers","^(\d|,)*\.?\d*$"
"/data/datasets/datagov/data/data/datagovdata/uniform-crime-reporting-system-offenses-2013.csv","Middlebury PD","numbers","^(\d|,)*\.?\d*$"
"/data/datasets/datagov/data/data/datagovdata/uniform-crime-reporting-system-offenses-2013.csv","Foxwoods Casino CSP","numbers","^(\d|,)*\.?\d*$"
"/data/datasets/datagov/data/data/datagovdata/uniform-crime-reporting-system-offenses-2013.csv","Killingly CSP","numbers","^(\d|,)*\.?\d*$"
"/data/datasets/datagov/data/data/datagovdata/uniform-crime-reporting-system-offenses-2013.csv","Rocky Hill PD","numbers","^(\d|,)*\.?\d*$"
"/data/datasets/datagov/data/data/datagovdata/uniform-crime-reporting-system-offenses-2013.csv","Windsor PD","numbers","^(\d|,)*\.?\d*$"
"/data/datasets/datagov/data/data/datagovdata/uniform-crime-reporting-system-offenses-2013.csv","Hamden PD","numbers","^(\d|,)*\.?\d*$"
"/data/datasets/datagov/data/data/datagovdata/uniform-crime-reporting-system-offenses-2013.csv","Canton PD","numbers","^(\d|,)*\.?\d*$"
"/data/datasets/datagov/data/data/datagovdata/uniform-crime-reporting-system-offenses-2013.csv","Orange PD","numbers","^(\d|,)*\.?\d*$"
"/data/datasets/datagov/data/data/datagovdata/uniform-crime-reporting-system-offenses-2013.csv","ECSU PD","numbers","^(\d|,)*\.?\d*$"
"/data/datasets/datagov/data/data/datagovdata/uniform-crime-reporting-system-offenses-2013.csv","Winchester PD","numbers","^(\d|,)*\.?\d*$"
"/data/datasets/datagov/data/data/datagovdata/uniform-crime-reporting-system-offenses-2013.csv","Litchfield","numbers","^(\d|,)*\.?\d*$"
"/data/datasets/datagov/data/data/datagovdata/uniform-crime-reporting-system-offenses-2013.csv","Easton PD","numbers","^(\d|,)*\.?\d*$"
"/data/datasets/datagov/data/data/datagovdata/uniform-crime-reporting-system-offenses-2013.csv","Colchester CSP","numbers","^(\d|,)*\.?\d*$"
