"file_name","column_name","label","regex"
"/data/datasets/datagov/data/data/datagovdata/cctv-locations-f4af6.csv","cameraLocation","uri",".*?$(?<!\.aspx)"
"/data/datasets/datagov/data/data/datagovdata/cctv-locations-f4af6.csv","cameraNumber","numbers","^\d*$"
"/data/datasets/datagov/data/data/datagovdata/cctv-locations-f4af6.csv","Location 1","uri",".*?$(?<!\.aspx)"
"/data/datasets/datagov/data/data/datagovdata/cctv-locations-f4af6.csv","cameraProject","uri",".*?$(?<!\.aspx)"
