"file_name","column_name","label","regex"
"/data/datasets/datagov/data/data/datagovdata/lottery-mega-millions-winning-numbers-beginning-2002.csv","Winning Numbers","uri",".*?$(?<!\.aspx)"
"/data/datasets/datagov/data/data/datagovdata/lottery-mega-millions-winning-numbers-beginning-2002.csv","Mega Ball","numbers","^(\d|,)*\.?\d*$"
"/data/datasets/datagov/data/data/datagovdata/lottery-mega-millions-winning-numbers-beginning-2002.csv","Draw Date","strings","[^""\r\n]*"
"/data/datasets/datagov/data/data/datagovdata/lottery-mega-millions-winning-numbers-beginning-2002.csv","Multiplier","numbers","^(\d|,)*\.?\d*$"
