"file_name","column_name","label","regex"
"/data/datasets/datagov/data/data/datagovdata/foreclosure-lis-pendens-01012006-to-current.csv","First_VOLUME","numbers","^(\d|,)*\.?\d*$"
"/data/datasets/datagov/data/data/datagovdata/foreclosure-lis-pendens-01012006-to-current.csv","geom","uri",".*?$(?<!\.aspx)"
"/data/datasets/datagov/data/data/datagovdata/foreclosure-lis-pendens-01012006-to-current.csv","First_GRANTEE_NAME","uri",".*?$(?<!\.aspx)"
"/data/datasets/datagov/data/data/datagovdata/foreclosure-lis-pendens-01012006-to-current.csv","LUC_DESCRIPTION","uri",".*?$(?<!\.aspx)"
"/data/datasets/datagov/data/data/datagovdata/foreclosure-lis-pendens-01012006-to-current.csv","First_PAGE","numbers","^(\d|,)*\.?\d*$"
"/data/datasets/datagov/data/data/datagovdata/foreclosure-lis-pendens-01012006-to-current.csv","X","numbers","^(\d|,)*\.?\d*$"
"/data/datasets/datagov/data/data/datagovdata/foreclosure-lis-pendens-01012006-to-current.csv","NEIGHBORHOOD","uri",".*?$(?<!\.aspx)"
"/data/datasets/datagov/data/data/datagovdata/foreclosure-lis-pendens-01012006-to-current.csv","GISPIN","numbers","^(\d|,)*\.?\d*$"
"/data/datasets/datagov/data/data/datagovdata/foreclosure-lis-pendens-01012006-to-current.csv","LivingUnits","numbers","^(\d|,)*\.?\d*$"
"/data/datasets/datagov/data/data/datagovdata/foreclosure-lis-pendens-01012006-to-current.csv","RECORDED_DATE","strings","[^""\r\n]*"
"/data/datasets/datagov/data/data/datagovdata/foreclosure-lis-pendens-01012006-to-current.csv","Y","numbers","^(\d|,)*\.?\d*$"
"/data/datasets/datagov/data/data/datagovdata/foreclosure-lis-pendens-01012006-to-current.csv","First_GRANTOR_NAME","uri",".*?$(?<!\.aspx)"
"/data/datasets/datagov/data/data/datagovdata/foreclosure-lis-pendens-01012006-to-current.csv","First_DOCUMENT_TYPE","uri",".*?$(?<!\.aspx)"
"/data/datasets/datagov/data/data/datagovdata/foreclosure-lis-pendens-01012006-to-current.csv","GIS_ADDRESS","uri",".*?$(?<!\.aspx)"
"/data/datasets/datagov/data/data/datagovdata/foreclosure-lis-pendens-01012006-to-current.csv","First_DEED_ADDRESS","strings","[^""\r\n]*"
