"file_name","column_name","label","regex"
"/data/datasets/datagov/data/data/datagovdata/investing-in-innovation-2011-applications.csv","CPP10","uri","^[^\\\/\?\*\""\'\>\<\:\|]*$"
"/data/datasets/datagov/data/data/datagovdata/investing-in-innovation-2011-applications.csv","Project Title","strings","[^""\r\n]*"
"/data/datasets/datagov/data/data/datagovdata/investing-in-innovation-2011-applications.csv","Length of Requested Grant Award","uri","^[^\\\/\?\*\""\'\>\<\:\|]*$"
"/data/datasets/datagov/data/data/datagovdata/investing-in-innovation-2011-applications.csv","Project Description","strings","[^""\r\n]*"
"/data/datasets/datagov/data/data/datagovdata/investing-in-innovation-2011-applications.csv","CPP7","uri","^[^\\\/\?\*\""\'\>\<\:\|]*$"
"/data/datasets/datagov/data/data/datagovdata/investing-in-innovation-2011-applications.csv","CPP9","uri","^[^\\\/\?\*\""\'\>\<\:\|]*$"
"/data/datasets/datagov/data/data/datagovdata/investing-in-innovation-2011-applications.csv","Type Of Grant Requested","uri","^[^\\\/\?\*\""\'\>\<\:\|]*$"
"/data/datasets/datagov/data/data/datagovdata/investing-in-innovation-2011-applications.csv","Applicant","strings","[^""\r\n]*"
"/data/datasets/datagov/data/data/datagovdata/investing-in-innovation-2011-applications.csv","HighestRated","uri","^[^\\\/\?\*\""\'\>\<\:\|]*$"
"/data/datasets/datagov/data/data/datagovdata/investing-in-innovation-2011-applications.csv","PR Award No","uri","^[^\\\/\?\*\""\'\>\<\:\|]*$"
"/data/datasets/datagov/data/data/datagovdata/investing-in-innovation-2011-applications.csv","Location","uri","^[^\\\/\?\*\""\'\>\<\:\|]*$"
"/data/datasets/datagov/data/data/datagovdata/investing-in-innovation-2011-applications.csv","Federal Funding Requested","numbers","^\$?\d+(\.(\d{2}))?$"
"/data/datasets/datagov/data/data/datagovdata/investing-in-innovation-2011-applications.csv","City","uri","^[^\\\/\?\*\""\'\>\<\:\|]*$"
"/data/datasets/datagov/data/data/datagovdata/investing-in-innovation-2011-applications.csv","Absolute Priority","strings","[^""\r\n]*"
"/data/datasets/datagov/data/data/datagovdata/investing-in-innovation-2011-applications.csv","CPP6","uri","^[^\\\/\?\*\""\'\>\<\:\|]*$"
"/data/datasets/datagov/data/data/datagovdata/investing-in-innovation-2011-applications.csv","CPP8","uri","^[^\\\/\?\*\""\'\>\<\:\|]*$"
"/data/datasets/datagov/data/data/datagovdata/investing-in-innovation-2011-applications.csv","State","uri","^[^\\\/\?\*\""\'\>\<\:\|]*$"
