"file_name","column_name","label","regex"
"/data/datasets/datagov/data/data/datagovdata/clean-burning-wood-stove-grants-77e03.csv","Project Completion Date","strings","[^""\r\n]*"
"/data/datasets/datagov/data/data/datagovdata/clean-burning-wood-stove-grants-77e03.csv","County","uri","^[^\\\/\?\*\""\'\>\<\:\|]*$"
"/data/datasets/datagov/data/data/datagovdata/clean-burning-wood-stove-grants-77e03.csv","Total Project Cost","numbers","^\d*$"
"/data/datasets/datagov/data/data/datagovdata/clean-burning-wood-stove-grants-77e03.csv","Capacity (BTU/hr)","numbers","^\d*$"
"/data/datasets/datagov/data/data/datagovdata/clean-burning-wood-stove-grants-77e03.csv","Stove Type","uri","^[^\\\/\?\*\""\'\>\<\:\|]*$"
"/data/datasets/datagov/data/data/datagovdata/clean-burning-wood-stove-grants-77e03.csv","Award Date","strings","[^""\r\n]*"
"/data/datasets/datagov/data/data/datagovdata/clean-burning-wood-stove-grants-77e03.csv","City","uri","^[^\\\/\?\*\""\'\>\<\:\|]*$"
"/data/datasets/datagov/data/data/datagovdata/clean-burning-wood-stove-grants-77e03.csv","Award Amount","numbers","^\d*$"
"/data/datasets/datagov/data/data/datagovdata/clean-burning-wood-stove-grants-77e03.csv","Location1","uri","^[^\\\/\?\*\""\'\>\<\:\|]*$"
"/data/datasets/datagov/data/data/datagovdata/clean-burning-wood-stove-grants-77e03.csv","State","uri","^[^\\\/\?\*\""\'\>\<\:\|]*$"
"/data/datasets/datagov/data/data/datagovdata/clean-burning-wood-stove-grants-77e03.csv","Program Name","uri","^[^\\\/\?\*\""\'\>\<\:\|]*$"
"/data/datasets/datagov/data/data/datagovdata/clean-burning-wood-stove-grants-77e03.csv","Zip Code","numbers","^\d*$"
