"file_name","column_name","label","regex"
"/data/datasets/datagov/data/data/datagovdata/ccrb-assignment-of-officers-against-whom-allegations-were-substantiated-patrol-borough-st--b09b2.csv","Total","numbers","^[-+]?\d+(\.\d+)?|[-+]?\.\d+?$"
"/data/datasets/datagov/data/data/datagovdata/ccrb-assignment-of-officers-against-whom-allegations-were-substantiated-patrol-borough-st--b09b2.csv","2005","numbers","^[-+]?\d+(\.\d+)?|[-+]?\.\d+?$"
"/data/datasets/datagov/data/data/datagovdata/ccrb-assignment-of-officers-against-whom-allegations-were-substantiated-patrol-borough-st--b09b2.csv","Staten Island","uri",".*?$(?<!\.aspx)"
"/data/datasets/datagov/data/data/datagovdata/ccrb-assignment-of-officers-against-whom-allegations-were-substantiated-patrol-borough-st--b09b2.csv","2006","numbers","^[-+]?\d+(\.\d+)?|[-+]?\.\d+?$"
"/data/datasets/datagov/data/data/datagovdata/ccrb-assignment-of-officers-against-whom-allegations-were-substantiated-patrol-borough-st--b09b2.csv","2009","numbers","^[-+]?\d+(\.\d+)?|[-+]?\.\d+?$"
"/data/datasets/datagov/data/data/datagovdata/ccrb-assignment-of-officers-against-whom-allegations-were-substantiated-patrol-borough-st--b09b2.csv","2007","numbers","^[-+]?\d+(\.\d+)?|[-+]?\.\d+?$"
"/data/datasets/datagov/data/data/datagovdata/ccrb-assignment-of-officers-against-whom-allegations-were-substantiated-patrol-borough-st--b09b2.csv","2008","numbers","^[-+]?\d+(\.\d+)?|[-+]?\.\d+?$"
