"file_name","column_name","label","regex"
"/data/datasets/datagov/data/data/datagovdata/permit-activity-2c1b1.csv","Location 1","uri","^[^\\\/\?\*\""\'\>\<\:\|]*$"
"/data/datasets/datagov/data/data/datagovdata/permit-activity-2c1b1.csv","description","strings","[^""\r\n]*"
"/data/datasets/datagov/data/data/datagovdata/permit-activity-2c1b1.csv","amount","numbers","^\$?\d+(\.(\d{2}))?$"
"/data/datasets/datagov/data/data/datagovdata/permit-activity-2c1b1.csv","type","uri","^[^\\\/\?\*\""\'\>\<\:\|]*$"
"/data/datasets/datagov/data/data/datagovdata/permit-activity-2c1b1.csv","useDescription","strings","[^""\r\n]*"
"/data/datasets/datagov/data/data/datagovdata/permit-activity-2c1b1.csv","tract","numbers","^\$?\d+(\.(\d{2}))?$"
"/data/datasets/datagov/data/data/datagovdata/permit-activity-2c1b1.csv","issueDate","strings","[^""\r\n]*"
