"file_name","column_name","label","regex"
"/data/datasets/datagov/data/data/datagovdata/hart-proposed-budget-2012-e2685.csv","FY 2012 Budget Issues","numbers","^\d*$"
"/data/datasets/datagov/data/data/datagovdata/hart-proposed-budget-2012-e2685.csv","Object Name","strings","[^""\r\n]*"
"/data/datasets/datagov/data/data/datagovdata/hart-proposed-budget-2012-e2685.csv","Dept","uri",".*?$(?<!\.aspx)"
"/data/datasets/datagov/data/data/datagovdata/hart-proposed-budget-2012-e2685.csv","Department Name","uri",".*?$(?<!\.aspx)"
"/data/datasets/datagov/data/data/datagovdata/hart-proposed-budget-2012-e2685.csv","Fund","numbers","^\d*$"
"/data/datasets/datagov/data/data/datagovdata/hart-proposed-budget-2012-e2685.csv","FY 2012 Proposed Budget","numbers","^\d*$"
"/data/datasets/datagov/data/data/datagovdata/hart-proposed-budget-2012-e2685.csv","Division Name","uri",".*?$(?<!\.aspx)"
"/data/datasets/datagov/data/data/datagovdata/hart-proposed-budget-2012-e2685.csv","FY 2009 Actual","numbers","^\d*$"
"/data/datasets/datagov/data/data/datagovdata/hart-proposed-budget-2012-e2685.csv","FY 2010 Actual","numbers","^\d*$"
"/data/datasets/datagov/data/data/datagovdata/hart-proposed-budget-2012-e2685.csv","FY 2012 Current Services","numbers","^\d*$"
"/data/datasets/datagov/data/data/datagovdata/hart-proposed-budget-2012-e2685.csv","Fund Name","uri",".*?$(?<!\.aspx)"
"/data/datasets/datagov/data/data/datagovdata/hart-proposed-budget-2012-e2685.csv","Object Code","numbers","^\d*$"
"/data/datasets/datagov/data/data/datagovdata/hart-proposed-budget-2012-e2685.csv","FY 2011 Budget","numbers","^\d*$"
"/data/datasets/datagov/data/data/datagovdata/hart-proposed-budget-2012-e2685.csv","Division","numbers","^\d*$"
