"file_name","column_name","label","regex"
"/data/datasets/datagov/data/data/datagovdata/nm_cont_div.csv","LENGTH","numbers","^\d$"
"/data/datasets/datagov/data/data/datagovdata/nm_cont_div.csv","LPOLY_","numbers","^\d$"
"/data/datasets/datagov/data/data/datagovdata/nm_cont_div.csv","SUBREG","numbers","^\d$"
"/data/datasets/datagov/data/data/datagovdata/nm_cont_div.csv","FNODE_","numbers","^\d$"
"/data/datasets/datagov/data/data/datagovdata/nm_cont_div.csv","HYFROBND_","numbers","^\d$"
"/data/datasets/datagov/data/data/datagovdata/nm_cont_div.csv","CAT_UNIT","numbers","^\d$"
"/data/datasets/datagov/data/data/datagovdata/nm_cont_div.csv","REG","numbers","^\d$"
"/data/datasets/datagov/data/data/datagovdata/nm_cont_div.csv","HYFROBND_I","numbers","^\d$"
"/data/datasets/datagov/data/data/datagovdata/nm_cont_div.csv","ACT_UNIT","numbers","^\d$"
"/data/datasets/datagov/data/data/datagovdata/nm_cont_div.csv","RPOLY_","numbers","^\d$"
"/data/datasets/datagov/data/data/datagovdata/nm_cont_div.csv","TNODE_","numbers","^\d$"
