"file_name","column_name","label","regex"
"/data/datasets/datagov/data/data/datagovdata/proposed-updating-air-quality-rules-to-address-federal-regulations.csv","Email Address","email","^.+@[^\.].*\.[a-z]{2,}$"
"/data/datasets/datagov/data/data/datagovdata/proposed-updating-air-quality-rules-to-address-federal-regulations.csv","First Name","uri",".*?$(?<!\.aspx)"
"/data/datasets/datagov/data/data/datagovdata/proposed-updating-air-quality-rules-to-address-federal-regulations.csv","Organization","uri",".*?$(?<!\.aspx)"
"/data/datasets/datagov/data/data/datagovdata/proposed-updating-air-quality-rules-to-address-federal-regulations.csv","Comment","uri",".*?$(?<!\.aspx)"
"/data/datasets/datagov/data/data/datagovdata/proposed-updating-air-quality-rules-to-address-federal-regulations.csv","Last Name","uri",".*?$(?<!\.aspx)"
"/data/datasets/datagov/data/data/datagovdata/proposed-updating-air-quality-rules-to-address-federal-regulations.csv","State","uri",".*?$(?<!\.aspx)"
