"file_name","column_name","label","regex"
"/data/datasets/datagov/data/data/datagovdata/hourly-energy-emission-factors-for-electricity-generation-in-the-united-states-73720.csv","SO2 (lbs/MWh).1","numbers","^(\d|,)*\.?\d*$"
"/data/datasets/datagov/data/data/datagovdata/hourly-energy-emission-factors-for-electricity-generation-in-the-united-states-73720.csv","SO2 (lbs/MWh)","numbers","^(\d|,)*\.?\d*$"
"/data/datasets/datagov/data/data/datagovdata/hourly-energy-emission-factors-for-electricity-generation-in-the-united-states-73720.csv","CO2 (lbs/MWh).3","numbers","^(\d|,)*\.?\d*$"
"/data/datasets/datagov/data/data/datagovdata/hourly-energy-emission-factors-for-electricity-generation-in-the-united-states-73720.csv","NOx (lbs/MWh)","numbers","^(\d|,)*\.?\d*$"
"/data/datasets/datagov/data/data/datagovdata/hourly-energy-emission-factors-for-electricity-generation-in-the-united-states-73720.csv","SO2 (lbs/MWh).2","numbers","^(\d|,)*\.?\d*$"
"/data/datasets/datagov/data/data/datagovdata/hourly-energy-emission-factors-for-electricity-generation-in-the-united-states-73720.csv","NOx (lbs/MWh).3","numbers","^(\d|,)*\.?\d*$"
"/data/datasets/datagov/data/data/datagovdata/hourly-energy-emission-factors-for-electricity-generation-in-the-united-states-73720.csv","NOx (lbs/MWh).1","numbers","^(\d|,)*\.?\d*$"
"/data/datasets/datagov/data/data/datagovdata/hourly-energy-emission-factors-for-electricity-generation-in-the-united-states-73720.csv","CO2 (lbs/MWh).1","numbers","^(\d|,)*\.?\d*$"
"/data/datasets/datagov/data/data/datagovdata/hourly-energy-emission-factors-for-electricity-generation-in-the-united-states-73720.csv","CO2 (lbs/MWh)","numbers","^(\d|,)*\.?\d*$"
"/data/datasets/datagov/data/data/datagovdata/hourly-energy-emission-factors-for-electricity-generation-in-the-united-states-73720.csv","SO2 (lbs/MWh).3","numbers","^(\d|,)*\.?\d*$"
"/data/datasets/datagov/data/data/datagovdata/hourly-energy-emission-factors-for-electricity-generation-in-the-united-states-73720.csv","NOx (lbs/MWh).2","numbers","^(\d|,)*\.?\d*$"
"/data/datasets/datagov/data/data/datagovdata/hourly-energy-emission-factors-for-electricity-generation-in-the-united-states-73720.csv","-","uri",".*?$(?<!\.aspx)"
"/data/datasets/datagov/data/data/datagovdata/hourly-energy-emission-factors-for-electricity-generation-in-the-united-states-73720.csv","CO2 (lbs/MWh).2","numbers","^(\d|,)*\.?\d*$"
"/data/datasets/datagov/data/data/datagovdata/hourly-energy-emission-factors-for-electricity-generation-in-the-united-states-73720.csv","-.1","uri",".*?$(?<!\.aspx)"
