"file_name","column_name","label","regex"
"/data/datasets/datagov/data/data/datagovdata/motor-vehicle-occupant-death-rate-by-age-and-gender-2012-region-10-seattle.csv","All Ages","numbers","^(\d|,)*\.?\d*$"
"/data/datasets/datagov/data/data/datagovdata/motor-vehicle-occupant-death-rate-by-age-and-gender-2012-region-10-seattle.csv","Female","numbers","^(\d|,)*\.?\d*$"
"/data/datasets/datagov/data/data/datagovdata/motor-vehicle-occupant-death-rate-by-age-and-gender-2012-region-10-seattle.csv","Location","uri","^[^\\\/\?\*\""\'\>\<\:\|]*$"
"/data/datasets/datagov/data/data/datagovdata/motor-vehicle-occupant-death-rate-by-age-and-gender-2012-region-10-seattle.csv","Age 0-20","numbers","^(\d|,)*\.?\d*$"
"/data/datasets/datagov/data/data/datagovdata/motor-vehicle-occupant-death-rate-by-age-and-gender-2012-region-10-seattle.csv","Age 35-54","numbers","^(\d|,)*\.?\d*$"
"/data/datasets/datagov/data/data/datagovdata/motor-vehicle-occupant-death-rate-by-age-and-gender-2012-region-10-seattle.csv","Age 21-34","numbers","^(\d|,)*\.?\d*$"
"/data/datasets/datagov/data/data/datagovdata/motor-vehicle-occupant-death-rate-by-age-and-gender-2012-region-10-seattle.csv","Male","numbers","^(\d|,)*\.?\d*$"
"/data/datasets/datagov/data/data/datagovdata/motor-vehicle-occupant-death-rate-by-age-and-gender-2012-region-10-seattle.csv","Age 55+","numbers","^(\d|,)*\.?\d*$"
"/data/datasets/datagov/data/data/datagovdata/motor-vehicle-occupant-death-rate-by-age-and-gender-2012-region-10-seattle.csv","State","uri","^[^\\\/\?\*\""\'\>\<\:\|]*$"
