"file_name","column_name","label","regex"
"/data/datasets/datagov/data/data/datagovdata/chicago-park-district-movies-in-the-parks-2015.csv","Location 1","uri","^[^\\\/\?\*\""\'\>\<\:\|]*$"
"/data/datasets/datagov/data/data/datagovdata/chicago-park-district-movies-in-the-parks-2015.csv"," EventUrl","uri","^[^\\\/\?\*\""\'\>\<\:\|]*$"
"/data/datasets/datagov/data/data/datagovdata/chicago-park-district-movies-in-the-parks-2015.csv"," EventName ","strings","[^""\r\n]*"
"/data/datasets/datagov/data/data/datagovdata/chicago-park-district-movies-in-the-parks-2015.csv"," ParkUrl","uri","^[^\\\/\?\*\""\'\>\<\:\|]*$"
"/data/datasets/datagov/data/data/datagovdata/chicago-park-district-movies-in-the-parks-2015.csv"," MovieClosedCaption","uri","^[^\\\/\?\*\""\'\>\<\:\|]*$"
"/data/datasets/datagov/data/data/datagovdata/chicago-park-district-movies-in-the-parks-2015.csv"," ContactName","strings","[^""\r\n]*"
"/data/datasets/datagov/data/data/datagovdata/chicago-park-district-movies-in-the-parks-2015.csv"," ContactEmail","email","^.+@[^\.].*\.[a-z]{2,}$"
"/data/datasets/datagov/data/data/datagovdata/chicago-park-district-movies-in-the-parks-2015.csv"," EndDate","strings","[^""\r\n]*"
"/data/datasets/datagov/data/data/datagovdata/chicago-park-district-movies-in-the-parks-2015.csv"," StartDate","strings","[^""\r\n]*"
"/data/datasets/datagov/data/data/datagovdata/chicago-park-district-movies-in-the-parks-2015.csv"," ZipCode","numbers","^(\d|,)*\.?\d*$"
"/data/datasets/datagov/data/data/datagovdata/chicago-park-district-movies-in-the-parks-2015.csv","ParkName","uri","^[^\\\/\?\*\""\'\>\<\:\|]*$"
"/data/datasets/datagov/data/data/datagovdata/chicago-park-district-movies-in-the-parks-2015.csv"," MovieRating","uri","^[^\\\/\?\*\""\'\>\<\:\|]*$"
"/data/datasets/datagov/data/data/datagovdata/chicago-park-district-movies-in-the-parks-2015.csv"," Community","uri","^[^\\\/\?\*\""\'\>\<\:\|]*$"
"/data/datasets/datagov/data/data/datagovdata/chicago-park-district-movies-in-the-parks-2015.csv"," MovieName","strings","[^""\r\n]*"
"/data/datasets/datagov/data/data/datagovdata/chicago-park-district-movies-in-the-parks-2015.csv"," Phone","uri","^[^\\\/\?\*\""\'\>\<\:\|]*$"
