"file_name","column_name","label","regex"
"/data/datasets/datagov/data/data/datagovdata/arra-grant-expenditures-as-of-cob-july-31-2013-d83b6.csv","Payments Total","numbers","^\$?\d+(\.(\d{2}))?$"
"/data/datasets/datagov/data/data/datagovdata/arra-grant-expenditures-as-of-cob-july-31-2013-d83b6.csv"," Agency Name","uri",".*?$(?<!\.aspx)"
"/data/datasets/datagov/data/data/datagovdata/arra-grant-expenditures-as-of-cob-july-31-2013-d83b6.csv","Vendor Name","uri",".*?$(?<!\.aspx)"
"/data/datasets/datagov/data/data/datagovdata/arra-grant-expenditures-as-of-cob-july-31-2013-d83b6.csv","Program Name","strings","[^""\r\n]*"
