"file_name","column_name","label","regex"
"/data/datasets/datagov/data/data/datagovdata/graduation-outcomes-borough-classes-of-2005-2011-total-cohort-4fdb7.csv","Total Grads Pct of cohort","numbers","(^([0-9]+[.]+[0-9]+)|(0)$)"
"/data/datasets/datagov/data/data/datagovdata/graduation-outcomes-borough-classes-of-2005-2011-total-cohort-4fdb7.csv","Total Grads Num","numbers","(^([0-9]+[.]+[0-9]+)|(0)$)"
"/data/datasets/datagov/data/data/datagovdata/graduation-outcomes-borough-classes-of-2005-2011-total-cohort-4fdb7.csv","Advanced Regents Num","numbers","(^([0-9]+[.]+[0-9]+)|(0)$)"
"/data/datasets/datagov/data/data/datagovdata/graduation-outcomes-borough-classes-of-2005-2011-total-cohort-4fdb7.csv","Dropped Out Pct of cohort","numbers","(^([0-9]+[.]+[0-9]+)|(0)$)"
"/data/datasets/datagov/data/data/datagovdata/graduation-outcomes-borough-classes-of-2005-2011-total-cohort-4fdb7.csv","Total Cohort Num","numbers","(^([0-9]+[.]+[0-9]+)|(0)$)"
"/data/datasets/datagov/data/data/datagovdata/graduation-outcomes-borough-classes-of-2005-2011-total-cohort-4fdb7.csv","Local Num","numbers","(^([0-9]+[.]+[0-9]+)|(0)$)"
"/data/datasets/datagov/data/data/datagovdata/graduation-outcomes-borough-classes-of-2005-2011-total-cohort-4fdb7.csv","Cohort Year","numbers","(^([0-9]+[.]+[0-9]+)|(0)$)"
"/data/datasets/datagov/data/data/datagovdata/graduation-outcomes-borough-classes-of-2005-2011-total-cohort-4fdb7.csv","Total Regents Pct of cohort","numbers","(^([0-9]+[.]+[0-9]+)|(0)$)"
"/data/datasets/datagov/data/data/datagovdata/graduation-outcomes-borough-classes-of-2005-2011-total-cohort-4fdb7.csv","Regents w/o Advanced Pct of grads","numbers","(^([0-9]+[.]+[0-9]+)|(0)$)"
"/data/datasets/datagov/data/data/datagovdata/graduation-outcomes-borough-classes-of-2005-2011-total-cohort-4fdb7.csv","Still Enrolled Num","numbers","(^([0-9]+[.]+[0-9]+)|(0)$)"
"/data/datasets/datagov/data/data/datagovdata/graduation-outcomes-borough-classes-of-2005-2011-total-cohort-4fdb7.csv","Regents w/o Advanced Num","numbers","(^([0-9]+[.]+[0-9]+)|(0)$)"
"/data/datasets/datagov/data/data/datagovdata/graduation-outcomes-borough-classes-of-2005-2011-total-cohort-4fdb7.csv","Total Regents Num","numbers","(^([0-9]+[.]+[0-9]+)|(0)$)"
"/data/datasets/datagov/data/data/datagovdata/graduation-outcomes-borough-classes-of-2005-2011-total-cohort-4fdb7.csv","Advanced Regents Pct of cohort","numbers","(^([0-9]+[.]+[0-9]+)|(0)$)"
"/data/datasets/datagov/data/data/datagovdata/graduation-outcomes-borough-classes-of-2005-2011-total-cohort-4fdb7.csv","Local Pct of cohort","numbers","(^([0-9]+[.]+[0-9]+)|(0)$)"
"/data/datasets/datagov/data/data/datagovdata/graduation-outcomes-borough-classes-of-2005-2011-total-cohort-4fdb7.csv","Advanced Regents Pct of grads","numbers","(^([0-9]+[.]+[0-9]+)|(0)$)"
"/data/datasets/datagov/data/data/datagovdata/graduation-outcomes-borough-classes-of-2005-2011-total-cohort-4fdb7.csv","Local Pct of grads","numbers","(^([0-9]+[.]+[0-9]+)|(0)$)"
"/data/datasets/datagov/data/data/datagovdata/graduation-outcomes-borough-classes-of-2005-2011-total-cohort-4fdb7.csv","Cohort Category","uri",".*?$(?<!\.aspx)"
"/data/datasets/datagov/data/data/datagovdata/graduation-outcomes-borough-classes-of-2005-2011-total-cohort-4fdb7.csv","Still Enrolled Pct of cohort","numbers","(^([0-9]+[.]+[0-9]+)|(0)$)"
"/data/datasets/datagov/data/data/datagovdata/graduation-outcomes-borough-classes-of-2005-2011-total-cohort-4fdb7.csv","Regents w/o Advanced Pct of cohort","numbers","(^([0-9]+[.]+[0-9]+)|(0)$)"
"/data/datasets/datagov/data/data/datagovdata/graduation-outcomes-borough-classes-of-2005-2011-total-cohort-4fdb7.csv","Borough","uri",".*?$(?<!\.aspx)"
"/data/datasets/datagov/data/data/datagovdata/graduation-outcomes-borough-classes-of-2005-2011-total-cohort-4fdb7.csv","Total Regents Pct of grads","numbers","(^([0-9]+[.]+[0-9]+)|(0)$)"
"/data/datasets/datagov/data/data/datagovdata/graduation-outcomes-borough-classes-of-2005-2011-total-cohort-4fdb7.csv","Dropped Out Num","numbers","(^([0-9]+[.]+[0-9]+)|(0)$)"
