"file_name","column_name","label","regex"
"/data/datasets/datagov/data/data/datagovdata/air-quality-2003-present.csv","RowID","numbers","^\d*$"
"/data/datasets/datagov/data/data/datagovdata/air-quality-2003-present.csv","Year","numbers","^\d*$"
"/data/datasets/datagov/data/data/datagovdata/air-quality-2003-present.csv","Indicator","strings","[^""\r\n]*"
"/data/datasets/datagov/data/data/datagovdata/air-quality-2003-present.csv","County-Parish","uri",".*?$(?<!\.aspx)"
"/data/datasets/datagov/data/data/datagovdata/air-quality-2003-present.csv","Date","strings","[^""\r\n]*"
"/data/datasets/datagov/data/data/datagovdata/air-quality-2003-present.csv","State","uri",".*?$(?<!\.aspx)"
"/data/datasets/datagov/data/data/datagovdata/air-quality-2003-present.csv","IndicatorValue","uri",".*?$(?<!\.aspx)"
