"file_name","column_name","label","regex"
"/data/datasets/datagov/data/data/datagovdata/illinois-guardianship-and-advocacy-commission-hra-public-accounting-report.csv","FY 12 Target/Projected","numbers","^(\d|,)*\.?\d*$"
"/data/datasets/datagov/data/data/datagovdata/illinois-guardianship-and-advocacy-commission-hra-public-accounting-report.csv","FY 13 Target/Projected","numbers","^(\d|,)*\.?\d*$"
"/data/datasets/datagov/data/data/datagovdata/illinois-guardianship-and-advocacy-commission-hra-public-accounting-report.csv","FY 12 Actual","numbers","^(\d|,)*\.?\d*$"
"/data/datasets/datagov/data/data/datagovdata/illinois-guardianship-and-advocacy-commission-hra-public-accounting-report.csv","FY 10 Actual","numbers","^(\d|,)*\.?\d*$"
"/data/datasets/datagov/data/data/datagovdata/illinois-guardianship-and-advocacy-commission-hra-public-accounting-report.csv","HRA Public Accounting Report","uri",".*?$(?<!\.aspx)"
"/data/datasets/datagov/data/data/datagovdata/illinois-guardianship-and-advocacy-commission-hra-public-accounting-report.csv","FY 11 Actual","numbers","^(\d|,)*\.?\d*$"
