"file_name","column_name","label","regex"
"/data/datasets/datagov/data/data/datagovdata/revolving-funds-may-2014-9e335.csv","Agency Number","numbers","^\$?\d+(\.(\d{2}))?$"
"/data/datasets/datagov/data/data/datagovdata/revolving-funds-may-2014-9e335.csv","Class Description","uri",".*?$(?<!\.aspx)"
"/data/datasets/datagov/data/data/datagovdata/revolving-funds-may-2014-9e335.csv","Total Amount","numbers","^\$?\d+(\.(\d{2}))?$"
"/data/datasets/datagov/data/data/datagovdata/revolving-funds-may-2014-9e335.csv","Agency Name","uri",".*?$(?<!\.aspx)"
"/data/datasets/datagov/data/data/datagovdata/revolving-funds-may-2014-9e335.csv","Statutory Reference","uri",".*?$(?<!\.aspx)"
"/data/datasets/datagov/data/data/datagovdata/revolving-funds-may-2014-9e335.csv","Calendar Year","numbers","^\$?\d+(\.(\d{2}))?$"
"/data/datasets/datagov/data/data/datagovdata/revolving-funds-may-2014-9e335.csv","Month","numbers","^\$?\d+(\.(\d{2}))?$"
"/data/datasets/datagov/data/data/datagovdata/revolving-funds-may-2014-9e335.csv","Class Field","numbers","^\$?\d+(\.(\d{2}))?$"
