"file_name","column_name","label","regex"
"/data/datasets/datagov/data/data/datagovdata/dof-summary-of-neighborhood-sales-in-queens-for-class-1-2-and-3-family-homes-2005-b805f.csv","MEDIAN SALE PRICE","numbers","^\$?\d+(\.(\d{2}))?$"
"/data/datasets/datagov/data/data/datagovdata/dof-summary-of-neighborhood-sales-in-queens-for-class-1-2-and-3-family-homes-2005-b805f.csv","LOWEST SALE PRICE","numbers","^\$?\d+(\.(\d{2}))?$"
"/data/datasets/datagov/data/data/datagovdata/dof-summary-of-neighborhood-sales-in-queens-for-class-1-2-and-3-family-homes-2005-b805f.csv","AVERAGE SALE PRICE","numbers","^\$?\d+(\.(\d{2}))?$"
"/data/datasets/datagov/data/data/datagovdata/dof-summary-of-neighborhood-sales-in-queens-for-class-1-2-and-3-family-homes-2005-b805f.csv","NEIGHBORHOOD","uri",".*?$(?<!\.aspx)"
"/data/datasets/datagov/data/data/datagovdata/dof-summary-of-neighborhood-sales-in-queens-for-class-1-2-and-3-family-homes-2005-b805f.csv","NUMBER OF SALES","numbers","^\$?\d+(\.(\d{2}))?$"
"/data/datasets/datagov/data/data/datagovdata/dof-summary-of-neighborhood-sales-in-queens-for-class-1-2-and-3-family-homes-2005-b805f.csv","TYPE OF HOME","uri",".*?$(?<!\.aspx)"
"/data/datasets/datagov/data/data/datagovdata/dof-summary-of-neighborhood-sales-in-queens-for-class-1-2-and-3-family-homes-2005-b805f.csv","HIGHEST SALE PRICE","numbers","^\$?\d+(\.(\d{2}))?$"
