"file_name","column_name","label","regex"
"/data/datasets/mitdwh/short_cis_course_catalog.csv","Grade Rule","uri",".*?$(?<!\.aspx)"
"/data/datasets/mitdwh/short_cis_course_catalog.csv","Supervisor Attribute","uri",".*?$(?<!\.aspx)"
"/data/datasets/mitdwh/short_cis_course_catalog.csv","Academic Year","numbers","(^([0-9]+[.]+[0-9]+)|(0)$)"
"/data/datasets/mitdwh/short_cis_course_catalog.csv","Meets With Subjects","uri",".*?$(?<!\.aspx)"
"/data/datasets/mitdwh/short_cis_course_catalog.csv","Gir Attribute","uri",".*?$(?<!\.aspx)"
"/data/datasets/mitdwh/short_cis_course_catalog.csv","Subject Description","strings","[^""\r\n]*"
"/data/datasets/mitdwh/short_cis_course_catalog.csv","Subject Title","strings","[^""\r\n]*"
"/data/datasets/mitdwh/short_cis_course_catalog.csv","Supervisor Attribute Desc","uri",".*?$(?<!\.aspx)"
"/data/datasets/mitdwh/short_cis_course_catalog.csv","Tuition Attribute Desc","uri",".*?$(?<!\.aspx)"
"/data/datasets/mitdwh/short_cis_course_catalog.csv","Print Subject Id","uri",".*?$(?<!\.aspx)"
"/data/datasets/mitdwh/short_cis_course_catalog.csv","Gir Attribute Desc","strings","[^""\r\n]*"
"/data/datasets/mitdwh/short_cis_course_catalog.csv","Is Printed In Bulletin","uri",".*?$(?<!\.aspx)"
"/data/datasets/mitdwh/short_cis_course_catalog.csv","Comm Req Attribute Desc","uri",".*?$(?<!\.aspx)"
"/data/datasets/mitdwh/short_cis_course_catalog.csv","Subject Short Title","strings","[^""\r\n]*"
"/data/datasets/mitdwh/short_cis_course_catalog.csv","Lab Units","numbers","(^([0-9]+[.]+[0-9]+)|(0)$)"
"/data/datasets/mitdwh/short_cis_course_catalog.csv","Grade Rule Desc","uri",".*?$(?<!\.aspx)"
"/data/datasets/mitdwh/short_cis_course_catalog.csv","Prerequisites","strings","[^""\r\n]*"
"/data/datasets/mitdwh/short_cis_course_catalog.csv","Department Code","numbers","(^([0-9]+[.]+[0-9]+)|(0)$)"
"/data/datasets/mitdwh/short_cis_course_catalog.csv","Hgn Code","uri",".*?$(?<!\.aspx)"
"/data/datasets/mitdwh/short_cis_course_catalog.csv","Hgn Desc","uri",".*?$(?<!\.aspx)"
"/data/datasets/mitdwh/short_cis_course_catalog.csv","Department Name","uri",".*?$(?<!\.aspx)"
"/data/datasets/mitdwh/short_cis_course_catalog.csv","Spring Instructors","strings","[^""\r\n]*"
"/data/datasets/mitdwh/short_cis_course_catalog.csv","Total Units","numbers","(^([0-9]+[.]+[0-9]+)|(0)$)"
"/data/datasets/mitdwh/short_cis_course_catalog.csv","Source Subject Id","uri",".*?$(?<!\.aspx)"
"/data/datasets/mitdwh/short_cis_course_catalog.csv","Grade Type Desc","strings","[^""\r\n]*"
"/data/datasets/mitdwh/short_cis_course_catalog.csv","Subject Number","uri",".*?$(?<!\.aspx)"
"/data/datasets/mitdwh/short_cis_course_catalog.csv","Grade Type","uri",".*?$(?<!\.aspx)"
"/data/datasets/mitdwh/short_cis_course_catalog.csv","School Wide Electives","uri",".*?$(?<!\.aspx)"
"/data/datasets/mitdwh/short_cis_course_catalog.csv","Subject Code","numbers","(^([0-9]+[.]+[0-9]+)|(0)$)"
"/data/datasets/mitdwh/short_cis_course_catalog.csv","Comm Req Attribute","uri",".*?$(?<!\.aspx)"
"/data/datasets/mitdwh/short_cis_course_catalog.csv","Subject Id","uri",".*?$(?<!\.aspx)"
"/data/datasets/mitdwh/short_cis_course_catalog.csv","Is Offered Iap","uri",".*?$(?<!\.aspx)"
"/data/datasets/mitdwh/short_cis_course_catalog.csv","Effective Term Code","address_or_phone","(\d{4,6})"
"/data/datasets/mitdwh/short_cis_course_catalog.csv","Is Offered This Year","uri",".*?$(?<!\.aspx)"
"/data/datasets/mitdwh/short_cis_course_catalog.csv","Is Offered Fall Term","uri",".*?$(?<!\.aspx)"
"/data/datasets/mitdwh/short_cis_course_catalog.csv","Joint Subjects","uri",".*?$(?<!\.aspx)"
"/data/datasets/mitdwh/short_cis_course_catalog.csv","Design Units","numbers","(^([0-9]+[.]+[0-9]+)|(0)$)"
"/data/datasets/mitdwh/short_cis_course_catalog.csv","Tuition Attribute","uri",".*?$(?<!\.aspx)"
"/data/datasets/mitdwh/short_cis_course_catalog.csv","Is Variable Units","uri",".*?$(?<!\.aspx)"
"/data/datasets/mitdwh/short_cis_course_catalog.csv","Is Offered Spring Term","uri",".*?$(?<!\.aspx)"
"/data/datasets/mitdwh/short_cis_course_catalog.csv","Status Change","strings","[^""\r\n]*"
"/data/datasets/mitdwh/short_cis_course_catalog.csv","Preparation Units","numbers","(^([0-9]+[.]+[0-9]+)|(0)$)"
"/data/datasets/mitdwh/short_cis_course_catalog.csv","Hgn Except","uri",".*?$(?<!\.aspx)"
"/data/datasets/mitdwh/short_cis_course_catalog.csv","Fall Instructors","strings","[^""\r\n]*"
"/data/datasets/mitdwh/short_cis_course_catalog.csv","Lecture Units","numbers","(^([0-9]+[.]+[0-9]+)|(0)$)"
"/data/datasets/mitdwh/short_cis_course_catalog.csv","Equivalent Subjects","numbers","(^([0-9]+[.]+[0-9]+)|(0)$)"
"/data/datasets/mitdwh/short_cis_course_catalog.csv","Last Activity Date","strings","[^""\r\n]*"
"/data/datasets/mitdwh/short_cis_course_catalog.csv","Is Offered Summer Term","uri",".*?$(?<!\.aspx)"
"/data/datasets/mitdwh/short_cis_course_catalog.csv","Warehouse Load Date","strings","[^""\r\n]*"
