"file_name","column_name","label","regex"
"/data/datasets/datagov/data/data/datagovdata/tgr2006se_torr_taz.csv","TAZ","numbers","^(\d|,)*\.?\d*$"
"/data/datasets/datagov/data/data/datagovdata/tgr2006se_torr_taz.csv","COUNTY","numbers","^(\d|,)*\.?\d*$"
"/data/datasets/datagov/data/data/datagovdata/tgr2006se_torr_taz.csv","UA","numbers","^(\d|,)*\.?\d*$"
"/data/datasets/datagov/data/data/datagovdata/tgr2006se_torr_taz.csv","GIST_ID","numbers","^(\d|,)*\.?\d*$"
