"file_name","column_name","label","regex"
"/data/datasets/datagov/data/data/datagovdata/idot-published-annual-program-2011-engineering-improvements-bf33d.csv","TYPE","uri",".*?$(?<!\.aspx)"
"/data/datasets/datagov/data/data/datagovdata/idot-published-annual-program-2011-engineering-improvements-bf33d.csv","RTYPE11","uri",".*?$(?<!\.aspx)"
"/data/datasets/datagov/data/data/datagovdata/idot-published-annual-program-2011-engineering-improvements-bf33d.csv","IMPRVMNT7","uri",".*?$(?<!\.aspx)"
"/data/datasets/datagov/data/data/datagovdata/idot-published-annual-program-2011-engineering-improvements-bf33d.csv","FNDACR9","uri",".*?$(?<!\.aspx)"
"/data/datasets/datagov/data/data/datagovdata/idot-published-annual-program-2011-engineering-improvements-bf33d.csv","FNDACR12","uri",".*?$(?<!\.aspx)"
"/data/datasets/datagov/data/data/datagovdata/idot-published-annual-program-2011-engineering-improvements-bf33d.csv","MILES_FMT","uri",".*?$(?<!\.aspx)"
"/data/datasets/datagov/data/data/datagovdata/idot-published-annual-program-2011-engineering-improvements-bf33d.csv","LOCATION4","uri",".*?$(?<!\.aspx)"
"/data/datasets/datagov/data/data/datagovdata/idot-published-annual-program-2011-engineering-improvements-bf33d.csv","ROUTE2","uri",".*?$(?<!\.aspx)"
"/data/datasets/datagov/data/data/datagovdata/idot-published-annual-program-2011-engineering-improvements-bf33d.csv","IMPRVMNT13","uri",".*?$(?<!\.aspx)"
"/data/datasets/datagov/data/data/datagovdata/idot-published-annual-program-2011-engineering-improvements-bf33d.csv","LOCATION11","uri",".*?$(?<!\.aspx)"
"/data/datasets/datagov/data/data/datagovdata/idot-published-annual-program-2011-engineering-improvements-bf33d.csv","FNDACR13","uri",".*?$(?<!\.aspx)"
"/data/datasets/datagov/data/data/datagovdata/idot-published-annual-program-2011-engineering-improvements-bf33d.csv","END_STA","numbers","^(\d|,)*\.?\d*$"
"/data/datasets/datagov/data/data/datagovdata/idot-published-annual-program-2011-engineering-improvements-bf33d.csv","TRACDESC4","uri",".*?$(?<!\.aspx)"
"/data/datasets/datagov/data/data/datagovdata/idot-published-annual-program-2011-engineering-improvements-bf33d.csv","FOOTNOTES1","uri",".*?$(?<!\.aspx)"
"/data/datasets/datagov/data/data/datagovdata/idot-published-annual-program-2011-engineering-improvements-bf33d.csv","FNDACR11","uri",".*?$(?<!\.aspx)"
"/data/datasets/datagov/data/data/datagovdata/idot-published-annual-program-2011-engineering-improvements-bf33d.csv","ROUTE8","uri",".*?$(?<!\.aspx)"
"/data/datasets/datagov/data/data/datagovdata/idot-published-annual-program-2011-engineering-improvements-bf33d.csv","EST_COST_F","numbers","^(\d|,)*\.?\d*$"
"/data/datasets/datagov/data/data/datagovdata/idot-published-annual-program-2011-engineering-improvements-bf33d.csv","ROUTE6","uri",".*?$(?<!\.aspx)"
"/data/datasets/datagov/data/data/datagovdata/idot-published-annual-program-2011-engineering-improvements-bf33d.csv","INVENTORY","uri",".*?$(?<!\.aspx)"
"/data/datasets/datagov/data/data/datagovdata/idot-published-annual-program-2011-engineering-improvements-bf33d.csv","CTY_NMT5","uri",".*?$(?<!\.aspx)"
"/data/datasets/datagov/data/data/datagovdata/idot-published-annual-program-2011-engineering-improvements-bf33d.csv","ROUTE3","uri",".*?$(?<!\.aspx)"
"/data/datasets/datagov/data/data/datagovdata/idot-published-annual-program-2011-engineering-improvements-bf33d.csv","ROUTE4","uri",".*?$(?<!\.aspx)"
"/data/datasets/datagov/data/data/datagovdata/idot-published-annual-program-2011-engineering-improvements-bf33d.csv","FNDACR14","uri",".*?$(?<!\.aspx)"
"/data/datasets/datagov/data/data/datagovdata/idot-published-annual-program-2011-engineering-improvements-bf33d.csv","IMPRVMNT1","uri",".*?$(?<!\.aspx)"
"/data/datasets/datagov/data/data/datagovdata/idot-published-annual-program-2011-engineering-improvements-bf33d.csv","RTYPE6","uri",".*?$(?<!\.aspx)"
"/data/datasets/datagov/data/data/datagovdata/idot-published-annual-program-2011-engineering-improvements-bf33d.csv","LOCATION6","uri",".*?$(?<!\.aspx)"
"/data/datasets/datagov/data/data/datagovdata/idot-published-annual-program-2011-engineering-improvements-bf33d.csv","FNDACR6","uri",".*?$(?<!\.aspx)"
"/data/datasets/datagov/data/data/datagovdata/idot-published-annual-program-2011-engineering-improvements-bf33d.csv","RTYPE15","uri",".*?$(?<!\.aspx)"
"/data/datasets/datagov/data/data/datagovdata/idot-published-annual-program-2011-engineering-improvements-bf33d.csv","SECTION_NB","uri",".*?$(?<!\.aspx)"
"/data/datasets/datagov/data/data/datagovdata/idot-published-annual-program-2011-engineering-improvements-bf33d.csv","TRACDESC6","uri",".*?$(?<!\.aspx)"
"/data/datasets/datagov/data/data/datagovdata/idot-published-annual-program-2011-engineering-improvements-bf33d.csv","TRACDESC1","uri",".*?$(?<!\.aspx)"
"/data/datasets/datagov/data/data/datagovdata/idot-published-annual-program-2011-engineering-improvements-bf33d.csv","ROUTE7","uri",".*?$(?<!\.aspx)"
"/data/datasets/datagov/data/data/datagovdata/idot-published-annual-program-2011-engineering-improvements-bf33d.csv","FOOTNOTES3","uri",".*?$(?<!\.aspx)"
"/data/datasets/datagov/data/data/datagovdata/idot-published-annual-program-2011-engineering-improvements-bf33d.csv","FOOTNOTES4","uri",".*?$(?<!\.aspx)"
"/data/datasets/datagov/data/data/datagovdata/idot-published-annual-program-2011-engineering-improvements-bf33d.csv","FNDACR3","uri",".*?$(?<!\.aspx)"
"/data/datasets/datagov/data/data/datagovdata/idot-published-annual-program-2011-engineering-improvements-bf33d.csv","RTYPE9","uri",".*?$(?<!\.aspx)"
"/data/datasets/datagov/data/data/datagovdata/idot-published-annual-program-2011-engineering-improvements-bf33d.csv","IMPRVMNT12","uri",".*?$(?<!\.aspx)"
"/data/datasets/datagov/data/data/datagovdata/idot-published-annual-program-2011-engineering-improvements-bf33d.csv","RECORD","numbers","^(\d|,)*\.?\d*$"
"/data/datasets/datagov/data/data/datagovdata/idot-published-annual-program-2011-engineering-improvements-bf33d.csv","RTYPE1","uri",".*?$(?<!\.aspx)"
"/data/datasets/datagov/data/data/datagovdata/idot-published-annual-program-2011-engineering-improvements-bf33d.csv","FNDACR10","uri",".*?$(?<!\.aspx)"
"/data/datasets/datagov/data/data/datagovdata/idot-published-annual-program-2011-engineering-improvements-bf33d.csv","BEGIN_STA","numbers","^(\d|,)*\.?\d*$"
"/data/datasets/datagov/data/data/datagovdata/idot-published-annual-program-2011-engineering-improvements-bf33d.csv","LOCATION9","uri",".*?$(?<!\.aspx)"
"/data/datasets/datagov/data/data/datagovdata/idot-published-annual-program-2011-engineering-improvements-bf33d.csv","LOCATION2","uri",".*?$(?<!\.aspx)"
"/data/datasets/datagov/data/data/datagovdata/idot-published-annual-program-2011-engineering-improvements-bf33d.csv","ROUTE10","uri",".*?$(?<!\.aspx)"
"/data/datasets/datagov/data/data/datagovdata/idot-published-annual-program-2011-engineering-improvements-bf33d.csv","CTY_NMT4","uri",".*?$(?<!\.aspx)"
"/data/datasets/datagov/data/data/datagovdata/idot-published-annual-program-2011-engineering-improvements-bf33d.csv","RTYPE2","uri",".*?$(?<!\.aspx)"
"/data/datasets/datagov/data/data/datagovdata/idot-published-annual-program-2011-engineering-improvements-bf33d.csv","POINT_X","numbers","^(\d|,)*\.?\d*$"
"/data/datasets/datagov/data/data/datagovdata/idot-published-annual-program-2011-engineering-improvements-bf33d.csv","LOCATION13","uri",".*?$(?<!\.aspx)"
"/data/datasets/datagov/data/data/datagovdata/idot-published-annual-program-2011-engineering-improvements-bf33d.csv","TRACDESC9","uri",".*?$(?<!\.aspx)"
"/data/datasets/datagov/data/data/datagovdata/idot-published-annual-program-2011-engineering-improvements-bf33d.csv","TRACDESC2","uri",".*?$(?<!\.aspx)"
"/data/datasets/datagov/data/data/datagovdata/idot-published-annual-program-2011-engineering-improvements-bf33d.csv","ROUTE11","uri",".*?$(?<!\.aspx)"
"/data/datasets/datagov/data/data/datagovdata/idot-published-annual-program-2011-engineering-improvements-bf33d.csv","LOC_DIST_N","numbers","^(\d|,)*\.?\d*$"
"/data/datasets/datagov/data/data/datagovdata/idot-published-annual-program-2011-engineering-improvements-bf33d.csv","FNDACR1","uri",".*?$(?<!\.aspx)"
"/data/datasets/datagov/data/data/datagovdata/idot-published-annual-program-2011-engineering-improvements-bf33d.csv","RTYPE14","uri",".*?$(?<!\.aspx)"
"/data/datasets/datagov/data/data/datagovdata/idot-published-annual-program-2011-engineering-improvements-bf33d.csv","IMPRVMNT14","uri",".*?$(?<!\.aspx)"
"/data/datasets/datagov/data/data/datagovdata/idot-published-annual-program-2011-engineering-improvements-bf33d.csv","RTYPE10","uri",".*?$(?<!\.aspx)"
"/data/datasets/datagov/data/data/datagovdata/idot-published-annual-program-2011-engineering-improvements-bf33d.csv","FOOTNOTES5","uri",".*?$(?<!\.aspx)"
"/data/datasets/datagov/data/data/datagovdata/idot-published-annual-program-2011-engineering-improvements-bf33d.csv","FNDACR16","uri",".*?$(?<!\.aspx)"
"/data/datasets/datagov/data/data/datagovdata/idot-published-annual-program-2011-engineering-improvements-bf33d.csv","ROUTE1","strings","[^""\r\n]*"
"/data/datasets/datagov/data/data/datagovdata/idot-published-annual-program-2011-engineering-improvements-bf33d.csv","LOCATION7","uri",".*?$(?<!\.aspx)"
"/data/datasets/datagov/data/data/datagovdata/idot-published-annual-program-2011-engineering-improvements-bf33d.csv","RTYPE4","uri",".*?$(?<!\.aspx)"
"/data/datasets/datagov/data/data/datagovdata/idot-published-annual-program-2011-engineering-improvements-bf33d.csv","CTY_NMT2","uri",".*?$(?<!\.aspx)"
"/data/datasets/datagov/data/data/datagovdata/idot-published-annual-program-2011-engineering-improvements-bf33d.csv","IMPRVMNT9","uri",".*?$(?<!\.aspx)"
"/data/datasets/datagov/data/data/datagovdata/idot-published-annual-program-2011-engineering-improvements-bf33d.csv","ROUTE5","uri",".*?$(?<!\.aspx)"
"/data/datasets/datagov/data/data/datagovdata/idot-published-annual-program-2011-engineering-improvements-bf33d.csv","IMPRVMNT2","uri",".*?$(?<!\.aspx)"
"/data/datasets/datagov/data/data/datagovdata/idot-published-annual-program-2011-engineering-improvements-bf33d.csv","IMPRVMNT5","uri",".*?$(?<!\.aspx)"
"/data/datasets/datagov/data/data/datagovdata/idot-published-annual-program-2011-engineering-improvements-bf33d.csv","TRACDESC7","uri",".*?$(?<!\.aspx)"
"/data/datasets/datagov/data/data/datagovdata/idot-published-annual-program-2011-engineering-improvements-bf33d.csv","PPS_PROJEC","numbers","^(\d|,)*\.?\d*$"
"/data/datasets/datagov/data/data/datagovdata/idot-published-annual-program-2011-engineering-improvements-bf33d.csv","ROUTE13","uri",".*?$(?<!\.aspx)"
"/data/datasets/datagov/data/data/datagovdata/idot-published-annual-program-2011-engineering-improvements-bf33d.csv","ROUTE14","uri",".*?$(?<!\.aspx)"
"/data/datasets/datagov/data/data/datagovdata/idot-published-annual-program-2011-engineering-improvements-bf33d.csv","FOOTNOTES2","uri",".*?$(?<!\.aspx)"
"/data/datasets/datagov/data/data/datagovdata/idot-published-annual-program-2011-engineering-improvements-bf33d.csv","FNDACR7","uri",".*?$(?<!\.aspx)"
"/data/datasets/datagov/data/data/datagovdata/idot-published-annual-program-2011-engineering-improvements-bf33d.csv","FNDACR5","uri",".*?$(?<!\.aspx)"
"/data/datasets/datagov/data/data/datagovdata/idot-published-annual-program-2011-engineering-improvements-bf33d.csv","POINT_Y","numbers","^(\d|,)*\.?\d*$"
"/data/datasets/datagov/data/data/datagovdata/idot-published-annual-program-2011-engineering-improvements-bf33d.csv","RTYPE12","uri",".*?$(?<!\.aspx)"
"/data/datasets/datagov/data/data/datagovdata/idot-published-annual-program-2011-engineering-improvements-bf33d.csv","LOCATION8","uri",".*?$(?<!\.aspx)"
"/data/datasets/datagov/data/data/datagovdata/idot-published-annual-program-2011-engineering-improvements-bf33d.csv","FOOTNOTES7","uri",".*?$(?<!\.aspx)"
"/data/datasets/datagov/data/data/datagovdata/idot-published-annual-program-2011-engineering-improvements-bf33d.csv","CTY_NMT9","uri",".*?$(?<!\.aspx)"
"/data/datasets/datagov/data/data/datagovdata/idot-published-annual-program-2011-engineering-improvements-bf33d.csv","IMPRVMNT8","uri",".*?$(?<!\.aspx)"
"/data/datasets/datagov/data/data/datagovdata/idot-published-annual-program-2011-engineering-improvements-bf33d.csv","LOCATION12","uri",".*?$(?<!\.aspx)"
"/data/datasets/datagov/data/data/datagovdata/idot-published-annual-program-2011-engineering-improvements-bf33d.csv","IMPRVMNT10","uri",".*?$(?<!\.aspx)"
"/data/datasets/datagov/data/data/datagovdata/idot-published-annual-program-2011-engineering-improvements-bf33d.csv","TRACDESC8","uri",".*?$(?<!\.aspx)"
"/data/datasets/datagov/data/data/datagovdata/idot-published-annual-program-2011-engineering-improvements-bf33d.csv","PRJ_REC_TY","uri",".*?$(?<!\.aspx)"
"/data/datasets/datagov/data/data/datagovdata/idot-published-annual-program-2011-engineering-improvements-bf33d.csv","LENGTH","numbers","^(\d|,)*\.?\d*$"
"/data/datasets/datagov/data/data/datagovdata/idot-published-annual-program-2011-engineering-improvements-bf33d.csv","TRACDESC10","uri",".*?$(?<!\.aspx)"
"/data/datasets/datagov/data/data/datagovdata/idot-published-annual-program-2011-engineering-improvements-bf33d.csv","LOCATION3","uri",".*?$(?<!\.aspx)"
"/data/datasets/datagov/data/data/datagovdata/idot-published-annual-program-2011-engineering-improvements-bf33d.csv","FOOTNOTES8","uri",".*?$(?<!\.aspx)"
"/data/datasets/datagov/data/data/datagovdata/idot-published-annual-program-2011-engineering-improvements-bf33d.csv","IMPRVMNT6","uri",".*?$(?<!\.aspx)"
"/data/datasets/datagov/data/data/datagovdata/idot-published-annual-program-2011-engineering-improvements-bf33d.csv","TRACDESC3","uri",".*?$(?<!\.aspx)"
"/data/datasets/datagov/data/data/datagovdata/idot-published-annual-program-2011-engineering-improvements-bf33d.csv","CTY_NMT1","uri",".*?$(?<!\.aspx)"
"/data/datasets/datagov/data/data/datagovdata/idot-published-annual-program-2011-engineering-improvements-bf33d.csv","FNDACR2","uri",".*?$(?<!\.aspx)"
"/data/datasets/datagov/data/data/datagovdata/idot-published-annual-program-2011-engineering-improvements-bf33d.csv","LOCATION10","uri",".*?$(?<!\.aspx)"
"/data/datasets/datagov/data/data/datagovdata/idot-published-annual-program-2011-engineering-improvements-bf33d.csv","IMPRVMNT15","uri",".*?$(?<!\.aspx)"
"/data/datasets/datagov/data/data/datagovdata/idot-published-annual-program-2011-engineering-improvements-bf33d.csv","IMPRVMNT4","uri",".*?$(?<!\.aspx)"
"/data/datasets/datagov/data/data/datagovdata/idot-published-annual-program-2011-engineering-improvements-bf33d.csv","ROUTE15","uri",".*?$(?<!\.aspx)"
"/data/datasets/datagov/data/data/datagovdata/idot-published-annual-program-2011-engineering-improvements-bf33d.csv","RTYPE7","uri",".*?$(?<!\.aspx)"
"/data/datasets/datagov/data/data/datagovdata/idot-published-annual-program-2011-engineering-improvements-bf33d.csv","LOCATION5","uri",".*?$(?<!\.aspx)"
"/data/datasets/datagov/data/data/datagovdata/idot-published-annual-program-2011-engineering-improvements-bf33d.csv","FNDACR8","uri",".*?$(?<!\.aspx)"
"/data/datasets/datagov/data/data/datagovdata/idot-published-annual-program-2011-engineering-improvements-bf33d.csv","RTYPE5","uri",".*?$(?<!\.aspx)"
"/data/datasets/datagov/data/data/datagovdata/idot-published-annual-program-2011-engineering-improvements-bf33d.csv","CTY_NMT8","uri",".*?$(?<!\.aspx)"
"/data/datasets/datagov/data/data/datagovdata/idot-published-annual-program-2011-engineering-improvements-bf33d.csv","CTY_NMT3","uri",".*?$(?<!\.aspx)"
"/data/datasets/datagov/data/data/datagovdata/idot-published-annual-program-2011-engineering-improvements-bf33d.csv","FNDACR15","uri",".*?$(?<!\.aspx)"
"/data/datasets/datagov/data/data/datagovdata/idot-published-annual-program-2011-engineering-improvements-bf33d.csv","LOCATION1","uri",".*?$(?<!\.aspx)"
"/data/datasets/datagov/data/data/datagovdata/idot-published-annual-program-2011-engineering-improvements-bf33d.csv","IMPRVMNT3","uri",".*?$(?<!\.aspx)"
"/data/datasets/datagov/data/data/datagovdata/idot-published-annual-program-2011-engineering-improvements-bf33d.csv","TRACDESC5","uri",".*?$(?<!\.aspx)"
"/data/datasets/datagov/data/data/datagovdata/idot-published-annual-program-2011-engineering-improvements-bf33d.csv","ROUTE12","uri",".*?$(?<!\.aspx)"
"/data/datasets/datagov/data/data/datagovdata/idot-published-annual-program-2011-engineering-improvements-bf33d.csv","PUB_DESC","address_or_phone","(\d{4,6})"
"/data/datasets/datagov/data/data/datagovdata/idot-published-annual-program-2011-engineering-improvements-bf33d.csv","FNDACR4","uri",".*?$(?<!\.aspx)"
"/data/datasets/datagov/data/data/datagovdata/idot-published-annual-program-2011-engineering-improvements-bf33d.csv","RTYPE13","uri",".*?$(?<!\.aspx)"
"/data/datasets/datagov/data/data/datagovdata/idot-published-annual-program-2011-engineering-improvements-bf33d.csv","CTY_NMT7","uri",".*?$(?<!\.aspx)"
"/data/datasets/datagov/data/data/datagovdata/idot-published-annual-program-2011-engineering-improvements-bf33d.csv","FOOTNOTES6","uri",".*?$(?<!\.aspx)"
"/data/datasets/datagov/data/data/datagovdata/idot-published-annual-program-2011-engineering-improvements-bf33d.csv","FOOTNOTES9","uri",".*?$(?<!\.aspx)"
"/data/datasets/datagov/data/data/datagovdata/idot-published-annual-program-2011-engineering-improvements-bf33d.csv","LOCATION14","uri",".*?$(?<!\.aspx)"
"/data/datasets/datagov/data/data/datagovdata/idot-published-annual-program-2011-engineering-improvements-bf33d.csv","IMPRVMNT11","uri",".*?$(?<!\.aspx)"
"/data/datasets/datagov/data/data/datagovdata/idot-published-annual-program-2011-engineering-improvements-bf33d.csv","ROUTE9","uri",".*?$(?<!\.aspx)"
"/data/datasets/datagov/data/data/datagovdata/idot-published-annual-program-2011-engineering-improvements-bf33d.csv","RTYPE3","uri",".*?$(?<!\.aspx)"
"/data/datasets/datagov/data/data/datagovdata/idot-published-annual-program-2011-engineering-improvements-bf33d.csv","RTYPE8","uri",".*?$(?<!\.aspx)"
"/data/datasets/datagov/data/data/datagovdata/idot-published-annual-program-2011-engineering-improvements-bf33d.csv","SN_KEY","uri",".*?$(?<!\.aspx)"
"/data/datasets/datagov/data/data/datagovdata/idot-published-annual-program-2011-engineering-improvements-bf33d.csv","CTY_NMT6","uri",".*?$(?<!\.aspx)"
