"file_name","column_name","label","regex"
"/data/datasets/datagov/data/data/datagovdata/waterbodies-in-rank-order-15a71.csv","PWC","numbers","^\d*$"
"/data/datasets/datagov/data/data/datagovdata/waterbodies-in-rank-order-15a71.csv","ACTIVITY DAYS","numbers","^\d*$"
"/data/datasets/datagov/data/data/datagovdata/waterbodies-in-rank-order-15a71.csv","CRUISING","numbers","^\d*$"
"/data/datasets/datagov/data/data/datagovdata/waterbodies-in-rank-order-15a71.csv","HUNTING","numbers","^\d*$"
"/data/datasets/datagov/data/data/datagovdata/waterbodies-in-rank-order-15a71.csv","DAYS","numbers","^\d*$"
"/data/datasets/datagov/data/data/datagovdata/waterbodies-in-rank-order-15a71.csv","SAILING","numbers","^\d*$"
"/data/datasets/datagov/data/data/datagovdata/waterbodies-in-rank-order-15a71.csv","TRIPS","numbers","^\d*$"
"/data/datasets/datagov/data/data/datagovdata/waterbodies-in-rank-order-15a71.csv","WATERSKIING","numbers","^\d*$"
"/data/datasets/datagov/data/data/datagovdata/waterbodies-in-rank-order-15a71.csv","NAME OF WATER BODY","strings","[^""\r\n]*"
"/data/datasets/datagov/data/data/datagovdata/waterbodies-in-rank-order-15a71.csv","FISHING","numbers","^\d*$"
