"file_name","column_name","label","regex"
"/data/datasets/datagov/data/data/datagovdata/ladwp-call-wait-times-523a4.csv","Months","uri",".*?$(?<!\.aspx)"
"/data/datasets/datagov/data/data/datagovdata/ladwp-call-wait-times-523a4.csv","Date","strings","[^""\r\n]*"
"/data/datasets/datagov/data/data/datagovdata/ladwp-call-wait-times-523a4.csv","Call Wait Times in Minutes","numbers","^(\d|,)*\.?\d*$"
