"file_name","column_name","label","regex"
"/data/datasets/datagov/data/data/datagovdata/missouri-beer-wine-and-liquor-solicitor-list-with-zip-code-c91b4.csv","License Number","numbers","^\d*$"
"/data/datasets/datagov/data/data/datagovdata/missouri-beer-wine-and-liquor-solicitor-list-with-zip-code-c91b4.csv","License Type","uri",".*?$(?<!\.aspx)"
"/data/datasets/datagov/data/data/datagovdata/missouri-beer-wine-and-liquor-solicitor-list-with-zip-code-c91b4.csv","Business Name","uri",".*?$(?<!\.aspx)"
"/data/datasets/datagov/data/data/datagovdata/missouri-beer-wine-and-liquor-solicitor-list-with-zip-code-c91b4.csv","City","uri",".*?$(?<!\.aspx)"
"/data/datasets/datagov/data/data/datagovdata/missouri-beer-wine-and-liquor-solicitor-list-with-zip-code-c91b4.csv","Zip Code","numbers","^\d*$"
