"file_name","column_name","label","regex"
"/data/datasets/datagov/data/data/datagovdata/plumbing-continuing-education-listing-58753.csv","Credit Hours","numbers","^(\d|,)*\.?\d*$"
"/data/datasets/datagov/data/data/datagovdata/plumbing-continuing-education-listing-58753.csv","Location","uri","^[^\\\/\?\*\""\'\>\<\:\|]*$"
"/data/datasets/datagov/data/data/datagovdata/plumbing-continuing-education-listing-58753.csv","Fee","numbers","^(\d|,)*\.?\d*$"
"/data/datasets/datagov/data/data/datagovdata/plumbing-continuing-education-listing-58753.csv","Location Zip Code","numbers","^(\d|,)*\.?\d*$"
"/data/datasets/datagov/data/data/datagovdata/plumbing-continuing-education-listing-58753.csv","Location State","uri","^[^\\\/\?\*\""\'\>\<\:\|]*$"
"/data/datasets/datagov/data/data/datagovdata/plumbing-continuing-education-listing-58753.csv","Training Type","uri","^[^\\\/\?\*\""\'\>\<\:\|]*$"
"/data/datasets/datagov/data/data/datagovdata/plumbing-continuing-education-listing-58753.csv","Contact Phone","uri","^[^\\\/\?\*\""\'\>\<\:\|]*$"
"/data/datasets/datagov/data/data/datagovdata/plumbing-continuing-education-listing-58753.csv","Comments/Special Criteria","strings","[^""\r\n]*"
"/data/datasets/datagov/data/data/datagovdata/plumbing-continuing-education-listing-58753.csv","Contact Email","email","(\w+?@\w+?\x2E.+)"
"/data/datasets/datagov/data/data/datagovdata/plumbing-continuing-education-listing-58753.csv","Location City","uri","^[^\\\/\?\*\""\'\>\<\:\|]*$"
"/data/datasets/datagov/data/data/datagovdata/plumbing-continuing-education-listing-58753.csv","State Sponsored?","uri","^[^\\\/\?\*\""\'\>\<\:\|]*$"
"/data/datasets/datagov/data/data/datagovdata/plumbing-continuing-education-listing-58753.csv","Time","strings","[^""\r\n]*"
"/data/datasets/datagov/data/data/datagovdata/plumbing-continuing-education-listing-58753.csv","Location Address","uri","^[^\\\/\?\*\""\'\>\<\:\|]*$"
"/data/datasets/datagov/data/data/datagovdata/plumbing-continuing-education-listing-58753.csv","Maximum Seating","uri","^[^\\\/\?\*\""\'\>\<\:\|]*$"
"/data/datasets/datagov/data/data/datagovdata/plumbing-continuing-education-listing-58753.csv","Date","strings","[^""\r\n]*"
"/data/datasets/datagov/data/data/datagovdata/plumbing-continuing-education-listing-58753.csv","Location1","uri","^[^\\\/\?\*\""\'\>\<\:\|]*$"
"/data/datasets/datagov/data/data/datagovdata/plumbing-continuing-education-listing-58753.csv","Contact Name","uri","^[^\\\/\?\*\""\'\>\<\:\|]*$"
"/data/datasets/datagov/data/data/datagovdata/plumbing-continuing-education-listing-58753.csv","Contact Website","uri","^[^\\\/\?\*\""\'\>\<\:\|]*$"
