"file_name","column_name","label","regex"
"/data/datasets/datagov/data/data/datagovdata/columbia-river-crossing-comments-fd482.csv","Type of Comment","uri",".*?$(?<!\.aspx)"
"/data/datasets/datagov/data/data/datagovdata/columbia-river-crossing-comments-fd482.csv","Comment","strings","[^""\r\n]*"
"/data/datasets/datagov/data/data/datagovdata/columbia-river-crossing-comments-fd482.csv","First Name","uri",".*?$(?<!\.aspx)"
"/data/datasets/datagov/data/data/datagovdata/columbia-river-crossing-comments-fd482.csv","Time stamp","strings","[^""\r\n]*"
"/data/datasets/datagov/data/data/datagovdata/columbia-river-crossing-comments-fd482.csv","Last Name","strings","[^""\r\n]*"
"/data/datasets/datagov/data/data/datagovdata/columbia-river-crossing-comments-fd482.csv","Organization","uri",".*?$(?<!\.aspx)"
"/data/datasets/datagov/data/data/datagovdata/columbia-river-crossing-comments-fd482.csv","Comment Types","uri",".*?$(?<!\.aspx)"
"/data/datasets/datagov/data/data/datagovdata/columbia-river-crossing-comments-fd482.csv","Email","email","^.+@[^\.].*\.[a-z]{2,}$"
"/data/datasets/datagov/data/data/datagovdata/columbia-river-crossing-comments-fd482.csv","State","uri",".*?$(?<!\.aspx)"
