"file_name","column_name","label","regex"
"/data/datasets/datagov/data/data/datagovdata/nndss-table-ii-salmonellosis-to-shigellosis-1af88.csv","Salmonellosis, Current week, flag","numbers","^-?\d*(\.\d+)?$"
"/data/datasets/datagov/data/data/datagovdata/nndss-table-ii-salmonellosis-to-shigellosis-1af88.csv","Location 1","uri","^[^\\\/\?\*\""\'\>\<\:\|]*$"
"/data/datasets/datagov/data/data/datagovdata/nndss-table-ii-salmonellosis-to-shigellosis-1af88.csv","Shigellosis, Previous 52 weeks Max","numbers","^-?\d*(\.\d+)?$"
"/data/datasets/datagov/data/data/datagovdata/nndss-table-ii-salmonellosis-to-shigellosis-1af88.csv","MMWR Year","numbers","^-?\d*(\.\d+)?$"
"/data/datasets/datagov/data/data/datagovdata/nndss-table-ii-salmonellosis-to-shigellosis-1af88.csv","Shigellosis, Cum 2013, flag","numbers","^-?\d*(\.\d+)?$"
"/data/datasets/datagov/data/data/datagovdata/nndss-table-ii-salmonellosis-to-shigellosis-1af88.csv","Salmonellosis, Current week","numbers","^-?\d*(\.\d+)?$"
"/data/datasets/datagov/data/data/datagovdata/nndss-table-ii-salmonellosis-to-shigellosis-1af88.csv","Shiga toxin-producing E. coli (STEC)†, Cum 2013","numbers","^-?\d*(\.\d+)?$"
"/data/datasets/datagov/data/data/datagovdata/nndss-table-ii-salmonellosis-to-shigellosis-1af88.csv","Shiga toxin-producing E. coli (STEC)†, Cum 2014","numbers","^-?\d*(\.\d+)?$"
"/data/datasets/datagov/data/data/datagovdata/nndss-table-ii-salmonellosis-to-shigellosis-1af88.csv","Shiga toxin-producing E. coli (STEC)†, Previous 52 weeks Med","numbers","^-?\d*(\.\d+)?$"
"/data/datasets/datagov/data/data/datagovdata/nndss-table-ii-salmonellosis-to-shigellosis-1af88.csv","Salmonellosis, Previous 52 weeks Med","numbers","^-?\d*(\.\d+)?$"
"/data/datasets/datagov/data/data/datagovdata/nndss-table-ii-salmonellosis-to-shigellosis-1af88.csv","Salmonellosis, Previous 52 weeks Med, flag","numbers","^-?\d*(\.\d+)?$"
"/data/datasets/datagov/data/data/datagovdata/nndss-table-ii-salmonellosis-to-shigellosis-1af88.csv","Shiga toxin-producing E. coli (STEC)†, Previous 52 weeks Max, flag","numbers","^-?\d*(\.\d+)?$"
"/data/datasets/datagov/data/data/datagovdata/nndss-table-ii-salmonellosis-to-shigellosis-1af88.csv","Salmonellosis, Cum 2013","numbers","^-?\d*(\.\d+)?$"
"/data/datasets/datagov/data/data/datagovdata/nndss-table-ii-salmonellosis-to-shigellosis-1af88.csv","MMWR Week","numbers","^-?\d*(\.\d+)?$"
"/data/datasets/datagov/data/data/datagovdata/nndss-table-ii-salmonellosis-to-shigellosis-1af88.csv","Shigellosis, Previous 52 weeks Med, flag","numbers","^-?\d*(\.\d+)?$"
"/data/datasets/datagov/data/data/datagovdata/nndss-table-ii-salmonellosis-to-shigellosis-1af88.csv","Shigellosis, Current week, flag","numbers","^-?\d*(\.\d+)?$"
"/data/datasets/datagov/data/data/datagovdata/nndss-table-ii-salmonellosis-to-shigellosis-1af88.csv","Salmonellosis, Cum 2013, flag","numbers","^-?\d*(\.\d+)?$"
"/data/datasets/datagov/data/data/datagovdata/nndss-table-ii-salmonellosis-to-shigellosis-1af88.csv","Salmonellosis, Previous 52 weeks Max","numbers","^-?\d*(\.\d+)?$"
"/data/datasets/datagov/data/data/datagovdata/nndss-table-ii-salmonellosis-to-shigellosis-1af88.csv","Shigellosis, Previous 52 weeks Med","numbers","^-?\d*(\.\d+)?$"
"/data/datasets/datagov/data/data/datagovdata/nndss-table-ii-salmonellosis-to-shigellosis-1af88.csv","Shigellosis, Cum 2013","numbers","^-?\d*(\.\d+)?$"
"/data/datasets/datagov/data/data/datagovdata/nndss-table-ii-salmonellosis-to-shigellosis-1af88.csv","Shigellosis, Cum 2014, flag","numbers","^-?\d*(\.\d+)?$"
"/data/datasets/datagov/data/data/datagovdata/nndss-table-ii-salmonellosis-to-shigellosis-1af88.csv","Shiga toxin-producing E. coli (STEC)†, Previous 52 weeks Max","numbers","^-?\d*(\.\d+)?$"
"/data/datasets/datagov/data/data/datagovdata/nndss-table-ii-salmonellosis-to-shigellosis-1af88.csv","Shiga toxin-producing E. coli (STEC)†, Current week, flag","numbers","^-?\d*(\.\d+)?$"
"/data/datasets/datagov/data/data/datagovdata/nndss-table-ii-salmonellosis-to-shigellosis-1af88.csv","Shigellosis, Current week","numbers","^-?\d*(\.\d+)?$"
"/data/datasets/datagov/data/data/datagovdata/nndss-table-ii-salmonellosis-to-shigellosis-1af88.csv","Salmonellosis, Cum 2014","numbers","^-?\d*(\.\d+)?$"
"/data/datasets/datagov/data/data/datagovdata/nndss-table-ii-salmonellosis-to-shigellosis-1af88.csv","Shigellosis, Previous 52 weeks Max, flag","numbers","^-?\d*(\.\d+)?$"
"/data/datasets/datagov/data/data/datagovdata/nndss-table-ii-salmonellosis-to-shigellosis-1af88.csv","Salmonellosis, Cum 2014, flag","numbers","^-?\d*(\.\d+)?$"
"/data/datasets/datagov/data/data/datagovdata/nndss-table-ii-salmonellosis-to-shigellosis-1af88.csv","Shiga toxin-producing E. coli (STEC)†, Previous 52 weeks Med, flag","numbers","^-?\d*(\.\d+)?$"
"/data/datasets/datagov/data/data/datagovdata/nndss-table-ii-salmonellosis-to-shigellosis-1af88.csv","Shigellosis, Cum 2014","numbers","^-?\d*(\.\d+)?$"
"/data/datasets/datagov/data/data/datagovdata/nndss-table-ii-salmonellosis-to-shigellosis-1af88.csv","Shiga toxin-producing E. coli (STEC)†, Cum 2014, flag","numbers","^-?\d*(\.\d+)?$"
"/data/datasets/datagov/data/data/datagovdata/nndss-table-ii-salmonellosis-to-shigellosis-1af88.csv","Shiga toxin-producing E. coli (STEC)†, Current week","numbers","^-?\d*(\.\d+)?$"
"/data/datasets/datagov/data/data/datagovdata/nndss-table-ii-salmonellosis-to-shigellosis-1af88.csv","Salmonellosis, Previous 52 weeks Max, flag","numbers","^-?\d*(\.\d+)?$"
"/data/datasets/datagov/data/data/datagovdata/nndss-table-ii-salmonellosis-to-shigellosis-1af88.csv","Shiga toxin-producing E. coli (STEC)†, Cum 2013, flag","numbers","^-?\d*(\.\d+)?$"
"/data/datasets/datagov/data/data/datagovdata/nndss-table-ii-salmonellosis-to-shigellosis-1af88.csv","Reporting Area","uri","^[^\\\/\?\*\""\'\>\<\:\|]*$"
