"file_name","column_name","label","regex"
"/data/datasets/datagov/data/data/datagovdata/water-well-and-closed-loop-well-examination-dates-e5e6a.csv","EXAMINATION DATE","strings","[^""\r\n]*"
"/data/datasets/datagov/data/data/datagovdata/water-well-and-closed-loop-well-examination-dates-e5e6a.csv","Phone","address_or_phone","^[2-9]\d{2}-\d{3}-\d{4}$"
"/data/datasets/datagov/data/data/datagovdata/water-well-and-closed-loop-well-examination-dates-e5e6a.csv","EXAMINATION STATE","uri",".*?$(?<!\.aspx)"
"/data/datasets/datagov/data/data/datagovdata/water-well-and-closed-loop-well-examination-dates-e5e6a.csv","REQUIREMENTS","uri",".*?$(?<!\.aspx)"
"/data/datasets/datagov/data/data/datagovdata/water-well-and-closed-loop-well-examination-dates-e5e6a.csv","EXAMINATION TIMES","uri",".*?$(?<!\.aspx)"
"/data/datasets/datagov/data/data/datagovdata/water-well-and-closed-loop-well-examination-dates-e5e6a.csv","EXAMINATION TYPE","strings","[^""\r\n]*"
"/data/datasets/datagov/data/data/datagovdata/water-well-and-closed-loop-well-examination-dates-e5e6a.csv","EXAMINATION ZIPCODE","numbers","^\d*$"
"/data/datasets/datagov/data/data/datagovdata/water-well-and-closed-loop-well-examination-dates-e5e6a.csv","EXAMINATION CITY","uri",".*?$(?<!\.aspx)"
"/data/datasets/datagov/data/data/datagovdata/water-well-and-closed-loop-well-examination-dates-e5e6a.csv","EXAMINATION LOCATION","uri",".*?$(?<!\.aspx)"
"/data/datasets/datagov/data/data/datagovdata/water-well-and-closed-loop-well-examination-dates-e5e6a.csv","EXAMINATION ADDRESS","uri",".*?$(?<!\.aspx)"
