"file_name","column_name","label","regex"
"/data/datasets/datagov/data/data/datagovdata/dfc_bernalillo_1947.csv","Agency","uri",".*?$(?<!\.aspx)"
"/data/datasets/datagov/data/data/datagovdata/dfc_bernalillo_1947.csv","Project","uri",".*?$(?<!\.aspx)"
"/data/datasets/datagov/data/data/datagovdata/dfc_bernalillo_1947.csv","Scale","strings","[^""\r\n]*"
"/data/datasets/datagov/data/data/datagovdata/dfc_bernalillo_1947.csv","Date_","numbers","^\d*$"
"/data/datasets/datagov/data/data/datagovdata/dfc_bernalillo_1947.csv","Photo_ID","uri",".*?$(?<!\.aspx)"
"/data/datasets/datagov/data/data/datagovdata/dfc_bernalillo_1947.csv","Prefix","uri",".*?$(?<!\.aspx)"
"/data/datasets/datagov/data/data/datagovdata/dfc_bernalillo_1947.csv","Quad_Numbe","numbers","^\d*$"
