"file_name","column_name","label","regex"
"/data/datasets/datagov/data/data/datagovdata/solar-monthly-and-annual-average-global-horizontal-ghi-gis-data-at-40km-resolution-for-gha-50221.csv","csep","numbers","^\d*$"
"/data/datasets/datagov/data/data/datagovdata/solar-monthly-and-annual-average-global-horizontal-ghi-gis-data-at-40km-resolution-for-gha-50221.csv","Lat","numbers","^\d*$"
"/data/datasets/datagov/data/data/datagovdata/solar-monthly-and-annual-average-global-horizontal-ghi-gis-data-at-40km-resolution-for-gha-50221.csv","coct","numbers","^\d*$"
"/data/datasets/datagov/data/data/datagovdata/solar-monthly-and-annual-average-global-horizontal-ghi-gis-data-at-40km-resolution-for-gha-50221.csv","cjan","numbers","^\d*$"
"/data/datasets/datagov/data/data/datagovdata/solar-monthly-and-annual-average-global-horizontal-ghi-gis-data-at-40km-resolution-for-gha-50221.csv","caug","numbers","^\d*$"
"/data/datasets/datagov/data/data/datagovdata/solar-monthly-and-annual-average-global-horizontal-ghi-gis-data-at-40km-resolution-for-gha-50221.csv","capr","numbers","^\d*$"
"/data/datasets/datagov/data/data/datagovdata/solar-monthly-and-annual-average-global-horizontal-ghi-gis-data-at-40km-resolution-for-gha-50221.csv","cmar","numbers","^\d*$"
"/data/datasets/datagov/data/data/datagovdata/solar-monthly-and-annual-average-global-horizontal-ghi-gis-data-at-40km-resolution-for-gha-50221.csv","cjul","numbers","^\d*$"
"/data/datasets/datagov/data/data/datagovdata/solar-monthly-and-annual-average-global-horizontal-ghi-gis-data-at-40km-resolution-for-gha-50221.csv","CELL_ID","numbers","^\d*$"
"/data/datasets/datagov/data/data/datagovdata/solar-monthly-and-annual-average-global-horizontal-ghi-gis-data-at-40km-resolution-for-gha-50221.csv","cann","numbers","^\d*$"
"/data/datasets/datagov/data/data/datagovdata/solar-monthly-and-annual-average-global-horizontal-ghi-gis-data-at-40km-resolution-for-gha-50221.csv","cdec","numbers","^\d*$"
"/data/datasets/datagov/data/data/datagovdata/solar-monthly-and-annual-average-global-horizontal-ghi-gis-data-at-40km-resolution-for-gha-50221.csv","cfeb","numbers","^\d*$"
"/data/datasets/datagov/data/data/datagovdata/solar-monthly-and-annual-average-global-horizontal-ghi-gis-data-at-40km-resolution-for-gha-50221.csv","cjun","numbers","^\d*$"
"/data/datasets/datagov/data/data/datagovdata/solar-monthly-and-annual-average-global-horizontal-ghi-gis-data-at-40km-resolution-for-gha-50221.csv","PERIMETER","numbers","^\d*$"
"/data/datasets/datagov/data/data/datagovdata/solar-monthly-and-annual-average-global-horizontal-ghi-gis-data-at-40km-resolution-for-gha-50221.csv","AREA","numbers","^\d*$"
"/data/datasets/datagov/data/data/datagovdata/solar-monthly-and-annual-average-global-horizontal-ghi-gis-data-at-40km-resolution-for-gha-50221.csv","cmay","numbers","^\d*$"
"/data/datasets/datagov/data/data/datagovdata/solar-monthly-and-annual-average-global-horizontal-ghi-gis-data-at-40km-resolution-for-gha-50221.csv","cnov","numbers","^\d*$"
"/data/datasets/datagov/data/data/datagovdata/solar-monthly-and-annual-average-global-horizontal-ghi-gis-data-at-40km-resolution-for-gha-50221.csv","Lon","numbers","^\d*$"
