"file_name","column_name","label","regex"
"/data/datasets/datagov/data/data/datagovdata/cook-county-recorder-of-deeds-quit-claim-deeds-2012-january-1-to-november-29.csv","Location 1","uri","^[^\\\/\?\*\""\'\>\<\:\|]*$"
"/data/datasets/datagov/data/data/datagovdata/cook-county-recorder-of-deeds-quit-claim-deeds-2012-january-1-to-november-29.csv","Execution Date","strings","[^""\r\n]*"
"/data/datasets/datagov/data/data/datagovdata/cook-county-recorder-of-deeds-quit-claim-deeds-2012-january-1-to-november-29.csv","Pin","uri","^[^\\\/\?\*\""\'\>\<\:\|]*$"
"/data/datasets/datagov/data/data/datagovdata/cook-county-recorder-of-deeds-quit-claim-deeds-2012-january-1-to-november-29.csv","Recorded Date","strings","[^""\r\n]*"
"/data/datasets/datagov/data/data/datagovdata/cook-county-recorder-of-deeds-quit-claim-deeds-2012-january-1-to-november-29.csv","Doc Number","numbers","^(\d|,)*\.?\d*$"
"/data/datasets/datagov/data/data/datagovdata/cook-county-recorder-of-deeds-quit-claim-deeds-2012-january-1-to-november-29.csv","Consideration Amount","numbers","^(\d|,)*\.?\d*$"
"/data/datasets/datagov/data/data/datagovdata/cook-county-recorder-of-deeds-quit-claim-deeds-2012-january-1-to-november-29.csv","Doc Type","uri","^[^\\\/\?\*\""\'\>\<\:\|]*$"
