"file_name","column_name","label","regex"
"/data/datasets/datagov/data/data/datagovdata/vashon-average-ridership-by-run-dataset-2a5bc.csv","4:30 p.m. Seattle to Vashon","numbers","^\d*$"
"/data/datasets/datagov/data/data/datagovdata/vashon-average-ridership-by-run-dataset-2a5bc.csv","7:10 a.m. Vashon to Seattle","numbers","^\d*$"
"/data/datasets/datagov/data/data/datagovdata/vashon-average-ridership-by-run-dataset-2a5bc.csv","6:10 a.m. Vashon to Seattle","numbers","^\d*$"
"/data/datasets/datagov/data/data/datagovdata/vashon-average-ridership-by-run-dataset-2a5bc.csv","Run","uri",".*?$(?<!\.aspx)"
"/data/datasets/datagov/data/data/datagovdata/vashon-average-ridership-by-run-dataset-2a5bc.csv","6:30 p.m. Seattle to Vashon","numbers","^\d*$"
"/data/datasets/datagov/data/data/datagovdata/vashon-average-ridership-by-run-dataset-2a5bc.csv","8:15 a.m. Vashon to Seattle","numbers","^\d*$"
"/data/datasets/datagov/data/data/datagovdata/vashon-average-ridership-by-run-dataset-2a5bc.csv","5:30 p.m. Seattle to Vashon","numbers","^\d*$"
