"file_name","column_name","label","regex"
"/data/datasets/datagov/data/data/datagovdata/table-17-05-primary-energy-consumption-by-source-1993-to-2012.csv","Solar","numbers","^(\d|,)*\.?\d*$"
"/data/datasets/datagov/data/data/datagovdata/table-17-05-primary-energy-consumption-by-source-1993-to-2012.csv","Biomass","numbers","^(\d|,)*\.?\d*$"
"/data/datasets/datagov/data/data/datagovdata/table-17-05-primary-energy-consumption-by-source-1993-to-2012.csv","Hydro","numbers","^(\d|,)*\.?\d*$"
"/data/datasets/datagov/data/data/datagovdata/table-17-05-primary-energy-consumption-by-source-1993-to-2012.csv","Geothermal","numbers","^(\d|,)*\.?\d*$"
"/data/datasets/datagov/data/data/datagovdata/table-17-05-primary-energy-consumption-by-source-1993-to-2012.csv","Year","numbers","^(\d|,)*\.?\d*$"
"/data/datasets/datagov/data/data/datagovdata/table-17-05-primary-energy-consumption-by-source-1993-to-2012.csv","Coal","numbers","^(\d|,)*\.?\d*$"
"/data/datasets/datagov/data/data/datagovdata/table-17-05-primary-energy-consumption-by-source-1993-to-2012.csv","Total","numbers","^(\d|,)*\.?\d*$"
"/data/datasets/datagov/data/data/datagovdata/table-17-05-primary-energy-consumption-by-source-1993-to-2012.csv","Wind","numbers","^(\d|,)*\.?\d*$"
"/data/datasets/datagov/data/data/datagovdata/table-17-05-primary-energy-consumption-by-source-1993-to-2012.csv","Renewable","numbers","^(\d|,)*\.?\d*$"
"/data/datasets/datagov/data/data/datagovdata/table-17-05-primary-energy-consumption-by-source-1993-to-2012.csv","Natural Gas","numbers","^(\d|,)*\.?\d*$"
"/data/datasets/datagov/data/data/datagovdata/table-17-05-primary-energy-consumption-by-source-1993-to-2012.csv","Petroleum","numbers","^(\d|,)*\.?\d*$"
