"file_name","column_name","label","regex"
"/data/datasets/datagov/data/data/datagovdata/tgr2006se_soco_slducu.csv","NAME","numbers","^\d*$"
"/data/datasets/datagov/data/data/datagovdata/tgr2006se_soco_slducu.csv","COUNTY","numbers","^\d*$"
"/data/datasets/datagov/data/data/datagovdata/tgr2006se_soco_slducu.csv","SLDU","numbers","^\d*$"
"/data/datasets/datagov/data/data/datagovdata/tgr2006se_soco_slducu.csv","GIST_ID","numbers","^\d*$"
