"file_name","column_name","label","regex"
"/data/datasets/datagov/data/data/datagovdata/maryland-public-school-enrollment-pre-kindergarten-2009-2012-c2899.csv","Date created","strings","[^""\r\n]*"
"/data/datasets/datagov/data/data/datagovdata/maryland-public-school-enrollment-pre-kindergarten-2009-2012-c2899.csv","Carroll County","numbers","^\d*$"
"/data/datasets/datagov/data/data/datagovdata/maryland-public-school-enrollment-pre-kindergarten-2009-2012-c2899.csv","Garrett County","numbers","^\d*$"
"/data/datasets/datagov/data/data/datagovdata/maryland-public-school-enrollment-pre-kindergarten-2009-2012-c2899.csv","Cecil County","numbers","^\d*$"
"/data/datasets/datagov/data/data/datagovdata/maryland-public-school-enrollment-pre-kindergarten-2009-2012-c2899.csv","Kent County","numbers","^\d*$"
"/data/datasets/datagov/data/data/datagovdata/maryland-public-school-enrollment-pre-kindergarten-2009-2012-c2899.csv","MARYLAND","numbers","^\d*$"
"/data/datasets/datagov/data/data/datagovdata/maryland-public-school-enrollment-pre-kindergarten-2009-2012-c2899.csv","St. Mary's County","numbers","^\d*$"
"/data/datasets/datagov/data/data/datagovdata/maryland-public-school-enrollment-pre-kindergarten-2009-2012-c2899.csv","Washington County","numbers","^\d*$"
"/data/datasets/datagov/data/data/datagovdata/maryland-public-school-enrollment-pre-kindergarten-2009-2012-c2899.csv","Anne Arundel County","numbers","^\d*$"
"/data/datasets/datagov/data/data/datagovdata/maryland-public-school-enrollment-pre-kindergarten-2009-2012-c2899.csv","Baltimore City","numbers","^\d*$"
"/data/datasets/datagov/data/data/datagovdata/maryland-public-school-enrollment-pre-kindergarten-2009-2012-c2899.csv","Caroline County","numbers","^\d*$"
"/data/datasets/datagov/data/data/datagovdata/maryland-public-school-enrollment-pre-kindergarten-2009-2012-c2899.csv","Prince George's County","numbers","^\d*$"
"/data/datasets/datagov/data/data/datagovdata/maryland-public-school-enrollment-pre-kindergarten-2009-2012-c2899.csv","Calvert County","numbers","^\d*$"
"/data/datasets/datagov/data/data/datagovdata/maryland-public-school-enrollment-pre-kindergarten-2009-2012-c2899.csv","Somerset County","numbers","^\d*$"
"/data/datasets/datagov/data/data/datagovdata/maryland-public-school-enrollment-pre-kindergarten-2009-2012-c2899.csv","Allegany County","numbers","^\d*$"
"/data/datasets/datagov/data/data/datagovdata/maryland-public-school-enrollment-pre-kindergarten-2009-2012-c2899.csv","Montgomery County","numbers","^\d*$"
"/data/datasets/datagov/data/data/datagovdata/maryland-public-school-enrollment-pre-kindergarten-2009-2012-c2899.csv","Dorchester County","numbers","^\d*$"
"/data/datasets/datagov/data/data/datagovdata/maryland-public-school-enrollment-pre-kindergarten-2009-2012-c2899.csv","Queen Anne's County","numbers","^\d*$"
"/data/datasets/datagov/data/data/datagovdata/maryland-public-school-enrollment-pre-kindergarten-2009-2012-c2899.csv","Frederick County","numbers","^\d*$"
"/data/datasets/datagov/data/data/datagovdata/maryland-public-school-enrollment-pre-kindergarten-2009-2012-c2899.csv","Talbot County","numbers","^\d*$"
"/data/datasets/datagov/data/data/datagovdata/maryland-public-school-enrollment-pre-kindergarten-2009-2012-c2899.csv","Wicomico County","numbers","^\d*$"
"/data/datasets/datagov/data/data/datagovdata/maryland-public-school-enrollment-pre-kindergarten-2009-2012-c2899.csv","Harford County","numbers","^\d*$"
"/data/datasets/datagov/data/data/datagovdata/maryland-public-school-enrollment-pre-kindergarten-2009-2012-c2899.csv","Worcester County","numbers","^\d*$"
"/data/datasets/datagov/data/data/datagovdata/maryland-public-school-enrollment-pre-kindergarten-2009-2012-c2899.csv","Charles County","numbers","^\d*$"
"/data/datasets/datagov/data/data/datagovdata/maryland-public-school-enrollment-pre-kindergarten-2009-2012-c2899.csv","Year","numbers","^\d*$"
"/data/datasets/datagov/data/data/datagovdata/maryland-public-school-enrollment-pre-kindergarten-2009-2012-c2899.csv","Howard County","numbers","^\d*$"
"/data/datasets/datagov/data/data/datagovdata/maryland-public-school-enrollment-pre-kindergarten-2009-2012-c2899.csv","Baltimore County","numbers","^\d*$"
