"file_name","column_name","label","regex"
"/data/datasets/datagov/data/data/datagovdata/domestic-airline-consumer-airfare-report-market-and-carrier-fare-information-all-airport-p.csv","LowestCarrier","uri",".*?$(?<!\.aspx)"
"/data/datasets/datagov/data/data/datagovdata/domestic-airline-consumer-airfare-report-market-and-carrier-fare-information-all-airport-p.csv","date","numbers","^\d*$"
"/data/datasets/datagov/data/data/datagovdata/domestic-airline-consumer-airfare-report-market-and-carrier-fare-information-all-airport-p.csv","DestinationCity","strings","[^""\r\n]*"
"/data/datasets/datagov/data/data/datagovdata/domestic-airline-consumer-airfare-report-market-and-carrier-fare-information-all-airport-p.csv","LgstCarrier","uri",".*?$(?<!\.aspx)"
"/data/datasets/datagov/data/data/datagovdata/domestic-airline-consumer-airfare-report-market-and-carrier-fare-information-all-airport-p.csv","OriginApt","uri",".*?$(?<!\.aspx)"
"/data/datasets/datagov/data/data/datagovdata/domestic-airline-consumer-airfare-report-market-and-carrier-fare-information-all-airport-p.csv","OriginCity","uri",".*?$(?<!\.aspx)"
"/data/datasets/datagov/data/data/datagovdata/domestic-airline-consumer-airfare-report-market-and-carrier-fare-information-all-airport-p.csv","LowestCarrierFare","numbers","^\d*$"
"/data/datasets/datagov/data/data/datagovdata/domestic-airline-consumer-airfare-report-market-and-carrier-fare-information-all-airport-p.csv","LgstCarrierMktSh","numbers","^\d*$"
"/data/datasets/datagov/data/data/datagovdata/domestic-airline-consumer-airfare-report-market-and-carrier-fare-information-all-airport-p.csv","NonstopDistance","numbers","^\d*$"
"/data/datasets/datagov/data/data/datagovdata/domestic-airline-consumer-airfare-report-market-and-carrier-fare-information-all-airport-p.csv","AvgFare","numbers","^\d*$"
"/data/datasets/datagov/data/data/datagovdata/domestic-airline-consumer-airfare-report-market-and-carrier-fare-information-all-airport-p.csv","LowestCarrierMktSh","numbers","^\d*$"
"/data/datasets/datagov/data/data/datagovdata/domestic-airline-consumer-airfare-report-market-and-carrier-fare-information-all-airport-p.csv","DestinationApt","uri",".*?$(?<!\.aspx)"
"/data/datasets/datagov/data/data/datagovdata/domestic-airline-consumer-airfare-report-market-and-carrier-fare-information-all-airport-p.csv","PassengersPerDay","numbers","^\d*$"
"/data/datasets/datagov/data/data/datagovdata/domestic-airline-consumer-airfare-report-market-and-carrier-fare-information-all-airport-p.csv","LgstCarrierFare","numbers","^\d*$"
