"file_name","column_name","label","regex"
"/data/datasets/datagov/data/data/datagovdata/domestic-airline-consumer-airfare-report-market-and-carrier-fare-information-all-airport-p-4d60b.csv","origin_cty","numbers","^(\d|,)*\.?\d*$"
"/data/datasets/datagov/data/data/datagovdata/domestic-airline-consumer-airfare-report-market-and-carrier-fare-information-all-airport-p-4d60b.csv","tbl","uri",".*?$(?<!\.aspx)"
"/data/datasets/datagov/data/data/datagovdata/domestic-airline-consumer-airfare-report-market-and-carrier-fare-information-all-airport-p-4d60b.csv","fare_lg","numbers","^(\d|,)*\.?\d*$"
"/data/datasets/datagov/data/data/datagovdata/domestic-airline-consumer-airfare-report-market-and-carrier-fare-information-all-airport-p-4d60b.csv","passengers","numbers","^(\d|,)*\.?\d*$"
"/data/datasets/datagov/data/data/datagovdata/domestic-airline-consumer-airfare-report-market-and-carrier-fare-information-all-airport-p-4d60b.csv","lf_ms","numbers","^(\d|,)*\.?\d*$"
"/data/datasets/datagov/data/data/datagovdata/domestic-airline-consumer-airfare-report-market-and-carrier-fare-information-all-airport-p-4d60b.csv","origin_apt","uri",".*?$(?<!\.aspx)"
"/data/datasets/datagov/data/data/datagovdata/domestic-airline-consumer-airfare-report-market-and-carrier-fare-information-all-airport-p-4d60b.csv","Year","numbers","^(\d|,)*\.?\d*$"
"/data/datasets/datagov/data/data/datagovdata/domestic-airline-consumer-airfare-report-market-and-carrier-fare-information-all-airport-p-4d60b.csv","carrier_lg","uri",".*?$(?<!\.aspx)"
"/data/datasets/datagov/data/data/datagovdata/domestic-airline-consumer-airfare-report-market-and-carrier-fare-information-all-airport-p-4d60b.csv","dest_apt","uri",".*?$(?<!\.aspx)"
"/data/datasets/datagov/data/data/datagovdata/domestic-airline-consumer-airfare-report-market-and-carrier-fare-information-all-airport-p-4d60b.csv","large_ms","numbers","^(\d|,)*\.?\d*$"
"/data/datasets/datagov/data/data/datagovdata/domestic-airline-consumer-airfare-report-market-and-carrier-fare-information-all-airport-p-4d60b.csv","carrier_low","uri",".*?$(?<!\.aspx)"
"/data/datasets/datagov/data/data/datagovdata/domestic-airline-consumer-airfare-report-market-and-carrier-fare-information-all-airport-p-4d60b.csv","fare_low","numbers","^(\d|,)*\.?\d*$"
"/data/datasets/datagov/data/data/datagovdata/domestic-airline-consumer-airfare-report-market-and-carrier-fare-information-all-airport-p-4d60b.csv","Quarter","numbers","^(\d|,)*\.?\d*$"
"/data/datasets/datagov/data/data/datagovdata/domestic-airline-consumer-airfare-report-market-and-carrier-fare-information-all-airport-p-4d60b.csv","fare","numbers","^(\d|,)*\.?\d*$"
"/data/datasets/datagov/data/data/datagovdata/domestic-airline-consumer-airfare-report-market-and-carrier-fare-information-all-airport-p-4d60b.csv","dest_cty","numbers","^(\d|,)*\.?\d*$"
"/data/datasets/datagov/data/data/datagovdata/domestic-airline-consumer-airfare-report-market-and-carrier-fare-information-all-airport-p-4d60b.csv","distance","numbers","^(\d|,)*\.?\d*$"
