"file_name","column_name","label","regex"
"/data/datasets/datagov/data/data/datagovdata/ides-laus-msas-annual-average-1976-2011-c49a6.csv","UNEMPLOYED RATE","numbers","^(\d|,)*\.?\d*$"
"/data/datasets/datagov/data/data/datagovdata/ides-laus-msas-annual-average-1976-2011-c49a6.csv","EMPLOYED","numbers","^(\d|,)*\.?\d*$"
"/data/datasets/datagov/data/data/datagovdata/ides-laus-msas-annual-average-1976-2011-c49a6.csv","LABOR FORCE","numbers","^(\d|,)*\.?\d*$"
"/data/datasets/datagov/data/data/datagovdata/ides-laus-msas-annual-average-1976-2011-c49a6.csv","YEAR","numbers","^(\d|,)*\.?\d*$"
"/data/datasets/datagov/data/data/datagovdata/ides-laus-msas-annual-average-1976-2011-c49a6.csv","AREA","uri",".*?$(?<!\.aspx)"
"/data/datasets/datagov/data/data/datagovdata/ides-laus-msas-annual-average-1976-2011-c49a6.csv","UNEMPLOYED NUMBER","numbers","^(\d|,)*\.?\d*$"
