"file_name","column_name","label","regex"
"/data/datasets/datagov/data/data/datagovdata/snake-barriers-removed-37692.csv","Year","numbers","^\d*$"
"/data/datasets/datagov/data/data/datagovdata/snake-barriers-removed-37692.csv","Region","uri",".*?$(?<!\.aspx)"
"/data/datasets/datagov/data/data/datagovdata/snake-barriers-removed-37692.csv","Barriers Removed","numbers","^\d*$"
