"file_name","column_name","label","regex"
"/data/datasets/datagov/data/data/datagovdata/traffic-fatalities.csv","Historical Data","numbers","^(\d|,)*\.?\d*$"
"/data/datasets/datagov/data/data/datagovdata/traffic-fatalities.csv","Target","numbers","^(\d|,)*\.?\d*$"
"/data/datasets/datagov/data/data/datagovdata/traffic-fatalities.csv","Years","numbers","^(\d|,)*\.?\d*$"
