"file_name","column_name","label","regex"
"/data/datasets/datagov/data/data/datagovdata/ccrb-age-of-docket-measured-from-the-date-of-report-2005-2009-d60c2.csv","2007 Percent of Docket","uri",".*?$(?<!\.aspx)"
"/data/datasets/datagov/data/data/datagovdata/ccrb-age-of-docket-measured-from-the-date-of-report-2005-2009-d60c2.csv","2006 Percent of Docket","uri",".*?$(?<!\.aspx)"
"/data/datasets/datagov/data/data/datagovdata/ccrb-age-of-docket-measured-from-the-date-of-report-2005-2009-d60c2.csv","2005 Percent of Docket","uri",".*?$(?<!\.aspx)"
"/data/datasets/datagov/data/data/datagovdata/ccrb-age-of-docket-measured-from-the-date-of-report-2005-2009-d60c2.csv","2007 Number of Cases","numbers","^\d*$"
"/data/datasets/datagov/data/data/datagovdata/ccrb-age-of-docket-measured-from-the-date-of-report-2005-2009-d60c2.csv","Age of Case in Months","uri",".*?$(?<!\.aspx)"
"/data/datasets/datagov/data/data/datagovdata/ccrb-age-of-docket-measured-from-the-date-of-report-2005-2009-d60c2.csv","2006 Number of Cases","numbers","^\d*$"
"/data/datasets/datagov/data/data/datagovdata/ccrb-age-of-docket-measured-from-the-date-of-report-2005-2009-d60c2.csv","2005 Number of Cases","numbers","^\d*$"
"/data/datasets/datagov/data/data/datagovdata/ccrb-age-of-docket-measured-from-the-date-of-report-2005-2009-d60c2.csv","2009 Percent of Docket","uri",".*?$(?<!\.aspx)"
"/data/datasets/datagov/data/data/datagovdata/ccrb-age-of-docket-measured-from-the-date-of-report-2005-2009-d60c2.csv","2008 Number of Cases","numbers","^\d*$"
"/data/datasets/datagov/data/data/datagovdata/ccrb-age-of-docket-measured-from-the-date-of-report-2005-2009-d60c2.csv","2009 Number of Cases","numbers","^\d*$"
"/data/datasets/datagov/data/data/datagovdata/ccrb-age-of-docket-measured-from-the-date-of-report-2005-2009-d60c2.csv","2008 Percent of Docket","uri",".*?$(?<!\.aspx)"
