"file_name","column_name","label","regex"
"/data/datasets/mitdwh/Sdo_coord_op_paths.csv","Single Operation Id","numbers","^(\d|,)*\.?\d*$"
"/data/datasets/mitdwh/Sdo_coord_op_paths.csv","Single Op Source Id","numbers","^(\d|,)*\.?\d*$"
"/data/datasets/mitdwh/Sdo_coord_op_paths.csv","Single Op Target Id","numbers","^(\d|,)*\.?\d*$"
"/data/datasets/mitdwh/Sdo_coord_op_paths.csv","Concat Operation Id","numbers","^(\d|,)*\.?\d*$"
"/data/datasets/mitdwh/Sdo_coord_op_paths.csv","Op Path Step","numbers","^(\d|,)*\.?\d*$"
