"file_name","column_name","label","regex"
"/data/datasets/datagov/data/data/datagovdata/feed-in-tariff-solar-program-b2309.csv","Quarter-Year","uri",".*?$(?<!\.aspx)"
"/data/datasets/datagov/data/data/datagovdata/feed-in-tariff-solar-program-b2309.csv","Installed Capacity from FiT (kW)","numbers","^\d*$"
