"file_name","column_name","label","regex"
"/data/datasets/datagov/data/data/datagovdata/oahu-tefap-agencies-6fe92.csv","ADDRESS","uri","^[^\\\/\?\*\""\'\>\<\:\|]*$"
"/data/datasets/datagov/data/data/datagovdata/oahu-tefap-agencies-6fe92.csv","AGENCY NAME","strings","[^""\r\n]*"
