"file_name","column_name","label","regex"
"/data/datasets/datagov/data/data/datagovdata/education-and-youth-2010-d09a2.csv","eenr0910","numbers","^(\d|,)*\.?\d*$"
"/data/datasets/datagov/data/data/datagovdata/education-and-youth-2010-d09a2.csv","henr0910","numbers","^(\d|,)*\.?\d*$"
"/data/datasets/datagov/data/data/datagovdata/education-and-youth-2010-d09a2.csv","caelem0910","numbers","^(\d|,)*\.?\d*$"
"/data/datasets/datagov/data/data/datagovdata/education-and-youth-2010-d09a2.csv","yvoted10","numbers","^(\d|,)*\.?\d*$"
"/data/datasets/datagov/data/data/datagovdata/education-and-youth-2010-d09a2.csv","yvotereg10","numbers","^(\d|,)*\.?\d*$"
"/data/datasets/datagov/data/data/datagovdata/education-and-youth-2010-d09a2.csv","farms0910","numbers","^(\d|,)*\.?\d*$"
"/data/datasets/datagov/data/data/datagovdata/education-and-youth-2010-d09a2.csv","wstud0910","numbers","^(\d|,)*\.?\d*$"
"/data/datasets/datagov/data/data/datagovdata/education-and-youth-2010-d09a2.csv","compl0910","numbers","^(\d|,)*\.?\d*$"
"/data/datasets/datagov/data/data/datagovdata/education-and-youth-2010-d09a2.csv","aastud0910","numbers","^(\d|,)*\.?\d*$"
"/data/datasets/datagov/data/data/datagovdata/education-and-youth-2010-d09a2.csv","CSA2010","strings","[^""\r\n]*"
"/data/datasets/datagov/data/data/datagovdata/education-and-youth-2010-d09a2.csv","yempl10","numbers","^(\d|,)*\.?\d*$"
"/data/datasets/datagov/data/data/datagovdata/education-and-youth-2010-d09a2.csv","camid0910","numbers","^(\d|,)*\.?\d*$"
"/data/datasets/datagov/data/data/datagovdata/education-and-youth-2010-d09a2.csv","drop0910","numbers","^(\d|,)*\.?\d*$"
"/data/datasets/datagov/data/data/datagovdata/education-and-youth-2010-d09a2.csv","susp0910","numbers","^(\d|,)*\.?\d*$"
"/data/datasets/datagov/data/data/datagovdata/education-and-youth-2010-d09a2.csv","hstud0910","numbers","^(\d|,)*\.?\d*$"
"/data/datasets/datagov/data/data/datagovdata/education-and-youth-2010-d09a2.csv","menr0910","numbers","^(\d|,)*\.?\d*$"
"/data/datasets/datagov/data/data/datagovdata/education-and-youth-2010-d09a2.csv","cahigh0910","numbers","^(\d|,)*\.?\d*$"
