"file_name","column_name","label","regex"
"/data/datasets/datagov/data/data/datagovdata/graffiti-2912b.csv","Latitude","numbers","^-?\d*(\.\d+)?$"
"/data/datasets/datagov/data/data/datagovdata/graffiti-2912b.csv","Address","uri",".*?$(?<!\.aspx)"
"/data/datasets/datagov/data/data/datagovdata/graffiti-2912b.csv","GraffitiMoniker","uri",".*?$(?<!\.aspx)"
"/data/datasets/datagov/data/data/datagovdata/graffiti-2912b.csv","Request Date","strings","[^""\r\n]*"
"/data/datasets/datagov/data/data/datagovdata/graffiti-2912b.csv","GraffitiMoniker3","uri",".*?$(?<!\.aspx)"
"/data/datasets/datagov/data/data/datagovdata/graffiti-2912b.csv","GraffitiType","uri",".*?$(?<!\.aspx)"
"/data/datasets/datagov/data/data/datagovdata/graffiti-2912b.csv","SERVNO","numbers","^-?\d*(\.\d+)?$"
"/data/datasets/datagov/data/data/datagovdata/graffiti-2912b.csv","AddrType","uri",".*?$(?<!\.aspx)"
"/data/datasets/datagov/data/data/datagovdata/graffiti-2912b.csv","CrossStreet","uri",".*?$(?<!\.aspx)"
"/data/datasets/datagov/data/data/datagovdata/graffiti-2912b.csv","Longitude","numbers","^-?\d*(\.\d+)?$"
"/data/datasets/datagov/data/data/datagovdata/graffiti-2912b.csv","GraffitiMoniker2","uri",".*?$(?<!\.aspx)"
"/data/datasets/datagov/data/data/datagovdata/graffiti-2912b.csv","Resolved Date","strings","[^""\r\n]*"
