"file_name","column_name","label","regex"
"/data/datasets/datagov/data/data/datagovdata/infectious-disease-cases-by-county-year-and-sex.csv","CI.lower","numbers","^(\d|,)*\.?\d*$"
"/data/datasets/datagov/data/data/datagovdata/infectious-disease-cases-by-county-year-and-sex.csv","County","uri",".*?$(?<!\.aspx)"
"/data/datasets/datagov/data/data/datagovdata/infectious-disease-cases-by-county-year-and-sex.csv","Population","numbers","^(\d|,)*\.?\d*$"
"/data/datasets/datagov/data/data/datagovdata/infectious-disease-cases-by-county-year-and-sex.csv","Rate","numbers","^(\d|,)*\.?\d*$"
"/data/datasets/datagov/data/data/datagovdata/infectious-disease-cases-by-county-year-and-sex.csv","Year","numbers","^(\d|,)*\.?\d*$"
"/data/datasets/datagov/data/data/datagovdata/infectious-disease-cases-by-county-year-and-sex.csv","Unstable","strings","[^""\r\n]*"
"/data/datasets/datagov/data/data/datagovdata/infectious-disease-cases-by-county-year-and-sex.csv","Disease","uri",".*?$(?<!\.aspx)"
"/data/datasets/datagov/data/data/datagovdata/infectious-disease-cases-by-county-year-and-sex.csv","Count","numbers","^(\d|,)*\.?\d*$"
"/data/datasets/datagov/data/data/datagovdata/infectious-disease-cases-by-county-year-and-sex.csv","Sex","uri",".*?$(?<!\.aspx)"
"/data/datasets/datagov/data/data/datagovdata/infectious-disease-cases-by-county-year-and-sex.csv","CI.upper","numbers","^(\d|,)*\.?\d*$"
