"file_name","column_name","label","regex"
"/data/datasets/datagov/data/data/datagovdata/domestic-airline-consumer-airfare-report-average-fare-premiums-discounts-sorted-by-overall-9f04d.csv","TOT_PctPremium","numbers","^-?\d*(\.\d+)?$"
"/data/datasets/datagov/data/data/datagovdata/domestic-airline-consumer-airfare-report-average-fare-premiums-discounts-sorted-by-overall-9f04d.csv","LH_PctLFMkts","numbers","^-?\d*(\.\d+)?$"
"/data/datasets/datagov/data/data/datagovdata/domestic-airline-consumer-airfare-report-average-fare-premiums-discounts-sorted-by-overall-9f04d.csv","TOT_AvgHubFare","numbers","^-?\d*(\.\d+)?$"
"/data/datasets/datagov/data/data/datagovdata/domestic-airline-consumer-airfare-report-average-fare-premiums-discounts-sorted-by-overall-9f04d.csv","SH_PctPremium","numbers","^-?\d*(\.\d+)?$"
"/data/datasets/datagov/data/data/datagovdata/domestic-airline-consumer-airfare-report-average-fare-premiums-discounts-sorted-by-overall-9f04d.csv","cityname","strings","[^""\r\n]*"
"/data/datasets/datagov/data/data/datagovdata/domestic-airline-consumer-airfare-report-average-fare-premiums-discounts-sorted-by-overall-9f04d.csv","SH_CountofMkts","numbers","^-?\d*(\.\d+)?$"
"/data/datasets/datagov/data/data/datagovdata/domestic-airline-consumer-airfare-report-average-fare-premiums-discounts-sorted-by-overall-9f04d.csv","SH_AvgHubFare","numbers","^-?\d*(\.\d+)?$"
"/data/datasets/datagov/data/data/datagovdata/domestic-airline-consumer-airfare-report-average-fare-premiums-discounts-sorted-by-overall-9f04d.csv","Year","numbers","^-?\d*(\.\d+)?$"
"/data/datasets/datagov/data/data/datagovdata/domestic-airline-consumer-airfare-report-average-fare-premiums-discounts-sorted-by-overall-9f04d.csv","TOT_PctLFMkts","numbers","^-?\d*(\.\d+)?$"
"/data/datasets/datagov/data/data/datagovdata/domestic-airline-consumer-airfare-report-average-fare-premiums-discounts-sorted-by-overall-9f04d.csv","SH_FaredPax","numbers","^-?\d*(\.\d+)?$"
"/data/datasets/datagov/data/data/datagovdata/domestic-airline-consumer-airfare-report-average-fare-premiums-discounts-sorted-by-overall-9f04d.csv","LH_FaredPax","numbers","^-?\d*(\.\d+)?$"
"/data/datasets/datagov/data/data/datagovdata/domestic-airline-consumer-airfare-report-average-fare-premiums-discounts-sorted-by-overall-9f04d.csv","TOT_CountofMkts","numbers","^-?\d*(\.\d+)?$"
"/data/datasets/datagov/data/data/datagovdata/domestic-airline-consumer-airfare-report-average-fare-premiums-discounts-sorted-by-overall-9f04d.csv","origin","uri",".*?$(?<!\.aspx)"
"/data/datasets/datagov/data/data/datagovdata/domestic-airline-consumer-airfare-report-average-fare-premiums-discounts-sorted-by-overall-9f04d.csv","LH_AvgHubFare","numbers","^-?\d*(\.\d+)?$"
"/data/datasets/datagov/data/data/datagovdata/domestic-airline-consumer-airfare-report-average-fare-premiums-discounts-sorted-by-overall-9f04d.csv","LH_PctPremium","numbers","^-?\d*(\.\d+)?$"
"/data/datasets/datagov/data/data/datagovdata/domestic-airline-consumer-airfare-report-average-fare-premiums-discounts-sorted-by-overall-9f04d.csv","Quarter","numbers","^-?\d*(\.\d+)?$"
"/data/datasets/datagov/data/data/datagovdata/domestic-airline-consumer-airfare-report-average-fare-premiums-discounts-sorted-by-overall-9f04d.csv","TOT_FaredPax","numbers","^-?\d*(\.\d+)?$"
"/data/datasets/datagov/data/data/datagovdata/domestic-airline-consumer-airfare-report-average-fare-premiums-discounts-sorted-by-overall-9f04d.csv","LH_CountofMkts","numbers","^-?\d*(\.\d+)?$"
"/data/datasets/datagov/data/data/datagovdata/domestic-airline-consumer-airfare-report-average-fare-premiums-discounts-sorted-by-overall-9f04d.csv","SH_PctLFMkts","numbers","^-?\d*(\.\d+)?$"
