"file_name","column_name","label","regex"
"/data/datasets/datagov/data/data/datagovdata/local-development-corporations-loans.csv","Date Loan Awarded","strings","[^""\r\n]*"
"/data/datasets/datagov/data/data/datagovdata/local-development-corporations-loans.csv","Jobs Planned","numbers","^(\d|,)*\.?\d*$"
"/data/datasets/datagov/data/data/datagovdata/local-development-corporations-loans.csv","Recipient City","uri",".*?$(?<!\.aspx)"
"/data/datasets/datagov/data/data/datagovdata/local-development-corporations-loans.csv","Original Loan Amount","numbers","^(\d|,)*\.?\d*$"
"/data/datasets/datagov/data/data/datagovdata/local-development-corporations-loans.csv","Authority Name","uri",".*?$(?<!\.aspx)"
"/data/datasets/datagov/data/data/datagovdata/local-development-corporations-loans.csv","Loans","uri",".*?$(?<!\.aspx)"
"/data/datasets/datagov/data/data/datagovdata/local-development-corporations-loans.csv","Interest Rate","numbers","^(\d|,)*\.?\d*$"
"/data/datasets/datagov/data/data/datagovdata/local-development-corporations-loans.csv","Amount Repaid","numbers","^(\d|,)*\.?\d*$"
"/data/datasets/datagov/data/data/datagovdata/local-development-corporations-loans.csv","Loan Terms Completed","uri",".*?$(?<!\.aspx)"
"/data/datasets/datagov/data/data/datagovdata/local-development-corporations-loans.csv","Recipient Postal Code","numbers","^(\d|,)*\.?\d*$"
"/data/datasets/datagov/data/data/datagovdata/local-development-corporations-loans.csv","Recipient State","uri",".*?$(?<!\.aspx)"
"/data/datasets/datagov/data/data/datagovdata/local-development-corporations-loans.csv","New Jobs","uri",".*?$(?<!\.aspx)"
"/data/datasets/datagov/data/data/datagovdata/local-development-corporations-loans.csv","Loan Fund Sources","uri",".*?$(?<!\.aspx)"
"/data/datasets/datagov/data/data/datagovdata/local-development-corporations-loans.csv","Fiscal Year End Date","strings","[^""\r\n]*"
"/data/datasets/datagov/data/data/datagovdata/local-development-corporations-loans.csv","Loan Length","numbers","^(\d|,)*\.?\d*$"
"/data/datasets/datagov/data/data/datagovdata/local-development-corporations-loans.csv","Loan Purpose","strings","[^""\r\n]*"
"/data/datasets/datagov/data/data/datagovdata/local-development-corporations-loans.csv","Jobs Created","numbers","^(\d|,)*\.?\d*$"
"/data/datasets/datagov/data/data/datagovdata/local-development-corporations-loans.csv","Recipient Name","strings","[^""\r\n]*"
