"file_name","column_name","label","regex"
"/data/datasets/datagov/data/data/datagovdata/campaign-finance-status-of-voluntary-expenditure-ceiling-vecs-in-november-4-2014-election-f4b60.csv","City Elective Office","uri",".*?$(?<!\.aspx)"
"/data/datasets/datagov/data/data/datagovdata/campaign-finance-status-of-voluntary-expenditure-ceiling-vecs-in-november-4-2014-election-f4b60.csv","Status of VEC","uri",".*?$(?<!\.aspx)"
"/data/datasets/datagov/data/data/datagovdata/campaign-finance-status-of-voluntary-expenditure-ceiling-vecs-in-november-4-2014-election-f4b60.csv","Amount of VEC","numbers","^\$?\d+(\.(\d{2}))?$"
