"file_name","column_name","label","regex"
"/data/datasets/datagov/data/data/datagovdata/ability-to-speak-english-by-gender-16b4c.csv","Not at All","numbers","^\d*$"
"/data/datasets/datagov/data/data/datagovdata/ability-to-speak-english-by-gender-16b4c.csv","Sex","uri",".*?$(?<!\.aspx)"
"/data/datasets/datagov/data/data/datagovdata/ability-to-speak-english-by-gender-16b4c.csv","Not Well","numbers","^\d*$"
"/data/datasets/datagov/data/data/datagovdata/ability-to-speak-english-by-gender-16b4c.csv","Well","numbers","^\d*$"
