"file_name","column_name","label","regex"
"/data/datasets/datagov/data/data/datagovdata/early-voting-grace-period-registration-and-voting-2014-november-4-gubernatorial-election-80f3f.csv","Location","uri","^[^\\\/\?\*\""\'\>\<\:\|]*$"
"/data/datasets/datagov/data/data/datagovdata/early-voting-grace-period-registration-and-voting-2014-november-4-gubernatorial-election-80f3f.csv","Early Voting - Saturday","uri","^[^\\\/\?\*\""\'\>\<\:\|]*$"
"/data/datasets/datagov/data/data/datagovdata/early-voting-grace-period-registration-and-voting-2014-november-4-gubernatorial-election-80f3f.csv","Street","uri","^[^\\\/\?\*\""\'\>\<\:\|]*$"
"/data/datasets/datagov/data/data/datagovdata/early-voting-grace-period-registration-and-voting-2014-november-4-gubernatorial-election-80f3f.csv","Early Voting - Weekdays","uri","^[^\\\/\?\*\""\'\>\<\:\|]*$"
"/data/datasets/datagov/data/data/datagovdata/early-voting-grace-period-registration-and-voting-2014-november-4-gubernatorial-election-80f3f.csv","City","uri","^[^\\\/\?\*\""\'\>\<\:\|]*$"
"/data/datasets/datagov/data/data/datagovdata/early-voting-grace-period-registration-and-voting-2014-november-4-gubernatorial-election-80f3f.csv","Early Voting - Sunday","uri","^[^\\\/\?\*\""\'\>\<\:\|]*$"
"/data/datasets/datagov/data/data/datagovdata/early-voting-grace-period-registration-and-voting-2014-november-4-gubernatorial-election-80f3f.csv","Grace Period Registration & Voting","uri","^[^\\\/\?\*\""\'\>\<\:\|]*$"
"/data/datasets/datagov/data/data/datagovdata/early-voting-grace-period-registration-and-voting-2014-november-4-gubernatorial-election-80f3f.csv","Site","uri","^[^\\\/\?\*\""\'\>\<\:\|]*$"
"/data/datasets/datagov/data/data/datagovdata/early-voting-grace-period-registration-and-voting-2014-november-4-gubernatorial-election-80f3f.csv","Grace Period & In-Person Absentee","uri","^[^\\\/\?\*\""\'\>\<\:\|]*$"
"/data/datasets/datagov/data/data/datagovdata/early-voting-grace-period-registration-and-voting-2014-november-4-gubernatorial-election-80f3f.csv","Election Day Registration & Voting","uri","^[^\\\/\?\*\""\'\>\<\:\|]*$"
