"file_name","column_name","label","regex"
"/data/datasets/datagov/data/data/datagovdata/oklahoma-post-offices-caf9d.csv","Location","uri",".*?$(?<!\.aspx)"
"/data/datasets/datagov/data/data/datagovdata/oklahoma-post-offices-caf9d.csv","LATITUDE","numbers","^(\d|,)*\.?\d*$"
"/data/datasets/datagov/data/data/datagovdata/oklahoma-post-offices-caf9d.csv","ADDRESS","uri",".*?$(?<!\.aspx)"
"/data/datasets/datagov/data/data/datagovdata/oklahoma-post-offices-caf9d.csv","PHONE","uri",".*?$(?<!\.aspx)"
"/data/datasets/datagov/data/data/datagovdata/oklahoma-post-offices-caf9d.csv","LONGITUDE","numbers","^(\d|,)*\.?\d*$"
"/data/datasets/datagov/data/data/datagovdata/oklahoma-post-offices-caf9d.csv","ZIP","numbers","^(\d|,)*\.?\d*$"
"/data/datasets/datagov/data/data/datagovdata/oklahoma-post-offices-caf9d.csv","CITY","uri",".*?$(?<!\.aspx)"
"/data/datasets/datagov/data/data/datagovdata/oklahoma-post-offices-caf9d.csv","STATE","uri",".*?$(?<!\.aspx)"
"/data/datasets/datagov/data/data/datagovdata/oklahoma-post-offices-caf9d.csv","CITY OF POST OFFICE","uri",".*?$(?<!\.aspx)"
