"file_name","column_name","label","regex"
"/data/datasets/datagov/data/data/datagovdata/credit-union-d2546.csv","ZIPCode","numbers","^\d*$"
"/data/datasets/datagov/data/data/datagovdata/credit-union-d2546.csv","Address","uri",".*?$(?<!\.aspx)"
"/data/datasets/datagov/data/data/datagovdata/credit-union-d2546.csv","Type","uri",".*?$(?<!\.aspx)"
"/data/datasets/datagov/data/data/datagovdata/credit-union-d2546.csv","GeoCode","uri",".*?$(?<!\.aspx)"
"/data/datasets/datagov/data/data/datagovdata/credit-union-d2546.csv","Phone","numbers","^\d*$"
"/data/datasets/datagov/data/data/datagovdata/credit-union-d2546.csv","Name","uri",".*?$(?<!\.aspx)"
"/data/datasets/datagov/data/data/datagovdata/credit-union-d2546.csv","Address2","uri",".*?$(?<!\.aspx)"
"/data/datasets/datagov/data/data/datagovdata/credit-union-d2546.csv","City","uri",".*?$(?<!\.aspx)"
"/data/datasets/datagov/data/data/datagovdata/credit-union-d2546.csv","Charter","numbers","^\d*$"
"/data/datasets/datagov/data/data/datagovdata/credit-union-d2546.csv","Branch","uri",".*?$(?<!\.aspx)"
"/data/datasets/datagov/data/data/datagovdata/credit-union-d2546.csv","State","uri",".*?$(?<!\.aspx)"
