"file_name","column_name","label","regex"
"/data/datasets/datagov/data/data/datagovdata/tgr2006se_roos_ctycu.csv","COUNTY","uri",".*?$(?<!\.aspx)"
"/data/datasets/datagov/data/data/datagovdata/tgr2006se_roos_ctycu.csv","FIPSCC","uri",".*?$(?<!\.aspx)"
"/data/datasets/datagov/data/data/datagovdata/tgr2006se_roos_ctycu.csv","GIST_ID","numbers","^\d$"
"/data/datasets/datagov/data/data/datagovdata/tgr2006se_roos_ctycu.csv","FIPSSTCO","numbers","^\d$"
"/data/datasets/datagov/data/data/datagovdata/tgr2006se_roos_ctycu.csv","LSADC","numbers","^\d$"
"/data/datasets/datagov/data/data/datagovdata/tgr2006se_roos_ctycu.csv","ENTITY","uri",".*?$(?<!\.aspx)"
"/data/datasets/datagov/data/data/datagovdata/tgr2006se_roos_ctycu.csv","STATE","uri",".*?$(?<!\.aspx)"
