"file_name","column_name","label","regex"
"/data/datasets/datagov/data/data/datagovdata/li-public-notes-for-affidavit.csv","ID","numbers","^\d*$"
"/data/datasets/datagov/data/data/datagovdata/li-public-notes-for-affidavit.csv","Notes","strings","[^""\r\n]*"
"/data/datasets/datagov/data/data/datagovdata/li-public-notes-for-affidavit.csv","NotesEnteredOn","strings","[^""\r\n]*"
