"file_name","column_name","label","regex"
"/data/datasets/datagov/data/data/datagovdata/table-11-total-underground-injection-control-uic-permits.csv","Total Expired Permits","numbers","^[-+]?\d+(\.\d+)?|[-+]?\.\d+?$"
"/data/datasets/datagov/data/data/datagovdata/table-11-total-underground-injection-control-uic-permits.csv","Calendar Year*","numbers","^[-+]?\d+(\.\d+)?|[-+]?\.\d+?$"
"/data/datasets/datagov/data/data/datagovdata/table-11-total-underground-injection-control-uic-permits.csv","#","numbers","^[-+]?\d+(\.\d+)?|[-+]?\.\d+?$"
"/data/datasets/datagov/data/data/datagovdata/table-11-total-underground-injection-control-uic-permits.csv","Percent of Total with Current Permits","numbers","^[-+]?\d+(\.\d+)?|[-+]?\.\d+?$"
"/data/datasets/datagov/data/data/datagovdata/table-11-total-underground-injection-control-uic-permits.csv","Total UIC Permits","numbers","^[-+]?\d+(\.\d+)?|[-+]?\.\d+?$"
"/data/datasets/datagov/data/data/datagovdata/table-11-total-underground-injection-control-uic-permits.csv","Percent of Current Sewage & Industrial Permits","numbers","^[-+]?\d+(\.\d+)?|[-+]?\.\d+?$"
