"file_name","column_name","label","regex"
"/data/datasets/datagov/data/data/datagovdata/2005-2014-fire-data.csv","Behavior","numbers","^(\d|,)*\.?\d*$"
"/data/datasets/datagov/data/data/datagovdata/2005-2014-fire-data.csv","Location","uri",".*?$(?<!\.aspx)"
"/data/datasets/datagov/data/data/datagovdata/2005-2014-fire-data.csv","Industrial_Restriction","numbers","^(\d|,)*\.?\d*$"
"/data/datasets/datagov/data/data/datagovdata/2005-2014-fire-data.csv","Size_acres","numbers","^(\d|,)*\.?\d*$"
"/data/datasets/datagov/data/data/datagovdata/2005-2014-fire-data.csv","Subdiv","uri",".*?$(?<!\.aspx)"
"/data/datasets/datagov/data/data/datagovdata/2005-2014-fire-data.csv","FireName","uri",".*?$(?<!\.aspx)"
"/data/datasets/datagov/data/data/datagovdata/2005-2014-fire-data.csv","County","numbers","^(\d|,)*\.?\d*$"
"/data/datasets/datagov/data/data/datagovdata/2005-2014-fire-data.csv","Flame_length","numbers","^(\d|,)*\.?\d*$"
"/data/datasets/datagov/data/data/datagovdata/2005-2014-fire-data.csv","Topography","numbers","^(\d|,)*\.?\d*$"
"/data/datasets/datagov/data/data/datagovdata/2005-2014-fire-data.csv","FireNumber","numbers","^(\d|,)*\.?\d*$"
"/data/datasets/datagov/data/data/datagovdata/2005-2014-fire-data.csv","Rng","uri",".*?$(?<!\.aspx)"
"/data/datasets/datagov/data/data/datagovdata/2005-2014-fire-data.csv","ReportDateAndTime","strings","[^""\r\n]*"
"/data/datasets/datagov/data/data/datagovdata/2005-2014-fire-data.csv","General_Restriction","numbers","^(\d|,)*\.?\d*$"
"/data/datasets/datagov/data/data/datagovdata/2005-2014-fire-data.csv","Burn_Index","numbers","^(\d|,)*\.?\d*$"
"/data/datasets/datagov/data/data/datagovdata/2005-2014-fire-data.csv","Control_DateTime","strings","[^""\r\n]*"
"/data/datasets/datagov/data/data/datagovdata/2005-2014-fire-data.csv","RegulatedUseZone","uri",".*?$(?<!\.aspx)"
"/data/datasets/datagov/data/data/datagovdata/2005-2014-fire-data.csv","FiscalYear","numbers","^(\d|,)*\.?\d*$"
"/data/datasets/datagov/data/data/datagovdata/2005-2014-fire-data.csv","Current_Unit","numbers","^(\d|,)*\.?\d*$"
"/data/datasets/datagov/data/data/datagovdata/2005-2014-fire-data.csv","Fuel","uri",".*?$(?<!\.aspx)"
"/data/datasets/datagov/data/data/datagovdata/2005-2014-fire-data.csv","Sec","numbers","^(\d|,)*\.?\d*$"
"/data/datasets/datagov/data/data/datagovdata/2005-2014-fire-data.csv","Cause_Comments","strings","[^""\r\n]*"
"/data/datasets/datagov/data/data/datagovdata/2005-2014-fire-data.csv","Ign_DateTime","strings","[^""\r\n]*"
"/data/datasets/datagov/data/data/datagovdata/2005-2014-fire-data.csv","Current_District","numbers","^(\d|,)*\.?\d*$"
"/data/datasets/datagov/data/data/datagovdata/2005-2014-fire-data.csv","Aspect","numbers","^(\d|,)*\.?\d*$"
"/data/datasets/datagov/data/data/datagovdata/2005-2014-fire-data.csv","FireYear","numbers","^(\d|,)*\.?\d*$"
"/data/datasets/datagov/data/data/datagovdata/2005-2014-fire-data.csv","Slope","numbers","^(\d|,)*\.?\d*$"
"/data/datasets/datagov/data/data/datagovdata/2005-2014-fire-data.csv","Elevation","numbers","^(\d|,)*\.?\d*$"
"/data/datasets/datagov/data/data/datagovdata/2005-2014-fire-data.csv","CauseByDesc","uri",".*?$(?<!\.aspx)"
"/data/datasets/datagov/data/data/datagovdata/2005-2014-fire-data.csv","Area","uri",".*?$(?<!\.aspx)"
"/data/datasets/datagov/data/data/datagovdata/2005-2014-fire-data.csv","Twn","uri",".*?$(?<!\.aspx)"
"/data/datasets/datagov/data/data/datagovdata/2005-2014-fire-data.csv","LandmarkLocation","strings","[^""\r\n]*"
"/data/datasets/datagov/data/data/datagovdata/2005-2014-fire-data.csv","GeneralDesc","uri",".*?$(?<!\.aspx)"
"/data/datasets/datagov/data/data/datagovdata/2005-2014-fire-data.csv","SpecificDesc","strings","[^""\r\n]*"
"/data/datasets/datagov/data/data/datagovdata/2005-2014-fire-data.csv","Size_prot","numbers","^(\d|,)*\.?\d*$"
