"file_name","column_name","label","regex"
"/data/datasets/datagov/data/data/datagovdata/2010-2011-class-size-borough-summary-15572.csv","NUMBER OF STUDENTS / SEATS FILLED","numbers","^(\d|,)*\.?\d*$"
"/data/datasets/datagov/data/data/datagovdata/2010-2011-class-size-borough-summary-15572.csv","CORE COURSE (MS CORE and 9-12 ONLY)","uri",".*?$(?<!\.aspx)"
"/data/datasets/datagov/data/data/datagovdata/2010-2011-class-size-borough-summary-15572.csv","PROGRAM TYPE","uri",".*?$(?<!\.aspx)"
"/data/datasets/datagov/data/data/datagovdata/2010-2011-class-size-borough-summary-15572.csv","NUMBER OF SECTIONS","numbers","^(\d|,)*\.?\d*$"
"/data/datasets/datagov/data/data/datagovdata/2010-2011-class-size-borough-summary-15572.csv","BOROUGH","uri",".*?$(?<!\.aspx)"
"/data/datasets/datagov/data/data/datagovdata/2010-2011-class-size-borough-summary-15572.csv","CORE SUBJECT (MS CORE and 9-12 ONLY)","uri",".*?$(?<!\.aspx)"
"/data/datasets/datagov/data/data/datagovdata/2010-2011-class-size-borough-summary-15572.csv","GRADE ","uri",".*?$(?<!\.aspx)"
"/data/datasets/datagov/data/data/datagovdata/2010-2011-class-size-borough-summary-15572.csv","AVERAGE CLASS SIZE","numbers","^(\d|,)*\.?\d*$"
"/data/datasets/datagov/data/data/datagovdata/2010-2011-class-size-borough-summary-15572.csv","SERVICE CATEGORY(K-9* ONLY)","strings","[^""\r\n]*"
