"file_name","column_name","label","regex"
"/data/datasets/datagov/data/data/datagovdata/times-square-property-data-commercial-and-retail-properties-79d5d.csv","Typical Floor Size","numbers","^(\d|,)*\.?\d*$"
"/data/datasets/datagov/data/data/datagovdata/times-square-property-data-commercial-and-retail-properties-79d5d.csv","Location 1","uri","^[^\\\/\?\*\""\'\>\<\:\|]*$"
"/data/datasets/datagov/data/data/datagovdata/times-square-property-data-commercial-and-retail-properties-79d5d.csv","PropertyType","uri","^[^\\\/\?\*\""\'\>\<\:\|]*$"
"/data/datasets/datagov/data/data/datagovdata/times-square-property-data-commercial-and-retail-properties-79d5d.csv","Building Status","uri","^[^\\\/\?\*\""\'\>\<\:\|]*$"
"/data/datasets/datagov/data/data/datagovdata/times-square-property-data-commercial-and-retail-properties-79d5d.csv","Number Of Stories","numbers","^(\d|,)*\.?\d*$"
"/data/datasets/datagov/data/data/datagovdata/times-square-property-data-commercial-and-retail-properties-79d5d.csv","Zoning","strings","[^""\r\n]*"
"/data/datasets/datagov/data/data/datagovdata/times-square-property-data-commercial-and-retail-properties-79d5d.csv","Amenities","strings","[^""\r\n]*"
"/data/datasets/datagov/data/data/datagovdata/times-square-property-data-commercial-and-retail-properties-79d5d.csv","Building Address","uri","^[^\\\/\?\*\""\'\>\<\:\|]*$"
"/data/datasets/datagov/data/data/datagovdata/times-square-property-data-commercial-and-retail-properties-79d5d.csv","Last Sale Price","numbers","^(\d|,)*\.?\d*$"
"/data/datasets/datagov/data/data/datagovdata/times-square-property-data-commercial-and-retail-properties-79d5d.csv","Number Of Elevators","numbers","^(\d|,)*\.?\d*$"
"/data/datasets/datagov/data/data/datagovdata/times-square-property-data-commercial-and-retail-properties-79d5d.csv","Last Sale Date","strings","[^""\r\n]*"
"/data/datasets/datagov/data/data/datagovdata/times-square-property-data-commercial-and-retail-properties-79d5d.csv","Average Weighted Rent","uri","^[^\\\/\?\*\""\'\>\<\:\|]*$"
"/data/datasets/datagov/data/data/datagovdata/times-square-property-data-commercial-and-retail-properties-79d5d.csv","For Sale Status","uri","^[^\\\/\?\*\""\'\>\<\:\|]*$"
"/data/datasets/datagov/data/data/datagovdata/times-square-property-data-commercial-and-retail-properties-79d5d.csv","Parking Ratio","numbers","^(\d|,)*\.?\d*$"
"/data/datasets/datagov/data/data/datagovdata/times-square-property-data-commercial-and-retail-properties-79d5d.csv","Total Relet Space (SF)","numbers","^(\d|,)*\.?\d*$"
"/data/datasets/datagov/data/data/datagovdata/times-square-property-data-commercial-and-retail-properties-79d5d.csv","For Sale Price","numbers","^(\d|,)*\.?\d*$"
"/data/datasets/datagov/data/data/datagovdata/times-square-property-data-commercial-and-retail-properties-79d5d.csv","Total Vacant Avail Relet Space (SF)","numbers","^(\d|,)*\.?\d*$"
"/data/datasets/datagov/data/data/datagovdata/times-square-property-data-commercial-and-retail-properties-79d5d.csv","Land Area (AC)","numbers","^(\d|,)*\.?\d*$"
"/data/datasets/datagov/data/data/datagovdata/times-square-property-data-commercial-and-retail-properties-79d5d.csv","Percent Leased","numbers","^(\d|,)*\.?\d*$"
"/data/datasets/datagov/data/data/datagovdata/times-square-property-data-commercial-and-retail-properties-79d5d.csv","Total Sublet Space (SF)","numbers","^(\d|,)*\.?\d*$"
"/data/datasets/datagov/data/data/datagovdata/times-square-property-data-commercial-and-retail-properties-79d5d.csv","Submarket Name","strings","[^""\r\n]*"
"/data/datasets/datagov/data/data/datagovdata/times-square-property-data-commercial-and-retail-properties-79d5d.csv","County Name","uri","^[^\\\/\?\*\""\'\>\<\:\|]*$"
"/data/datasets/datagov/data/data/datagovdata/times-square-property-data-commercial-and-retail-properties-79d5d.csv","Building Park","uri","^[^\\\/\?\*\""\'\>\<\:\|]*$"
"/data/datasets/datagov/data/data/datagovdata/times-square-property-data-commercial-and-retail-properties-79d5d.csv","Year Built","numbers","^(\d|,)*\.?\d*$"
"/data/datasets/datagov/data/data/datagovdata/times-square-property-data-commercial-and-retail-properties-79d5d.csv","Building Name","strings","[^""\r\n]*"
"/data/datasets/datagov/data/data/datagovdata/times-square-property-data-commercial-and-retail-properties-79d5d.csv","Rentable Building Area","numbers","^(\d|,)*\.?\d*$"
"/data/datasets/datagov/data/data/datagovdata/times-square-property-data-commercial-and-retail-properties-79d5d.csv","Total Available Space (SF)","numbers","^(\d|,)*\.?\d*$"
"/data/datasets/datagov/data/data/datagovdata/times-square-property-data-commercial-and-retail-properties-79d5d.csv","Max Building Contiguous Space","numbers","^(\d|,)*\.?\d*$"
"/data/datasets/datagov/data/data/datagovdata/times-square-property-data-commercial-and-retail-properties-79d5d.csv","Number Of Parking Spaces","numbers","^(\d|,)*\.?\d*$"
"/data/datasets/datagov/data/data/datagovdata/times-square-property-data-commercial-and-retail-properties-79d5d.csv","Submarket Cluster","uri","^[^\\\/\?\*\""\'\>\<\:\|]*$"
"/data/datasets/datagov/data/data/datagovdata/times-square-property-data-commercial-and-retail-properties-79d5d.csv","Building Class","uri","^[^\\\/\?\*\""\'\>\<\:\|]*$"
"/data/datasets/datagov/data/data/datagovdata/times-square-property-data-commercial-and-retail-properties-79d5d.csv","Building Tax Expenses","address_or_phone","(\d{4,6})"
"/data/datasets/datagov/data/data/datagovdata/times-square-property-data-commercial-and-retail-properties-79d5d.csv","Building Operating Expenses","address_or_phone","(\d{4,6})"
"/data/datasets/datagov/data/data/datagovdata/times-square-property-data-commercial-and-retail-properties-79d5d.csv","Year Renovated","numbers","^(\d|,)*\.?\d*$"
"/data/datasets/datagov/data/data/datagovdata/times-square-property-data-commercial-and-retail-properties-79d5d.csv","Services","uri","^[^\\\/\?\*\""\'\>\<\:\|]*$"
"/data/datasets/datagov/data/data/datagovdata/times-square-property-data-commercial-and-retail-properties-79d5d.csv","Core Factor","numbers","^(\d|,)*\.?\d*$"
"/data/datasets/datagov/data/data/datagovdata/times-square-property-data-commercial-and-retail-properties-79d5d.csv","Total Vacant Avail Sublet Space (SF)","numbers","^(\d|,)*\.?\d*$"
"/data/datasets/datagov/data/data/datagovdata/times-square-property-data-commercial-and-retail-properties-79d5d.csv","Max Floor Contiguous Space","numbers","^(\d|,)*\.?\d*$"
