"file_name","column_name","label","regex"
"/data/datasets/datagov/data/data/datagovdata/2012-oklahoma-state-underutilized-properties-tier-1-06eb0.csv","DATE PROPERTY ACQUIRED","uri",".*?$(?<!\.aspx)"
"/data/datasets/datagov/data/data/datagovdata/2012-oklahoma-state-underutilized-properties-tier-1-06eb0.csv","SECTION-TOWNSHIP-RANGE","strings","[^""\r\n]*"
"/data/datasets/datagov/data/data/datagovdata/2012-oklahoma-state-underutilized-properties-tier-1-06eb0.csv","STATE AGENCY","uri",".*?$(?<!\.aspx)"
"/data/datasets/datagov/data/data/datagovdata/2012-oklahoma-state-underutilized-properties-tier-1-06eb0.csv","SIZE OF STRUCTURE AND/OR ACRES","uri",".*?$(?<!\.aspx)"
"/data/datasets/datagov/data/data/datagovdata/2012-oklahoma-state-underutilized-properties-tier-1-06eb0.csv","PURPOSE - LAND","uri",".*?$(?<!\.aspx)"
"/data/datasets/datagov/data/data/datagovdata/2012-oklahoma-state-underutilized-properties-tier-1-06eb0.csv","LIST VALUE","numbers","^[-+]?\d+(\.\d+)?|[-+]?\.\d+?$"
"/data/datasets/datagov/data/data/datagovdata/2012-oklahoma-state-underutilized-properties-tier-1-06eb0.csv","STATE EMPLOYEES AT THIS BUILDING","uri",".*?$(?<!\.aspx)"
"/data/datasets/datagov/data/data/datagovdata/2012-oklahoma-state-underutilized-properties-tier-1-06eb0.csv","COUNTY","uri",".*?$(?<!\.aspx)"
"/data/datasets/datagov/data/data/datagovdata/2012-oklahoma-state-underutilized-properties-tier-1-06eb0.csv","YEAR BUILT","uri",".*?$(?<!\.aspx)"
"/data/datasets/datagov/data/data/datagovdata/2012-oklahoma-state-underutilized-properties-tier-1-06eb0.csv","TYPE OF PROPERTY","strings","[^""\r\n]*"
"/data/datasets/datagov/data/data/datagovdata/2012-oklahoma-state-underutilized-properties-tier-1-06eb0.csv","OCCUPANCY RATE OF THE BUILDING","uri",".*?$(?<!\.aspx)"
"/data/datasets/datagov/data/data/datagovdata/2012-oklahoma-state-underutilized-properties-tier-1-06eb0.csv","USAGE BY STATE: DAILY, WEEKLY, MONTHLY - LAND","uri",".*?$(?<!\.aspx)"
"/data/datasets/datagov/data/data/datagovdata/2012-oklahoma-state-underutilized-properties-tier-1-06eb0.csv","NAME OF BUILDING","strings","[^""\r\n]*"
"/data/datasets/datagov/data/data/datagovdata/2012-oklahoma-state-underutilized-properties-tier-1-06eb0.csv","ACRES USED BY STATE","uri",".*?$(?<!\.aspx)"
"/data/datasets/datagov/data/data/datagovdata/2012-oklahoma-state-underutilized-properties-tier-1-06eb0.csv","% OCCUPIED BY THE STATE","uri",".*?$(?<!\.aspx)"
"/data/datasets/datagov/data/data/datagovdata/2012-oklahoma-state-underutilized-properties-tier-1-06eb0.csv","ACRES","strings","[^""\r\n]*"
"/data/datasets/datagov/data/data/datagovdata/2012-oklahoma-state-underutilized-properties-tier-1-06eb0.csv","USAGE BY STATE: DAILY, WEEKLY, MONTHLY - BUILDING","uri",".*?$(?<!\.aspx)"
"/data/datasets/datagov/data/data/datagovdata/2012-oklahoma-state-underutilized-properties-tier-1-06eb0.csv","% OF PROPERTY BEING UTILIZED","numbers","^[-+]?\d+(\.\d+)?|[-+]?\.\d+?$"
"/data/datasets/datagov/data/data/datagovdata/2012-oklahoma-state-underutilized-properties-tier-1-06eb0.csv","PHYSICAL ADDRESS","strings","[^""\r\n]*"
"/data/datasets/datagov/data/data/datagovdata/2012-oklahoma-state-underutilized-properties-tier-1-06eb0.csv","% OF THE BUILDING BEING LEASED OR SUBLEASED","numbers","^[-+]?\d+(\.\d+)?|[-+]?\.\d+?$"
"/data/datasets/datagov/data/data/datagovdata/2012-oklahoma-state-underutilized-properties-tier-1-06eb0.csv","PROPERTY CLASSIFICATION","uri",".*?$(?<!\.aspx)"
"/data/datasets/datagov/data/data/datagovdata/2012-oklahoma-state-underutilized-properties-tier-1-06eb0.csv","Location 1","strings","[^""\r\n]*"
"/data/datasets/datagov/data/data/datagovdata/2012-oklahoma-state-underutilized-properties-tier-1-06eb0.csv","% OR ACRES OF THE LAND BEING LEASED OR SUBLEASED","uri",".*?$(?<!\.aspx)"
"/data/datasets/datagov/data/data/datagovdata/2012-oklahoma-state-underutilized-properties-tier-1-06eb0.csv","PURPOSE ","strings","[^""\r\n]*"
"/data/datasets/datagov/data/data/datagovdata/2012-oklahoma-state-underutilized-properties-tier-1-06eb0.csv","CITY","uri",".*?$(?<!\.aspx)"
