"file_name","column_name","label","regex"
"/data/datasets/datagov/data/data/datagovdata/nmh309data123729305_sth_view.csv","GID","numbers","^(\d|,)*\.?\d*$"
"/data/datasets/datagov/data/data/datagovdata/nmh309data123729305_sth_view.csv","RGIS_CODE","numbers","^(\d|,)*\.?\d*$"
"/data/datasets/datagov/data/data/datagovdata/nmh309data123729305_sth_view.csv","P050089","numbers","^(\d|,)*\.?\d*$"
"/data/datasets/datagov/data/data/datagovdata/nmh309data123729305_sth_view.csv","P050075","numbers","^(\d|,)*\.?\d*$"
"/data/datasets/datagov/data/data/datagovdata/nmh309data123729305_sth_view.csv","P050071","numbers","^(\d|,)*\.?\d*$"
"/data/datasets/datagov/data/data/datagovdata/nmh309data123729305_sth_view.csv","GEO_ID","numbers","^(\d|,)*\.?\d*$"
"/data/datasets/datagov/data/data/datagovdata/nmh309data123729305_sth_view.csv","LSAD","uri",".*?$(?<!\.aspx)"
"/data/datasets/datagov/data/data/datagovdata/nmh309data123729305_sth_view.csv","P050057","numbers","^(\d|,)*\.?\d*$"
"/data/datasets/datagov/data/data/datagovdata/nmh309data123729305_sth_view.csv","STFID","numbers","^(\d|,)*\.?\d*$"
"/data/datasets/datagov/data/data/datagovdata/nmh309data123729305_sth_view.csv","LSAD_TRANS","uri",".*?$(?<!\.aspx)"
"/data/datasets/datagov/data/data/datagovdata/nmh309data123729305_sth_view.csv","P050090","numbers","^(\d|,)*\.?\d*$"
"/data/datasets/datagov/data/data/datagovdata/nmh309data123729305_sth_view.csv","P050081","numbers","^(\d|,)*\.?\d*$"
"/data/datasets/datagov/data/data/datagovdata/nmh309data123729305_sth_view.csv","P050051","numbers","^(\d|,)*\.?\d*$"
"/data/datasets/datagov/data/data/datagovdata/nmh309data123729305_sth_view.csv","NAME","numbers","^(\d|,)*\.?\d*$"
"/data/datasets/datagov/data/data/datagovdata/nmh309data123729305_sth_view.csv","P050077","numbers","^(\d|,)*\.?\d*$"
"/data/datasets/datagov/data/data/datagovdata/nmh309data123729305_sth_view.csv","AREA_NAME","uri",".*?$(?<!\.aspx)"
"/data/datasets/datagov/data/data/datagovdata/nmh309data123729305_sth_view.csv","P050072","numbers","^(\d|,)*\.?\d*$"
"/data/datasets/datagov/data/data/datagovdata/nmh309data123729305_sth_view.csv","STATE","numbers","^(\d|,)*\.?\d*$"
"/data/datasets/datagov/data/data/datagovdata/nmh309data123729305_sth_view.csv","P050083","numbers","^(\d|,)*\.?\d*$"
"/data/datasets/datagov/data/data/datagovdata/nmh309data123729305_sth_view.csv","SLDL","numbers","^(\d|,)*\.?\d*$"
"/data/datasets/datagov/data/data/datagovdata/nmh309data123729305_sth_view.csv","P050049","numbers","^(\d|,)*\.?\d*$"
"/data/datasets/datagov/data/data/datagovdata/nmh309data123729305_sth_view.csv","P050076","numbers","^(\d|,)*\.?\d*$"
"/data/datasets/datagov/data/data/datagovdata/nmh309data123729305_sth_view.csv","P050087","numbers","^(\d|,)*\.?\d*$"
"/data/datasets/datagov/data/data/datagovdata/nmh309data123729305_sth_view.csv","P050079","numbers","^(\d|,)*\.?\d*$"
"/data/datasets/datagov/data/data/datagovdata/nmh309data123729305_sth_view.csv","P050080","numbers","^(\d|,)*\.?\d*$"
