"file_name","column_name","label","regex"
"/data/datasets/datagov/data/data/datagovdata/idph-commercial-mobile-structures-ddef1.csv","Address","uri",".*?$(?<!\.aspx)"
"/data/datasets/datagov/data/data/datagovdata/idph-commercial-mobile-structures-ddef1.csv","Name of Manufacturer","uri",".*?$(?<!\.aspx)"
"/data/datasets/datagov/data/data/datagovdata/idph-commercial-mobile-structures-ddef1.csv","Phone Number","strings","[^""\r\n]*"
"/data/datasets/datagov/data/data/datagovdata/idph-commercial-mobile-structures-ddef1.csv","Zip","numbers","^\d*$"
"/data/datasets/datagov/data/data/datagovdata/idph-commercial-mobile-structures-ddef1.csv","Status","uri",".*?$(?<!\.aspx)"
"/data/datasets/datagov/data/data/datagovdata/idph-commercial-mobile-structures-ddef1.csv","City","uri",".*?$(?<!\.aspx)"
"/data/datasets/datagov/data/data/datagovdata/idph-commercial-mobile-structures-ddef1.csv","State","uri",".*?$(?<!\.aspx)"
