"file_name","column_name","label","regex"
"/data/datasets/datagov/data/data/datagovdata/election-results-march-10-2009-special-17662.csv","Precinct","uri",".*?$(?<!\.aspx)"
"/data/datasets/datagov/data/data/datagovdata/election-results-march-10-2009-special-17662.csv","Race","uri",".*?$(?<!\.aspx)"
"/data/datasets/datagov/data/data/datagovdata/election-results-march-10-2009-special-17662.csv","CounterType","uri",".*?$(?<!\.aspx)"
"/data/datasets/datagov/data/data/datagovdata/election-results-march-10-2009-special-17662.csv","Cong","numbers","^\d*$"
"/data/datasets/datagov/data/data/datagovdata/election-results-march-10-2009-special-17662.csv","CC","numbers","^\d*$"
"/data/datasets/datagov/data/data/datagovdata/election-results-march-10-2009-special-17662.csv","Count","numbers","^\d*$"
"/data/datasets/datagov/data/data/datagovdata/election-results-march-10-2009-special-17662.csv","Leg","numbers","^\d*$"
