"file_name","column_name","label","regex"
"/data/datasets/datagov/data/data/datagovdata/cook-county-recorder-of-deeds-foreclosures-2011-complete-b1f16.csv","Location 1","uri","^[^\\\/\?\*\""\'\>\<\:\|]*$"
"/data/datasets/datagov/data/data/datagovdata/cook-county-recorder-of-deeds-foreclosures-2011-complete-b1f16.csv","Execution Date","strings","[^""\r\n]*"
"/data/datasets/datagov/data/data/datagovdata/cook-county-recorder-of-deeds-foreclosures-2011-complete-b1f16.csv","Pin","uri","^[^\\\/\?\*\""\'\>\<\:\|]*$"
"/data/datasets/datagov/data/data/datagovdata/cook-county-recorder-of-deeds-foreclosures-2011-complete-b1f16.csv","Recorded Date","strings","[^""\r\n]*"
"/data/datasets/datagov/data/data/datagovdata/cook-county-recorder-of-deeds-foreclosures-2011-complete-b1f16.csv","Doc Number","numbers","^\$?\d+(\.(\d{2}))?$"
"/data/datasets/datagov/data/data/datagovdata/cook-county-recorder-of-deeds-foreclosures-2011-complete-b1f16.csv","Consideration Amount","numbers","^\$?\d+(\.(\d{2}))?$"
"/data/datasets/datagov/data/data/datagovdata/cook-county-recorder-of-deeds-foreclosures-2011-complete-b1f16.csv","Doc Type","uri","^[^\\\/\?\*\""\'\>\<\:\|]*$"
