"file_name","column_name","label","regex"
"/data/datasets/datagov/data/data/datagovdata/boundaries-zoning-districts.csv","ZONE_CLASS","uri",".*?$(?<!\.aspx)"
"/data/datasets/datagov/data/data/datagovdata/boundaries-zoning-districts.csv","ZONE_TYPE","numbers","^(\d|,)*\.?\d*$"
"/data/datasets/datagov/data/data/datagovdata/boundaries-zoning-districts.csv","PD_NUM","numbers","^(\d|,)*\.?\d*$"
"/data/datasets/datagov/data/data/datagovdata/boundaries-zoning-districts.csv","ORDINANCE_","strings","[^""\r\n]*"
"/data/datasets/datagov/data/data/datagovdata/boundaries-zoning-districts.csv","EDIT_STATU","uri",".*?$(?<!\.aspx)"
"/data/datasets/datagov/data/data/datagovdata/boundaries-zoning-districts.csv","Shape_Area","numbers","^(\d|,)*\.?\d*$"
"/data/datasets/datagov/data/data/datagovdata/boundaries-zoning-districts.csv","Shape_Leng","numbers","^(\d|,)*\.?\d*$"
"/data/datasets/datagov/data/data/datagovdata/boundaries-zoning-districts.csv","the_geom","strings","[^""\r\n]*"
"/data/datasets/datagov/data/data/datagovdata/boundaries-zoning-districts.csv","PD_PREFIX","uri",".*?$(?<!\.aspx)"
"/data/datasets/datagov/data/data/datagovdata/boundaries-zoning-districts.csv","EDIT_DATE","strings","[^""\r\n]*"
