"file_name","column_name","label","regex"
"/data/datasets/datagov/data/data/datagovdata/dhhl-general-leases-04f2f.csv","TMK","strings","[^""\r\n]*"
"/data/datasets/datagov/data/data/datagovdata/dhhl-general-leases-04f2f.csv","Location 1","uri","^[^\\\/\?\*\""\'\>\<\:\|]*$"
"/data/datasets/datagov/data/data/datagovdata/dhhl-general-leases-04f2f.csv","Name","strings","[^""\r\n]*"
"/data/datasets/datagov/data/data/datagovdata/dhhl-general-leases-04f2f.csv","Monthly Rent","numbers","^\$?\d+(\.(\d{2}))?$"
"/data/datasets/datagov/data/data/datagovdata/dhhl-general-leases-04f2f.csv","Terms/years","uri","^[^\\\/\?\*\""\'\>\<\:\|]*$"
"/data/datasets/datagov/data/data/datagovdata/dhhl-general-leases-04f2f.csv","Date 2","strings","[^""\r\n]*"
"/data/datasets/datagov/data/data/datagovdata/dhhl-general-leases-04f2f.csv","Acre","numbers","^\$?\d+(\.(\d{2}))?$"
"/data/datasets/datagov/data/data/datagovdata/dhhl-general-leases-04f2f.csv","Date 3","strings","[^""\r\n]*"
"/data/datasets/datagov/data/data/datagovdata/dhhl-general-leases-04f2f.csv","Reopennings Date 1","strings","[^""\r\n]*"
"/data/datasets/datagov/data/data/datagovdata/dhhl-general-leases-04f2f.csv","Location","strings","[^""\r\n]*"
"/data/datasets/datagov/data/data/datagovdata/dhhl-general-leases-04f2f.csv","Annual Rent","numbers","^\$?\d+(\.(\d{2}))?$"
"/data/datasets/datagov/data/data/datagovdata/dhhl-general-leases-04f2f.csv","Annual Rent 1","numbers","^\$?\d+(\.(\d{2}))?$"
"/data/datasets/datagov/data/data/datagovdata/dhhl-general-leases-04f2f.csv","Annual Rent 2","numbers","^\$?\d+(\.(\d{2}))?$"
"/data/datasets/datagov/data/data/datagovdata/dhhl-general-leases-04f2f.csv","Number","uri","^[^\\\/\?\*\""\'\>\<\:\|]*$"
"/data/datasets/datagov/data/data/datagovdata/dhhl-general-leases-04f2f.csv","Annual Rent 3","numbers","^\$?\d+(\.(\d{2}))?$"
"/data/datasets/datagov/data/data/datagovdata/dhhl-general-leases-04f2f.csv","Starting Date","strings","[^""\r\n]*"
"/data/datasets/datagov/data/data/datagovdata/dhhl-general-leases-04f2f.csv","Use","strings","[^""\r\n]*"
"/data/datasets/datagov/data/data/datagovdata/dhhl-general-leases-04f2f.csv","Island","uri","^[^\\\/\?\*\""\'\>\<\:\|]*$"
"/data/datasets/datagov/data/data/datagovdata/dhhl-general-leases-04f2f.csv","Ending Date","strings","[^""\r\n]*"
