"file_name","column_name","label","regex"
"/data/datasets/datagov/data/data/datagovdata/existing-commercial-buildings-energy-performance-ordinance-report-00be5.csv","2012 Site EUI (kBtu/ft2)","numbers","^(\d|,)*\.?\d*$"
"/data/datasets/datagov/data/data/datagovdata/existing-commercial-buildings-energy-performance-ordinance-report-00be5.csv","2012 Percent Better than National Median Source EUI","numbers","^(\d|,)*\.?\d*$"
"/data/datasets/datagov/data/data/datagovdata/existing-commercial-buildings-energy-performance-ordinance-report-00be5.csv","2011 Percent Better than National Median Source EUI","numbers","^(\d|,)*\.?\d*$"
"/data/datasets/datagov/data/data/datagovdata/existing-commercial-buildings-energy-performance-ordinance-report-00be5.csv","Benchmark 2011 Status","uri","^[^\\\/\?\*\""\'\>\<\:\|]*$"
"/data/datasets/datagov/data/data/datagovdata/existing-commercial-buildings-energy-performance-ordinance-report-00be5.csv","2011 Total GHG Emissions Intensity (kgCO2e/ft2)","numbers","^(\d|,)*\.?\d*$"
"/data/datasets/datagov/data/data/datagovdata/existing-commercial-buildings-energy-performance-ordinance-report-00be5.csv","2011 Total GHG Emissions (Metric Tons CO2e)","numbers","^(\d|,)*\.?\d*$"
"/data/datasets/datagov/data/data/datagovdata/existing-commercial-buildings-energy-performance-ordinance-report-00be5.csv","Postal Code","numbers","^(\d|,)*\.?\d*$"
"/data/datasets/datagov/data/data/datagovdata/existing-commercial-buildings-energy-performance-ordinance-report-00be5.csv","2011 Source EUI (kBtu/ft2)","numbers","^(\d|,)*\.?\d*$"
"/data/datasets/datagov/data/data/datagovdata/existing-commercial-buildings-energy-performance-ordinance-report-00be5.csv","2013 Percent Better than National Median Site EUI","numbers","^(\d|,)*\.?\d*$"
"/data/datasets/datagov/data/data/datagovdata/existing-commercial-buildings-energy-performance-ordinance-report-00be5.csv","2012 Weather Normalized Site EUI (kBtu/ft2)","numbers","^(\d|,)*\.?\d*$"
"/data/datasets/datagov/data/data/datagovdata/existing-commercial-buildings-energy-performance-ordinance-report-00be5.csv","Benchmark 2012 Status","uri","^[^\\\/\?\*\""\'\>\<\:\|]*$"
"/data/datasets/datagov/data/data/datagovdata/existing-commercial-buildings-energy-performance-ordinance-report-00be5.csv","Building Address","uri","^[^\\\/\?\*\""\'\>\<\:\|]*$"
"/data/datasets/datagov/data/data/datagovdata/existing-commercial-buildings-energy-performance-ordinance-report-00be5.csv","2014 Site EUI (kBtu/ft2)","numbers","^(\d|,)*\.?\d*$"
"/data/datasets/datagov/data/data/datagovdata/existing-commercial-buildings-energy-performance-ordinance-report-00be5.csv","Energy Audit Status","uri","^[^\\\/\?\*\""\'\>\<\:\|]*$"
"/data/datasets/datagov/data/data/datagovdata/existing-commercial-buildings-energy-performance-ordinance-report-00be5.csv","2014 Total GHG Emissions Intensity (kgCO2e/ft2)","numbers","^(\d|,)*\.?\d*$"
"/data/datasets/datagov/data/data/datagovdata/existing-commercial-buildings-energy-performance-ordinance-report-00be5.csv","Building Name","uri","^[^\\\/\?\*\""\'\>\<\:\|]*$"
"/data/datasets/datagov/data/data/datagovdata/existing-commercial-buildings-energy-performance-ordinance-report-00be5.csv","2012 Percent Better than National Median Site EUI","numbers","^(\d|,)*\.?\d*$"
"/data/datasets/datagov/data/data/datagovdata/existing-commercial-buildings-energy-performance-ordinance-report-00be5.csv","2013 Weather Normalized Site EUI (kBtu/ft2)","numbers","^(\d|,)*\.?\d*$"
"/data/datasets/datagov/data/data/datagovdata/existing-commercial-buildings-energy-performance-ordinance-report-00be5.csv","2012 Total GHG Emissions (Metric Tons CO2e)","numbers","^(\d|,)*\.?\d*$"
"/data/datasets/datagov/data/data/datagovdata/existing-commercial-buildings-energy-performance-ordinance-report-00be5.csv","2011 Weather Normalized Site EUI (kBtu/ft2)","numbers","^(\d|,)*\.?\d*$"
"/data/datasets/datagov/data/data/datagovdata/existing-commercial-buildings-energy-performance-ordinance-report-00be5.csv","2012 Total GHG Emissions Intensity (kgCO2e/ft2)","numbers","^(\d|,)*\.?\d*$"
"/data/datasets/datagov/data/data/datagovdata/existing-commercial-buildings-energy-performance-ordinance-report-00be5.csv","2014 Percent Better than National Median Site EUI","numbers","^(\d|,)*\.?\d*$"
"/data/datasets/datagov/data/data/datagovdata/existing-commercial-buildings-energy-performance-ordinance-report-00be5.csv","2014 ENERGY STAR Score","numbers","^(\d|,)*\.?\d*$"
"/data/datasets/datagov/data/data/datagovdata/existing-commercial-buildings-energy-performance-ordinance-report-00be5.csv","2011 Site EUI (kBtu/ft2)","numbers","^(\d|,)*\.?\d*$"
"/data/datasets/datagov/data/data/datagovdata/existing-commercial-buildings-energy-performance-ordinance-report-00be5.csv","2011 Weather Normalized Source EUI (kBtu/ft2)","numbers","^(\d|,)*\.?\d*$"
"/data/datasets/datagov/data/data/datagovdata/existing-commercial-buildings-energy-performance-ordinance-report-00be5.csv","2013 Total GHG Emissions (Metric Tons CO2e)","numbers","^(\d|,)*\.?\d*$"
"/data/datasets/datagov/data/data/datagovdata/existing-commercial-buildings-energy-performance-ordinance-report-00be5.csv","2014 Weather Normalized Site EUI (kBtu/ft2)","numbers","^(\d|,)*\.?\d*$"
"/data/datasets/datagov/data/data/datagovdata/existing-commercial-buildings-energy-performance-ordinance-report-00be5.csv","2013 Total GHG Emissions Intensity (kgCO2e/ft2)","numbers","^(\d|,)*\.?\d*$"
"/data/datasets/datagov/data/data/datagovdata/existing-commercial-buildings-energy-performance-ordinance-report-00be5.csv","2013 Source EUI (kBtu/ft2)","numbers","^(\d|,)*\.?\d*$"
"/data/datasets/datagov/data/data/datagovdata/existing-commercial-buildings-energy-performance-ordinance-report-00be5.csv","2014 Weather Normalized Source EUI (kBtu/ft2)","numbers","^(\d|,)*\.?\d*$"
"/data/datasets/datagov/data/data/datagovdata/existing-commercial-buildings-energy-performance-ordinance-report-00be5.csv","2012 Weather Normalized Source EUI (kBtu/sq.ft)","numbers","^(\d|,)*\.?\d*$"
"/data/datasets/datagov/data/data/datagovdata/existing-commercial-buildings-energy-performance-ordinance-report-00be5.csv","2013 Weather Normalized Source EUI (kBtu/ft2)","numbers","^(\d|,)*\.?\d*$"
"/data/datasets/datagov/data/data/datagovdata/existing-commercial-buildings-energy-performance-ordinance-report-00be5.csv","Benchmark 2010 Status","uri","^[^\\\/\?\*\""\'\>\<\:\|]*$"
"/data/datasets/datagov/data/data/datagovdata/existing-commercial-buildings-energy-performance-ordinance-report-00be5.csv","Benchmark 2013 Status","uri","^[^\\\/\?\*\""\'\>\<\:\|]*$"
"/data/datasets/datagov/data/data/datagovdata/existing-commercial-buildings-energy-performance-ordinance-report-00be5.csv","Energy Audit Due Date","strings","[^""\r\n]*"
"/data/datasets/datagov/data/data/datagovdata/existing-commercial-buildings-energy-performance-ordinance-report-00be5.csv","2014 Source EUI (kBtu/ft2)","numbers","^(\d|,)*\.?\d*$"
"/data/datasets/datagov/data/data/datagovdata/existing-commercial-buildings-energy-performance-ordinance-report-00be5.csv","PIM Link","uri","^[^\\\/\?\*\""\'\>\<\:\|]*$"
"/data/datasets/datagov/data/data/datagovdata/existing-commercial-buildings-energy-performance-ordinance-report-00be5.csv","2013 Site EUI (kBtu/ft2)","numbers","^(\d|,)*\.?\d*$"
"/data/datasets/datagov/data/data/datagovdata/existing-commercial-buildings-energy-performance-ordinance-report-00be5.csv","2011 Percent Better than National Median Site EUI","numbers","^(\d|,)*\.?\d*$"
"/data/datasets/datagov/data/data/datagovdata/existing-commercial-buildings-energy-performance-ordinance-report-00be5.csv","Benchmark 2014 Status","uri","^[^\\\/\?\*\""\'\>\<\:\|]*$"
"/data/datasets/datagov/data/data/datagovdata/existing-commercial-buildings-energy-performance-ordinance-report-00be5.csv","Parcel(s)","address_or_phone","(\d{4,6})"
"/data/datasets/datagov/data/data/datagovdata/existing-commercial-buildings-energy-performance-ordinance-report-00be5.csv","2012 Source EUI (kBtu/ft2)","numbers","^(\d|,)*\.?\d*$"
"/data/datasets/datagov/data/data/datagovdata/existing-commercial-buildings-energy-performance-ordinance-report-00be5.csv","2013 Percent Better than National Median Source EUI","numbers","^(\d|,)*\.?\d*$"
"/data/datasets/datagov/data/data/datagovdata/existing-commercial-buildings-energy-performance-ordinance-report-00be5.csv","2012 ENERGY STAR Score","numbers","^(\d|,)*\.?\d*$"
"/data/datasets/datagov/data/data/datagovdata/existing-commercial-buildings-energy-performance-ordinance-report-00be5.csv","2013 ENERGY STAR Score","numbers","^(\d|,)*\.?\d*$"
"/data/datasets/datagov/data/data/datagovdata/existing-commercial-buildings-energy-performance-ordinance-report-00be5.csv","2014 Total GHG Emissions (Metric Tons CO2e)","numbers","^(\d|,)*\.?\d*$"
"/data/datasets/datagov/data/data/datagovdata/existing-commercial-buildings-energy-performance-ordinance-report-00be5.csv","2014 Percent Better than National Median Source EUI","numbers","^(\d|,)*\.?\d*$"
"/data/datasets/datagov/data/data/datagovdata/existing-commercial-buildings-energy-performance-ordinance-report-00be5.csv","Floor Area","numbers","^(\d|,)*\.?\d*$"
"/data/datasets/datagov/data/data/datagovdata/existing-commercial-buildings-energy-performance-ordinance-report-00be5.csv","Full.Address","uri","^[^\\\/\?\*\""\'\>\<\:\|]*$"
"/data/datasets/datagov/data/data/datagovdata/existing-commercial-buildings-energy-performance-ordinance-report-00be5.csv","2011 ENERGY STAR Score","numbers","^(\d|,)*\.?\d*$"
