"file_name","column_name","label","regex"
"/data/datasets/datagov/data/data/datagovdata/proposed-state-regulations-time-in-process.csv","Notice Date","uri",".*?$(?<!\.aspx)"
"/data/datasets/datagov/data/data/datagovdata/proposed-state-regulations-time-in-process.csv","Agency","uri",".*?$(?<!\.aspx)"
"/data/datasets/datagov/data/data/datagovdata/proposed-state-regulations-time-in-process.csv","Short Name","strings","[^""\r\n]*"
"/data/datasets/datagov/data/data/datagovdata/proposed-state-regulations-time-in-process.csv","Date Filed","uri",".*?$(?<!\.aspx)"
"/data/datasets/datagov/data/data/datagovdata/proposed-state-regulations-time-in-process.csv","Days in Process","numbers","^\d*$"
"/data/datasets/datagov/data/data/datagovdata/proposed-state-regulations-time-in-process.csv","File #","numbers","^\d*$"
