"file_name","column_name","label","regex"
"/data/datasets/datagov/data/data/datagovdata/tl_2010_35_unsd10.csv","LSAD10","numbers","^-?\d*(\.\d+)?$"
"/data/datasets/datagov/data/data/datagovdata/tl_2010_35_unsd10.csv","INTPTLON10","numbers","^-?\d*(\.\d+)?$"
"/data/datasets/datagov/data/data/datagovdata/tl_2010_35_unsd10.csv","LOGRADE10","uri",".*?$(?<!\.aspx)"
"/data/datasets/datagov/data/data/datagovdata/tl_2010_35_unsd10.csv","INTPTLAT10","numbers","^-?\d*(\.\d+)?$"
"/data/datasets/datagov/data/data/datagovdata/tl_2010_35_unsd10.csv","STATEFP10","numbers","^-?\d*(\.\d+)?$"
"/data/datasets/datagov/data/data/datagovdata/tl_2010_35_unsd10.csv","ALAND10","numbers","^-?\d*(\.\d+)?$"
"/data/datasets/datagov/data/data/datagovdata/tl_2010_35_unsd10.csv","MTFCC10","uri",".*?$(?<!\.aspx)"
"/data/datasets/datagov/data/data/datagovdata/tl_2010_35_unsd10.csv","GEOID10","numbers","^-?\d*(\.\d+)?$"
"/data/datasets/datagov/data/data/datagovdata/tl_2010_35_unsd10.csv","NAME10","uri",".*?$(?<!\.aspx)"
"/data/datasets/datagov/data/data/datagovdata/tl_2010_35_unsd10.csv","UNSDLEA10","numbers","^-?\d*(\.\d+)?$"
"/data/datasets/datagov/data/data/datagovdata/tl_2010_35_unsd10.csv","HIGRADE10","numbers","^-?\d*(\.\d+)?$"
"/data/datasets/datagov/data/data/datagovdata/tl_2010_35_unsd10.csv","FUNCSTAT10","uri",".*?$(?<!\.aspx)"
"/data/datasets/datagov/data/data/datagovdata/tl_2010_35_unsd10.csv","AWATER10","numbers","^-?\d*(\.\d+)?$"
