"file_name","column_name","label","regex"
"/data/datasets/datagov/data/data/datagovdata/street-hail-livery-permits-ccfa1.csv","Base Name","strings","[^""\r\n]*"
"/data/datasets/datagov/data/data/datagovdata/street-hail-livery-permits-ccfa1.csv","Suspension Date","strings","[^""\r\n]*"
"/data/datasets/datagov/data/data/datagovdata/street-hail-livery-permits-ccfa1.csv","Vehicle VIN Number","uri",".*?$(?<!\.aspx)"
"/data/datasets/datagov/data/data/datagovdata/street-hail-livery-permits-ccfa1.csv","Last Date Updated","strings","[^""\r\n]*"
"/data/datasets/datagov/data/data/datagovdata/street-hail-livery-permits-ccfa1.csv","Base Address","uri",".*?$(?<!\.aspx)"
"/data/datasets/datagov/data/data/datagovdata/street-hail-livery-permits-ccfa1.csv","Permit License Number","uri",".*?$(?<!\.aspx)"
"/data/datasets/datagov/data/data/datagovdata/street-hail-livery-permits-ccfa1.csv","Active","uri",".*?$(?<!\.aspx)"
"/data/datasets/datagov/data/data/datagovdata/street-hail-livery-permits-ccfa1.csv","Vehicle Year","strings","[^""\r\n]*"
"/data/datasets/datagov/data/data/datagovdata/street-hail-livery-permits-ccfa1.csv","Vehicle Type","uri",".*?$(?<!\.aspx)"
"/data/datasets/datagov/data/data/datagovdata/street-hail-livery-permits-ccfa1.csv","Expiration Date","strings","[^""\r\n]*"
"/data/datasets/datagov/data/data/datagovdata/street-hail-livery-permits-ccfa1.csv","Name","uri",".*?$(?<!\.aspx)"
"/data/datasets/datagov/data/data/datagovdata/street-hail-livery-permits-ccfa1.csv","Base Website","uri",".*?$(?<!\.aspx)"
"/data/datasets/datagov/data/data/datagovdata/street-hail-livery-permits-ccfa1.csv","Base Telephone Number","uri",".*?$(?<!\.aspx)"
"/data/datasets/datagov/data/data/datagovdata/street-hail-livery-permits-ccfa1.csv","Vehicle License Number","uri",".*?$(?<!\.aspx)"
"/data/datasets/datagov/data/data/datagovdata/street-hail-livery-permits-ccfa1.csv","Base Number","uri",".*?$(?<!\.aspx)"
"/data/datasets/datagov/data/data/datagovdata/street-hail-livery-permits-ccfa1.csv","DMV License Plate Number","uri",".*?$(?<!\.aspx)"
"/data/datasets/datagov/data/data/datagovdata/street-hail-livery-permits-ccfa1.csv","Hack Up Date","strings","[^""\r\n]*"
"/data/datasets/datagov/data/data/datagovdata/street-hail-livery-permits-ccfa1.csv","Certification Date","strings","[^""\r\n]*"
"/data/datasets/datagov/data/data/datagovdata/street-hail-livery-permits-ccfa1.csv","Reason","uri",".*?$(?<!\.aspx)"
"/data/datasets/datagov/data/data/datagovdata/street-hail-livery-permits-ccfa1.csv","Last Time Updated","dates_and_times","^(\d{1,2})(\s?(H|h)?)(:([0-5]\d))?$"
