"file_name","column_name","label","regex"
"/data/datasets/datagov/data/data/datagovdata/energy-star-certified-commercial-dishwashers.csv","Water Use (gallons/hr)","numbers","^(\d|,)*\.?\d*$"
"/data/datasets/datagov/data/data/datagovdata/energy-star-certified-commercial-dishwashers.csv","ENERGY STAR Partner","uri",".*?$(?<!\.aspx)"
"/data/datasets/datagov/data/data/datagovdata/energy-star-certified-commercial-dishwashers.csv","Type","uri",".*?$(?<!\.aspx)"
"/data/datasets/datagov/data/data/datagovdata/energy-star-certified-commercial-dishwashers.csv","Water Use (gallons/sq. ft.)","numbers","^(\d|,)*\.?\d*$"
"/data/datasets/datagov/data/data/datagovdata/energy-star-certified-commercial-dishwashers.csv","Brand Name","uri",".*?$(?<!\.aspx)"
"/data/datasets/datagov/data/data/datagovdata/energy-star-certified-commercial-dishwashers.csv","Markets","uri",".*?$(?<!\.aspx)"
"/data/datasets/datagov/data/data/datagovdata/energy-star-certified-commercial-dishwashers.csv","Date Available on Market","strings","[^""\r\n]*"
"/data/datasets/datagov/data/data/datagovdata/energy-star-certified-commercial-dishwashers.csv","ENERGY STAR Unique ID","numbers","^(\d|,)*\.?\d*$"
"/data/datasets/datagov/data/data/datagovdata/energy-star-certified-commercial-dishwashers.csv","Date Certified","strings","[^""\r\n]*"
"/data/datasets/datagov/data/data/datagovdata/energy-star-certified-commercial-dishwashers.csv","Model Number","uri",".*?$(?<!\.aspx)"
"/data/datasets/datagov/data/data/datagovdata/energy-star-certified-commercial-dishwashers.csv","Water Use (gallons/rack)","numbers","^(\d|,)*\.?\d*$"
"/data/datasets/datagov/data/data/datagovdata/energy-star-certified-commercial-dishwashers.csv","CB Model Identifier","strings","[^""\r\n]*"
"/data/datasets/datagov/data/data/datagovdata/energy-star-certified-commercial-dishwashers.csv","Model Name","uri",".*?$(?<!\.aspx)"
"/data/datasets/datagov/data/data/datagovdata/energy-star-certified-commercial-dishwashers.csv","Sanitation Method","uri",".*?$(?<!\.aspx)"
"/data/datasets/datagov/data/data/datagovdata/energy-star-certified-commercial-dishwashers.csv","Additional Model Information","uri",".*?$(?<!\.aspx)"
"/data/datasets/datagov/data/data/datagovdata/energy-star-certified-commercial-dishwashers.csv","Idle Energy Rate for High Temp (kW)","numbers","^(\d|,)*\.?\d*$"
"/data/datasets/datagov/data/data/datagovdata/energy-star-certified-commercial-dishwashers.csv","Idle Energy Rate for Low Temp (kW)","numbers","^(\d|,)*\.?\d*$"
