"file_name","column_name","label","regex"
"/data/datasets/datagov/data/data/datagovdata/tl_2008_35_countyec.csv","CLASSFPEC","uri",".*?$(?<!\.aspx)"
"/data/datasets/datagov/data/data/datagovdata/tl_2008_35_countyec.csv","NAMEEC","uri",".*?$(?<!\.aspx)"
"/data/datasets/datagov/data/data/datagovdata/tl_2008_35_countyec.csv","LSADEC","numbers","^\d$"
"/data/datasets/datagov/data/data/datagovdata/tl_2008_35_countyec.csv","CNTYIDFPEC","numbers","^\d$"
"/data/datasets/datagov/data/data/datagovdata/tl_2008_35_countyec.csv","MTFCCEC","uri",".*?$(?<!\.aspx)"
"/data/datasets/datagov/data/data/datagovdata/tl_2008_35_countyec.csv","FUNCSTATEC","uri",".*?$(?<!\.aspx)"
"/data/datasets/datagov/data/data/datagovdata/tl_2008_35_countyec.csv","NAMELSADEC","uri",".*?$(?<!\.aspx)"
"/data/datasets/datagov/data/data/datagovdata/tl_2008_35_countyec.csv","STATEFPEC","numbers","^\d$"
"/data/datasets/datagov/data/data/datagovdata/tl_2008_35_countyec.csv","COUNTYFPEC","numbers","^\d$"
