"file_name","column_name","label","regex"
"/data/datasets/datagov/data/data/datagovdata/business-events.csv","Event Contact Phone","uri",".*?$(?<!\.aspx)"
"/data/datasets/datagov/data/data/datagovdata/business-events.csv","Event Description/Agenda","strings","[^""\r\n]*"
"/data/datasets/datagov/data/data/datagovdata/business-events.csv","Latitude","numbers","^-?\d*(\.\d+)?$"
"/data/datasets/datagov/data/data/datagovdata/business-events.csv","Street Address","strings","[^""\r\n]*"
"/data/datasets/datagov/data/data/datagovdata/business-events.csv","Sponsoring Organization","uri",".*?$(?<!\.aspx)"
"/data/datasets/datagov/data/data/datagovdata/business-events.csv","Longitude","numbers","^-?\d*(\.\d+)?$"
"/data/datasets/datagov/data/data/datagovdata/business-events.csv","Start time","strings","[^""\r\n]*"
"/data/datasets/datagov/data/data/datagovdata/business-events.csv","End time","strings","[^""\r\n]*"
"/data/datasets/datagov/data/data/datagovdata/business-events.csv","Event Info Url","uri",".*?$(?<!\.aspx)"
"/data/datasets/datagov/data/data/datagovdata/business-events.csv","Location","uri",".*?$(?<!\.aspx)"
"/data/datasets/datagov/data/data/datagovdata/business-events.csv","Website","uri",".*?$(?<!\.aspx)"
"/data/datasets/datagov/data/data/datagovdata/business-events.csv","Event Contact","uri",".*?$(?<!\.aspx)"
"/data/datasets/datagov/data/data/datagovdata/business-events.csv","Event","strings","[^""\r\n]*"
"/data/datasets/datagov/data/data/datagovdata/business-events.csv","Event Contact Email","email","^.+@[^\.].*\.[a-z]{2,}$"
"/data/datasets/datagov/data/data/datagovdata/business-events.csv","Building Name/Room Number","uri",".*?$(?<!\.aspx)"
