"file_name","column_name","label","regex"
"/data/datasets/datagov/data/data/datagovdata/port-of-los-angeles-historic-tonage-data-mmrt-2cfa3.csv","General Cargo","numbers","^(\d|,)*\.?\d*$"
"/data/datasets/datagov/data/data/datagovdata/port-of-los-angeles-historic-tonage-data-mmrt-2cfa3.csv","Total","numbers","^(\d|,)*\.?\d*$"
"/data/datasets/datagov/data/data/datagovdata/port-of-los-angeles-historic-tonage-data-mmrt-2cfa3.csv","Liquid Bulk","numbers","^(\d|,)*\.?\d*$"
"/data/datasets/datagov/data/data/datagovdata/port-of-los-angeles-historic-tonage-data-mmrt-2cfa3.csv","Year","numbers","^(\d|,)*\.?\d*$"
"/data/datasets/datagov/data/data/datagovdata/port-of-los-angeles-historic-tonage-data-mmrt-2cfa3.csv","Dry Bulk","numbers","^(\d|,)*\.?\d*$"
