"file_name","column_name","label","regex"
"/data/datasets/datagov/data/data/datagovdata/los-angeles-international-airport-passenger-traffic-by-terminal-756ee.csv","Passenger_Count","numbers","^\d*$"
"/data/datasets/datagov/data/data/datagovdata/los-angeles-international-airport-passenger-traffic-by-terminal-756ee.csv","ReportPeriod","strings","[^""\r\n]*"
"/data/datasets/datagov/data/data/datagovdata/los-angeles-international-airport-passenger-traffic-by-terminal-756ee.csv","Terminal","uri",".*?$(?<!\.aspx)"
"/data/datasets/datagov/data/data/datagovdata/los-angeles-international-airport-passenger-traffic-by-terminal-756ee.csv","DataExtractDate","strings","[^""\r\n]*"
"/data/datasets/datagov/data/data/datagovdata/los-angeles-international-airport-passenger-traffic-by-terminal-756ee.csv","Arrival_Departure","uri",".*?$(?<!\.aspx)"
"/data/datasets/datagov/data/data/datagovdata/los-angeles-international-airport-passenger-traffic-by-terminal-756ee.csv","Domestic_International","uri",".*?$(?<!\.aspx)"
