"file_name","column_name","label","regex"
"/data/datasets/datagov/data/data/datagovdata/g20121ri.csv","RI","uri",".*?$(?<!\.aspx)"
"/data/datasets/datagov/data/data/datagovdata/g20121ri.csv","0000001","numbers","^(\d|,)*\.?\d*$"
"/data/datasets/datagov/data/data/datagovdata/g20121ri.csv","Unnamed: 27","numbers","^(\d|,)*\.?\d*$"
"/data/datasets/datagov/data/data/datagovdata/g20121ri.csv","040","numbers","^(\d|,)*\.?\d*$"
"/data/datasets/datagov/data/data/datagovdata/g20121ri.csv","Unnamed: 26","numbers","^(\d|,)*\.?\d*$"
"/data/datasets/datagov/data/data/datagovdata/g20121ri.csv","Unnamed: 41","numbers","^(\d|,)*\.?\d*$"
"/data/datasets/datagov/data/data/datagovdata/g20121ri.csv","04000US44","uri",".*?$(?<!\.aspx)"
"/data/datasets/datagov/data/data/datagovdata/g20121ri.csv","Unnamed: 43","uri",".*?$(?<!\.aspx)"
"/data/datasets/datagov/data/data/datagovdata/g20121ri.csv","ACSSF","uri",".*?$(?<!\.aspx)"
"/data/datasets/datagov/data/data/datagovdata/g20121ri.csv","Unnamed: 11","numbers","^(\d|,)*\.?\d*$"
"/data/datasets/datagov/data/data/datagovdata/g20121ri.csv","44","numbers","^(\d|,)*\.?\d*$"
"/data/datasets/datagov/data/data/datagovdata/g20121ri.csv","Unnamed: 22","numbers","^(\d|,)*\.?\d*$"
"/data/datasets/datagov/data/data/datagovdata/g20121ri.csv","00","uri",".*?$(?<!\.aspx)"
"/data/datasets/datagov/data/data/datagovdata/g20121ri.csv","Unnamed: 42","uri",".*?$(?<!\.aspx)"
"/data/datasets/datagov/data/data/datagovdata/g20121ri.csv","Unnamed: 12","numbers","^(\d|,)*\.?\d*$"
"/data/datasets/datagov/data/data/datagovdata/g20121ri.csv","Unnamed: 10","numbers","^(\d|,)*\.?\d*$"
"/data/datasets/datagov/data/data/datagovdata/g20121ri.csv","Unnamed: 32","numbers","^(\d|,)*\.?\d*$"
"/data/datasets/datagov/data/data/datagovdata/g20121ri.csv","Rhode Island","uri",".*?$(?<!\.aspx)"
"/data/datasets/datagov/data/data/datagovdata/g20121ri.csv","Unnamed: 46","numbers","^(\d|,)*\.?\d*$"
