"file_name","column_name","label","regex"
"/data/datasets/datagov/data/data/datagovdata/state-auditor-and-inspector-county-audit-reports.csv","Report URL","uri",".*?$(?<!\.aspx)"
"/data/datasets/datagov/data/data/datagovdata/state-auditor-and-inspector-county-audit-reports.csv","Report Type","uri",".*?$(?<!\.aspx)"
