"file_name","column_name","label","regex"
"/data/datasets/datagov/data/data/datagovdata/wti-barrel-of-oil-future-prices-3fbfd.csv","DateOfPrice","strings","[^""\r\n]*"
"/data/datasets/datagov/data/data/datagovdata/wti-barrel-of-oil-future-prices-3fbfd.csv","Fuel","uri",".*?$(?<!\.aspx)"
"/data/datasets/datagov/data/data/datagovdata/wti-barrel-of-oil-future-prices-3fbfd.csv","Price","numbers","^(\d|,)*\.?\d*$"
"/data/datasets/datagov/data/data/datagovdata/wti-barrel-of-oil-future-prices-3fbfd.csv","PhysicalUnit","strings","[^""\r\n]*"
