"file_name","column_name","label","regex"
"/data/datasets/datagov/data/data/datagovdata/fare-card-history-for-metropolitan-transportation-authority-mta-beginning-2010.csv","Senior Citizen / Disabled","numbers","^\d$"
"/data/datasets/datagov/data/data/datagovdata/fare-card-history-for-metropolitan-transportation-authority-mta-beginning-2010.csv","7 Day Unlimited","numbers","^\d$"
"/data/datasets/datagov/data/data/datagovdata/fare-card-history-for-metropolitan-transportation-authority-mta-beginning-2010.csv","Airtran 10 Trip","numbers","^\d$"
"/data/datasets/datagov/data/data/datagovdata/fare-card-history-for-metropolitan-transportation-authority-mta-beginning-2010.csv","Airtran Full Fare","numbers","^\d$"
"/data/datasets/datagov/data/data/datagovdata/fare-card-history-for-metropolitan-transportation-authority-mta-beginning-2010.csv","Full Fare","numbers","^\d$"
"/data/datasets/datagov/data/data/datagovdata/fare-card-history-for-metropolitan-transportation-authority-mta-beginning-2010.csv","7 Day Express Bus Pass","numbers","^\d$"
"/data/datasets/datagov/data/data/datagovdata/fare-card-history-for-metropolitan-transportation-authority-mta-beginning-2010.csv","Path 2 Trip","numbers","^\d$"
"/data/datasets/datagov/data/data/datagovdata/fare-card-history-for-metropolitan-transportation-authority-mta-beginning-2010.csv","Airtran 30 Day","numbers","^\d$"
"/data/datasets/datagov/data/data/datagovdata/fare-card-history-for-metropolitan-transportation-authority-mta-beginning-2010.csv","Mail and Ride EZPass Express","numbers","^\d$"
"/data/datasets/datagov/data/data/datagovdata/fare-card-history-for-metropolitan-transportation-authority-mta-beginning-2010.csv","1 Day Unlimited","numbers","^\d$"
"/data/datasets/datagov/data/data/datagovdata/fare-card-history-for-metropolitan-transportation-authority-mta-beginning-2010.csv","From Date","strings","[^""\r\n]*"
"/data/datasets/datagov/data/data/datagovdata/fare-card-history-for-metropolitan-transportation-authority-mta-beginning-2010.csv","Airtran Monthly","numbers","^\d$"
"/data/datasets/datagov/data/data/datagovdata/fare-card-history-for-metropolitan-transportation-authority-mta-beginning-2010.csv","Transit Check Metrocard Annual Metrocard","numbers","^\d$"
"/data/datasets/datagov/data/data/datagovdata/fare-card-history-for-metropolitan-transportation-authority-mta-beginning-2010.csv","Transit Check Metrocard","numbers","^\d$"
"/data/datasets/datagov/data/data/datagovdata/fare-card-history-for-metropolitan-transportation-authority-mta-beginning-2010.csv","LIB Special Senior","numbers","^\d$"
"/data/datasets/datagov/data/data/datagovdata/fare-card-history-for-metropolitan-transportation-authority-mta-beginning-2010.csv","Joint Rail Road Ticket","numbers","^\d$"
"/data/datasets/datagov/data/data/datagovdata/fare-card-history-for-metropolitan-transportation-authority-mta-beginning-2010.csv","7 Day ADA Farecard Access System Unlimited","numbers","^\d$"
"/data/datasets/datagov/data/data/datagovdata/fare-card-history-for-metropolitan-transportation-authority-mta-beginning-2010.csv","30 Day Unlimited","numbers","^\d$"
"/data/datasets/datagov/data/data/datagovdata/fare-card-history-for-metropolitan-transportation-authority-mta-beginning-2010.csv","30 Day ADA Farecard Access System Unlimited","numbers","^\d$"
"/data/datasets/datagov/data/data/datagovdata/fare-card-history-for-metropolitan-transportation-authority-mta-beginning-2010.csv","14 Day Unlimited","numbers","^\d$"
"/data/datasets/datagov/data/data/datagovdata/fare-card-history-for-metropolitan-transportation-authority-mta-beginning-2010.csv","To Date","strings","[^""\r\n]*"
"/data/datasets/datagov/data/data/datagovdata/fare-card-history-for-metropolitan-transportation-authority-mta-beginning-2010.csv","14 Day Reduced Fare Media Unlimited","numbers","^\d$"
"/data/datasets/datagov/data/data/datagovdata/fare-card-history-for-metropolitan-transportation-authority-mta-beginning-2010.csv","Remote Station ID","uri",".*?$(?<!\.aspx)"
"/data/datasets/datagov/data/data/datagovdata/fare-card-history-for-metropolitan-transportation-authority-mta-beginning-2010.csv","Station","strings","[^""\r\n]*"
"/data/datasets/datagov/data/data/datagovdata/fare-card-history-for-metropolitan-transportation-authority-mta-beginning-2010.csv","Rail Road Unlimited No Trade","numbers","^\d$"
"/data/datasets/datagov/data/data/datagovdata/fare-card-history-for-metropolitan-transportation-authority-mta-beginning-2010.csv","Mail and Ride Unlimited","numbers","^\d$"
