"file_name","column_name","label","regex"
"/data/datasets/datagov/data/data/datagovdata/election-results-november-4-2008-general-cumulative-2f0ce.csv","Precinct","uri",".*?$(?<!\.aspx)"
"/data/datasets/datagov/data/data/datagovdata/election-results-november-4-2008-general-cumulative-2f0ce.csv","CounterGroup","uri",".*?$(?<!\.aspx)"
"/data/datasets/datagov/data/data/datagovdata/election-results-november-4-2008-general-cumulative-2f0ce.csv","Race","uri",".*?$(?<!\.aspx)"
"/data/datasets/datagov/data/data/datagovdata/election-results-november-4-2008-general-cumulative-2f0ce.csv","CounterType","uri",".*?$(?<!\.aspx)"
"/data/datasets/datagov/data/data/datagovdata/election-results-november-4-2008-general-cumulative-2f0ce.csv","CONG","numbers","^\d*$"
"/data/datasets/datagov/data/data/datagovdata/election-results-november-4-2008-general-cumulative-2f0ce.csv","Party","uri",".*?$(?<!\.aspx)"
"/data/datasets/datagov/data/data/datagovdata/election-results-november-4-2008-general-cumulative-2f0ce.csv","CC","numbers","^\d*$"
"/data/datasets/datagov/data/data/datagovdata/election-results-november-4-2008-general-cumulative-2f0ce.csv","Count","numbers","^\d*$"
"/data/datasets/datagov/data/data/datagovdata/election-results-november-4-2008-general-cumulative-2f0ce.csv","LEG","numbers","^\d*$"
