"file_name","column_name","label","regex"
"/data/datasets/datagov/data/data/datagovdata/fy2016-budget-charlotte-water.csv","ORIGINAL_APPROP","numbers","^\d*$"
"/data/datasets/datagov/data/data/datagovdata/fy2016-budget-charlotte-water.csv","FID","numbers","^\d*$"
"/data/datasets/datagov/data/data/datagovdata/fy2016-budget-charlotte-water.csv","ACCOUNT_DESCRIPTION","uri",".*?$(?<!\.aspx)"
"/data/datasets/datagov/data/data/datagovdata/fy2016-budget-charlotte-water.csv","ACCOUNT","uri",".*?$(?<!\.aspx)"
"/data/datasets/datagov/data/data/datagovdata/fy2016-budget-charlotte-water.csv","TYPE","uri",".*?$(?<!\.aspx)"
