"file_name","column_name","label","regex"
"/data/datasets/datagov/data/data/datagovdata/salaries-ous-southern-oregon-university-fy-2014-6003c.csv","SERVICE TYPE","strings","[^""\r\n]*"
"/data/datasets/datagov/data/data/datagovdata/salaries-ous-southern-oregon-university-fy-2014-6003c.csv","AGENCY TITLE","uri",".*?$(?<!\.aspx)"
"/data/datasets/datagov/data/data/datagovdata/salaries-ous-southern-oregon-university-fy-2014-6003c.csv","FULL/PART-TIME","uri",".*?$(?<!\.aspx)"
"/data/datasets/datagov/data/data/datagovdata/salaries-ous-southern-oregon-university-fy-2014-6003c.csv","CLASSIFICATION","strings","[^""\r\n]*"
"/data/datasets/datagov/data/data/datagovdata/salaries-ous-southern-oregon-university-fy-2014-6003c.csv","AGENCY #","numbers","^\$?\d+(\.(\d{2}))?$"
"/data/datasets/datagov/data/data/datagovdata/salaries-ous-southern-oregon-university-fy-2014-6003c.csv","ANNUAL SALARY","numbers","^\$?\d+(\.(\d{2}))?$"
