"file_name","column_name","label","regex"
"/data/datasets/datagov/data/data/datagovdata/phase-2-sbir-awards-in-hawaii-20002013-e8cd9.csv","Abstract","strings","[^""\r\n]*"
"/data/datasets/datagov/data/data/datagovdata/phase-2-sbir-awards-in-hawaii-20002013-e8cd9.csv","Contact Title","strings","[^""\r\n]*"
"/data/datasets/datagov/data/data/datagovdata/phase-2-sbir-awards-in-hawaii-20002013-e8cd9.csv","HUBZone-Owned?","uri",".*?$(?<!\.aspx)"
"/data/datasets/datagov/data/data/datagovdata/phase-2-sbir-awards-in-hawaii-20002013-e8cd9.csv","City","uri",".*?$(?<!\.aspx)"
"/data/datasets/datagov/data/data/datagovdata/phase-2-sbir-awards-in-hawaii-20002013-e8cd9.csv","Branch","uri",".*?$(?<!\.aspx)"
"/data/datasets/datagov/data/data/datagovdata/phase-2-sbir-awards-in-hawaii-20002013-e8cd9.csv","State","uri",".*?$(?<!\.aspx)"
"/data/datasets/datagov/data/data/datagovdata/phase-2-sbir-awards-in-hawaii-20002013-e8cd9.csv","Minority-Owned?","uri",".*?$(?<!\.aspx)"
"/data/datasets/datagov/data/data/datagovdata/phase-2-sbir-awards-in-hawaii-20002013-e8cd9.csv","Street","uri",".*?$(?<!\.aspx)"
"/data/datasets/datagov/data/data/datagovdata/phase-2-sbir-awards-in-hawaii-20002013-e8cd9.csv","ZIP","uri",".*?$(?<!\.aspx)"
"/data/datasets/datagov/data/data/datagovdata/phase-2-sbir-awards-in-hawaii-20002013-e8cd9.csv","Street 2","uri",".*?$(?<!\.aspx)"
"/data/datasets/datagov/data/data/datagovdata/phase-2-sbir-awards-in-hawaii-20002013-e8cd9.csv","Contract Number","uri",".*?$(?<!\.aspx)"
"/data/datasets/datagov/data/data/datagovdata/phase-2-sbir-awards-in-hawaii-20002013-e8cd9.csv","Title","strings","[^""\r\n]*"
"/data/datasets/datagov/data/data/datagovdata/phase-2-sbir-awards-in-hawaii-20002013-e8cd9.csv","Program","uri",".*?$(?<!\.aspx)"
"/data/datasets/datagov/data/data/datagovdata/phase-2-sbir-awards-in-hawaii-20002013-e8cd9.csv","Agency","uri",".*?$(?<!\.aspx)"
"/data/datasets/datagov/data/data/datagovdata/phase-2-sbir-awards-in-hawaii-20002013-e8cd9.csv","PI Title","strings","[^""\r\n]*"
"/data/datasets/datagov/data/data/datagovdata/phase-2-sbir-awards-in-hawaii-20002013-e8cd9.csv","Award Amount","numbers","^\$?\d+(\.(\d{2}))?$"
"/data/datasets/datagov/data/data/datagovdata/phase-2-sbir-awards-in-hawaii-20002013-e8cd9.csv","Principal Investigator","uri",".*?$(?<!\.aspx)"
"/data/datasets/datagov/data/data/datagovdata/phase-2-sbir-awards-in-hawaii-20002013-e8cd9.csv","Woman-Owned?","uri",".*?$(?<!\.aspx)"
"/data/datasets/datagov/data/data/datagovdata/phase-2-sbir-awards-in-hawaii-20002013-e8cd9.csv","Phase","numbers","^\$?\d+(\.(\d{2}))?$"
"/data/datasets/datagov/data/data/datagovdata/phase-2-sbir-awards-in-hawaii-20002013-e8cd9.csv","SBC","uri",".*?$(?<!\.aspx)"
"/data/datasets/datagov/data/data/datagovdata/phase-2-sbir-awards-in-hawaii-20002013-e8cd9.csv","Year","numbers","^\$?\d+(\.(\d{2}))?$"
"/data/datasets/datagov/data/data/datagovdata/phase-2-sbir-awards-in-hawaii-20002013-e8cd9.csv","Contact Name","uri",".*?$(?<!\.aspx)"
