"file_name","column_name","label","regex"
"/data/datasets/datagov/data/data/datagovdata/facilities-management-work-orders-2011-august-e771f.csv","Carpenter Close","uri",".*?$(?<!\.aspx)"
"/data/datasets/datagov/data/data/datagovdata/facilities-management-work-orders-2011-august-e771f.csv","Laborer Close","uri",".*?$(?<!\.aspx)"
"/data/datasets/datagov/data/data/datagovdata/facilities-management-work-orders-2011-august-e771f.csv","Ironworker Open","uri",".*?$(?<!\.aspx)"
"/data/datasets/datagov/data/data/datagovdata/facilities-management-work-orders-2011-august-e771f.csv","Bricklayer Close","uri",".*?$(?<!\.aspx)"
"/data/datasets/datagov/data/data/datagovdata/facilities-management-work-orders-2011-august-e771f.csv","Plumber Close","uri",".*?$(?<!\.aspx)"
"/data/datasets/datagov/data/data/datagovdata/facilities-management-work-orders-2011-august-e771f.csv","Tinsmith Open","uri",".*?$(?<!\.aspx)"
"/data/datasets/datagov/data/data/datagovdata/facilities-management-work-orders-2011-august-e771f.csv","Laborer Open","uri",".*?$(?<!\.aspx)"
"/data/datasets/datagov/data/data/datagovdata/facilities-management-work-orders-2011-august-e771f.csv","Sign Close","uri",".*?$(?<!\.aspx)"
"/data/datasets/datagov/data/data/datagovdata/facilities-management-work-orders-2011-august-e771f.csv","Glazier Close","uri",".*?$(?<!\.aspx)"
"/data/datasets/datagov/data/data/datagovdata/facilities-management-work-orders-2011-august-e771f.csv","Glazier Open","uri",".*?$(?<!\.aspx)"
"/data/datasets/datagov/data/data/datagovdata/facilities-management-work-orders-2011-august-e771f.csv","Steamfitter Close","uri",".*?$(?<!\.aspx)"
"/data/datasets/datagov/data/data/datagovdata/facilities-management-work-orders-2011-august-e771f.csv","Tinsmith Close","uri",".*?$(?<!\.aspx)"
"/data/datasets/datagov/data/data/datagovdata/facilities-management-work-orders-2011-august-e771f.csv","Painter Close","uri",".*?$(?<!\.aspx)"
"/data/datasets/datagov/data/data/datagovdata/facilities-management-work-orders-2011-august-e771f.csv","Bricklayer Open","uri",".*?$(?<!\.aspx)"
"/data/datasets/datagov/data/data/datagovdata/facilities-management-work-orders-2011-august-e771f.csv","Electrician Close","uri",".*?$(?<!\.aspx)"
"/data/datasets/datagov/data/data/datagovdata/facilities-management-work-orders-2011-august-e771f.csv","Elec.Tech Close","uri",".*?$(?<!\.aspx)"
"/data/datasets/datagov/data/data/datagovdata/facilities-management-work-orders-2011-august-e771f.csv","Plasterer Close","uri",".*?$(?<!\.aspx)"
"/data/datasets/datagov/data/data/datagovdata/facilities-management-work-orders-2011-august-e771f.csv","Sign Open","uri",".*?$(?<!\.aspx)"
"/data/datasets/datagov/data/data/datagovdata/facilities-management-work-orders-2011-august-e771f.csv","Engineer Close","uri",".*?$(?<!\.aspx)"
"/data/datasets/datagov/data/data/datagovdata/facilities-management-work-orders-2011-august-e771f.csv","Asbestos Close","uri",".*?$(?<!\.aspx)"
"/data/datasets/datagov/data/data/datagovdata/facilities-management-work-orders-2011-august-e771f.csv","Machinist Close","uri",".*?$(?<!\.aspx)"
"/data/datasets/datagov/data/data/datagovdata/facilities-management-work-orders-2011-august-e771f.csv","Plumber Open","uri",".*?$(?<!\.aspx)"
"/data/datasets/datagov/data/data/datagovdata/facilities-management-work-orders-2011-august-e771f.csv","Engineer Open","uri",".*?$(?<!\.aspx)"
"/data/datasets/datagov/data/data/datagovdata/facilities-management-work-orders-2011-august-e771f.csv","Elec.Tech Open","uri",".*?$(?<!\.aspx)"
"/data/datasets/datagov/data/data/datagovdata/facilities-management-work-orders-2011-august-e771f.csv","Painter Open","uri",".*?$(?<!\.aspx)"
"/data/datasets/datagov/data/data/datagovdata/facilities-management-work-orders-2011-august-e771f.csv","Electrician Open","uri",".*?$(?<!\.aspx)"
"/data/datasets/datagov/data/data/datagovdata/facilities-management-work-orders-2011-august-e771f.csv","Ironworker Close","uri",".*?$(?<!\.aspx)"
"/data/datasets/datagov/data/data/datagovdata/facilities-management-work-orders-2011-august-e771f.csv","Carpenter Open","uri",".*?$(?<!\.aspx)"
"/data/datasets/datagov/data/data/datagovdata/facilities-management-work-orders-2011-august-e771f.csv","Asbeston Open","uri",".*?$(?<!\.aspx)"
"/data/datasets/datagov/data/data/datagovdata/facilities-management-work-orders-2011-august-e771f.csv","Steamfitter Open","uri",".*?$(?<!\.aspx)"
"/data/datasets/datagov/data/data/datagovdata/facilities-management-work-orders-2011-august-e771f.csv","Machinist Open","uri",".*?$(?<!\.aspx)"
"/data/datasets/datagov/data/data/datagovdata/facilities-management-work-orders-2011-august-e771f.csv","Facility","uri",".*?$(?<!\.aspx)"
"/data/datasets/datagov/data/data/datagovdata/facilities-management-work-orders-2011-august-e771f.csv","Plasterer Open","uri",".*?$(?<!\.aspx)"
