"file_name","column_name","label","regex"
"/data/datasets/datagov/data/data/datagovdata/dof-parking-violation-codes-63051.csv","CODE","numbers","^[-+]?\d+(\.\d+)?|[-+]?\.\d+?$"
"/data/datasets/datagov/data/data/datagovdata/dof-parking-violation-codes-63051.csv","Manhattan  96th St. & below","uri","^[^\\\/\?\*\""\'\>\<\:\|]*$"
"/data/datasets/datagov/data/data/datagovdata/dof-parking-violation-codes-63051.csv","All Other Areas","uri","^[^\\\/\?\*\""\'\>\<\:\|]*$"
"/data/datasets/datagov/data/data/datagovdata/dof-parking-violation-codes-63051.csv","DEFINITION","strings","[^""\r\n]*"
