"file_name","column_name","label","regex"
"/data/datasets/datagov/data/data/datagovdata/social-security-administration-yearly-data-for-spoken-language-preferences-of-end-stage-re.csv","Data for Spoken Language Preferences among End-Stage Renal Disease (ESRD) Claims","uri",".*?$(?<!\.aspx)"
"/data/datasets/datagov/data/data/datagovdata/social-security-administration-yearly-data-for-spoken-language-preferences-of-end-stage-re.csv","Unnamed: 2","uri",".*?$(?<!\.aspx)"
"/data/datasets/datagov/data/data/datagovdata/social-security-administration-yearly-data-for-spoken-language-preferences-of-end-stage-re.csv","Unnamed: 1","uri",".*?$(?<!\.aspx)"
"/data/datasets/datagov/data/data/datagovdata/social-security-administration-yearly-data-for-spoken-language-preferences-of-end-stage-re.csv","Unnamed: 4","uri",".*?$(?<!\.aspx)"
"/data/datasets/datagov/data/data/datagovdata/social-security-administration-yearly-data-for-spoken-language-preferences-of-end-stage-re.csv","Unnamed: 3","uri",".*?$(?<!\.aspx)"
"/data/datasets/datagov/data/data/datagovdata/social-security-administration-yearly-data-for-spoken-language-preferences-of-end-stage-re.csv","Unnamed: 5","uri",".*?$(?<!\.aspx)"
