"file_name","column_name","label","regex"
"/data/datasets/datagov/data/data/datagovdata/hudson-river-valley-greenway-compact-and-planning-communities.csv","Greenway Planning Community?","uri",".*?$(?<!\.aspx)"
"/data/datasets/datagov/data/data/datagovdata/hudson-river-valley-greenway-compact-and-planning-communities.csv","Community","uri",".*?$(?<!\.aspx)"
"/data/datasets/datagov/data/data/datagovdata/hudson-river-valley-greenway-compact-and-planning-communities.csv","Compact Community?","uri",".*?$(?<!\.aspx)"
"/data/datasets/datagov/data/data/datagovdata/hudson-river-valley-greenway-compact-and-planning-communities.csv","County","uri",".*?$(?<!\.aspx)"
