"file_name","column_name","label","regex"
"/data/datasets/datagov/data/data/datagovdata/new-business-list-october-91ab2.csv","Entity of Record Name","strings","[^""\r\n]*"
"/data/datasets/datagov/data/data/datagovdata/new-business-list-october-91ab2.csv","Registry Number","numbers","^\d*$"
"/data/datasets/datagov/data/data/datagovdata/new-business-list-october-91ab2.csv","Associated Name Type","uri",".*?$(?<!\.aspx)"
"/data/datasets/datagov/data/data/datagovdata/new-business-list-october-91ab2.csv","First Name","uri",".*?$(?<!\.aspx)"
"/data/datasets/datagov/data/data/datagovdata/new-business-list-october-91ab2.csv","State","uri",".*?$(?<!\.aspx)"
"/data/datasets/datagov/data/data/datagovdata/new-business-list-october-91ab2.csv","Entity Type","uri",".*?$(?<!\.aspx)"
"/data/datasets/datagov/data/data/datagovdata/new-business-list-october-91ab2.csv","Zip Code","numbers","^\d*$"
"/data/datasets/datagov/data/data/datagovdata/new-business-list-october-91ab2.csv","Registry Date","strings","[^""\r\n]*"
"/data/datasets/datagov/data/data/datagovdata/new-business-list-october-91ab2.csv","Suffix","uri",".*?$(?<!\.aspx)"
"/data/datasets/datagov/data/data/datagovdata/new-business-list-october-91ab2.csv","Not of Record Entity","strings","[^""\r\n]*"
"/data/datasets/datagov/data/data/datagovdata/new-business-list-october-91ab2.csv","City","uri",".*?$(?<!\.aspx)"
"/data/datasets/datagov/data/data/datagovdata/new-business-list-october-91ab2.csv","Entity of Record Reg Number","numbers","^\d*$"
"/data/datasets/datagov/data/data/datagovdata/new-business-list-october-91ab2.csv","Last Name","uri",".*?$(?<!\.aspx)"
"/data/datasets/datagov/data/data/datagovdata/new-business-list-october-91ab2.csv","Middle Name","uri",".*?$(?<!\.aspx)"
"/data/datasets/datagov/data/data/datagovdata/new-business-list-october-91ab2.csv","Business Name","uri",".*?$(?<!\.aspx)"
"/data/datasets/datagov/data/data/datagovdata/new-business-list-october-91ab2.csv","Address ","strings","[^""\r\n]*"
"/data/datasets/datagov/data/data/datagovdata/new-business-list-october-91ab2.csv","Address Continued","uri",".*?$(?<!\.aspx)"
