"file_name","column_name","label","regex"
"/data/datasets/datagov/data/data/datagovdata/2007_07_26_nm_eoc.csv","ADDRESS","uri",".*?$(?<!\.aspx)"
"/data/datasets/datagov/data/data/datagovdata/2007_07_26_nm_eoc.csv","ST_VERSION","numbers","^[-+]?\d+(\.\d+)?|[-+]?\.\d+?$"
"/data/datasets/datagov/data/data/datagovdata/2007_07_26_nm_eoc.csv","PAGER","address_or_phone","^[2-9]\d{2}-\d{3}-\d{4}$"
"/data/datasets/datagov/data/data/datagovdata/2007_07_26_nm_eoc.csv","DISPATCH","address_or_phone","^[2-9]\d{2}-\d{3}-\d{4}$"
"/data/datasets/datagov/data/data/datagovdata/2007_07_26_nm_eoc.csv","QC_QA","uri",".*?$(?<!\.aspx)"
"/data/datasets/datagov/data/data/datagovdata/2007_07_26_nm_eoc.csv","FIPS","numbers","^[-+]?\d+(\.\d+)?|[-+]?\.\d+?$"
"/data/datasets/datagov/data/data/datagovdata/2007_07_26_nm_eoc.csv","GEOLINKID","numbers","^[-+]?\d+(\.\d+)?|[-+]?\.\d+?$"
"/data/datasets/datagov/data/data/datagovdata/2007_07_26_nm_eoc.csv","NAICSCODE","numbers","^[-+]?\d+(\.\d+)?|[-+]?\.\d+?$"
"/data/datasets/datagov/data/data/datagovdata/2007_07_26_nm_eoc.csv","GEOPREC","uri",".*?$(?<!\.aspx)"
"/data/datasets/datagov/data/data/datagovdata/2007_07_26_nm_eoc.csv","E_MAIL","uri",".*?$(?<!\.aspx)"
"/data/datasets/datagov/data/data/datagovdata/2007_07_26_nm_eoc.csv","COUNTY","uri",".*?$(?<!\.aspx)"
"/data/datasets/datagov/data/data/datagovdata/2007_07_26_nm_eoc.csv","OTHER2","uri",".*?$(?<!\.aspx)"
"/data/datasets/datagov/data/data/datagovdata/2007_07_26_nm_eoc.csv","ST_VENDOR","uri",".*?$(?<!\.aspx)"
"/data/datasets/datagov/data/data/datagovdata/2007_07_26_nm_eoc.csv","SECCLASS","uri",".*?$(?<!\.aspx)"
"/data/datasets/datagov/data/data/datagovdata/2007_07_26_nm_eoc.csv","CELL2","address_or_phone","^[2-9]\d{2}-\d{3}-\d{4}$"
"/data/datasets/datagov/data/data/datagovdata/2007_07_26_nm_eoc.csv","E_MAIL2","email","(\w+?@\w+?\x2E.+)"
"/data/datasets/datagov/data/data/datagovdata/2007_07_26_nm_eoc.csv","ZIP","numbers","^[-+]?\d+(\.\d+)?|[-+]?\.\d+?$"
"/data/datasets/datagov/data/data/datagovdata/2007_07_26_nm_eoc.csv","NAME","uri",".*?$(?<!\.aspx)"
"/data/datasets/datagov/data/data/datagovdata/2007_07_26_nm_eoc.csv","CONTDATE","address_or_phone","^[2-9]\d{2}-\d{3}-\d{4}$"
"/data/datasets/datagov/data/data/datagovdata/2007_07_26_nm_eoc.csv","CNAME","uri",".*?$(?<!\.aspx)"
"/data/datasets/datagov/data/data/datagovdata/2007_07_26_nm_eoc.csv","ADDRESS2","uri",".*?$(?<!\.aspx)"
"/data/datasets/datagov/data/data/datagovdata/2007_07_26_nm_eoc.csv","PHONELOC","uri",".*?$(?<!\.aspx)"
"/data/datasets/datagov/data/data/datagovdata/2007_07_26_nm_eoc.csv","EX","numbers","^[-+]?\d+(\.\d+)?|[-+]?\.\d+?$"
"/data/datasets/datagov/data/data/datagovdata/2007_07_26_nm_eoc.csv","FEATTYPE","uri",".*?$(?<!\.aspx)"
"/data/datasets/datagov/data/data/datagovdata/2007_07_26_nm_eoc.csv","CONTHOW","uri",".*?$(?<!\.aspx)"
"/data/datasets/datagov/data/data/datagovdata/2007_07_26_nm_eoc.csv","Y","numbers","^[-+]?\d+(\.\d+)?|[-+]?\.\d+?$"
"/data/datasets/datagov/data/data/datagovdata/2007_07_26_nm_eoc.csv","OTHER","address_or_phone","^[2-9]\d{2}-\d{3}-\d{4}$"
"/data/datasets/datagov/data/data/datagovdata/2007_07_26_nm_eoc.csv","DIRECTIONS","uri",".*?$(?<!\.aspx)"
"/data/datasets/datagov/data/data/datagovdata/2007_07_26_nm_eoc.csv","GEOHOW","uri",".*?$(?<!\.aspx)"
"/data/datasets/datagov/data/data/datagovdata/2007_07_26_nm_eoc.csv","GEODATE","address_or_phone","^[2-9]\d{2}-\d{3}-\d{4}$"
"/data/datasets/datagov/data/data/datagovdata/2007_07_26_nm_eoc.csv","FAX","address_or_phone","^[2-9]\d{2}-\d{3}-\d{4}$"
"/data/datasets/datagov/data/data/datagovdata/2007_07_26_nm_eoc.csv","FAX2","address_or_phone","^[2-9]\d{2}-\d{3}-\d{4}$"
"/data/datasets/datagov/data/data/datagovdata/2007_07_26_nm_eoc.csv","WORK2","address_or_phone","^[2-9]\d{2}-\d{3}-\d{4}$"
"/data/datasets/datagov/data/data/datagovdata/2007_07_26_nm_eoc.csv","AREA","numbers","^[-+]?\d+(\.\d+)?|[-+]?\.\d+?$"
"/data/datasets/datagov/data/data/datagovdata/2007_07_26_nm_eoc.csv","STATE","uri",".*?$(?<!\.aspx)"
"/data/datasets/datagov/data/data/datagovdata/2007_07_26_nm_eoc.csv","ZIPP4","numbers","^[-+]?\d+(\.\d+)?|[-+]?\.\d+?$"
"/data/datasets/datagov/data/data/datagovdata/2007_07_26_nm_eoc.csv","X","numbers","^[-+]?\d+(\.\d+)?|[-+]?\.\d+?$"
"/data/datasets/datagov/data/data/datagovdata/2007_07_26_nm_eoc.csv","CTITLE","uri",".*?$(?<!\.aspx)"
"/data/datasets/datagov/data/data/datagovdata/2007_07_26_nm_eoc.csv","HOME","address_or_phone","^[2-9]\d{2}-\d{3}-\d{4}$"
"/data/datasets/datagov/data/data/datagovdata/2007_07_26_nm_eoc.csv","NAICSDESCR","uri",".*?$(?<!\.aspx)"
"/data/datasets/datagov/data/data/datagovdata/2007_07_26_nm_eoc.csv","PHONE","numbers","^[-+]?\d+(\.\d+)?|[-+]?\.\d+?$"
"/data/datasets/datagov/data/data/datagovdata/2007_07_26_nm_eoc.csv","CELL","address_or_phone","^[2-9]\d{2}-\d{3}-\d{4}$"
"/data/datasets/datagov/data/data/datagovdata/2007_07_26_nm_eoc.csv","ID","numbers","^[-+]?\d+(\.\d+)?|[-+]?\.\d+?$"
"/data/datasets/datagov/data/data/datagovdata/2007_07_26_nm_eoc.csv","CITY","uri",".*?$(?<!\.aspx)"
"/data/datasets/datagov/data/data/datagovdata/2007_07_26_nm_eoc.csv","CNAME2","uri",".*?$(?<!\.aspx)"
