"file_name","column_name","label","regex"
"/data/datasets/datagov/data/data/datagovdata/u-s-monthly-climate-normals-1981-2010.csv","MLY-TMAX-NORMAL","numbers","^\d*$"
"/data/datasets/datagov/data/data/datagovdata/u-s-monthly-climate-normals-1981-2010.csv","DATE","numbers","^\d*$"
"/data/datasets/datagov/data/data/datagovdata/u-s-monthly-climate-normals-1981-2010.csv","STATION_NAME","uri",".*?$(?<!\.aspx)"
"/data/datasets/datagov/data/data/datagovdata/u-s-monthly-climate-normals-1981-2010.csv","ELEVATION","numbers","^\d*$"
"/data/datasets/datagov/data/data/datagovdata/u-s-monthly-climate-normals-1981-2010.csv","LONGITUDE","numbers","^\d*$"
"/data/datasets/datagov/data/data/datagovdata/u-s-monthly-climate-normals-1981-2010.csv","MLY-TMIN-NORMAL","numbers","^\d*$"
"/data/datasets/datagov/data/data/datagovdata/u-s-monthly-climate-normals-1981-2010.csv","MLY-PRCP-NORMAL","numbers","^\d*$"
"/data/datasets/datagov/data/data/datagovdata/u-s-monthly-climate-normals-1981-2010.csv","LATITUDE","numbers","^\d*$"
"/data/datasets/datagov/data/data/datagovdata/u-s-monthly-climate-normals-1981-2010.csv","STATION","strings","[^""\r\n]*"
