"file_name","column_name","label","regex"
"/data/datasets/datagov/data/data/datagovdata/openny-press-releases.csv","Press Release Website URL","strings","[^""\r\n]*"
"/data/datasets/datagov/data/data/datagovdata/openny-press-releases.csv","Date","strings","[^""\r\n]*"
"/data/datasets/datagov/data/data/datagovdata/openny-press-releases.csv","Press Release Title","uri",".*?$(?<!\.aspx)"
