"file_name","column_name","label","regex"
"/data/datasets/datagov/data/data/datagovdata/final-harvest-distribution-01042013-7fb79.csv","Category","uri",".*?$(?<!\.aspx)"
"/data/datasets/datagov/data/data/datagovdata/final-harvest-distribution-01042013-7fb79.csv","ESU","strings","[^""\r\n]*"
"/data/datasets/datagov/data/data/datagovdata/final-harvest-distribution-01042013-7fb79.csv","%","numbers","^\d*$"
