"file_name","column_name","label","regex"
"/data/datasets/datagov/data/data/datagovdata/openny-reports.csv","Report Type","uri",".*?$(?<!\.aspx)"
"/data/datasets/datagov/data/data/datagovdata/openny-reports.csv","Report Published Date","strings","[^""\r\n]*"
"/data/datasets/datagov/data/data/datagovdata/openny-reports.csv","Report Link","uri",".*?$(?<!\.aspx)"
"/data/datasets/datagov/data/data/datagovdata/openny-reports.csv","Report Title","uri",".*?$(?<!\.aspx)"
