"file_name","column_name","label","regex"
"/data/datasets/datagov/data/data/datagovdata/victim-assistance-program-vap-business-offices.csv","Location 1","uri","^[^\\\/\?\*\""\'\>\<\:\|]*$"
"/data/datasets/datagov/data/data/datagovdata/victim-assistance-program-vap-business-offices.csv","County","uri","^[^\\\/\?\*\""\'\>\<\:\|]*$"
"/data/datasets/datagov/data/data/datagovdata/victim-assistance-program-vap-business-offices.csv","Primary Telephone Number (W1)","numbers","^(\d|,)*\.?\d*$"
"/data/datasets/datagov/data/data/datagovdata/victim-assistance-program-vap-business-offices.csv","Address 2","strings","[^""\r\n]*"
"/data/datasets/datagov/data/data/datagovdata/victim-assistance-program-vap-business-offices.csv","Primary Telephone Number (W1) Extension","numbers","^(\d|,)*\.?\d*$"
"/data/datasets/datagov/data/data/datagovdata/victim-assistance-program-vap-business-offices.csv","Web Site","strings","[^""\r\n]*"
"/data/datasets/datagov/data/data/datagovdata/victim-assistance-program-vap-business-offices.csv","City","uri","^[^\\\/\?\*\""\'\>\<\:\|]*$"
"/data/datasets/datagov/data/data/datagovdata/victim-assistance-program-vap-business-offices.csv","Hotline","numbers","^(\d|,)*\.?\d*$"
"/data/datasets/datagov/data/data/datagovdata/victim-assistance-program-vap-business-offices.csv","Victim Assistance Program (VAP) Name","strings","[^""\r\n]*"
"/data/datasets/datagov/data/data/datagovdata/victim-assistance-program-vap-business-offices.csv","VAP Number","numbers","^(\d|,)*\.?\d*$"
"/data/datasets/datagov/data/data/datagovdata/victim-assistance-program-vap-business-offices.csv","Address 1","uri","^[^\\\/\?\*\""\'\>\<\:\|]*$"
"/data/datasets/datagov/data/data/datagovdata/victim-assistance-program-vap-business-offices.csv","State","uri","^[^\\\/\?\*\""\'\>\<\:\|]*$"
"/data/datasets/datagov/data/data/datagovdata/victim-assistance-program-vap-business-offices.csv","ZIP Code","numbers","^(\d|,)*\.?\d*$"
