"file_name","column_name","label","regex"
"/data/datasets/datagov/data/data/datagovdata/2004-state-expenditures-9b41c.csv","Vendor Name","uri",".*?$(?<!\.aspx)"
"/data/datasets/datagov/data/data/datagovdata/2004-state-expenditures-9b41c.csv","Category Description","uri",".*?$(?<!\.aspx)"
"/data/datasets/datagov/data/data/datagovdata/2004-state-expenditures-9b41c.csv","Agency Name","uri",".*?$(?<!\.aspx)"
"/data/datasets/datagov/data/data/datagovdata/2004-state-expenditures-9b41c.csv"," Fiscal Year","numbers","^\$?\d+(\.(\d{2}))?$"
"/data/datasets/datagov/data/data/datagovdata/2004-state-expenditures-9b41c.csv","Detail Description","strings","[^""\r\n]*"
"/data/datasets/datagov/data/data/datagovdata/2004-state-expenditures-9b41c.csv","Payments Total","numbers","^\$?\d+(\.(\d{2}))?$"
