"file_name","column_name","label","regex"
"/data/datasets/datagov/data/data/datagovdata/child-support-enforcement-annual-data-report-form-157-yr-2010.csv","Former Assist Opn State-Tribal IV-D Cases Received From Tribe Sup Ord Est Count","numbers","^(\d|,)*\.?\d*$"
"/data/datasets/datagov/data/data/datagovdata/child-support-enforcement-annual-data-report-form-157-yr-2010.csv","Never Assist Children Req Paternity Det Services Cses Opn End Fiscal Year Cnt","numbers","^(\d|,)*\.?\d*$"
"/data/datasets/datagov/data/data/datagovdata/child-support-enforcement-annual-data-report-form-157-yr-2010.csv","Former Assistance Tot Support Distributed As Arrears During Fiscal Year Amount","numbers","^(\d|,)*\.?\d*$"
"/data/datasets/datagov/data/data/datagovdata/child-support-enforcement-annual-data-report-form-157-yr-2010.csv","Total Children Determined Eligible For Medicaid in IV D Cases ","numbers","^(\d|,)*\.?\d*$"
"/data/datasets/datagov/data/data/datagovdata/child-support-enforcement-annual-data-report-form-157-yr-2010.csv","Open Cases Health Insurance Ordered End Fiscal Year Count","numbers","^(\d|,)*\.?\d*$"
"/data/datasets/datagov/data/data/datagovdata/child-support-enforcement-annual-data-report-form-157-yr-2010.csv","Total Assistance Open International IV-D Cases Received From Other Country Count","numbers","^(\d|,)*\.?\d*$"
"/data/datasets/datagov/data/data/datagovdata/child-support-enforcement-annual-data-report-form-157-yr-2010.csv","Current Assistance Open InterState Cases Received From Other State Count","numbers","^(\d|,)*\.?\d*$"
"/data/datasets/datagov/data/data/datagovdata/child-support-enforcement-annual-data-report-form-157-yr-2010.csv","Former Assistance Open Cases State No Jurisdiction Count","numbers","^(\d|,)*\.?\d*$"
"/data/datasets/datagov/data/data/datagovdata/child-support-enforcement-annual-data-report-form-157-yr-2010.csv","Current Assistance Open InterState Cases Initiated In State Count","numbers","^(\d|,)*\.?\d*$"
"/data/datasets/datagov/data/data/datagovdata/child-support-enforcement-annual-data-report-form-157-yr-2010.csv","Former Assist IV-D Caseload Chldrn Paternity Est Ack During Fiscal Year Count","numbers","^(\d|,)*\.?\d*$"
"/data/datasets/datagov/data/data/datagovdata/child-support-enforcement-annual-data-report-form-157-yr-2010.csv","Open Cases During Fiscal Year Good Cause Determination Count","numbers","^(\d|,)*\.?\d*$"
"/data/datasets/datagov/data/data/datagovdata/child-support-enforcement-annual-data-report-form-157-yr-2010.csv","FTE Emp Contract Interagency Cooperative Agreement Last Work Day FY Count","numbers","^(\d|,)*\.?\d*$"
"/data/datasets/datagov/data/data/datagovdata/child-support-enforcement-annual-data-report-form-157-yr-2010.csv","Never Assistance Cases Sent Another State During Fiscal Year Count","numbers","^(\d|,)*\.?\d*$"
"/data/datasets/datagov/data/data/datagovdata/child-support-enforcement-annual-data-report-form-157-yr-2010.csv","Never Assistance Cases With Collections During Fiscal Year Count","numbers","^(\d|,)*\.?\d*$"
"/data/datasets/datagov/data/data/datagovdata/child-support-enforcement-annual-data-report-form-157-yr-2010.csv","Former Assistance Open Support Order Established Cases Count","numbers","^(\d|,)*\.?\d*$"
"/data/datasets/datagov/data/data/datagovdata/child-support-enforcement-annual-data-report-form-157-yr-2010.csv","Open IV-D Cases Children Paternity Resolved End Fiscal Year Count","numbers","^(\d|,)*\.?\d*$"
"/data/datasets/datagov/data/data/datagovdata/child-support-enforcement-annual-data-report-form-157-yr-2010.csv","Current Assist Open State-Tribal IV-D Cases Rec From Tribal IV-D Program Count","numbers","^(\d|,)*\.?\d*$"
"/data/datasets/datagov/data/data/datagovdata/child-support-enforcement-annual-data-report-form-157-yr-2010.csv","Never Assistance Open Support Order Established Cases Count","numbers","^(\d|,)*\.?\d*$"
"/data/datasets/datagov/data/data/datagovdata/child-support-enforcement-annual-data-report-form-157-yr-2010.csv","Never Assistance Total Current Support Due Fiscal Year Amount","numbers","^(\d|,)*\.?\d*$"
"/data/datasets/datagov/data/data/datagovdata/child-support-enforcement-annual-data-report-form-157-yr-2010.csv","Total Assistance Open Ntrntnl IVD Cses Init In State Sup Ord Est Count","numbers","^(\d|,)*\.?\d*$"
"/data/datasets/datagov/data/data/datagovdata/child-support-enforcement-annual-data-report-form-157-yr-2010.csv","Current Assist Opn Cases Requiring Services Est Order End Fiscal Year Count","numbers","^(\d|,)*\.?\d*$"
"/data/datasets/datagov/data/data/datagovdata/child-support-enforcement-annual-data-report-form-157-yr-2010.csv","Cases With Arrears Due During Fiscal Year Count","numbers","^(\d|,)*\.?\d*$"
"/data/datasets/datagov/data/data/datagovdata/child-support-enforcement-annual-data-report-form-157-yr-2010.csv","Current Assistance Open State-Tribal IV-D Cases Initiated In State Count","numbers","^(\d|,)*\.?\d*$"
"/data/datasets/datagov/data/data/datagovdata/child-support-enforcement-annual-data-report-form-157-yr-2010.csv","Current Assistance Total Current Support Due Fiscal Year Amount","numbers","^(\d|,)*\.?\d*$"
"/data/datasets/datagov/data/data/datagovdata/child-support-enforcement-annual-data-report-form-157-yr-2010.csv","Open Cases Health Insurance Provided As Ordered End Fiscal Year Count","numbers","^(\d|,)*\.?\d*$"
"/data/datasets/datagov/data/data/datagovdata/child-support-enforcement-annual-data-report-form-157-yr-2010.csv","Current Assistance Cases Sent Another State During Fiscal Year Count","numbers","^(\d|,)*\.?\d*$"
"/data/datasets/datagov/data/data/datagovdata/child-support-enforcement-annual-data-report-form-157-yr-2010.csv","Open IV-D Cases Children Born Out Wedlock End Prior Fiscal Year Count","numbers","^(\d|,)*\.?\d*$"
"/data/datasets/datagov/data/data/datagovdata/child-support-enforcement-annual-data-report-form-157-yr-2010.csv","Current Assist Opn State-Tribal IV-D Cases Received From Tribe Sup Ord Est Count","numbers","^(\d|,)*\.?\d*$"
"/data/datasets/datagov/data/data/datagovdata/child-support-enforcement-annual-data-report-form-157-yr-2010.csv","Never Assistance Open InterState Cases Initiated In State Count","numbers","^(\d|,)*\.?\d*$"
"/data/datasets/datagov/data/data/datagovdata/child-support-enforcement-annual-data-report-form-157-yr-2010.csv","Current Assist Open InterState Cases Rec From Other State Support Ord Est Count","numbers","^(\d|,)*\.?\d*$"
"/data/datasets/datagov/data/data/datagovdata/child-support-enforcement-annual-data-report-form-157-yr-2010.csv","Current Assistance Cases With Collections During Fiscal Year Count","numbers","^(\d|,)*\.?\d*$"
"/data/datasets/datagov/data/data/datagovdata/child-support-enforcement-annual-data-report-form-157-yr-2010.csv","Never Assistance Cases Received From Another State During Fiscal Year Count","numbers","^(\d|,)*\.?\d*$"
"/data/datasets/datagov/data/data/datagovdata/child-support-enforcement-annual-data-report-form-157-yr-2010.csv","Fiscal Year","uri",".*?$(?<!\.aspx)"
"/data/datasets/datagov/data/data/datagovdata/child-support-enforcement-annual-data-report-form-157-yr-2010.csv","Never Assistance Cases With Orders Established During Fiscal Year Count","numbers","^(\d|,)*\.?\d*$"
"/data/datasets/datagov/data/data/datagovdata/child-support-enforcement-annual-data-report-form-157-yr-2010.csv","FTE Emp State Local IV-D Offices Last Work Day FY Count","numbers","^(\d|,)*\.?\d*$"
"/data/datasets/datagov/data/data/datagovdata/child-support-enforcement-annual-data-report-form-157-yr-2010.csv","In State Children Born Out Wedlock During Prior Year Count","numbers","^(\d|,)*\.?\d*$"
"/data/datasets/datagov/data/data/datagovdata/child-support-enforcement-annual-data-report-form-157-yr-2010.csv","Never Assistance Tot Support Distributed As Arrears During Fiscal Year Amount","numbers","^(\d|,)*\.?\d*$"
"/data/datasets/datagov/data/data/datagovdata/child-support-enforcement-annual-data-report-form-157-yr-2010.csv","Never Assistance Open Medicaid-Only IV-D Cases Orders Established Open Count","numbers","^(\d|,)*\.?\d*$"
"/data/datasets/datagov/data/data/datagovdata/child-support-enforcement-annual-data-report-form-157-yr-2010.csv","Former Assistance Open InterState Cases Initiated In State Count","numbers","^(\d|,)*\.?\d*$"
"/data/datasets/datagov/data/data/datagovdata/child-support-enforcement-annual-data-report-form-157-yr-2010.csv","Former Assistance Open InterState Cases Received From Other State Count","numbers","^(\d|,)*\.?\d*$"
"/data/datasets/datagov/data/data/datagovdata/child-support-enforcement-annual-data-report-form-157-yr-2010.csv","Current Assist Children Req Paternity Det Services Cses Opn End Fiscal Year Cnt","numbers","^(\d|,)*\.?\d*$"
"/data/datasets/datagov/data/data/datagovdata/child-support-enforcement-annual-data-report-form-157-yr-2010.csv","Current Assist IV-D Caseload Chldrn Paternity Est Ack During Fiscal Year Count","numbers","^(\d|,)*\.?\d*$"
"/data/datasets/datagov/data/data/datagovdata/child-support-enforcement-annual-data-report-form-157-yr-2010.csv","Former Assist Children Req Paternity Det Services Cses Opn End Fiscal Year Cnt","numbers","^(\d|,)*\.?\d*$"
"/data/datasets/datagov/data/data/datagovdata/child-support-enforcement-annual-data-report-form-157-yr-2010.csv","Former Assistance Cases With Orders Established During Fiscal Year Count","numbers","^(\d|,)*\.?\d*$"
"/data/datasets/datagov/data/data/datagovdata/child-support-enforcement-annual-data-report-form-157-yr-2010.csv","FTE Employees Privatized IV-D Offices Last Work Day FY Count","numbers","^(\d|,)*\.?\d*$"
"/data/datasets/datagov/data/data/datagovdata/child-support-enforcement-annual-data-report-form-157-yr-2010.csv","Total Assistance Open International IV-D Cases Initiated In State Count","numbers","^(\d|,)*\.?\d*$"
"/data/datasets/datagov/data/data/datagovdata/child-support-enforcement-annual-data-report-form-157-yr-2010.csv","Open Cases End Fiscal Year Determination Noncooperation Count","numbers","^(\d|,)*\.?\d*$"
"/data/datasets/datagov/data/data/datagovdata/child-support-enforcement-annual-data-report-form-157-yr-2010.csv","Never Assist Open State-Tribal IV-D Cases Initiated In State Sup Ord Est Count","numbers","^(\d|,)*\.?\d*$"
"/data/datasets/datagov/data/data/datagovdata/child-support-enforcement-annual-data-report-form-157-yr-2010.csv","Total Cases with Medicare Coverage Received From Any Source","numbers","^(\d|,)*\.?\d*$"
"/data/datasets/datagov/data/data/datagovdata/child-support-enforcement-annual-data-report-form-157-yr-2010.csv","Open Cases Medical Support Ordered Provided End Fiscal Year Count","numbers","^(\d|,)*\.?\d*$"
"/data/datasets/datagov/data/data/datagovdata/child-support-enforcement-annual-data-report-form-157-yr-2010.csv","Former Assistance Open InterState Cases Initiated In State Sup Ord Est Count","numbers","^(\d|,)*\.?\d*$"
"/data/datasets/datagov/data/data/datagovdata/child-support-enforcement-annual-data-report-form-157-yr-2010.csv","Open IV-D Cases Children Born Out Wedlock End Current Fiscal Year Count","numbers","^(\d|,)*\.?\d*$"
"/data/datasets/datagov/data/data/datagovdata/child-support-enforcement-annual-data-report-form-157-yr-2010.csv","Never Assist IV-D Caseload Chldrn Paternity Est Ack During Fiscal Year Count","numbers","^(\d|,)*\.?\d*$"
"/data/datasets/datagov/data/data/datagovdata/child-support-enforcement-annual-data-report-form-157-yr-2010.csv","Former Assistance Open State-Tribal IV-D Cases Initiated In State Count","numbers","^(\d|,)*\.?\d*$"
"/data/datasets/datagov/data/data/datagovdata/child-support-enforcement-annual-data-report-form-157-yr-2010.csv","In State Children Paternity Established Or Acknowledged During Year Count","numbers","^(\d|,)*\.?\d*$"
"/data/datasets/datagov/data/data/datagovdata/child-support-enforcement-annual-data-report-form-157-yr-2010.csv","Current Assistance Tot Support Distributed As Arrears During Fiscal Year Amount","numbers","^(\d|,)*\.?\d*$"
"/data/datasets/datagov/data/data/datagovdata/child-support-enforcement-annual-data-report-form-157-yr-2010.csv","In State Children Paternity Acknowledged During Year Count","numbers","^(\d|,)*\.?\d*$"
"/data/datasets/datagov/data/data/datagovdata/child-support-enforcement-annual-data-report-form-157-yr-2010.csv","Current Assistance Total Arrears Due All Fiscal Years Amount","numbers","^(\d|,)*\.?\d*$"
"/data/datasets/datagov/data/data/datagovdata/child-support-enforcement-annual-data-report-form-157-yr-2010.csv","Current Assistance Open Support Order Established Cases Count","numbers","^(\d|,)*\.?\d*$"
"/data/datasets/datagov/data/data/datagovdata/child-support-enforcement-annual-data-report-form-157-yr-2010.csv","Never Assist Opn Cases Requiring Services Est Order End Fiscal Year Count","numbers","^(\d|,)*\.?\d*$"
"/data/datasets/datagov/data/data/datagovdata/child-support-enforcement-annual-data-report-form-157-yr-2010.csv","Never Assist Open State-Tribal IV-D Cases Received From Tribe Sup Ord Est Count","numbers","^(\d|,)*\.?\d*$"
"/data/datasets/datagov/data/data/datagovdata/child-support-enforcement-annual-data-report-form-157-yr-2010.csv","Current Assistance Open Case Orders Established Zero Cash Support Count","numbers","^(\d|,)*\.?\d*$"
"/data/datasets/datagov/data/data/datagovdata/child-support-enforcement-annual-data-report-form-157-yr-2010.csv","IV-D Cases Children Paternity Estab Or Ack Open During Or End Fiscal Year Cnt","numbers","^(\d|,)*\.?\d*$"
"/data/datasets/datagov/data/data/datagovdata/child-support-enforcement-annual-data-report-form-157-yr-2010.csv","Current Assist Ntrst Cses Rec Another St With Collections During Fiscal Year Cnt","numbers","^(\d|,)*\.?\d*$"
"/data/datasets/datagov/data/data/datagovdata/child-support-enforcement-annual-data-report-form-157-yr-2010.csv","Never Assistance Open Cases Count","numbers","^(\d|,)*\.?\d*$"
"/data/datasets/datagov/data/data/datagovdata/child-support-enforcement-annual-data-report-form-157-yr-2010.csv","Current Assist Open State-Tribal IV-D Cases Initiated In State Sup Ord Est Count","numbers","^(\d|,)*\.?\d*$"
"/data/datasets/datagov/data/data/datagovdata/child-support-enforcement-annual-data-report-form-157-yr-2010.csv","Former Assistance Cases Received From Another State During Fiscal Year Count","numbers","^(\d|,)*\.?\d*$"
"/data/datasets/datagov/data/data/datagovdata/child-support-enforcement-annual-data-report-form-157-yr-2010.csv","Total Assistance Open Ntrntnl IVD Cses Rec Oth Cntry Sup Ord Est Count","numbers","^(\d|,)*\.?\d*$"
"/data/datasets/datagov/data/data/datagovdata/child-support-enforcement-annual-data-report-form-157-yr-2010.csv","Current Assistance Cases With Orders Established During Fiscal Year Count","numbers","^(\d|,)*\.?\d*$"
"/data/datasets/datagov/data/data/datagovdata/child-support-enforcement-annual-data-report-form-157-yr-2010.csv","Former Assis Tot Sup Distributed As Current Support During Fiscal Year Amount","numbers","^(\d|,)*\.?\d*$"
"/data/datasets/datagov/data/data/datagovdata/child-support-enforcement-annual-data-report-form-157-yr-2010.csv","Never Assistance Open Cases State No Jurisdiction Count","numbers","^(\d|,)*\.?\d*$"
"/data/datasets/datagov/data/data/datagovdata/child-support-enforcement-annual-data-report-form-157-yr-2010.csv","Current Assistance Cases Received From Another State During Fiscal Year Count","numbers","^(\d|,)*\.?\d*$"
"/data/datasets/datagov/data/data/datagovdata/child-support-enforcement-annual-data-report-form-157-yr-2010.csv","Never Assistance Open State-Tribal IV-D Cases Initiated In State Count","numbers","^(\d|,)*\.?\d*$"
"/data/datasets/datagov/data/data/datagovdata/child-support-enforcement-annual-data-report-form-157-yr-2010.csv","Never Assist Ntrst Cses Rec Another St With Collections During Fiscal Year Cnt","numbers","^(\d|,)*\.?\d*$"
"/data/datasets/datagov/data/data/datagovdata/child-support-enforcement-annual-data-report-form-157-yr-2010.csv","In State Children Born Out Wedlock During Current Year Count","numbers","^(\d|,)*\.?\d*$"
"/data/datasets/datagov/data/data/datagovdata/child-support-enforcement-annual-data-report-form-157-yr-2010.csv","Current Assistance Open InterState Cases Initiated In State Sup Ord Est Count","numbers","^(\d|,)*\.?\d*$"
"/data/datasets/datagov/data/data/datagovdata/child-support-enforcement-annual-data-report-form-157-yr-2010.csv","Never Assistance Open InterState Cases Received From Other State Count","numbers","^(\d|,)*\.?\d*$"
"/data/datasets/datagov/data/data/datagovdata/child-support-enforcement-annual-data-report-form-157-yr-2010.csv","Former Assist Opn InterState Cases Rec From Other State Support Ord Est Count","numbers","^(\d|,)*\.?\d*$"
"/data/datasets/datagov/data/data/datagovdata/child-support-enforcement-annual-data-report-form-157-yr-2010.csv","Current Assistance Open Cases Count","numbers","^(\d|,)*\.?\d*$"
"/data/datasets/datagov/data/data/datagovdata/child-support-enforcement-annual-data-report-form-157-yr-2010.csv","Never Assistance Open Medicaid-Only IV-D Cases Count","numbers","^(\d|,)*\.?\d*$"
"/data/datasets/datagov/data/data/datagovdata/child-support-enforcement-annual-data-report-form-157-yr-2010.csv","Never Assist Tot Sup Distributed As Current Support During Fiscal Year Amount","numbers","^(\d|,)*\.?\d*$"
"/data/datasets/datagov/data/data/datagovdata/child-support-enforcement-annual-data-report-form-157-yr-2010.csv","Never Assistance Open State-Tribal IV-D Cases Rec From Tribal IV-D Program Count","numbers","^(\d|,)*\.?\d*$"
"/data/datasets/datagov/data/data/datagovdata/child-support-enforcement-annual-data-report-form-157-yr-2010.csv","Former Assist Opn Cases Requiring Services Est Order End Fiscal Year Count","numbers","^(\d|,)*\.?\d*$"
"/data/datasets/datagov/data/data/datagovdata/child-support-enforcement-annual-data-report-form-157-yr-2010.csv","Never Assistance Opn InterState Cases Rec From Other State Support Ord Est Count","numbers","^(\d|,)*\.?\d*$"
"/data/datasets/datagov/data/data/datagovdata/child-support-enforcement-annual-data-report-form-157-yr-2010.csv","Former Assistance Total Arrears Due All Fiscal Years Amount","numbers","^(\d|,)*\.?\d*$"
"/data/datasets/datagov/data/data/datagovdata/child-support-enforcement-annual-data-report-form-157-yr-2010.csv","Total Cash Medical Support Received Assigned to the State","numbers","^(\d|,)*\.?\d*$"
"/data/datasets/datagov/data/data/datagovdata/child-support-enforcement-annual-data-report-form-157-yr-2010.csv","Open Cases Medical Support Ordered End Fiscal Year Count","numbers","^(\d|,)*\.?\d*$"
"/data/datasets/datagov/data/data/datagovdata/child-support-enforcement-annual-data-report-form-157-yr-2010.csv","Never Assistance Open Case Orders Established Zero Cash Support Count","numbers","^(\d|,)*\.?\d*$"
"/data/datasets/datagov/data/data/datagovdata/child-support-enforcement-annual-data-report-form-157-yr-2010.csv","Total Assistance Open Arrears-Only IV-D Cases Orders Established Count","numbers","^(\d|,)*\.?\d*$"
"/data/datasets/datagov/data/data/datagovdata/child-support-enforcement-annual-data-report-form-157-yr-2010.csv","Current Assistance Open Cases State No Jurisdiction Count","numbers","^(\d|,)*\.?\d*$"
"/data/datasets/datagov/data/data/datagovdata/child-support-enforcement-annual-data-report-form-157-yr-2010.csv","Current Asistance Tot Sup Distributed As Current Supt During Fiscal Year Amount","numbers","^(\d|,)*\.?\d*$"
"/data/datasets/datagov/data/data/datagovdata/child-support-enforcement-annual-data-report-form-157-yr-2010.csv","State Name","uri",".*?$(?<!\.aspx)"
"/data/datasets/datagov/data/data/datagovdata/child-support-enforcement-annual-data-report-form-157-yr-2010.csv","Former Assistance Opn State-Tribal IV-D Cases Rec From Tribal IV-D Program Count","numbers","^(\d|,)*\.?\d*$"
"/data/datasets/datagov/data/data/datagovdata/child-support-enforcement-annual-data-report-form-157-yr-2010.csv","Title IV-A Cases Closed During Fiscal Year Where Child Support Payment Rec Cnt","numbers","^(\d|,)*\.?\d*$"
"/data/datasets/datagov/data/data/datagovdata/child-support-enforcement-annual-data-report-form-157-yr-2010.csv","Former Assist Opn State-Tribal IV-D Cases Initiated In State Sup Ord Est Count","numbers","^(\d|,)*\.?\d*$"
"/data/datasets/datagov/data/data/datagovdata/child-support-enforcement-annual-data-report-form-157-yr-2010.csv","Former Assistance Total Current Support Due Fiscal Year Amount","numbers","^(\d|,)*\.?\d*$"
"/data/datasets/datagov/data/data/datagovdata/child-support-enforcement-annual-data-report-form-157-yr-2010.csv","Former Assistance Open Case Orders Established Zero Cash Support Count","numbers","^(\d|,)*\.?\d*$"
"/data/datasets/datagov/data/data/datagovdata/child-support-enforcement-annual-data-report-form-157-yr-2010.csv","Former Assistance Cases With Collections During Fiscal Year Count","numbers","^(\d|,)*\.?\d*$"
"/data/datasets/datagov/data/data/datagovdata/child-support-enforcement-annual-data-report-form-157-yr-2010.csv","Never Assistance Total Arrears Due All Fiscal Years Amount","numbers","^(\d|,)*\.?\d*$"
"/data/datasets/datagov/data/data/datagovdata/child-support-enforcement-annual-data-report-form-157-yr-2010.csv","Former Assistance Open Cases Count","numbers","^(\d|,)*\.?\d*$"
"/data/datasets/datagov/data/data/datagovdata/child-support-enforcement-annual-data-report-form-157-yr-2010.csv","Former Assistance Cases Sent Another State During Fiscal Year Count","numbers","^(\d|,)*\.?\d*$"
"/data/datasets/datagov/data/data/datagovdata/child-support-enforcement-annual-data-report-form-157-yr-2010.csv","Open IV-D Cases Children End Fiscal Year Count","numbers","^(\d|,)*\.?\d*$"
"/data/datasets/datagov/data/data/datagovdata/child-support-enforcement-annual-data-report-form-157-yr-2010.csv","Never Assistance Open InterState Cases Initiated In State Sup Ord Est Count","numbers","^(\d|,)*\.?\d*$"
"/data/datasets/datagov/data/data/datagovdata/child-support-enforcement-annual-data-report-form-157-yr-2010.csv","Cases Paying Toward Arrears Due During Fiscal Year Count","numbers","^(\d|,)*\.?\d*$"
"/data/datasets/datagov/data/data/datagovdata/child-support-enforcement-annual-data-report-form-157-yr-2010.csv","Former Assist Ntrst Cses Rec Another St With Collections During Fiscal Year Cnt","numbers","^(\d|,)*\.?\d*$"
"/data/datasets/datagov/data/data/datagovdata/child-support-enforcement-annual-data-report-form-157-yr-2010.csv","Total Children Determined Eligible For Medicaid in IV D Cases Covered by Private Health Insurance","numbers","^(\d|,)*\.?\d*$"
