"file_name","column_name","label","regex"
"/data/datasets/datagov/data/data/datagovdata/core-cultural-jobs-2002-present.csv","RowID","numbers","^[-+]?\d+(\.\d+)?|[-+]?\.\d+?$"
"/data/datasets/datagov/data/data/datagovdata/core-cultural-jobs-2002-present.csv"," All Jobs ","numbers","^[-+]?\d+(\.\d+)?|[-+]?\.\d+?$"
"/data/datasets/datagov/data/data/datagovdata/core-cultural-jobs-2002-present.csv","Core Cultural Industry Job Growth (from 2002)","uri",".*?$(?<!\.aspx)"
"/data/datasets/datagov/data/data/datagovdata/core-cultural-jobs-2002-present.csv","Core Cultural Industries Share of All Jobs","numbers","^[-+]?\d+(\.\d+)?|[-+]?\.\d+?$"
"/data/datasets/datagov/data/data/datagovdata/core-cultural-jobs-2002-present.csv","Geography","uri",".*?$(?<!\.aspx)"
"/data/datasets/datagov/data/data/datagovdata/core-cultural-jobs-2002-present.csv","Year","numbers","^[-+]?\d+(\.\d+)?|[-+]?\.\d+?$"
"/data/datasets/datagov/data/data/datagovdata/core-cultural-jobs-2002-present.csv","Date","strings","[^""\r\n]*"
"/data/datasets/datagov/data/data/datagovdata/core-cultural-jobs-2002-present.csv"," Core Cultural Industry Jobs ","numbers","^[-+]?\d+(\.\d+)?|[-+]?\.\d+?$"
