"file_name","column_name","label","regex"
"/data/datasets/datagov/data/data/datagovdata/breeding-bird-atlases.csv","County","uri",".*?$(?<!\.aspx)"
"/data/datasets/datagov/data/data/datagovdata/breeding-bird-atlases.csv","Breeding Status","uri",".*?$(?<!\.aspx)"
"/data/datasets/datagov/data/data/datagovdata/breeding-bird-atlases.csv","NYS Protection Status","uri",".*?$(?<!\.aspx)"
"/data/datasets/datagov/data/data/datagovdata/breeding-bird-atlases.csv","Fed. Region","numbers","^\d*$"
"/data/datasets/datagov/data/data/datagovdata/breeding-bird-atlases.csv","Map Link","uri",".*?$(?<!\.aspx)"
"/data/datasets/datagov/data/data/datagovdata/breeding-bird-atlases.csv","Breeding Behavior","uri",".*?$(?<!\.aspx)"
"/data/datasets/datagov/data/data/datagovdata/breeding-bird-atlases.csv","Year","numbers","^\d*$"
"/data/datasets/datagov/data/data/datagovdata/breeding-bird-atlases.csv","Block ID","uri",".*?$(?<!\.aspx)"
"/data/datasets/datagov/data/data/datagovdata/breeding-bird-atlases.csv","Family Description","uri",".*?$(?<!\.aspx)"
"/data/datasets/datagov/data/data/datagovdata/breeding-bird-atlases.csv","Common Name","uri",".*?$(?<!\.aspx)"
"/data/datasets/datagov/data/data/datagovdata/breeding-bird-atlases.csv","Day","numbers","^\d*$"
"/data/datasets/datagov/data/data/datagovdata/breeding-bird-atlases.csv","Month","numbers","^\d*$"
"/data/datasets/datagov/data/data/datagovdata/breeding-bird-atlases.csv","Family Name","uri",".*?$(?<!\.aspx)"
"/data/datasets/datagov/data/data/datagovdata/breeding-bird-atlases.csv","Scientific Name","uri",".*?$(?<!\.aspx)"
