"file_name","column_name","label","regex"
"/data/datasets/datagov/data/data/datagovdata/final-harvest-distribution-all-11182014.csv","Category","uri",".*?$(?<!\.aspx)"
"/data/datasets/datagov/data/data/datagovdata/final-harvest-distribution-all-11182014.csv","ESU","strings","[^""\r\n]*"
"/data/datasets/datagov/data/data/datagovdata/final-harvest-distribution-all-11182014.csv","%","numbers","^(\d|,)*\.?\d*$"
