"file_name","column_name","label","regex"
"/data/datasets/datagov/data/data/datagovdata/PLSSSpecialSurvey_SW.csv","SURVNOTE","uri",".*?$(?<!\.aspx)"
"/data/datasets/datagov/data/data/datagovdata/PLSSSpecialSurvey_SW.csv","SURVNO","uri",".*?$(?<!\.aspx)"
"/data/datasets/datagov/data/data/datagovdata/PLSSSpecialSurvey_SW.csv","REVISEDDAT","address_or_phone","(\d{4,6})"
"/data/datasets/datagov/data/data/datagovdata/PLSSSpecialSurvey_SW.csv","SHAPE_Leng","numbers","(^([0-9]+[.]+[0-9]+)|(0)$)"
"/data/datasets/datagov/data/data/datagovdata/PLSSSpecialSurvey_SW.csv","SHAPE_Area","numbers","(^([0-9]+[.]+[0-9]+)|(0)$)"
"/data/datasets/datagov/data/data/datagovdata/PLSSSpecialSurvey_SW.csv","ACRES","numbers","(^([0-9]+[.]+[0-9]+)|(0)$)"
"/data/datasets/datagov/data/data/datagovdata/PLSSSpecialSurvey_SW.csv","SURVSUF","numbers","(^([0-9]+[.]+[0-9]+)|(0)$)"
"/data/datasets/datagov/data/data/datagovdata/PLSSSpecialSurvey_SW.csv","SURVTYPTXT","uri",".*?$(?<!\.aspx)"
"/data/datasets/datagov/data/data/datagovdata/PLSSSpecialSurvey_SW.csv","SURVLAB","uri",".*?$(?<!\.aspx)"
"/data/datasets/datagov/data/data/datagovdata/PLSSSpecialSurvey_SW.csv","SURVTYP","uri",".*?$(?<!\.aspx)"
