"file_name","column_name","label","regex"
"/data/datasets/datagov/data/data/datagovdata/county-spending-f463a.csv","Invoice Line","numbers","^\d*$"
"/data/datasets/datagov/data/data/datagovdata/county-spending-f463a.csv","Invoice Description","strings","[^""\r\n]*"
"/data/datasets/datagov/data/data/datagovdata/county-spending-f463a.csv","PO Line","numbers","^\d*$"
"/data/datasets/datagov/data/data/datagovdata/county-spending-f463a.csv","Invoice Number","strings","[^""\r\n]*"
"/data/datasets/datagov/data/data/datagovdata/county-spending-f463a.csv","Zip","address_or_phone","(\d{4,6})"
"/data/datasets/datagov/data/data/datagovdata/county-spending-f463a.csv","Contract Number","numbers","^\d*$"
"/data/datasets/datagov/data/data/datagovdata/county-spending-f463a.csv","Fund","uri",".*?$(?<!\.aspx)"
"/data/datasets/datagov/data/data/datagovdata/county-spending-f463a.csv","Expense Category","strings","[^""\r\n]*"
"/data/datasets/datagov/data/data/datagovdata/county-spending-f463a.csv","Payment Number","numbers","^\d*$"
"/data/datasets/datagov/data/data/datagovdata/county-spending-f463a.csv","Vendor Number","numbers","^\d*$"
"/data/datasets/datagov/data/data/datagovdata/county-spending-f463a.csv","Payment Method","uri",".*?$(?<!\.aspx)"
"/data/datasets/datagov/data/data/datagovdata/county-spending-f463a.csv","Department","uri",".*?$(?<!\.aspx)"
"/data/datasets/datagov/data/data/datagovdata/county-spending-f463a.csv","Payment Status","uri",".*?$(?<!\.aspx)"
"/data/datasets/datagov/data/data/datagovdata/county-spending-f463a.csv","Invoice Distribution Line","numbers","^\d*$"
"/data/datasets/datagov/data/data/datagovdata/county-spending-f463a.csv","Invoice Date","strings","[^""\r\n]*"
"/data/datasets/datagov/data/data/datagovdata/county-spending-f463a.csv","Account Code","numbers","^\d*$"
"/data/datasets/datagov/data/data/datagovdata/county-spending-f463a.csv","Fiscal Year Period","numbers","^\d*$"
"/data/datasets/datagov/data/data/datagovdata/county-spending-f463a.csv","Vendor","uri",".*?$(?<!\.aspx)"
"/data/datasets/datagov/data/data/datagovdata/county-spending-f463a.csv","Fiscal Year","numbers","^\d*$"
"/data/datasets/datagov/data/data/datagovdata/county-spending-f463a.csv","Amount","numbers","^\d*$"
"/data/datasets/datagov/data/data/datagovdata/county-spending-f463a.csv","PO Number","numbers","^\d*$"
"/data/datasets/datagov/data/data/datagovdata/county-spending-f463a.csv","Service","uri",".*?$(?<!\.aspx)"
"/data/datasets/datagov/data/data/datagovdata/county-spending-f463a.csv","Category","uri",".*?$(?<!\.aspx)"
"/data/datasets/datagov/data/data/datagovdata/county-spending-f463a.csv","Program","strings","[^""\r\n]*"
"/data/datasets/datagov/data/data/datagovdata/county-spending-f463a.csv","Payment Date","strings","[^""\r\n]*"
