"file_name","column_name","label","regex"
"/data/datasets/datagov/data/data/datagovdata/accessible-housing-for-seniors-fy13-f7240.csv","# AHFP Applications Received","numbers","^\d$"
"/data/datasets/datagov/data/data/datagovdata/accessible-housing-for-seniors-fy13-f7240.csv","# AHFP Units Closed","numbers","^\d$"
"/data/datasets/datagov/data/data/datagovdata/accessible-housing-for-seniors-fy13-f7240.csv","Month","strings","[^""\r\n]*"
"/data/datasets/datagov/data/data/datagovdata/accessible-housing-for-seniors-fy13-f7240.csv","$ AHFP Committed","numbers","^\d$"
"/data/datasets/datagov/data/data/datagovdata/accessible-housing-for-seniors-fy13-f7240.csv","# AHFP Units Committed","numbers","^\d$"
"/data/datasets/datagov/data/data/datagovdata/accessible-housing-for-seniors-fy13-f7240.csv","$ AHFP Closed Loans","numbers","^\d$"
