"file_name","column_name","label","regex"
"/data/datasets/datagov/data/data/datagovdata/small-town-economic-assistance-program-steap-master-award-list-from-2005-to-present.csv","Town Name","uri","^[^\\\/\?\*\""\'\>\<\:\|]*$"
"/data/datasets/datagov/data/data/datagovdata/small-town-economic-assistance-program-steap-master-award-list-from-2005-to-present.csv","Administering Agency","uri","^[^\\\/\?\*\""\'\>\<\:\|]*$"
"/data/datasets/datagov/data/data/datagovdata/small-town-economic-assistance-program-steap-master-award-list-from-2005-to-present.csv","Grant Amount","numbers","^\d*$"
"/data/datasets/datagov/data/data/datagovdata/small-town-economic-assistance-program-steap-master-award-list-from-2005-to-present.csv","Town_Index","uri","^[^\\\/\?\*\""\'\>\<\:\|]*$"
"/data/datasets/datagov/data/data/datagovdata/small-town-economic-assistance-program-steap-master-award-list-from-2005-to-present.csv","Project Description","strings","[^""\r\n]*"
"/data/datasets/datagov/data/data/datagovdata/small-town-economic-assistance-program-steap-master-award-list-from-2005-to-present.csv","Year","numbers","^\d*$"
