"file_name","column_name","label","regex"
"/data/datasets/datagov/data/data/datagovdata/2014-state-budget-restrictions-as-of-july-31-2014-02e26.csv","Fund Name","uri",".*?$(?<!\.aspx)"
"/data/datasets/datagov/data/data/datagovdata/2014-state-budget-restrictions-as-of-july-31-2014-02e26.csv"," Budget Fiscal Year","numbers","^\$?\d+(\.(\d{2}))?$"
"/data/datasets/datagov/data/data/datagovdata/2014-state-budget-restrictions-as-of-july-31-2014-02e26.csv","Released Amount","numbers","^\$?\d+(\.(\d{2}))?$"
"/data/datasets/datagov/data/data/datagovdata/2014-state-budget-restrictions-as-of-july-31-2014-02e26.csv","Agency Name","uri",".*?$(?<!\.aspx)"
"/data/datasets/datagov/data/data/datagovdata/2014-state-budget-restrictions-as-of-july-31-2014-02e26.csv","Restricted Amount","numbers","^\$?\d+(\.(\d{2}))?$"
