"file_name","column_name","label","regex"
"/data/datasets/datagov/data/data/datagovdata/methicillin-resistant-staphylococcus-aureus-mrsa-bloodstream-infections-in-hospitals-2013-4f709.csv","SIR_95%_CI_Upper_Limit","numbers","^(\d|,)*\.?\d*$"
"/data/datasets/datagov/data/data/datagovdata/methicillin-resistant-staphylococcus-aureus-mrsa-bloodstream-infections-in-hospitals-2013-4f709.csv","County","uri",".*?$(?<!\.aspx)"
"/data/datasets/datagov/data/data/datagovdata/methicillin-resistant-staphylococcus-aureus-mrsa-bloodstream-infections-in-hospitals-2013-4f709.csv","Patient_Days","numbers","^(\d|,)*\.?\d*$"
"/data/datasets/datagov/data/data/datagovdata/methicillin-resistant-staphylococcus-aureus-mrsa-bloodstream-infections-in-hospitals-2013-4f709.csv","Facility_Name1","strings","[^""\r\n]*"
"/data/datasets/datagov/data/data/datagovdata/methicillin-resistant-staphylococcus-aureus-mrsa-bloodstream-infections-in-hospitals-2013-4f709.csv","FACID1","numbers","^(\d|,)*\.?\d*$"
"/data/datasets/datagov/data/data/datagovdata/methicillin-resistant-staphylococcus-aureus-mrsa-bloodstream-infections-in-hospitals-2013-4f709.csv","Comparison","uri",".*?$(?<!\.aspx)"
"/data/datasets/datagov/data/data/datagovdata/methicillin-resistant-staphylococcus-aureus-mrsa-bloodstream-infections-in-hospitals-2013-4f709.csv","Infection_Count","numbers","^(\d|,)*\.?\d*$"
"/data/datasets/datagov/data/data/datagovdata/methicillin-resistant-staphylococcus-aureus-mrsa-bloodstream-infections-in-hospitals-2013-4f709.csv","Year","numbers","^(\d|,)*\.?\d*$"
"/data/datasets/datagov/data/data/datagovdata/methicillin-resistant-staphylococcus-aureus-mrsa-bloodstream-infections-in-hospitals-2013-4f709.csv","SIR_95%_CI_Lower_Limit","numbers","^(\d|,)*\.?\d*$"
"/data/datasets/datagov/data/data/datagovdata/methicillin-resistant-staphylococcus-aureus-mrsa-bloodstream-infections-in-hospitals-2013-4f709.csv","FACID3","numbers","^(\d|,)*\.?\d*$"
"/data/datasets/datagov/data/data/datagovdata/methicillin-resistant-staphylococcus-aureus-mrsa-bloodstream-infections-in-hospitals-2013-4f709.csv","Notes","uri",".*?$(?<!\.aspx)"
"/data/datasets/datagov/data/data/datagovdata/methicillin-resistant-staphylococcus-aureus-mrsa-bloodstream-infections-in-hospitals-2013-4f709.csv","Facility_Name3","numbers","^(\d|,)*\.?\d*$"
"/data/datasets/datagov/data/data/datagovdata/methicillin-resistant-staphylococcus-aureus-mrsa-bloodstream-infections-in-hospitals-2013-4f709.csv","SIR ","numbers","^(\d|,)*\.?\d*$"
"/data/datasets/datagov/data/data/datagovdata/methicillin-resistant-staphylococcus-aureus-mrsa-bloodstream-infections-in-hospitals-2013-4f709.csv","HAI","uri",".*?$(?<!\.aspx)"
"/data/datasets/datagov/data/data/datagovdata/methicillin-resistant-staphylococcus-aureus-mrsa-bloodstream-infections-in-hospitals-2013-4f709.csv","FACID2","numbers","^(\d|,)*\.?\d*$"
"/data/datasets/datagov/data/data/datagovdata/methicillin-resistant-staphylococcus-aureus-mrsa-bloodstream-infections-in-hospitals-2013-4f709.csv","State","uri",".*?$(?<!\.aspx)"
"/data/datasets/datagov/data/data/datagovdata/methicillin-resistant-staphylococcus-aureus-mrsa-bloodstream-infections-in-hospitals-2013-4f709.csv","Facility_Name2","uri",".*?$(?<!\.aspx)"
