"file_name","column_name","label","regex"
"/data/datasets/datagov/data/data/datagovdata/oklahoma-general-pay-increase-history.csv","Pay Increase Allocated for Classified Employees","uri",".*?$(?<!\.aspx)"
"/data/datasets/datagov/data/data/datagovdata/oklahoma-general-pay-increase-history.csv","Effective Fiscal Year","numbers","^\d*$"
"/data/datasets/datagov/data/data/datagovdata/oklahoma-general-pay-increase-history.csv","Appropriation Bills","uri",".*?$(?<!\.aspx)"
"/data/datasets/datagov/data/data/datagovdata/oklahoma-general-pay-increase-history.csv","Effective Date","strings","[^""\r\n]*"
