"file_name","column_name","label","regex"
"/data/datasets/datagov/data/data/datagovdata/contaminated-land-acres-cleaned-3c783.csv","Historical Data","numbers","^(\d|,)*\.?\d*$"
"/data/datasets/datagov/data/data/datagovdata/contaminated-land-acres-cleaned-3c783.csv","Target","numbers","^(\d|,)*\.?\d*$"
"/data/datasets/datagov/data/data/datagovdata/contaminated-land-acres-cleaned-3c783.csv","Years","numbers","^(\d|,)*\.?\d*$"
