"file_name","column_name","label","regex"
"/data/datasets/datagov/data/data/datagovdata/high-value-target-prosecutions-43fef.csv","Historical Data","numbers","^(\d|,)*\.?\d*$"
"/data/datasets/datagov/data/data/datagovdata/high-value-target-prosecutions-43fef.csv","Target","numbers","^(\d|,)*\.?\d*$"
"/data/datasets/datagov/data/data/datagovdata/high-value-target-prosecutions-43fef.csv","Years","numbers","^(\d|,)*\.?\d*$"
