"file_name","column_name","label","regex"
"/data/datasets/datagov/data/data/datagovdata/05to12-iquery-leg-data-4a7d1.csv","Ethnicity","uri",".*?$(?<!\.aspx)"
"/data/datasets/datagov/data/data/datagovdata/05to12-iquery-leg-data-4a7d1.csv","IL","uri",".*?$(?<!\.aspx)"
"/data/datasets/datagov/data/data/datagovdata/05to12-iquery-leg-data-4a7d1.csv","Race","uri",".*?$(?<!\.aspx)"
"/data/datasets/datagov/data/data/datagovdata/05to12-iquery-leg-data-4a7d1.csv","YearText","uri",".*?$(?<!\.aspx)"
"/data/datasets/datagov/data/data/datagovdata/05to12-iquery-leg-data-4a7d1.csv","AgeGroup","uri",".*?$(?<!\.aspx)"
"/data/datasets/datagov/data/data/datagovdata/05to12-iquery-leg-data-4a7d1.csv","Year","numbers","^\d*$"
"/data/datasets/datagov/data/data/datagovdata/05to12-iquery-leg-data-4a7d1.csv","AgeGroupText","uri",".*?$(?<!\.aspx)"
"/data/datasets/datagov/data/data/datagovdata/05to12-iquery-leg-data-4a7d1.csv","Disease","uri",".*?$(?<!\.aspx)"
"/data/datasets/datagov/data/data/datagovdata/05to12-iquery-leg-data-4a7d1.csv","Count","numbers","^\d*$"
"/data/datasets/datagov/data/data/datagovdata/05to12-iquery-leg-data-4a7d1.csv","StateOrCounty","uri",".*?$(?<!\.aspx)"
"/data/datasets/datagov/data/data/datagovdata/05to12-iquery-leg-data-4a7d1.csv","Gender","uri",".*?$(?<!\.aspx)"
