"file_name","column_name","label","regex"
"/data/datasets/datagov/data/data/datagovdata/educational-attainment-2000-2010.csv","ind_id","numbers","^(\d|,)*\.?\d*$"
"/data/datasets/datagov/data/data/datagovdata/educational-attainment-2000-2010.csv","p_hs_edatt","numbers","^(\d|,)*\.?\d*$"
"/data/datasets/datagov/data/data/datagovdata/educational-attainment-2000-2010.csv","CA_RR","numbers","^(\d|,)*\.?\d*$"
"/data/datasets/datagov/data/data/datagovdata/educational-attainment-2000-2010.csv","version","strings","[^""\r\n]*"
"/data/datasets/datagov/data/data/datagovdata/educational-attainment-2000-2010.csv","race_eth_code","numbers","^(\d|,)*\.?\d*$"
"/data/datasets/datagov/data/data/datagovdata/educational-attainment-2000-2010.csv","geotype","uri",".*?$(?<!\.aspx)"
"/data/datasets/datagov/data/data/datagovdata/educational-attainment-2000-2010.csv","pop25pl_hs","numbers","^(\d|,)*\.?\d*$"
"/data/datasets/datagov/data/data/datagovdata/educational-attainment-2000-2010.csv","SE","numbers","^(\d|,)*\.?\d*$"
"/data/datasets/datagov/data/data/datagovdata/educational-attainment-2000-2010.csv","CA_decile","numbers","^(\d|,)*\.?\d*$"
"/data/datasets/datagov/data/data/datagovdata/educational-attainment-2000-2010.csv","UL_95CI","numbers","^(\d|,)*\.?\d*$"
"/data/datasets/datagov/data/data/datagovdata/educational-attainment-2000-2010.csv","county_name","uri",".*?$(?<!\.aspx)"
"/data/datasets/datagov/data/data/datagovdata/educational-attainment-2000-2010.csv","race_eth_name","uri",".*?$(?<!\.aspx)"
"/data/datasets/datagov/data/data/datagovdata/educational-attainment-2000-2010.csv","ind_definition","uri",".*?$(?<!\.aspx)"
"/data/datasets/datagov/data/data/datagovdata/educational-attainment-2000-2010.csv","LL_95CI","numbers","^(\d|,)*\.?\d*$"
"/data/datasets/datagov/data/data/datagovdata/educational-attainment-2000-2010.csv","pop25pl","numbers","^(\d|,)*\.?\d*$"
"/data/datasets/datagov/data/data/datagovdata/educational-attainment-2000-2010.csv","region_name","strings","[^""\r\n]*"
"/data/datasets/datagov/data/data/datagovdata/educational-attainment-2000-2010.csv","geotypevalue","numbers","^(\d|,)*\.?\d*$"
"/data/datasets/datagov/data/data/datagovdata/educational-attainment-2000-2010.csv","reportyear","numbers","^(\d|,)*\.?\d*$"
"/data/datasets/datagov/data/data/datagovdata/educational-attainment-2000-2010.csv","region_code","numbers","^(\d|,)*\.?\d*$"
"/data/datasets/datagov/data/data/datagovdata/educational-attainment-2000-2010.csv","county_fips","numbers","^(\d|,)*\.?\d*$"
"/data/datasets/datagov/data/data/datagovdata/educational-attainment-2000-2010.csv","RSE","numbers","^(\d|,)*\.?\d*$"
"/data/datasets/datagov/data/data/datagovdata/educational-attainment-2000-2010.csv","geoname","uri",".*?$(?<!\.aspx)"
