"file_name","column_name","label","regex"
"/data/datasets/datagov/data/data/datagovdata/05to12-iquery-wnvdata-f9621.csv","Ethnicity","uri",".*?$(?<!\.aspx)"
"/data/datasets/datagov/data/data/datagovdata/05to12-iquery-wnvdata-f9621.csv","IL","uri",".*?$(?<!\.aspx)"
"/data/datasets/datagov/data/data/datagovdata/05to12-iquery-wnvdata-f9621.csv","Race","uri",".*?$(?<!\.aspx)"
"/data/datasets/datagov/data/data/datagovdata/05to12-iquery-wnvdata-f9621.csv","YearText","uri",".*?$(?<!\.aspx)"
"/data/datasets/datagov/data/data/datagovdata/05to12-iquery-wnvdata-f9621.csv","AgeGroup","uri",".*?$(?<!\.aspx)"
"/data/datasets/datagov/data/data/datagovdata/05to12-iquery-wnvdata-f9621.csv","Year","numbers","^\d*$"
"/data/datasets/datagov/data/data/datagovdata/05to12-iquery-wnvdata-f9621.csv","AgeGroupText","uri",".*?$(?<!\.aspx)"
"/data/datasets/datagov/data/data/datagovdata/05to12-iquery-wnvdata-f9621.csv","Disease","uri",".*?$(?<!\.aspx)"
"/data/datasets/datagov/data/data/datagovdata/05to12-iquery-wnvdata-f9621.csv","Count","numbers","^\d*$"
"/data/datasets/datagov/data/data/datagovdata/05to12-iquery-wnvdata-f9621.csv","StateOrCounty","uri",".*?$(?<!\.aspx)"
"/data/datasets/datagov/data/data/datagovdata/05to12-iquery-wnvdata-f9621.csv","Gender","uri",".*?$(?<!\.aspx)"
