"file_name","column_name","label","regex"
"/data/datasets/datagov/data/data/datagovdata/election-results-november-3-2009-general-334a1.csv","Precinct","uri",".*?$(?<!\.aspx)"
"/data/datasets/datagov/data/data/datagovdata/election-results-november-3-2009-general-334a1.csv","Race","uri",".*?$(?<!\.aspx)"
"/data/datasets/datagov/data/data/datagovdata/election-results-november-3-2009-general-334a1.csv","CounterType","uri",".*?$(?<!\.aspx)"
"/data/datasets/datagov/data/data/datagovdata/election-results-november-3-2009-general-334a1.csv","CC","numbers","^\d*$"
"/data/datasets/datagov/data/data/datagovdata/election-results-november-3-2009-general-334a1.csv","Count","numbers","^\d*$"
"/data/datasets/datagov/data/data/datagovdata/election-results-november-3-2009-general-334a1.csv","LEG","numbers","^\d*$"
"/data/datasets/datagov/data/data/datagovdata/election-results-november-3-2009-general-334a1.csv","CG","numbers","^\d*$"
