"file_name","column_name","label","regex"
"/data/datasets/datagov/data/data/datagovdata/ihpa-il-state-historic-site-attendance-2012-82d33.csv","2012 Attendance","numbers","^\d*$"
"/data/datasets/datagov/data/data/datagovdata/ihpa-il-state-historic-site-attendance-2012-82d33.csv","Illinois State Historic Site Name","uri",".*?$(?<!\.aspx)"
