"file_name","column_name","label","regex"
"/data/datasets/datagov/data/data/datagovdata/ksc-project-feedback-1be57.csv","Agency","uri",".*?$(?<!\.aspx)"
"/data/datasets/datagov/data/data/datagovdata/ksc-project-feedback-1be57.csv","Date (MM/DD/YY)","strings","[^""\r\n]*"
"/data/datasets/datagov/data/data/datagovdata/ksc-project-feedback-1be57.csv","Email","uri",".*?$(?<!\.aspx)"
"/data/datasets/datagov/data/data/datagovdata/ksc-project-feedback-1be57.csv","Name","uri",".*?$(?<!\.aspx)"
"/data/datasets/datagov/data/data/datagovdata/ksc-project-feedback-1be57.csv","Current Floor","uri",".*?$(?<!\.aspx)"
"/data/datasets/datagov/data/data/datagovdata/ksc-project-feedback-1be57.csv","Comment or Suggestion","strings","[^""\r\n]*"
