"file_name","column_name","label","regex"
"/data/datasets/datagov/data/data/datagovdata/land_grants.csv","LAND_GRA_1","numbers","^\d*$"
"/data/datasets/datagov/data/data/datagovdata/land_grants.csv","LAND_GRANT","numbers","^\d*$"
"/data/datasets/datagov/data/data/datagovdata/land_grants.csv","GRANT_NAME","strings","[^""\r\n]*"
"/data/datasets/datagov/data/data/datagovdata/land_grants.csv","PERIMETER","numbers","^\d*$"
"/data/datasets/datagov/data/data/datagovdata/land_grants.csv","AREA","numbers","^\d*$"
"/data/datasets/datagov/data/data/datagovdata/land_grants.csv","GRANT_CONF","address_or_phone","(\d{4,6})"
"/data/datasets/datagov/data/data/datagovdata/land_grants.csv","SURVEY_APP","address_or_phone","(\d{4,6})"
