"file_name","column_name","label","regex"
"/data/datasets/datagov/data/data/datagovdata/dpw-maintained-roadway-structures-9e89c.csv","OnStreet","uri",".*?$(?<!\.aspx)"
"/data/datasets/datagov/data/data/datagovdata/dpw-maintained-roadway-structures-9e89c.csv","Latitude","numbers","^-?\d*(\.\d+)?$"
"/data/datasets/datagov/data/data/datagovdata/dpw-maintained-roadway-structures-9e89c.csv","AssetType","strings","[^""\r\n]*"
"/data/datasets/datagov/data/data/datagovdata/dpw-maintained-roadway-structures-9e89c.csv","Longitude","numbers","^-?\d*(\.\d+)?$"
"/data/datasets/datagov/data/data/datagovdata/dpw-maintained-roadway-structures-9e89c.csv","FromStreet","uri",".*?$(?<!\.aspx)"
"/data/datasets/datagov/data/data/datagovdata/dpw-maintained-roadway-structures-9e89c.csv","AssetDesc","uri",".*?$(?<!\.aspx)"
"/data/datasets/datagov/data/data/datagovdata/dpw-maintained-roadway-structures-9e89c.csv","FacilityType","uri",".*?$(?<!\.aspx)"
"/data/datasets/datagov/data/data/datagovdata/dpw-maintained-roadway-structures-9e89c.csv","ToStreet","uri",".*?$(?<!\.aspx)"
"/data/datasets/datagov/data/data/datagovdata/dpw-maintained-roadway-structures-9e89c.csv","AssetID","uri",".*?$(?<!\.aspx)"
