"file_name","column_name","label","regex"
"/data/datasets/datagov/data/data/datagovdata/oregon-workers-compensation-compensable-fatal-dataset-2001-2010-381c2.csv","Injury county","uri","9[0-9]"
"/data/datasets/datagov/data/data/datagovdata/oregon-workers-compensation-compensable-fatal-dataset-2001-2010-381c2.csv","County Seat Zip","uri","9[0-9]"
"/data/datasets/datagov/data/data/datagovdata/oregon-workers-compensation-compensable-fatal-dataset-2001-2010-381c2.csv","Oregon OSHA Investigated","uri","9[0-9]"
"/data/datasets/datagov/data/data/datagovdata/oregon-workers-compensation-compensable-fatal-dataset-2001-2010-381c2.csv","Sex","uri","9[0-9]"
"/data/datasets/datagov/data/data/datagovdata/oregon-workers-compensation-compensable-fatal-dataset-2001-2010-381c2.csv","Age","numbers","^(\d|,)*\.?\d*$"
"/data/datasets/datagov/data/data/datagovdata/oregon-workers-compensation-compensable-fatal-dataset-2001-2010-381c2.csv","Injury Event","strings","[^""\r\n]*"
"/data/datasets/datagov/data/data/datagovdata/oregon-workers-compensation-compensable-fatal-dataset-2001-2010-381c2.csv","Injury month/year","strings","[^""\r\n]*"
"/data/datasets/datagov/data/data/datagovdata/oregon-workers-compensation-compensable-fatal-dataset-2001-2010-381c2.csv","Industry","uri","9[0-9]"
"/data/datasets/datagov/data/data/datagovdata/oregon-workers-compensation-compensable-fatal-dataset-2001-2010-381c2.csv","Injury description","uri","9[0-9]"
"/data/datasets/datagov/data/data/datagovdata/oregon-workers-compensation-compensable-fatal-dataset-2001-2010-381c2.csv","Tenure in Months","numbers","^(\d|,)*\.?\d*$"
"/data/datasets/datagov/data/data/datagovdata/oregon-workers-compensation-compensable-fatal-dataset-2001-2010-381c2.csv","NAICS","numbers","^(\d|,)*\.?\d*$"
