"file_name","column_name","label","regex"
"/data/datasets/datagov/data/data/datagovdata/tgr2006se_torr_aianhh00.csv","AIANHHFP","numbers","^\d*$"
"/data/datasets/datagov/data/data/datagovdata/tgr2006se_torr_aianhh00.csv","COUNTY","numbers","^\d*$"
"/data/datasets/datagov/data/data/datagovdata/tgr2006se_torr_aianhh00.csv","FIPSCC","uri",".*?$(?<!\.aspx)"
"/data/datasets/datagov/data/data/datagovdata/tgr2006se_torr_aianhh00.csv","AIANHH","numbers","^\d*$"
"/data/datasets/datagov/data/data/datagovdata/tgr2006se_torr_aianhh00.csv","NAME","uri",".*?$(?<!\.aspx)"
"/data/datasets/datagov/data/data/datagovdata/tgr2006se_torr_aianhh00.csv","GIST_ID","numbers","^\d*$"
"/data/datasets/datagov/data/data/datagovdata/tgr2006se_torr_aianhh00.csv","LSADC","numbers","^\d*$"
"/data/datasets/datagov/data/data/datagovdata/tgr2006se_torr_aianhh00.csv","ENTITY","uri",".*?$(?<!\.aspx)"
