"file_name","column_name","label","regex"
"/data/datasets/datagov/data/data/datagovdata/fiscal-year-2014-tax-credits-9daa7.csv","Credit Amount","numbers","^\$?\d+(\.(\d{2}))?$"
"/data/datasets/datagov/data/data/datagovdata/fiscal-year-2014-tax-credits-9daa7.csv","Credit Description","strings","[^""\r\n]*"
"/data/datasets/datagov/data/data/datagovdata/fiscal-year-2014-tax-credits-9daa7.csv","Year","numbers","^\$?\d+(\.(\d{2}))?$"
"/data/datasets/datagov/data/data/datagovdata/fiscal-year-2014-tax-credits-9daa7.csv","Name","uri",".*?$(?<!\.aspx)"
"/data/datasets/datagov/data/data/datagovdata/fiscal-year-2014-tax-credits-9daa7.csv","Fiscal Year","uri",".*?$(?<!\.aspx)"
"/data/datasets/datagov/data/data/datagovdata/fiscal-year-2014-tax-credits-9daa7.csv","Tax Credit Type","uri",".*?$(?<!\.aspx)"
