"file_name","column_name","label","regex"
"/data/datasets/datagov/data/data/datagovdata/healthy-incentives-grid-f6bbb.csv","Eat Smart","strings","[^""\r\n]*"
"/data/datasets/datagov/data/data/datagovdata/healthy-incentives-grid-f6bbb.csv"," Quit Tobacco","strings","[^""\r\n]*"
"/data/datasets/datagov/data/data/datagovdata/healthy-incentives-grid-f6bbb.csv"," Fun for Families","strings","[^""\r\n]*"
"/data/datasets/datagov/data/data/datagovdata/healthy-incentives-grid-f6bbb.csv","Get Credit For Things I Already Do","strings","[^""\r\n]*"
"/data/datasets/datagov/data/data/datagovdata/healthy-incentives-grid-f6bbb.csv","Move More","strings","[^""\r\n]*"
"/data/datasets/datagov/data/data/datagovdata/healthy-incentives-grid-f6bbb.csv","Support Group","strings","[^""\r\n]*"
"/data/datasets/datagov/data/data/datagovdata/healthy-incentives-grid-f6bbb.csv","Stress Less","strings","[^""\r\n]*"
"/data/datasets/datagov/data/data/datagovdata/healthy-incentives-grid-f6bbb.csv"," Simple to Use","strings","[^""\r\n]*"
"/data/datasets/datagov/data/data/datagovdata/healthy-incentives-grid-f6bbb.csv","Not Online","strings","[^""\r\n]*"
"/data/datasets/datagov/data/data/datagovdata/healthy-incentives-grid-f6bbb.csv","Weight Management","strings","[^""\r\n]*"
"/data/datasets/datagov/data/data/datagovdata/healthy-incentives-grid-f6bbb.csv"," Diabetes Management","strings","[^""\r\n]*"
"/data/datasets/datagov/data/data/datagovdata/healthy-incentives-grid-f6bbb.csv"," Diabetes Prevention","strings","[^""\r\n]*"
