"file_name","column_name","label","regex"
"/data/datasets/datagov/data/data/datagovdata/contracts-lottery-fiscal-year-2012-7ed14.csv","Start Date","strings","[^""\r\n]*"
"/data/datasets/datagov/data/data/datagovdata/contracts-lottery-fiscal-year-2012-7ed14.csv","Award Numberw/Amendments","uri",".*?$(?<!\.aspx)"
"/data/datasets/datagov/data/data/datagovdata/contracts-lottery-fiscal-year-2012-7ed14.csv","Contract/AmendmentValue","numbers","^\$?\d+(\.(\d{2}))?$"
"/data/datasets/datagov/data/data/datagovdata/contracts-lottery-fiscal-year-2012-7ed14.csv","ExpirationDate","strings","[^""\r\n]*"
"/data/datasets/datagov/data/data/datagovdata/contracts-lottery-fiscal-year-2012-7ed14.csv","Street Address","uri",".*?$(?<!\.aspx)"
"/data/datasets/datagov/data/data/datagovdata/contracts-lottery-fiscal-year-2012-7ed14.csv","Award Title","strings","[^""\r\n]*"
"/data/datasets/datagov/data/data/datagovdata/contracts-lottery-fiscal-year-2012-7ed14.csv","Total Contractw/Amendments","numbers","^\$?\d+(\.(\d{2}))?$"
"/data/datasets/datagov/data/data/datagovdata/contracts-lottery-fiscal-year-2012-7ed14.csv","Award Type","uri",".*?$(?<!\.aspx)"
"/data/datasets/datagov/data/data/datagovdata/contracts-lottery-fiscal-year-2012-7ed14.csv","Contractor Information","uri",".*?$(?<!\.aspx)"
"/data/datasets/datagov/data/data/datagovdata/contracts-lottery-fiscal-year-2012-7ed14.csv","Zip Code","numbers","^\$?\d+(\.(\d{2}))?$"
