"file_name","column_name","label","regex"
"/data/datasets/datagov/data/data/datagovdata/tgr2006se_mora_grpcu.csv","FIPSSTCO","numbers","^\d*$"
"/data/datasets/datagov/data/data/datagovdata/tgr2006se_mora_grpcu.csv","TRACT","numbers","^\d*$"
"/data/datasets/datagov/data/data/datagovdata/tgr2006se_mora_grpcu.csv","STFID","numbers","^\d*$"
"/data/datasets/datagov/data/data/datagovdata/tgr2006se_mora_grpcu.csv","GROUP","numbers","^\d*$"
"/data/datasets/datagov/data/data/datagovdata/tgr2006se_mora_grpcu.csv","GIST_ID","numbers","^\d*$"
