"file_name","column_name","label","regex"
"/data/datasets/datagov/data/data/datagovdata/department-of-revenue-unincorporated-cook-county-municipalities-by-township-and-zip-b55e5.csv","Township","uri",".*?$(?<!\.aspx)"
"/data/datasets/datagov/data/data/datagovdata/department-of-revenue-unincorporated-cook-county-municipalities-by-township-and-zip-b55e5.csv","ZIP Code","numbers","^\d*$"
"/data/datasets/datagov/data/data/datagovdata/department-of-revenue-unincorporated-cook-county-municipalities-by-township-and-zip-b55e5.csv","Municipality","uri",".*?$(?<!\.aspx)"
