"file_name","column_name","label","regex"
"/data/datasets/datagov/data/data/datagovdata/energy-star-certified-pool-pumps.csv","ENERGY STAR Partner","uri",".*?$(?<!\.aspx)"
"/data/datasets/datagov/data/data/datagovdata/energy-star-certified-pool-pumps.csv","Brand Name","uri",".*?$(?<!\.aspx)"
"/data/datasets/datagov/data/data/datagovdata/energy-star-certified-pool-pumps.csv","Rated Horsepower (HP)","numbers","^(\d|,)*\.?\d*$"
"/data/datasets/datagov/data/data/datagovdata/energy-star-certified-pool-pumps.csv","Motor Design","uri",".*?$(?<!\.aspx)"
"/data/datasets/datagov/data/data/datagovdata/energy-star-certified-pool-pumps.csv","Speed (RPM)","numbers","^(\d|,)*\.?\d*$"
"/data/datasets/datagov/data/data/datagovdata/energy-star-certified-pool-pumps.csv","Curve-B Flow (GPM)","numbers","^(\d|,)*\.?\d*$"
"/data/datasets/datagov/data/data/datagovdata/energy-star-certified-pool-pumps.csv","Curve-C Energy Factor (gallons/Wh)","numbers","^(\d|,)*\.?\d*$"
"/data/datasets/datagov/data/data/datagovdata/energy-star-certified-pool-pumps.csv","Model Number","strings","[^""\r\n]*"
"/data/datasets/datagov/data/data/datagovdata/energy-star-certified-pool-pumps.csv","Speed Setting","uri",".*?$(?<!\.aspx)"
"/data/datasets/datagov/data/data/datagovdata/energy-star-certified-pool-pumps.csv","Curve-C Flow (GPM)","numbers","^(\d|,)*\.?\d*$"
"/data/datasets/datagov/data/data/datagovdata/energy-star-certified-pool-pumps.csv","Curve-B Energy Factor (gallons/Wh)","numbers","^(\d|,)*\.?\d*$"
"/data/datasets/datagov/data/data/datagovdata/energy-star-certified-pool-pumps.csv","Curve-A Power (Watts)","numbers","^(\d|,)*\.?\d*$"
"/data/datasets/datagov/data/data/datagovdata/energy-star-certified-pool-pumps.csv","ENERGY STAR Unique ID","numbers","^(\d|,)*\.?\d*$"
"/data/datasets/datagov/data/data/datagovdata/energy-star-certified-pool-pumps.csv","Frame","uri",".*?$(?<!\.aspx)"
"/data/datasets/datagov/data/data/datagovdata/energy-star-certified-pool-pumps.csv","CB Model Identifier","strings","[^""\r\n]*"
"/data/datasets/datagov/data/data/datagovdata/energy-star-certified-pool-pumps.csv","Date Available On Market","strings","[^""\r\n]*"
"/data/datasets/datagov/data/data/datagovdata/energy-star-certified-pool-pumps.csv","Standby Average Power (Watts)","numbers","^(\d|,)*\.?\d*$"
"/data/datasets/datagov/data/data/datagovdata/energy-star-certified-pool-pumps.csv","Service Factor","numbers","^(\d|,)*\.?\d*$"
"/data/datasets/datagov/data/data/datagovdata/energy-star-certified-pool-pumps.csv","Curve-C Power (Watts)","numbers","^(\d|,)*\.?\d*$"
"/data/datasets/datagov/data/data/datagovdata/energy-star-certified-pool-pumps.csv","Additional Model Information","uri",".*?$(?<!\.aspx)"
"/data/datasets/datagov/data/data/datagovdata/energy-star-certified-pool-pumps.csv","Curve-A Energy Factor (gallons/Wh)","numbers","^(\d|,)*\.?\d*$"
"/data/datasets/datagov/data/data/datagovdata/energy-star-certified-pool-pumps.csv","Date Qualified","strings","[^""\r\n]*"
"/data/datasets/datagov/data/data/datagovdata/energy-star-certified-pool-pumps.csv","Model Name","strings","[^""\r\n]*"
"/data/datasets/datagov/data/data/datagovdata/energy-star-certified-pool-pumps.csv","Total Horse Power (HP)","numbers","^(\d|,)*\.?\d*$"
"/data/datasets/datagov/data/data/datagovdata/energy-star-certified-pool-pumps.csv","Curve-B Power (Watts)","numbers","^(\d|,)*\.?\d*$"
"/data/datasets/datagov/data/data/datagovdata/energy-star-certified-pool-pumps.csv","Markets","uri",".*?$(?<!\.aspx)"
"/data/datasets/datagov/data/data/datagovdata/energy-star-certified-pool-pumps.csv","Curve-A Flow (GPM)","numbers","^(\d|,)*\.?\d*$"
"/data/datasets/datagov/data/data/datagovdata/energy-star-certified-pool-pumps.csv","Motor Construction","uri",".*?$(?<!\.aspx)"
