"file_name","column_name","label","regex"
"/data/datasets/datagov/data/data/datagovdata/bss-pavement-condition-index-pci-8563a.csv","PCI","numbers","^\d*$"
"/data/datasets/datagov/data/data/datagovdata/bss-pavement-condition-index-pci-8563a.csv","Date","strings","[^""\r\n]*"
"/data/datasets/datagov/data/data/datagovdata/bss-pavement-condition-index-pci-8563a.csv","absolute change YOY","numbers","^\d*$"
"/data/datasets/datagov/data/data/datagovdata/bss-pavement-condition-index-pci-8563a.csv","last year","numbers","^\d*$"
"/data/datasets/datagov/data/data/datagovdata/bss-pavement-condition-index-pci-8563a.csv","Year","numbers","^\d*$"
