"file_name","column_name","label","regex"
"/data/datasets/chemical/chembl_21/csvdata/public.data_validity_lookup.csv","description","strings","[^""\r\n]*"
"/data/datasets/chemical/chembl_21/csvdata/public.data_validity_lookup.csv","data_validity_comment","uri",".*?$(?<!\.aspx)"
