"file_name","column_name","label","regex"
"/data/datasets/datagov/data/data/datagovdata/wipgoal.csv","Goal","numbers","^(\d|,)*\.?\d*$"
"/data/datasets/datagov/data/data/datagovdata/wipgoal.csv","County","uri",".*?$(?<!\.aspx)"
"/data/datasets/datagov/data/data/datagovdata/wipgoal.csv","Type","uri",".*?$(?<!\.aspx)"
"/data/datasets/datagov/data/data/datagovdata/wipgoal.csv","BMP Name","uri",".*?$(?<!\.aspx)"
"/data/datasets/datagov/data/data/datagovdata/wipgoal.csv","Milestone","numbers","^(\d|,)*\.?\d*$"
"/data/datasets/datagov/data/data/datagovdata/wipgoal.csv","Unit","strings","[^""\r\n]*"
"/data/datasets/datagov/data/data/datagovdata/wipgoal.csv","Year","numbers","^(\d|,)*\.?\d*$"
