"file_name","column_name","label","regex"
"/data/datasets/datagov/data/data/datagovdata/constituent-services-39ee8.csv","Letter Drafted","uri",".*?$(?<!\.aspx)"
"/data/datasets/datagov/data/data/datagovdata/constituent-services-39ee8.csv","Language (If blank, English)","uri",".*?$(?<!\.aspx)"
"/data/datasets/datagov/data/data/datagovdata/constituent-services-39ee8.csv","City/State","uri",".*?$(?<!\.aspx)"
"/data/datasets/datagov/data/data/datagovdata/constituent-services-39ee8.csv","Date","uri",".*?$(?<!\.aspx)"
"/data/datasets/datagov/data/data/datagovdata/constituent-services-39ee8.csv","Initial Contact","uri",".*?$(?<!\.aspx)"
"/data/datasets/datagov/data/data/datagovdata/constituent-services-39ee8.csv","Zip","numbers","^(\d|,)*\.?\d*$"
"/data/datasets/datagov/data/data/datagovdata/constituent-services-39ee8.csv","Status","uri",".*?$(?<!\.aspx)"
"/data/datasets/datagov/data/data/datagovdata/constituent-services-39ee8.csv","Issue","strings","[^""\r\n]*"
"/data/datasets/datagov/data/data/datagovdata/constituent-services-39ee8.csv","Council Member","uri",".*?$(?<!\.aspx)"
"/data/datasets/datagov/data/data/datagovdata/constituent-services-39ee8.csv","CB","uri",".*?$(?<!\.aspx)"
