"file_name","column_name","label","regex"
"/data/datasets/datagov/data/data/datagovdata/ksd250data116082367_schd_view.csv","GID","numbers","^(\d|,)*\.?\d*$"
"/data/datasets/datagov/data/data/datagovdata/ksd250data116082367_schd_view.csv","RGIS_CODE","numbers","^(\d|,)*\.?\d*$"
"/data/datasets/datagov/data/data/datagovdata/ksd250data116082367_schd_view.csv","P037053","numbers","^(\d|,)*\.?\d*$"
"/data/datasets/datagov/data/data/datagovdata/ksd250data116082367_schd_view.csv","SN35_D00_I","numbers","^(\d|,)*\.?\d*$"
"/data/datasets/datagov/data/data/datagovdata/ksd250data116082367_schd_view.csv","LSAD","uri",".*?$(?<!\.aspx)"
"/data/datasets/datagov/data/data/datagovdata/ksd250data116082367_schd_view.csv","STFID","numbers","^(\d|,)*\.?\d*$"
"/data/datasets/datagov/data/data/datagovdata/ksd250data116082367_schd_view.csv","P037051","numbers","^(\d|,)*\.?\d*$"
"/data/datasets/datagov/data/data/datagovdata/ksd250data116082367_schd_view.csv","P037048","numbers","^(\d|,)*\.?\d*$"
"/data/datasets/datagov/data/data/datagovdata/ksd250data116082367_schd_view.csv","NAME","uri",".*?$(?<!\.aspx)"
"/data/datasets/datagov/data/data/datagovdata/ksd250data116082367_schd_view.csv","P037002","numbers","^(\d|,)*\.?\d*$"
"/data/datasets/datagov/data/data/datagovdata/ksd250data116082367_schd_view.csv","P037047","numbers","^(\d|,)*\.?\d*$"
"/data/datasets/datagov/data/data/datagovdata/ksd250data116082367_schd_view.csv","SN35_D00_","numbers","^(\d|,)*\.?\d*$"
"/data/datasets/datagov/data/data/datagovdata/ksd250data116082367_schd_view.csv","P037046","numbers","^(\d|,)*\.?\d*$"
"/data/datasets/datagov/data/data/datagovdata/ksd250data116082367_schd_view.csv","P037049","numbers","^(\d|,)*\.?\d*$"
"/data/datasets/datagov/data/data/datagovdata/ksd250data116082367_schd_view.csv","P037055","numbers","^(\d|,)*\.?\d*$"
"/data/datasets/datagov/data/data/datagovdata/ksd250data116082367_schd_view.csv","P037050","numbers","^(\d|,)*\.?\d*$"
"/data/datasets/datagov/data/data/datagovdata/ksd250data116082367_schd_view.csv","AREA_NAME","uri",".*?$(?<!\.aspx)"
"/data/datasets/datagov/data/data/datagovdata/ksd250data116082367_schd_view.csv","AREA","numbers","^(\d|,)*\.?\d*$"
"/data/datasets/datagov/data/data/datagovdata/ksd250data116082367_schd_view.csv","STATE","numbers","^(\d|,)*\.?\d*$"
"/data/datasets/datagov/data/data/datagovdata/ksd250data116082367_schd_view.csv","P037052","numbers","^(\d|,)*\.?\d*$"
"/data/datasets/datagov/data/data/datagovdata/ksd250data116082367_schd_view.csv","P037054","numbers","^(\d|,)*\.?\d*$"
"/data/datasets/datagov/data/data/datagovdata/ksd250data116082367_schd_view.csv","SD_U","numbers","^(\d|,)*\.?\d*$"
"/data/datasets/datagov/data/data/datagovdata/ksd250data116082367_schd_view.csv","PERIMETER","numbers","^(\d|,)*\.?\d*$"
