"file_name","column_name","label","regex"
"/data/datasets/datagov/data/data/datagovdata/anemometer-data-wind-speed-direction-for-beloit-kansas-2003-2004-f0f98.csv","DR Version 10","numbers","^\d*$"
"/data/datasets/datagov/data/data/datagovdata/anemometer-data-wind-speed-direction-for-beloit-kansas-2003-2004-f0f98.csv","Unnamed: 3","numbers","^\d*$"
"/data/datasets/datagov/data/data/datagovdata/anemometer-data-wind-speed-direction-for-beloit-kansas-2003-2004-f0f98.csv","6/25/2004 10:25","numbers","^\d*$"
"/data/datasets/datagov/data/data/datagovdata/anemometer-data-wind-speed-direction-for-beloit-kansas-2003-2004-f0f98.csv","Read by","strings","[^""\r\n]*"
