"file_name","column_name","label","regex"
"/data/datasets/datagov/data/data/datagovdata/tgr19blk00shp.csv","FIPSSTCO","numbers","^\d*$"
"/data/datasets/datagov/data/data/datagovdata/tgr19blk00shp.csv","ID","numbers","^\d*$"
"/data/datasets/datagov/data/data/datagovdata/tgr19blk00shp.csv","TRACT2000","numbers","^\d*$"
"/data/datasets/datagov/data/data/datagovdata/tgr19blk00shp.csv","STFID","numbers","^\d*$"
"/data/datasets/datagov/data/data/datagovdata/tgr19blk00shp.csv","BLOCK2000","numbers","^\d*$"
