"file_name","column_name","label","regex"
"/data/datasets/datagov/data/data/datagovdata/facilities-management-closed-cells-as-of-july-22-2011-c85e8.csv","IRON","numbers","^[-+]?\d+(\.\d+)?|[-+]?\.\d+?$"
"/data/datasets/datagov/data/data/datagovdata/facilities-management-closed-cells-as-of-july-22-2011-c85e8.csv","ENGINEERING","numbers","^[-+]?\d+(\.\d+)?|[-+]?\.\d+?$"
"/data/datasets/datagov/data/data/datagovdata/facilities-management-closed-cells-as-of-july-22-2011-c85e8.csv","PLUMBING","numbers","^[-+]?\d+(\.\d+)?|[-+]?\.\d+?$"
"/data/datasets/datagov/data/data/datagovdata/facilities-management-closed-cells-as-of-july-22-2011-c85e8.csv","CARPENTRY","numbers","^[-+]?\d+(\.\d+)?|[-+]?\.\d+?$"
"/data/datasets/datagov/data/data/datagovdata/facilities-management-closed-cells-as-of-july-22-2011-c85e8.csv","TIN","numbers","^[-+]?\d+(\.\d+)?|[-+]?\.\d+?$"
"/data/datasets/datagov/data/data/datagovdata/facilities-management-closed-cells-as-of-july-22-2011-c85e8.csv","TOTAL CELLS","numbers","^[-+]?\d+(\.\d+)?|[-+]?\.\d+?$"
"/data/datasets/datagov/data/data/datagovdata/facilities-management-closed-cells-as-of-july-22-2011-c85e8.csv","OPEN CELLS","numbers","^[-+]?\d+(\.\d+)?|[-+]?\.\d+?$"
"/data/datasets/datagov/data/data/datagovdata/facilities-management-closed-cells-as-of-july-22-2011-c85e8.csv","BRIC","numbers","^[-+]?\d+(\.\d+)?|[-+]?\.\d+?$"
"/data/datasets/datagov/data/data/datagovdata/facilities-management-closed-cells-as-of-july-22-2011-c85e8.csv","ELECTRICAL","numbers","^[-+]?\d+(\.\d+)?|[-+]?\.\d+?$"
"/data/datasets/datagov/data/data/datagovdata/facilities-management-closed-cells-as-of-july-22-2011-c85e8.csv","GLAZ","numbers","^[-+]?\d+(\.\d+)?|[-+]?\.\d+?$"
"/data/datasets/datagov/data/data/datagovdata/facilities-management-closed-cells-as-of-july-22-2011-c85e8.csv","DIVISION ","uri",".*?$(?<!\.aspx)"
"/data/datasets/datagov/data/data/datagovdata/facilities-management-closed-cells-as-of-july-22-2011-c85e8.csv","MISC","numbers","^[-+]?\d+(\.\d+)?|[-+]?\.\d+?$"
"/data/datasets/datagov/data/data/datagovdata/facilities-management-closed-cells-as-of-july-22-2011-c85e8.csv","ELEC TECH","numbers","^[-+]?\d+(\.\d+)?|[-+]?\.\d+?$"
