"file_name","column_name","label","regex"
"/data/datasets/datagov/data/data/datagovdata/05to12-iquery-stecdata-b3da9.csv","Ethnicity","uri",".*?$(?<!\.aspx)"
"/data/datasets/datagov/data/data/datagovdata/05to12-iquery-stecdata-b3da9.csv","IL","uri",".*?$(?<!\.aspx)"
"/data/datasets/datagov/data/data/datagovdata/05to12-iquery-stecdata-b3da9.csv","Race","uri",".*?$(?<!\.aspx)"
"/data/datasets/datagov/data/data/datagovdata/05to12-iquery-stecdata-b3da9.csv","YearText","uri",".*?$(?<!\.aspx)"
"/data/datasets/datagov/data/data/datagovdata/05to12-iquery-stecdata-b3da9.csv","AgeGroup","uri",".*?$(?<!\.aspx)"
"/data/datasets/datagov/data/data/datagovdata/05to12-iquery-stecdata-b3da9.csv","Year","numbers","^\d$"
"/data/datasets/datagov/data/data/datagovdata/05to12-iquery-stecdata-b3da9.csv","AgeGroupText","uri",".*?$(?<!\.aspx)"
"/data/datasets/datagov/data/data/datagovdata/05to12-iquery-stecdata-b3da9.csv","Disease","uri",".*?$(?<!\.aspx)"
"/data/datasets/datagov/data/data/datagovdata/05to12-iquery-stecdata-b3da9.csv","Count","numbers","^\d$"
"/data/datasets/datagov/data/data/datagovdata/05to12-iquery-stecdata-b3da9.csv","StateOrCounty","uri",".*?$(?<!\.aspx)"
"/data/datasets/datagov/data/data/datagovdata/05to12-iquery-stecdata-b3da9.csv","Gender","uri",".*?$(?<!\.aspx)"
