"file_name","column_name","label","regex"
"/data/datasets/datagov/data/data/datagovdata/ssmma-cook-county-population-growth-by-municiplity-and-waste-agency-jurisdiction-e3c0a.csv","Location 1","uri","^[^\\\/\?\*\""\'\>\<\:\|]*$"
"/data/datasets/datagov/data/data/datagovdata/ssmma-cook-county-population-growth-by-municiplity-and-waste-agency-jurisdiction-e3c0a.csv","2000 Total population","numbers","^-?\d*(\.\d+)?$"
"/data/datasets/datagov/data/data/datagovdata/ssmma-cook-county-population-growth-by-municiplity-and-waste-agency-jurisdiction-e3c0a.csv","Population Change 2000-2010","numbers","^-?\d*(\.\d+)?$"
"/data/datasets/datagov/data/data/datagovdata/ssmma-cook-county-population-growth-by-municiplity-and-waste-agency-jurisdiction-e3c0a.csv","Municipality","strings","[^""\r\n]*"
"/data/datasets/datagov/data/data/datagovdata/ssmma-cook-county-population-growth-by-municiplity-and-waste-agency-jurisdiction-e3c0a.csv","Percent Change","uri","^[^\\\/\?\*\""\'\>\<\:\|]*$"
"/data/datasets/datagov/data/data/datagovdata/ssmma-cook-county-population-growth-by-municiplity-and-waste-agency-jurisdiction-e3c0a.csv","2010 Population","numbers","^-?\d*(\.\d+)?$"
"/data/datasets/datagov/data/data/datagovdata/ssmma-cook-county-population-growth-by-municiplity-and-waste-agency-jurisdiction-e3c0a.csv","Waste Agency","uri","^[^\\\/\?\*\""\'\>\<\:\|]*$"
