"file_name","column_name","label","regex"
"/data/datasets/mitdwh/short_tip_subject_offered.csv","Course Number Desc","strings","[^""\r\n]*"
"/data/datasets/mitdwh/short_tip_subject_offered.csv","Tip Subject Offered Key","uri",".*?$(?<!\.aspx)"
"/data/datasets/mitdwh/short_tip_subject_offered.csv","Offer Dept Name","strings","[^""\r\n]*"
"/data/datasets/mitdwh/short_tip_subject_offered.csv","Warehouse Load Date","strings","[^""\r\n]*"
"/data/datasets/mitdwh/short_tip_subject_offered.csv","Responsible Faculty Mit Id","uri",".*?$(?<!\.aspx)"
"/data/datasets/mitdwh/short_tip_subject_offered.csv","Offer School Name","uri",".*?$(?<!\.aspx)"
"/data/datasets/mitdwh/short_tip_subject_offered.csv","Subject Id","uri",".*?$(?<!\.aspx)"
"/data/datasets/mitdwh/short_tip_subject_offered.csv","Course Number Sort","uri",".*?$(?<!\.aspx)"
"/data/datasets/mitdwh/short_tip_subject_offered.csv","Term Code","address_or_phone","(\d{4,6})"
"/data/datasets/mitdwh/short_tip_subject_offered.csv","Master Subject Id Sort","uri",".*?$(?<!\.aspx)"
"/data/datasets/mitdwh/short_tip_subject_offered.csv","Master Course Number Sort","uri",".*?$(?<!\.aspx)"
"/data/datasets/mitdwh/short_tip_subject_offered.csv","Course Number","uri",".*?$(?<!\.aspx)"
"/data/datasets/mitdwh/short_tip_subject_offered.csv","Master Course Number Desc","strings","[^""\r\n]*"
"/data/datasets/mitdwh/short_tip_subject_offered.csv","Offer Dept Code","uri",".*?$(?<!\.aspx)"
"/data/datasets/mitdwh/short_tip_subject_offered.csv","Master Course Number","uri",".*?$(?<!\.aspx)"
"/data/datasets/mitdwh/short_tip_subject_offered.csv","Num Enrolled Students","numbers","^\d*$"
"/data/datasets/mitdwh/short_tip_subject_offered.csv","Subject Title","strings","[^""\r\n]*"
"/data/datasets/mitdwh/short_tip_subject_offered.csv","Subject Id Sort","uri",".*?$(?<!\.aspx)"
"/data/datasets/mitdwh/short_tip_subject_offered.csv","Responsible Faculty Name","uri",".*?$(?<!\.aspx)"
"/data/datasets/mitdwh/short_tip_subject_offered.csv","Master Subject Id","uri",".*?$(?<!\.aspx)"
