"file_name","column_name","label","regex"
"/data/datasets/datagov/data/data/datagovdata/assessment-actions-c7e0c.csv","Granted Reduction Amount","numbers","^\$?\d+(\.(\d{2}))?$"
"/data/datasets/datagov/data/data/datagovdata/assessment-actions-c7e0c.csv","Borough Code","numbers","^\$?\d+(\.(\d{2}))?$"
"/data/datasets/datagov/data/data/datagovdata/assessment-actions-c7e0c.csv","Lot Number","numbers","^\$?\d+(\.(\d{2}))?$"
"/data/datasets/datagov/data/data/datagovdata/assessment-actions-c7e0c.csv","Tax Class Code","uri",".*?$(?<!\.aspx)"
"/data/datasets/datagov/data/data/datagovdata/assessment-actions-c7e0c.csv","Property Address","uri",".*?$(?<!\.aspx)"
"/data/datasets/datagov/data/data/datagovdata/assessment-actions-c7e0c.csv","Tax Year","numbers","^\$?\d+(\.(\d{2}))?$"
"/data/datasets/datagov/data/data/datagovdata/assessment-actions-c7e0c.csv","Owner Name","strings","[^""\r\n]*"
"/data/datasets/datagov/data/data/datagovdata/assessment-actions-c7e0c.csv","Remission Code","uri",".*?$(?<!\.aspx)"
"/data/datasets/datagov/data/data/datagovdata/assessment-actions-c7e0c.csv","Block Number","numbers","^\$?\d+(\.(\d{2}))?$"
