"file_name","column_name","label","regex"
"/data/datasets/datagov/data/data/datagovdata/average-daily-traffic-counts-3968f.csv","Vehicle Volume By Each Direction of Traffic","strings","[^""\r\n]*"
"/data/datasets/datagov/data/data/datagovdata/average-daily-traffic-counts-3968f.csv","Location","uri",".*?$(?<!\.aspx)"
"/data/datasets/datagov/data/data/datagovdata/average-daily-traffic-counts-3968f.csv","Latitude","numbers","^-?\d*(\.\d+)?$"
"/data/datasets/datagov/data/data/datagovdata/average-daily-traffic-counts-3968f.csv","Date of Count","strings","[^""\r\n]*"
"/data/datasets/datagov/data/data/datagovdata/average-daily-traffic-counts-3968f.csv","Street","uri",".*?$(?<!\.aspx)"
"/data/datasets/datagov/data/data/datagovdata/average-daily-traffic-counts-3968f.csv","Longitude","numbers","^-?\d*(\.\d+)?$"
"/data/datasets/datagov/data/data/datagovdata/average-daily-traffic-counts-3968f.csv","Traffic Volume Count Location  Address","uri",".*?$(?<!\.aspx)"
"/data/datasets/datagov/data/data/datagovdata/average-daily-traffic-counts-3968f.csv","Total Passing Vehicle Volume","numbers","^-?\d*(\.\d+)?$"
"/data/datasets/datagov/data/data/datagovdata/average-daily-traffic-counts-3968f.csv","ID ","numbers","^-?\d*(\.\d+)?$"
