"file_name","column_name","label","regex"
"/data/datasets/datagov/data/data/datagovdata/new-york-state-enacted-budget-appropriations-2014-2015.csv","Enacted Reappropriations 2014-15","numbers","^\d*$"
"/data/datasets/datagov/data/data/datagovdata/new-york-state-enacted-budget-appropriations-2014-2015.csv","Appropriation Category","uri",".*?$(?<!\.aspx)"
"/data/datasets/datagov/data/data/datagovdata/new-york-state-enacted-budget-appropriations-2014-2015.csv","Subfund","uri",".*?$(?<!\.aspx)"
"/data/datasets/datagov/data/data/datagovdata/new-york-state-enacted-budget-appropriations-2014-2015.csv","Fund Name","strings","[^""\r\n]*"
"/data/datasets/datagov/data/data/datagovdata/new-york-state-enacted-budget-appropriations-2014-2015.csv","Estimated FTEs 03/31/2015","numbers","^\d*$"
"/data/datasets/datagov/data/data/datagovdata/new-york-state-enacted-budget-appropriations-2014-2015.csv","Agency Name","uri",".*?$(?<!\.aspx)"
"/data/datasets/datagov/data/data/datagovdata/new-york-state-enacted-budget-appropriations-2014-2015.csv","Fund Type","uri",".*?$(?<!\.aspx)"
"/data/datasets/datagov/data/data/datagovdata/new-york-state-enacted-budget-appropriations-2014-2015.csv","Enacted Appropriations 2014-15","numbers","^\d*$"
"/data/datasets/datagov/data/data/datagovdata/new-york-state-enacted-budget-appropriations-2014-2015.csv","Estimated FTEs 03/31/2014","numbers","^\d*$"
"/data/datasets/datagov/data/data/datagovdata/new-york-state-enacted-budget-appropriations-2014-2015.csv","Appropriations Available 2013-14","numbers","^\d*$"
"/data/datasets/datagov/data/data/datagovdata/new-york-state-enacted-budget-appropriations-2014-2015.csv","Program Name","uri",".*?$(?<!\.aspx)"
"/data/datasets/datagov/data/data/datagovdata/new-york-state-enacted-budget-appropriations-2014-2015.csv","Subfund Name","strings","[^""\r\n]*"
