"file_name","column_name","label","regex"
"/data/datasets/datagov/data/data/datagovdata/contracts-esd-lake-county-fiscal-year-2014-10969.csv","ESD #","numbers","^\d*$"
"/data/datasets/datagov/data/data/datagovdata/contracts-esd-lake-county-fiscal-year-2014-10969.csv","Address, City, State, Zip","uri",".*?$(?<!\.aspx)"
"/data/datasets/datagov/data/data/datagovdata/contracts-esd-lake-county-fiscal-year-2014-10969.csv","Original Start/Amendment Date/Expiration Date","strings","[^""\r\n]*"
"/data/datasets/datagov/data/data/datagovdata/contracts-esd-lake-county-fiscal-year-2014-10969.csv","ESD NAME","uri",".*?$(?<!\.aspx)"
"/data/datasets/datagov/data/data/datagovdata/contracts-esd-lake-county-fiscal-year-2014-10969.csv","Award Type","uri",".*?$(?<!\.aspx)"
"/data/datasets/datagov/data/data/datagovdata/contracts-esd-lake-county-fiscal-year-2014-10969.csv","Total Award Value w/Amendments","strings","[^""\r\n]*"
"/data/datasets/datagov/data/data/datagovdata/contracts-esd-lake-county-fiscal-year-2014-10969.csv","Original Award Value","strings","[^""\r\n]*"
"/data/datasets/datagov/data/data/datagovdata/contracts-esd-lake-county-fiscal-year-2014-10969.csv","Type of Contract","uri",".*?$(?<!\.aspx)"
"/data/datasets/datagov/data/data/datagovdata/contracts-esd-lake-county-fiscal-year-2014-10969.csv","Award Title","strings","[^""\r\n]*"
"/data/datasets/datagov/data/data/datagovdata/contracts-esd-lake-county-fiscal-year-2014-10969.csv","Contractor Information","strings","[^""\r\n]*"
