"file_name","column_name","label","regex"
"/data/datasets/datagov/data/data/datagovdata/annual-youth-detention-admissions-by-county-beginning-2006.csv","Non Secure Admissions","numbers","^(\d|,)*\.?\d*$"
"/data/datasets/datagov/data/data/datagovdata/annual-youth-detention-admissions-by-county-beginning-2006.csv","Secure Non Secure Admissions","numbers","^(\d|,)*\.?\d*$"
"/data/datasets/datagov/data/data/datagovdata/annual-youth-detention-admissions-by-county-beginning-2006.csv"," Year ","numbers","^(\d|,)*\.?\d*$"
"/data/datasets/datagov/data/data/datagovdata/annual-youth-detention-admissions-by-county-beginning-2006.csv","Secure Non Secure Unique Youth","numbers","^(\d|,)*\.?\d*$"
"/data/datasets/datagov/data/data/datagovdata/annual-youth-detention-admissions-by-county-beginning-2006.csv","County/District","uri",".*?$(?<!\.aspx)"
"/data/datasets/datagov/data/data/datagovdata/annual-youth-detention-admissions-by-county-beginning-2006.csv","Non Secure Unique Youth","numbers","^(\d|,)*\.?\d*$"
