"file_name","column_name","label","regex"
"/data/datasets/chemical/chembl_21/csvdata/public.target_dictionary.csv","pref_name","strings","[^""\r\n]*"
"/data/datasets/chemical/chembl_21/csvdata/public.target_dictionary.csv","tid","numbers","^\d$"
"/data/datasets/chemical/chembl_21/csvdata/public.target_dictionary.csv","tax_id","numbers","^\d$"
"/data/datasets/chemical/chembl_21/csvdata/public.target_dictionary.csv","species_group_flag","numbers","^\d$"
"/data/datasets/chemical/chembl_21/csvdata/public.target_dictionary.csv","chembl_id","uri",".*?$(?<!\.aspx)"
"/data/datasets/chemical/chembl_21/csvdata/public.target_dictionary.csv","organism","strings","[^""\r\n]*"
"/data/datasets/chemical/chembl_21/csvdata/public.target_dictionary.csv","target_type","uri",".*?$(?<!\.aspx)"
