"file_name","column_name","label","regex"
"/data/datasets/datagov/data/data/datagovdata/roll-up-by-location-842fe.csv","Location","uri",".*?$(?<!\.aspx)"
"/data/datasets/datagov/data/data/datagovdata/roll-up-by-location-842fe.csv","Total Count","numbers","^\d*$"
"/data/datasets/datagov/data/data/datagovdata/roll-up-by-location-842fe.csv","Total Count (Male)","numbers","^\d*$"
"/data/datasets/datagov/data/data/datagovdata/roll-up-by-location-842fe.csv","Count","uri",".*?$(?<!\.aspx)"
"/data/datasets/datagov/data/data/datagovdata/roll-up-by-location-842fe.csv","Date","strings","[^""\r\n]*"
"/data/datasets/datagov/data/data/datagovdata/roll-up-by-location-842fe.csv","Total Count (Female)","numbers","^\d*$"
