"file_name","column_name","label","regex"
"/data/datasets/datagov/data/data/datagovdata/grant-information-collection-act-1-2nd-quarter-24148.csv","Agency","uri",".*?$(?<!\.aspx)"
"/data/datasets/datagov/data/data/datagovdata/grant-information-collection-act-1-2nd-quarter-24148.csv","Grantee Name","strings","[^""\r\n]*"
"/data/datasets/datagov/data/data/datagovdata/grant-information-collection-act-1-2nd-quarter-24148.csv","Grant Award Date","strings","[^""\r\n]*"
"/data/datasets/datagov/data/data/datagovdata/grant-information-collection-act-1-2nd-quarter-24148.csv","Beginning Date ","strings","[^""\r\n]*"
"/data/datasets/datagov/data/data/datagovdata/grant-information-collection-act-1-2nd-quarter-24148.csv","Project Description","uri",".*?$(?<!\.aspx)"
"/data/datasets/datagov/data/data/datagovdata/grant-information-collection-act-1-2nd-quarter-24148.csv","Grant Amount","numbers","^\$?\d+(\.(\d{2}))?$"
"/data/datasets/datagov/data/data/datagovdata/grant-information-collection-act-1-2nd-quarter-24148.csv","zip","address_or_phone","(\d{4,6})"
"/data/datasets/datagov/data/data/datagovdata/grant-information-collection-act-1-2nd-quarter-24148.csv","Endning Date ","strings","[^""\r\n]*"
