"file_name","column_name","label","regex"
"/data/datasets/datagov/data/data/datagovdata/tl_2010_35_aits10.csv","FUNCSTAT10","uri",".*?$(?<!\.aspx)"
"/data/datasets/datagov/data/data/datagovdata/tl_2010_35_aits10.csv","STATEFP10","numbers","^\d*$"
"/data/datasets/datagov/data/data/datagovdata/tl_2010_35_aits10.csv","NAME10","strings","[^""\r\n]*"
"/data/datasets/datagov/data/data/datagovdata/tl_2010_35_aits10.csv","INTPTLON10","numbers","^\d*$"
"/data/datasets/datagov/data/data/datagovdata/tl_2010_35_aits10.csv","TRSUBFP10","numbers","^\d*$"
"/data/datasets/datagov/data/data/datagovdata/tl_2010_35_aits10.csv","AIANNHCE10","numbers","^\d*$"
"/data/datasets/datagov/data/data/datagovdata/tl_2010_35_aits10.csv","TRSUBCE10","numbers","^\d*$"
"/data/datasets/datagov/data/data/datagovdata/tl_2010_35_aits10.csv","INTPTLAT10","numbers","^\d*$"
"/data/datasets/datagov/data/data/datagovdata/tl_2010_35_aits10.csv","ALAND10","numbers","^\d*$"
"/data/datasets/datagov/data/data/datagovdata/tl_2010_35_aits10.csv","MTFCC10","uri",".*?$(?<!\.aspx)"
"/data/datasets/datagov/data/data/datagovdata/tl_2010_35_aits10.csv","GEOID10","numbers","^\d*$"
"/data/datasets/datagov/data/data/datagovdata/tl_2010_35_aits10.csv","PARTFLG10","uri",".*?$(?<!\.aspx)"
"/data/datasets/datagov/data/data/datagovdata/tl_2010_35_aits10.csv","NAMELSAD10","strings","[^""\r\n]*"
"/data/datasets/datagov/data/data/datagovdata/tl_2010_35_aits10.csv","TRSUBNS10","numbers","^\d*$"
"/data/datasets/datagov/data/data/datagovdata/tl_2010_35_aits10.csv","AWATER10","numbers","^\d*$"
"/data/datasets/datagov/data/data/datagovdata/tl_2010_35_aits10.csv","LSAD10","uri",".*?$(?<!\.aspx)"
"/data/datasets/datagov/data/data/datagovdata/tl_2010_35_aits10.csv","CLASSFP10","uri",".*?$(?<!\.aspx)"
