"file_name","column_name","label","regex"
"/data/datasets/datagov/data/data/datagovdata/dpd-eca-kslidesw-94b4f.csv","NATURAL_","uri",".*?$(?<!\.aspx)"
"/data/datasets/datagov/data/data/datagovdata/dpd-eca-kslidesw-94b4f.csv","FIELDCHECK","uri",".*?$(?<!\.aspx)"
"/data/datasets/datagov/data/data/datagovdata/dpd-eca-kslidesw-94b4f.csv","SURFACEWAT","uri",".*?$(?<!\.aspx)"
"/data/datasets/datagov/data/data/datagovdata/dpd-eca-kslidesw-94b4f.csv","FILENUMBER","uri",".*?$(?<!\.aspx)"
"/data/datasets/datagov/data/data/datagovdata/dpd-eca-kslidesw-94b4f.csv","SLOPEHEIGH","numbers","^(\d|,)*\.?\d*$"
"/data/datasets/datagov/data/data/datagovdata/dpd-eca-kslidesw-94b4f.csv","ROADFILL_C","uri",".*?$(?<!\.aspx)"
"/data/datasets/datagov/data/data/datagovdata/dpd-eca-kslidesw-94b4f.csv","GEO3","uri",".*?$(?<!\.aspx)"
"/data/datasets/datagov/data/data/datagovdata/dpd-eca-kslidesw-94b4f.csv","FILL_CUT","uri",".*?$(?<!\.aspx)"
"/data/datasets/datagov/data/data/datagovdata/dpd-eca-kslidesw-94b4f.csv","MONTH_","numbers","^(\d|,)*\.?\d*$"
"/data/datasets/datagov/data/data/datagovdata/dpd-eca-kslidesw-94b4f.csv","DAY_","numbers","^(\d|,)*\.?\d*$"
"/data/datasets/datagov/data/data/datagovdata/dpd-eca-kslidesw-94b4f.csv","GEO2","uri",".*?$(?<!\.aspx)"
"/data/datasets/datagov/data/data/datagovdata/dpd-eca-kslidesw-94b4f.csv","VEGETATION","uri",".*?$(?<!\.aspx)"
"/data/datasets/datagov/data/data/datagovdata/dpd-eca-kslidesw-94b4f.csv","INSTEEPSLP","numbers","^(\d|,)*\.?\d*$"
"/data/datasets/datagov/data/data/datagovdata/dpd-eca-kslidesw-94b4f.csv","DEBRISFLOW","uri",".*?$(?<!\.aspx)"
"/data/datasets/datagov/data/data/datagovdata/dpd-eca-kslidesw-94b4f.csv","COMMENTS_3","strings","[^""\r\n]*"
"/data/datasets/datagov/data/data/datagovdata/dpd-eca-kslidesw-94b4f.csv","KSLIDE_ID","numbers","^(\d|,)*\.?\d*$"
"/data/datasets/datagov/data/data/datagovdata/dpd-eca-kslidesw-94b4f.csv","UNOPENED_R","uri",".*?$(?<!\.aspx)"
"/data/datasets/datagov/data/data/datagovdata/dpd-eca-kslidesw-94b4f.csv","OBJECTID","numbers","^(\d|,)*\.?\d*$"
"/data/datasets/datagov/data/data/datagovdata/dpd-eca-kslidesw-94b4f.csv","REPAIRTYPE","strings","[^""\r\n]*"
"/data/datasets/datagov/data/data/datagovdata/dpd-eca-kslidesw-94b4f.csv","SWJOB","uri",".*?$(?<!\.aspx)"
"/data/datasets/datagov/data/data/datagovdata/dpd-eca-kslidesw-94b4f.csv","COMMENTS_2","strings","[^""\r\n]*"
"/data/datasets/datagov/data/data/datagovdata/dpd-eca-kslidesw-94b4f.csv","CONSULTANT","uri",".*?$(?<!\.aspx)"
"/data/datasets/datagov/data/data/datagovdata/dpd-eca-kslidesw-94b4f.csv","TRENCHFILL","uri",".*?$(?<!\.aspx)"
"/data/datasets/datagov/data/data/datagovdata/dpd-eca-kslidesw-94b4f.csv","DTDATE","address_or_phone","(\d{4,6})"
"/data/datasets/datagov/data/data/datagovdata/dpd-eca-kslidesw-94b4f.csv","SIZE_","uri",".*?$(?<!\.aspx)"
"/data/datasets/datagov/data/data/datagovdata/dpd-eca-kslidesw-94b4f.csv","GRNDWTR","uri",".*?$(?<!\.aspx)"
"/data/datasets/datagov/data/data/datagovdata/dpd-eca-kslidesw-94b4f.csv","NEIGHBORHO","uri",".*?$(?<!\.aspx)"
"/data/datasets/datagov/data/data/datagovdata/dpd-eca-kslidesw-94b4f.csv","YEAR_","numbers","^(\d|,)*\.?\d*$"
"/data/datasets/datagov/data/data/datagovdata/dpd-eca-kslidesw-94b4f.csv","INPOTSLIDE","numbers","^(\d|,)*\.?\d*$"
"/data/datasets/datagov/data/data/datagovdata/dpd-eca-kslidesw-94b4f.csv","YSNSLIDE","uri",".*?$(?<!\.aspx)"
"/data/datasets/datagov/data/data/datagovdata/dpd-eca-kslidesw-94b4f.csv","LOCATION","strings","[^""\r\n]*"
"/data/datasets/datagov/data/data/datagovdata/dpd-eca-kslidesw-94b4f.csv","REPAIREFFE","uri",".*?$(?<!\.aspx)"
"/data/datasets/datagov/data/data/datagovdata/dpd-eca-kslidesw-94b4f.csv","TOPOGRAPHY","uri",".*?$(?<!\.aspx)"
"/data/datasets/datagov/data/data/datagovdata/dpd-eca-kslidesw-94b4f.csv","DECADE","numbers","^(\d|,)*\.?\d*$"
"/data/datasets/datagov/data/data/datagovdata/dpd-eca-kslidesw-94b4f.csv","GEO4","uri",".*?$(?<!\.aspx)"
"/data/datasets/datagov/data/data/datagovdata/dpd-eca-kslidesw-94b4f.csv","GEO1","uri",".*?$(?<!\.aspx)"
"/data/datasets/datagov/data/data/datagovdata/dpd-eca-kslidesw-94b4f.csv","DATECONFID","uri",".*?$(?<!\.aspx)"
"/data/datasets/datagov/data/data/datagovdata/dpd-eca-kslidesw-94b4f.csv","KSLIDE_","numbers","^(\d|,)*\.?\d*$"
"/data/datasets/datagov/data/data/datagovdata/dpd-eca-kslidesw-94b4f.csv","AREA_","numbers","^(\d|,)*\.?\d*$"
"/data/datasets/datagov/data/data/datagovdata/dpd-eca-kslidesw-94b4f.csv","COMMENTS","strings","[^""\r\n]*"
"/data/datasets/datagov/data/data/datagovdata/dpd-eca-kslidesw-94b4f.csv","TDATE","numbers","^(\d|,)*\.?\d*$"
"/data/datasets/datagov/data/data/datagovdata/dpd-eca-kslidesw-94b4f.csv","SW_ID","numbers","^(\d|,)*\.?\d*$"
"/data/datasets/datagov/data/data/datagovdata/dpd-eca-kslidesw-94b4f.csv","CONFIDENTI","numbers","^(\d|,)*\.?\d*$"
"/data/datasets/datagov/data/data/datagovdata/dpd-eca-kslidesw-94b4f.csv","SLIDETYPE","uri",".*?$(?<!\.aspx)"
"/data/datasets/datagov/data/data/datagovdata/dpd-eca-kslidesw-94b4f.csv","EVENT_DATE","strings","[^""\r\n]*"
"/data/datasets/datagov/data/data/datagovdata/dpd-eca-kslidesw-94b4f.csv","PIPELEAK","uri",".*?$(?<!\.aspx)"
"/data/datasets/datagov/data/data/datagovdata/dpd-eca-kslidesw-94b4f.csv","DAMAGE","uri",".*?$(?<!\.aspx)"
"/data/datasets/datagov/data/data/datagovdata/dpd-eca-kslidesw-94b4f.csv","PRIVATE","uri",".*?$(?<!\.aspx)"
"/data/datasets/datagov/data/data/datagovdata/dpd-eca-kslidesw-94b4f.csv","WEATHER","uri",".*?$(?<!\.aspx)"
"/data/datasets/datagov/data/data/datagovdata/dpd-eca-kslidesw-94b4f.csv","PUBLIC_","uri",".*?$(?<!\.aspx)"
"/data/datasets/datagov/data/data/datagovdata/dpd-eca-kslidesw-94b4f.csv","PARK","uri",".*?$(?<!\.aspx)"
"/data/datasets/datagov/data/data/datagovdata/dpd-eca-kslidesw-94b4f.csv","SURFACEDRA","uri",".*?$(?<!\.aspx)"
"/data/datasets/datagov/data/data/datagovdata/dpd-eca-kslidesw-94b4f.csv","PERIMETER","numbers","^(\d|,)*\.?\d*$"
"/data/datasets/datagov/data/data/datagovdata/dpd-eca-kslidesw-94b4f.csv","Shape","uri",".*?$(?<!\.aspx)"
"/data/datasets/datagov/data/data/datagovdata/dpd-eca-kslidesw-94b4f.csv","HUMANINFLU","uri",".*?$(?<!\.aspx)"
