"file_name","column_name","label","regex"
"/data/datasets/datagov/data/data/datagovdata/2014-state-employee-pay-as-of-cob-november-30-2014-fdef7.csv"," Calendar Year","numbers","^(\d|,)*\.?\d*$"
"/data/datasets/datagov/data/data/datagovdata/2014-state-employee-pay-as-of-cob-november-30-2014-fdef7.csv","Position Title","uri",".*?$(?<!\.aspx)"
"/data/datasets/datagov/data/data/datagovdata/2014-state-employee-pay-as-of-cob-november-30-2014-fdef7.csv","YTD Gross Pay","numbers","^(\d|,)*\.?\d*$"
"/data/datasets/datagov/data/data/datagovdata/2014-state-employee-pay-as-of-cob-november-30-2014-fdef7.csv","Agency Name","uri",".*?$(?<!\.aspx)"
"/data/datasets/datagov/data/data/datagovdata/2014-state-employee-pay-as-of-cob-november-30-2014-fdef7.csv","Employee Name","uri",".*?$(?<!\.aspx)"
