"file_name","column_name","label","regex"
"/data/datasets/datagov/data/data/datagovdata/benefit-companies-9e825.csv","Entity Type","uri",".*?$(?<!\.aspx)"
"/data/datasets/datagov/data/data/datagovdata/benefit-companies-9e825.csv","Registry Number","numbers","^\d*$"
"/data/datasets/datagov/data/data/datagovdata/benefit-companies-9e825.csv","Business Name","uri",".*?$(?<!\.aspx)"
"/data/datasets/datagov/data/data/datagovdata/benefit-companies-9e825.csv","Benefit Designation Date","strings","[^""\r\n]*"
"/data/datasets/datagov/data/data/datagovdata/benefit-companies-9e825.csv","Business Details","uri",".*?$(?<!\.aspx)"
