"file_name","column_name","label","regex"
"/data/datasets/datagov/data/data/datagovdata/2012-foreclosure-avoidance-mediation-beneficiary-exemption-affidavits-890df.csv","Beneficiary","uri",".*?$(?<!\.aspx)"
"/data/datasets/datagov/data/data/datagovdata/2012-foreclosure-avoidance-mediation-beneficiary-exemption-affidavits-890df.csv","Title","strings","[^""\r\n]*"
"/data/datasets/datagov/data/data/datagovdata/2012-foreclosure-avoidance-mediation-beneficiary-exemption-affidavits-890df.csv","Phone","uri",".*?$(?<!\.aspx)"
"/data/datasets/datagov/data/data/datagovdata/2012-foreclosure-avoidance-mediation-beneficiary-exemption-affidavits-890df.csv","Contact","uri",".*?$(?<!\.aspx)"
"/data/datasets/datagov/data/data/datagovdata/2012-foreclosure-avoidance-mediation-beneficiary-exemption-affidavits-890df.csv","Email","uri",".*?$(?<!\.aspx)"
"/data/datasets/datagov/data/data/datagovdata/2012-foreclosure-avoidance-mediation-beneficiary-exemption-affidavits-890df.csv","Mailing Address","uri",".*?$(?<!\.aspx)"
"/data/datasets/datagov/data/data/datagovdata/2012-foreclosure-avoidance-mediation-beneficiary-exemption-affidavits-890df.csv","Zip","numbers","^(\d|,)*\.?\d*$"
"/data/datasets/datagov/data/data/datagovdata/2012-foreclosure-avoidance-mediation-beneficiary-exemption-affidavits-890df.csv","City","uri",".*?$(?<!\.aspx)"
"/data/datasets/datagov/data/data/datagovdata/2012-foreclosure-avoidance-mediation-beneficiary-exemption-affidavits-890df.csv","Date","strings","[^""\r\n]*"
"/data/datasets/datagov/data/data/datagovdata/2012-foreclosure-avoidance-mediation-beneficiary-exemption-affidavits-890df.csv","State","uri",".*?$(?<!\.aspx)"
