"file_name","column_name","label","regex"
"/data/datasets/datagov/data/data/datagovdata/job-category-by-agency-2012-fe4b0.csv","Agency","uri",".*?$(?<!\.aspx)"
"/data/datasets/datagov/data/data/datagovdata/job-category-by-agency-2012-fe4b0.csv","Protective Service","numbers","^\d*$"
"/data/datasets/datagov/data/data/datagovdata/job-category-by-agency-2012-fe4b0.csv","Technicians","numbers","^\d*$"
"/data/datasets/datagov/data/data/datagovdata/job-category-by-agency-2012-fe4b0.csv","Service Maintence","numbers","^\d*$"
"/data/datasets/datagov/data/data/datagovdata/job-category-by-agency-2012-fe4b0.csv","Administrative Support","numbers","^\d*$"
"/data/datasets/datagov/data/data/datagovdata/job-category-by-agency-2012-fe4b0.csv","Officials & Administrators","numbers","^\d*$"
"/data/datasets/datagov/data/data/datagovdata/job-category-by-agency-2012-fe4b0.csv","Skilled Craft","numbers","^\d*$"
"/data/datasets/datagov/data/data/datagovdata/job-category-by-agency-2012-fe4b0.csv","Para professionals","numbers","^\d*$"
"/data/datasets/datagov/data/data/datagovdata/job-category-by-agency-2012-fe4b0.csv","Professionals","numbers","^\d*$"
