"file_name","column_name","label","regex"
"/data/datasets/chemical/chembl_21/csvdata/public.cell_dictionary.csv","clo_id","uri",".*?$(?<!\.aspx)"
"/data/datasets/chemical/chembl_21/csvdata/public.cell_dictionary.csv","cell_id","numbers","^(\d|,)*\.?\d*$"
"/data/datasets/chemical/chembl_21/csvdata/public.cell_dictionary.csv","cellosaurus_id","uri",".*?$(?<!\.aspx)"
"/data/datasets/chemical/chembl_21/csvdata/public.cell_dictionary.csv","cell_source_tax_id","numbers","^(\d|,)*\.?\d*$"
"/data/datasets/chemical/chembl_21/csvdata/public.cell_dictionary.csv","cell_description","strings","[^""\r\n]*"
"/data/datasets/chemical/chembl_21/csvdata/public.cell_dictionary.csv","efo_id","uri",".*?$(?<!\.aspx)"
"/data/datasets/chemical/chembl_21/csvdata/public.cell_dictionary.csv","cell_source_organism","uri",".*?$(?<!\.aspx)"
"/data/datasets/chemical/chembl_21/csvdata/public.cell_dictionary.csv","chembl_id","uri",".*?$(?<!\.aspx)"
"/data/datasets/chemical/chembl_21/csvdata/public.cell_dictionary.csv","cl_lincs_id","uri",".*?$(?<!\.aspx)"
"/data/datasets/chemical/chembl_21/csvdata/public.cell_dictionary.csv","cell_source_tissue","uri",".*?$(?<!\.aspx)"
"/data/datasets/chemical/chembl_21/csvdata/public.cell_dictionary.csv","cell_name","strings","[^""\r\n]*"
