"file_name","column_name","label","regex"
"/data/datasets/datagov/data/data/datagovdata/care-4-kids-unique-children-by-age-group-fy10.csv","Preschool Age","numbers","^(\d|,)*\.?\d*$"
"/data/datasets/datagov/data/data/datagovdata/care-4-kids-unique-children-by-age-group-fy10.csv","Town","uri",".*?$(?<!\.aspx)"
"/data/datasets/datagov/data/data/datagovdata/care-4-kids-unique-children-by-age-group-fy10.csv","Infant/Toddler","numbers","^(\d|,)*\.?\d*$"
"/data/datasets/datagov/data/data/datagovdata/care-4-kids-unique-children-by-age-group-fy10.csv","School Age","numbers","^(\d|,)*\.?\d*$"
