"file_name","column_name","label","regex"
"/data/datasets/datagov/data/data/datagovdata/contracts-odot-fiscal-year-2011-5210a.csv","Fed_State_Number","uri",".*?$(?<!\.aspx)"
"/data/datasets/datagov/data/data/datagovdata/contracts-odot-fiscal-year-2011-5210a.csv","Award_Date","strings","[^""\r\n]*"
"/data/datasets/datagov/data/data/datagovdata/contracts-odot-fiscal-year-2011-5210a.csv","Project_Name","strings","[^""\r\n]*"
"/data/datasets/datagov/data/data/datagovdata/contracts-odot-fiscal-year-2011-5210a.csv","Contract_Amount","numbers","^\$?\d+(\.(\d{2}))?$"
"/data/datasets/datagov/data/data/datagovdata/contracts-odot-fiscal-year-2011-5210a.csv","Contract_ID","numbers","^\$?\d+(\.(\d{2}))?$"
"/data/datasets/datagov/data/data/datagovdata/contracts-odot-fiscal-year-2011-5210a.csv","Vendor_Name","uri",".*?$(?<!\.aspx)"
