"file_name","column_name","label","regex"
"/data/datasets/datagov/data/data/datagovdata/2014-public-bonds-data-as-of-may-31-2014-ae0f0.csv","Outstanding Balance","uri",".*?$(?<!\.aspx)"
"/data/datasets/datagov/data/data/datagovdata/2014-public-bonds-data-as-of-may-31-2014-ae0f0.csv","Description of Revenue Stream","strings","[^""\r\n]*"
"/data/datasets/datagov/data/data/datagovdata/2014-public-bonds-data-as-of-may-31-2014-ae0f0.csv","Bond Name","uri",".*?$(?<!\.aspx)"
"/data/datasets/datagov/data/data/datagovdata/2014-public-bonds-data-as-of-may-31-2014-ae0f0.csv","Face Amount","numbers","^\$?\d+(\.(\d{2}))?$"
"/data/datasets/datagov/data/data/datagovdata/2014-public-bonds-data-as-of-may-31-2014-ae0f0.csv","Date of Issuance","strings","[^""\r\n]*"
"/data/datasets/datagov/data/data/datagovdata/2014-public-bonds-data-as-of-may-31-2014-ae0f0.csv"," Political Subdivision Name","uri",".*?$(?<!\.aspx)"
"/data/datasets/datagov/data/data/datagovdata/2014-public-bonds-data-as-of-may-31-2014-ae0f0.csv","Interest Rate","uri",".*?$(?<!\.aspx)"
"/data/datasets/datagov/data/data/datagovdata/2014-public-bonds-data-as-of-may-31-2014-ae0f0.csv","Description of Project","strings","[^""\r\n]*"
