"file_name","column_name","label","regex"
"/data/datasets/datagov/data/data/datagovdata/minor-privilege-permits-88139.csv","lot","numbers","^(\d|,)*\.?\d*$"
"/data/datasets/datagov/data/data/datagovdata/minor-privilege-permits-88139.csv","Description","strings","[^""\r\n]*"
"/data/datasets/datagov/data/data/datagovdata/minor-privilege-permits-88139.csv","Permit Number","uri",".*?$(?<!\.aspx)"
"/data/datasets/datagov/data/data/datagovdata/minor-privilege-permits-88139.csv","block","uri",".*?$(?<!\.aspx)"
"/data/datasets/datagov/data/data/datagovdata/minor-privilege-permits-88139.csv","PropertyAddress","uri",".*?$(?<!\.aspx)"
"/data/datasets/datagov/data/data/datagovdata/minor-privilege-permits-88139.csv","Location","strings","[^""\r\n]*"
