"file_name","column_name","label","regex"
"/data/datasets/datagov/data/data/datagovdata/king-county-budget-2015-2016-general-fund-services-49190.csv","Appropriation","uri",".*?$(?<!\.aspx)"
"/data/datasets/datagov/data/data/datagovdata/king-county-budget-2015-2016-general-fund-services-49190.csv","Service","uri",".*?$(?<!\.aspx)"
"/data/datasets/datagov/data/data/datagovdata/king-county-budget-2015-2016-general-fund-services-49190.csv","FY15-16 Budget","numbers","^\$?\d+(\.(\d{2}))?$"
