"file_name","column_name","label","regex"
"/data/datasets/datagov/data/data/datagovdata/hacla-large-public-housing-sites-16-344ae.csv","Location 1","uri","^[^\\\/\?\*\""\'\>\<\:\|]*$"
"/data/datasets/datagov/data/data/datagovdata/hacla-large-public-housing-sites-16-344ae.csv","Average Monthly Income Per Family","numbers","^\$?\d+(\.(\d{2}))?$"
"/data/datasets/datagov/data/data/datagovdata/hacla-large-public-housing-sites-16-344ae.csv","Site Name","strings","[^""\r\n]*"
"/data/datasets/datagov/data/data/datagovdata/hacla-large-public-housing-sites-16-344ae.csv","Actual Units","numbers","^\$?\d+(\.(\d{2}))?$"
"/data/datasets/datagov/data/data/datagovdata/hacla-large-public-housing-sites-16-344ae.csv","Average Rent Per Month","numbers","^\$?\d+(\.(\d{2}))?$"
"/data/datasets/datagov/data/data/datagovdata/hacla-large-public-housing-sites-16-344ae.csv","Property No.","uri","^[^\\\/\?\*\""\'\>\<\:\|]*$"
"/data/datasets/datagov/data/data/datagovdata/hacla-large-public-housing-sites-16-344ae.csv","Rate of Occupied Units","uri","^[^\\\/\?\*\""\'\>\<\:\|]*$"
"/data/datasets/datagov/data/data/datagovdata/hacla-large-public-housing-sites-16-344ae.csv","Acres","numbers","^\$?\d+(\.(\d{2}))?$"
"/data/datasets/datagov/data/data/datagovdata/hacla-large-public-housing-sites-16-344ae.csv","Occupied Units","numbers","^\$?\d+(\.(\d{2}))?$"
"/data/datasets/datagov/data/data/datagovdata/hacla-large-public-housing-sites-16-344ae.csv","No. of Resident","numbers","^\$?\d+(\.(\d{2}))?$"
