"file_name","column_name","label","regex"
"/data/datasets/datagov/data/data/datagovdata/aaa-fuel-prices-52bf0.csv","PhysicalUnit","uri",".*?$(?<!\.aspx)"
"/data/datasets/datagov/data/data/datagovdata/aaa-fuel-prices-52bf0.csv","Price","numbers","^(\d|,)*\.?\d*$"
"/data/datasets/datagov/data/data/datagovdata/aaa-fuel-prices-52bf0.csv","County","uri",".*?$(?<!\.aspx)"
"/data/datasets/datagov/data/data/datagovdata/aaa-fuel-prices-52bf0.csv","Month_of_Price","strings","[^""\r\n]*"
"/data/datasets/datagov/data/data/datagovdata/aaa-fuel-prices-52bf0.csv","Fuel","uri",".*?$(?<!\.aspx)"
