"file_name","column_name","label","regex"
"/data/datasets/datagov/data/data/datagovdata/gun-offenders.csv","Location 1","uri",".*?$(?<!\.aspx)"
"/data/datasets/datagov/data/data/datagovdata/gun-offenders.csv","race","uri",".*?$(?<!\.aspx)"
"/data/datasets/datagov/data/data/datagovdata/gun-offenders.csv","firstName","uri",".*?$(?<!\.aspx)"
"/data/datasets/datagov/data/data/datagovdata/gun-offenders.csv","caseNumber","numbers","^\d*$"
"/data/datasets/datagov/data/data/datagovdata/gun-offenders.csv","Expiration_Date","strings","[^""\r\n]*"
"/data/datasets/datagov/data/data/datagovdata/gun-offenders.csv","SID_Number","numbers","^\d*$"
"/data/datasets/datagov/data/data/datagovdata/gun-offenders.csv","Date_Of_Birth","strings","[^""\r\n]*"
"/data/datasets/datagov/data/data/datagovdata/gun-offenders.csv","middleName","uri",".*?$(?<!\.aspx)"
"/data/datasets/datagov/data/data/datagovdata/gun-offenders.csv","sex","uri",".*?$(?<!\.aspx)"
"/data/datasets/datagov/data/data/datagovdata/gun-offenders.csv","lastName","uri",".*?$(?<!\.aspx)"
