"file_name","column_name","label","regex"
"/data/datasets/datagov/data/data/datagovdata/idph-2000-2013-std-illinois-by-county-chlamydia.csv","Rate","numbers","^(\d|,)*\.?\d*$"
"/data/datasets/datagov/data/data/datagovdata/idph-2000-2013-std-illinois-by-county-chlamydia.csv","Sort","numbers","^(\d|,)*\.?\d*$"
"/data/datasets/datagov/data/data/datagovdata/idph-2000-2013-std-illinois-by-county-chlamydia.csv","CountyFIPS","numbers","^(\d|,)*\.?\d*$"
"/data/datasets/datagov/data/data/datagovdata/idph-2000-2013-std-illinois-by-county-chlamydia.csv","Year","numbers","^(\d|,)*\.?\d*$"
"/data/datasets/datagov/data/data/datagovdata/idph-2000-2013-std-illinois-by-county-chlamydia.csv","County/Jurisdiction","uri",".*?$(?<!\.aspx)"
"/data/datasets/datagov/data/data/datagovdata/idph-2000-2013-std-illinois-by-county-chlamydia.csv","Count","numbers","^(\d|,)*\.?\d*$"
