"file_name","column_name","label","regex"
"/data/datasets/datagov/data/data/datagovdata/contracts-state-agency-oregon-judicial-department-fiscal-year-2014-6dfa8.csv","Location 1","uri","^[^\\\/\?\*\""\'\>\<\:\|]*$"
"/data/datasets/datagov/data/data/datagovdata/contracts-state-agency-oregon-judicial-department-fiscal-year-2014-6dfa8.csv","Award Title","strings","[^""\r\n]*"
"/data/datasets/datagov/data/data/datagovdata/contracts-state-agency-oregon-judicial-department-fiscal-year-2014-6dfa8.csv","Total Contract Value With Amendments","numbers","^\$?\d+(\.(\d{2}))?$"
"/data/datasets/datagov/data/data/datagovdata/contracts-state-agency-oregon-judicial-department-fiscal-year-2014-6dfa8.csv","Company Name","strings","[^""\r\n]*"
"/data/datasets/datagov/data/data/datagovdata/contracts-state-agency-oregon-judicial-department-fiscal-year-2014-6dfa8.csv","Company Address","uri","^[^\\\/\?\*\""\'\>\<\:\|]*$"
"/data/datasets/datagov/data/data/datagovdata/contracts-state-agency-oregon-judicial-department-fiscal-year-2014-6dfa8.csv","Original Contract Value","numbers","^\$?\d+(\.(\d{2}))?$"
"/data/datasets/datagov/data/data/datagovdata/contracts-state-agency-oregon-judicial-department-fiscal-year-2014-6dfa8.csv","Contract Expiration Date                                                            ","strings","[^""\r\n]*"
"/data/datasets/datagov/data/data/datagovdata/contracts-state-agency-oregon-judicial-department-fiscal-year-2014-6dfa8.csv","Award Number","uri","^[^\\\/\?\*\""\'\>\<\:\|]*$"
"/data/datasets/datagov/data/data/datagovdata/contracts-state-agency-oregon-judicial-department-fiscal-year-2014-6dfa8.csv","Award Type","uri","^[^\\\/\?\*\""\'\>\<\:\|]*$"
"/data/datasets/datagov/data/data/datagovdata/contracts-state-agency-oregon-judicial-department-fiscal-year-2014-6dfa8.csv","Contract Effective Date                                                              ","strings","[^""\r\n]*"
"/data/datasets/datagov/data/data/datagovdata/contracts-state-agency-oregon-judicial-department-fiscal-year-2014-6dfa8.csv","Company Phone","uri","^[^\\\/\?\*\""\'\>\<\:\|]*$"
"/data/datasets/datagov/data/data/datagovdata/contracts-state-agency-oregon-judicial-department-fiscal-year-2014-6dfa8.csv","Total Amendment Value","numbers","^\$?\d+(\.(\d{2}))?$"
"/data/datasets/datagov/data/data/datagovdata/contracts-state-agency-oregon-judicial-department-fiscal-year-2014-6dfa8.csv","Zip Code","numbers","^\$?\d+(\.(\d{2}))?$"
