"file_name","column_name","label","regex"
"/data/datasets/datagov/data/data/datagovdata/area-planning-commision.csv","Shape_Area","numbers","^(\d|,)*\.?\d*$"
"/data/datasets/datagov/data/data/datagovdata/area-planning-commision.csv","Shape_Leng","numbers","^(\d|,)*\.?\d*$"
"/data/datasets/datagov/data/data/datagovdata/area-planning-commision.csv","APC","uri",".*?$(?<!\.aspx)"
"/data/datasets/datagov/data/data/datagovdata/area-planning-commision.csv","the_geom","strings","[^""\r\n]*"
