"file_name","column_name","label","regex"
"/data/datasets/datagov/data/data/datagovdata/resultsnola.csv","Action_Aggregation","uri",".*?$(?<!\.aspx)"
"/data/datasets/datagov/data/data/datagovdata/resultsnola.csv","Quarter_Label","uri",".*?$(?<!\.aspx)"
"/data/datasets/datagov/data/data/datagovdata/resultsnola.csv","Name","strings","[^""\r\n]*"
"/data/datasets/datagov/data/data/datagovdata/resultsnola.csv","Type","uri",".*?$(?<!\.aspx)"
"/data/datasets/datagov/data/data/datagovdata/resultsnola.csv","Total","numbers","^(\d|,)*\.?\d*$"
"/data/datasets/datagov/data/data/datagovdata/resultsnola.csv","value","numbers","^(\d|,)*\.?\d*$"
"/data/datasets/datagov/data/data/datagovdata/resultsnola.csv","IndicatorID","numbers","^(\d|,)*\.?\d*$"
"/data/datasets/datagov/data/data/datagovdata/resultsnola.csv","Direction","uri",".*?$(?<!\.aspx)"
"/data/datasets/datagov/data/data/datagovdata/resultsnola.csv","Organization","uri",".*?$(?<!\.aspx)"
"/data/datasets/datagov/data/data/datagovdata/resultsnola.csv","Target","uri",".*?$(?<!\.aspx)"
"/data/datasets/datagov/data/data/datagovdata/resultsnola.csv","Seasonality","uri",".*?$(?<!\.aspx)"
"/data/datasets/datagov/data/data/datagovdata/resultsnola.csv","YTD","numbers","^(\d|,)*\.?\d*$"
"/data/datasets/datagov/data/data/datagovdata/resultsnola.csv","Quarter","numbers","^(\d|,)*\.?\d*$"
"/data/datasets/datagov/data/data/datagovdata/resultsnola.csv","RowID","strings","[^""\r\n]*"
"/data/datasets/datagov/data/data/datagovdata/resultsnola.csv","Date","strings","[^""\r\n]*"
"/data/datasets/datagov/data/data/datagovdata/resultsnola.csv","DateLabel","uri",".*?$(?<!\.aspx)"
"/data/datasets/datagov/data/data/datagovdata/resultsnola.csv","StrategyID","numbers","^(\d|,)*\.?\d*$"
"/data/datasets/datagov/data/data/datagovdata/resultsnola.csv","Percent","numbers","^(\d|,)*\.?\d*$"
"/data/datasets/datagov/data/data/datagovdata/resultsnola.csv","Year","numbers","^(\d|,)*\.?\d*$"
