"file_name","column_name","label","regex"
"/data/datasets/datagov/data/data/datagovdata/coffee-with-the-sallys-map-02359.csv","Neighborhood Location","uri",".*?$(?<!\.aspx)"
"/data/datasets/datagov/data/data/datagovdata/coffee-with-the-sallys-map-02359.csv","Address","uri",".*?$(?<!\.aspx)"
"/data/datasets/datagov/data/data/datagovdata/coffee-with-the-sallys-map-02359.csv","Icon","uri",".*?$(?<!\.aspx)"
