"file_name","column_name","label","regex"
"/data/datasets/datagov/data/data/datagovdata/wdfw-salmonid-stock-inventory-populations-6121f.csv","Salmon Recovery Region","uri",".*?$(?<!\.aspx)"
"/data/datasets/datagov/data/data/datagovdata/wdfw-salmonid-stock-inventory-populations-6121f.csv","Population Name","strings","[^""\r\n]*"
"/data/datasets/datagov/data/data/datagovdata/wdfw-salmonid-stock-inventory-populations-6121f.csv","Listing Date","strings","[^""\r\n]*"
"/data/datasets/datagov/data/data/datagovdata/wdfw-salmonid-stock-inventory-populations-6121f.csv","Stock Genetic Analysis Description","strings","[^""\r\n]*"
"/data/datasets/datagov/data/data/datagovdata/wdfw-salmonid-stock-inventory-populations-6121f.csv","Stock Spawning Distribution","strings","[^""\r\n]*"
"/data/datasets/datagov/data/data/datagovdata/wdfw-salmonid-stock-inventory-populations-6121f.csv","Local Biologist Email","email","^.+@[^\.].*\.[a-z]{2,}$"
"/data/datasets/datagov/data/data/datagovdata/wdfw-salmonid-stock-inventory-populations-6121f.csv","ESU/DPS Name","strings","[^""\r\n]*"
"/data/datasets/datagov/data/data/datagovdata/wdfw-salmonid-stock-inventory-populations-6121f.csv","Local Biologist Name","uri",".*?$(?<!\.aspx)"
"/data/datasets/datagov/data/data/datagovdata/wdfw-salmonid-stock-inventory-populations-6121f.csv","Species","uri",".*?$(?<!\.aspx)"
"/data/datasets/datagov/data/data/datagovdata/wdfw-salmonid-stock-inventory-populations-6121f.csv","Last Updated","strings","[^""\r\n]*"
"/data/datasets/datagov/data/data/datagovdata/wdfw-salmonid-stock-inventory-populations-6121f.csv","Major Population Grouping","uri",".*?$(?<!\.aspx)"
"/data/datasets/datagov/data/data/datagovdata/wdfw-salmonid-stock-inventory-populations-6121f.csv","Federal Status","uri",".*?$(?<!\.aspx)"
"/data/datasets/datagov/data/data/datagovdata/wdfw-salmonid-stock-inventory-populations-6121f.csv","Goal References","strings","[^""\r\n]*"
"/data/datasets/datagov/data/data/datagovdata/wdfw-salmonid-stock-inventory-populations-6121f.csv","Stock Definition","strings","[^""\r\n]*"
"/data/datasets/datagov/data/data/datagovdata/wdfw-salmonid-stock-inventory-populations-6121f.csv","Stock Data Description","strings","[^""\r\n]*"
"/data/datasets/datagov/data/data/datagovdata/wdfw-salmonid-stock-inventory-populations-6121f.csv","Population Goals","strings","[^""\r\n]*"
"/data/datasets/datagov/data/data/datagovdata/wdfw-salmonid-stock-inventory-populations-6121f.csv","Goal Notes","strings","[^""\r\n]*"
"/data/datasets/datagov/data/data/datagovdata/wdfw-salmonid-stock-inventory-populations-6121f.csv","Population History","strings","[^""\r\n]*"
"/data/datasets/datagov/data/data/datagovdata/wdfw-salmonid-stock-inventory-populations-6121f.csv","Stock Number","numbers","^\d*$"
