"file_name","column_name","label","regex"
"/data/datasets/datagov/data/data/datagovdata/first-in-nation-2013-the-solar-stars-cities-with-more-than-50-watts-of-installed-solar-pv--d2db6.csv","Cumulative Solar Electricity Capacity (MW)","numbers","^\d*$"
"/data/datasets/datagov/data/data/datagovdata/first-in-nation-2013-the-solar-stars-cities-with-more-than-50-watts-of-installed-solar-pv--d2db6.csv","Cumulative Solar Electricity Capacity per Capita 2014 (watts/person)","numbers","^\d*$"
"/data/datasets/datagov/data/data/datagovdata/first-in-nation-2013-the-solar-stars-cities-with-more-than-50-watts-of-installed-solar-pv--d2db6.csv","State","uri",".*?$(?<!\.aspx)"
"/data/datasets/datagov/data/data/datagovdata/first-in-nation-2013-the-solar-stars-cities-with-more-than-50-watts-of-installed-solar-pv--d2db6.csv","Solar Electricity Capacity Installed During 2014 per Capita (watts/person)","numbers","^\d*$"
