"file_name","column_name","label","regex"
"/data/datasets/datagov/data/data/datagovdata/tlf528shp.csv","BLOCK","address_or_phone","(\d{4,6})"
"/data/datasets/datagov/data/data/datagovdata/tlf528shp.csv","PERIMETER","numbers","^(\d|,)*\.?\d*$"
"/data/datasets/datagov/data/data/datagovdata/tlf528shp.csv","AREA","uri",".*?$(?<!\.aspx)"
"/data/datasets/datagov/data/data/datagovdata/tlf528shp.csv","TLF05028_","numbers","^(\d|,)*\.?\d*$"
"/data/datasets/datagov/data/data/datagovdata/tlf528shp.csv","TLF05028_I","numbers","^(\d|,)*\.?\d*$"
