"file_name","column_name","label","regex"
"/data/datasets/datagov/data/data/datagovdata/campaign-finance-status-of-voluntary-expenditure-ceiling-vecs-in-november-3-2015-election.csv","City Elective Office","uri",".*?$(?<!\.aspx)"
"/data/datasets/datagov/data/data/datagovdata/campaign-finance-status-of-voluntary-expenditure-ceiling-vecs-in-november-3-2015-election.csv","Status of VEC","uri",".*?$(?<!\.aspx)"
"/data/datasets/datagov/data/data/datagovdata/campaign-finance-status-of-voluntary-expenditure-ceiling-vecs-in-november-3-2015-election.csv","Amount of VEC","numbers","^\$?\d+(\.(\d{2}))?$"
