"file_name","column_name","label","regex"
"/data/datasets/datagov/data/data/datagovdata/census-2010.csv","intptlon10","numbers","^\d*$"
"/data/datasets/datagov/data/data/datagovdata/census-2010.csv","tractce10","numbers","^\d*$"
"/data/datasets/datagov/data/data/datagovdata/census-2010.csv","multi_race","numbers","^\d*$"
"/data/datasets/datagov/data/data/datagovdata/census-2010.csv","intptlat10","numbers","^\d*$"
"/data/datasets/datagov/data/data/datagovdata/census-2010.csv","other_race","numbers","^\d*$"
"/data/datasets/datagov/data/data/datagovdata/census-2010.csv","_feature_id_string","uri",".*?$(?<!\.aspx)"
"/data/datasets/datagov/data/data/datagovdata/census-2010.csv","the_geom","strings","[^""\r\n]*"
"/data/datasets/datagov/data/data/datagovdata/census-2010.csv","funcstat10","uri",".*?$(?<!\.aspx)"
"/data/datasets/datagov/data/data/datagovdata/census-2010.csv","occ_hu","numbers","^\d*$"
"/data/datasets/datagov/data/data/datagovdata/census-2010.csv","white","numbers","^\d*$"
"/data/datasets/datagov/data/data/datagovdata/census-2010.csv","blockce10","numbers","^\d*$"
"/data/datasets/datagov/data/data/datagovdata/census-2010.csv","amer_ind","numbers","^\d*$"
"/data/datasets/datagov/data/data/datagovdata/census-2010.csv","statefp10","numbers","^\d*$"
"/data/datasets/datagov/data/data/datagovdata/census-2010.csv","hispanic","numbers","^\d*$"
"/data/datasets/datagov/data/data/datagovdata/census-2010.csv","geoid10","numbers","^\d*$"
"/data/datasets/datagov/data/data/datagovdata/census-2010.csv","name10","uri",".*?$(?<!\.aspx)"
"/data/datasets/datagov/data/data/datagovdata/census-2010.csv","black","numbers","^\d*$"
"/data/datasets/datagov/data/data/datagovdata/census-2010.csv","pac_islndr","numbers","^\d*$"
"/data/datasets/datagov/data/data/datagovdata/census-2010.csv","countyfp10","numbers","^\d*$"
"/data/datasets/datagov/data/data/datagovdata/census-2010.csv","geoid10_1","numbers","^\d*$"
"/data/datasets/datagov/data/data/datagovdata/census-2010.csv","aland10","numbers","^\d*$"
"/data/datasets/datagov/data/data/datagovdata/census-2010.csv","mtfcc10","uri",".*?$(?<!\.aspx)"
"/data/datasets/datagov/data/data/datagovdata/census-2010.csv","vacant_hu","numbers","^\d*$"
"/data/datasets/datagov/data/data/datagovdata/census-2010.csv","total_pop","numbers","^\d*$"
"/data/datasets/datagov/data/data/datagovdata/census-2010.csv","awater10","numbers","^\d*$"
"/data/datasets/datagov/data/data/datagovdata/census-2010.csv","non_hisp","numbers","^\d*$"
"/data/datasets/datagov/data/data/datagovdata/census-2010.csv","oid_","numbers","^\d*$"
"/data/datasets/datagov/data/data/datagovdata/census-2010.csv","total_hu","numbers","^\d*$"
"/data/datasets/datagov/data/data/datagovdata/census-2010.csv","asian","numbers","^\d*$"
"/data/datasets/datagov/data/data/datagovdata/census-2010.csv","_feature_id","numbers","^\d*$"
