"file_name","column_name","label","regex"
"/data/datasets/datagov/data/data/datagovdata/expenditures-esd-lane-fiscal-year-2014-4475b.csv","OBJECT","uri",".*?$(?<!\.aspx)"
"/data/datasets/datagov/data/data/datagovdata/expenditures-esd-lane-fiscal-year-2014-4475b.csv","OBJECT TITLE","uri",".*?$(?<!\.aspx)"
"/data/datasets/datagov/data/data/datagovdata/expenditures-esd-lane-fiscal-year-2014-4475b.csv","VENDOR ZIP","numbers","^\$?\d+(\.(\d{2}))?$"
"/data/datasets/datagov/data/data/datagovdata/expenditures-esd-lane-fiscal-year-2014-4475b.csv","VENDOR CITY","uri",".*?$(?<!\.aspx)"
"/data/datasets/datagov/data/data/datagovdata/expenditures-esd-lane-fiscal-year-2014-4475b.csv","FUND NAME","strings","[^""\r\n]*"
"/data/datasets/datagov/data/data/datagovdata/expenditures-esd-lane-fiscal-year-2014-4475b.csv","CASH EXPENSE","numbers","^\$?\d+(\.(\d{2}))?$"
"/data/datasets/datagov/data/data/datagovdata/expenditures-esd-lane-fiscal-year-2014-4475b.csv","VENDOR NAME","uri",".*?$(?<!\.aspx)"
"/data/datasets/datagov/data/data/datagovdata/expenditures-esd-lane-fiscal-year-2014-4475b.csv","ESD#","numbers","^\$?\d+(\.(\d{2}))?$"
"/data/datasets/datagov/data/data/datagovdata/expenditures-esd-lane-fiscal-year-2014-4475b.csv","ESD NAME","uri",".*?$(?<!\.aspx)"
"/data/datasets/datagov/data/data/datagovdata/expenditures-esd-lane-fiscal-year-2014-4475b.csv","VENDOR ADDRESS","uri",".*?$(?<!\.aspx)"
"/data/datasets/datagov/data/data/datagovdata/expenditures-esd-lane-fiscal-year-2014-4475b.csv","VENDOR STATE","uri",".*?$(?<!\.aspx)"
