"file_name","column_name","label","regex"
"/data/datasets/datagov/data/data/datagovdata/lobbyist-activity-activity-expenses-ac28c.csv","Official","uri",".*?$(?<!\.aspx)"
"/data/datasets/datagov/data/data/datagovdata/lobbyist-activity-activity-expenses-ac28c.csv","Description","strings","[^""\r\n]*"
"/data/datasets/datagov/data/data/datagovdata/lobbyist-activity-activity-expenses-ac28c.csv","Amount","numbers","^\$?\d+(\.(\d{2}))?$"
"/data/datasets/datagov/data/data/datagovdata/lobbyist-activity-activity-expenses-ac28c.csv","Payee","uri",".*?$(?<!\.aspx)"
"/data/datasets/datagov/data/data/datagovdata/lobbyist-activity-activity-expenses-ac28c.csv","Official_Department","uri",".*?$(?<!\.aspx)"
"/data/datasets/datagov/data/data/datagovdata/lobbyist-activity-activity-expenses-ac28c.csv","Salary","uri",".*?$(?<!\.aspx)"
"/data/datasets/datagov/data/data/datagovdata/lobbyist-activity-activity-expenses-ac28c.csv","Lobbyist_Firm","uri",".*?$(?<!\.aspx)"
"/data/datasets/datagov/data/data/datagovdata/lobbyist-activity-activity-expenses-ac28c.csv","Lobbyist","uri",".*?$(?<!\.aspx)"
"/data/datasets/datagov/data/data/datagovdata/lobbyist-activity-activity-expenses-ac28c.csv","Date","strings","[^""\r\n]*"
