"file_name","column_name","label","regex"
"/data/datasets/mitdwh/short_subject_summary.csv","Subject Enrollment 5Th Listen","numbers","^(\d|,)*\.?\d*$"
"/data/datasets/mitdwh/short_subject_summary.csv","Prep Units","numbers","^(\d|,)*\.?\d*$"
"/data/datasets/mitdwh/short_subject_summary.csv","School Code","uri",".*?$(?<!\.aspx)"
"/data/datasets/mitdwh/short_subject_summary.csv","Warehouse Load Date","strings","[^""\r\n]*"
"/data/datasets/mitdwh/short_subject_summary.csv","Subject Enrollment First Week","numbers","^(\d|,)*\.?\d*$"
"/data/datasets/mitdwh/short_subject_summary.csv","Term Code","address_or_phone","(\d{4,6})"
"/data/datasets/mitdwh/short_subject_summary.csv","Subject Title","strings","[^""\r\n]*"
"/data/datasets/mitdwh/short_subject_summary.csv","Department Code","uri",".*?$(?<!\.aspx)"
"/data/datasets/mitdwh/short_subject_summary.csv","Cluster Enrollment First Week","numbers","^(\d|,)*\.?\d*$"
"/data/datasets/mitdwh/short_subject_summary.csv","Subject Enrollment 1St Credit","numbers","^(\d|,)*\.?\d*$"
"/data/datasets/mitdwh/short_subject_summary.csv","Subject Enrollment Number","numbers","^(\d|,)*\.?\d*$"
"/data/datasets/mitdwh/short_subject_summary.csv","Cluster Enrollment 5Th Listen","numbers","^(\d|,)*\.?\d*$"
"/data/datasets/mitdwh/short_subject_summary.csv","Lab Units","numbers","^(\d|,)*\.?\d*$"
"/data/datasets/mitdwh/short_subject_summary.csv","Subject Enrollment Listen","numbers","^(\d|,)*\.?\d*$"
"/data/datasets/mitdwh/short_subject_summary.csv","Ult Master Subject Id","uri",".*?$(?<!\.aspx)"
"/data/datasets/mitdwh/short_subject_summary.csv","Subject Enrollment Fifth Week","numbers","^(\d|,)*\.?\d*$"
"/data/datasets/mitdwh/short_subject_summary.csv","Cluster Enrollment Listen","numbers","^(\d|,)*\.?\d*$"
"/data/datasets/mitdwh/short_subject_summary.csv","Subject Enrollment Credit","numbers","^(\d|,)*\.?\d*$"
"/data/datasets/mitdwh/short_subject_summary.csv","Subject Id Sort","uri",".*?$(?<!\.aspx)"
"/data/datasets/mitdwh/short_subject_summary.csv","Department Name","uri",".*?$(?<!\.aspx)"
"/data/datasets/mitdwh/short_subject_summary.csv","Subject Summary Key","uri",".*?$(?<!\.aspx)"
"/data/datasets/mitdwh/short_subject_summary.csv","Total Units","numbers","^(\d|,)*\.?\d*$"
"/data/datasets/mitdwh/short_subject_summary.csv","Master Subject Id","uri",".*?$(?<!\.aspx)"
"/data/datasets/mitdwh/short_subject_summary.csv","School Name","uri",".*?$(?<!\.aspx)"
"/data/datasets/mitdwh/short_subject_summary.csv","Cluster Enrollment 1St Credit","numbers","^(\d|,)*\.?\d*$"
"/data/datasets/mitdwh/short_subject_summary.csv","Subject Or Cluster","uri",".*?$(?<!\.aspx)"
"/data/datasets/mitdwh/short_subject_summary.csv","Cluster Enrollment 1St Listen","numbers","^(\d|,)*\.?\d*$"
"/data/datasets/mitdwh/short_subject_summary.csv","Subject Id","uri",".*?$(?<!\.aspx)"
"/data/datasets/mitdwh/short_subject_summary.csv","Master Subject Id Sort","uri",".*?$(?<!\.aspx)"
"/data/datasets/mitdwh/short_subject_summary.csv","Cluster Enrollment Credit","numbers","^(\d|,)*\.?\d*$"
"/data/datasets/mitdwh/short_subject_summary.csv","Design Units","numbers","^(\d|,)*\.?\d*$"
"/data/datasets/mitdwh/short_subject_summary.csv","Cluster Type","uri",".*?$(?<!\.aspx)"
"/data/datasets/mitdwh/short_subject_summary.csv","Cluster Enrollment Fifth Week","numbers","^(\d|,)*\.?\d*$"
"/data/datasets/mitdwh/short_subject_summary.csv","Cluster List","uri",".*?$(?<!\.aspx)"
"/data/datasets/mitdwh/short_subject_summary.csv","Subject Enrollment 1St Listen","numbers","^(\d|,)*\.?\d*$"
"/data/datasets/mitdwh/short_subject_summary.csv","Subject Group Id","uri",".*?$(?<!\.aspx)"
"/data/datasets/mitdwh/short_subject_summary.csv","Cluster Enrollment 5Th Credit","numbers","^(\d|,)*\.?\d*$"
"/data/datasets/mitdwh/short_subject_summary.csv","Subject Enrollment 5Th Credit","numbers","^(\d|,)*\.?\d*$"
"/data/datasets/mitdwh/short_subject_summary.csv","Lecture Units","numbers","^(\d|,)*\.?\d*$"
"/data/datasets/mitdwh/short_subject_summary.csv","Cluster Type Desc","strings","[^""\r\n]*"
"/data/datasets/mitdwh/short_subject_summary.csv","Cluster Enrollment Number","numbers","^(\d|,)*\.?\d*$"
