"file_name","column_name","label","regex"
"/data/datasets/datagov/data/data/datagovdata/pet-data-2014-return-to-owner-a67a7.csv","Animals Returned to Owner","numbers","^\d*$"
"/data/datasets/datagov/data/data/datagovdata/pet-data-2014-return-to-owner-a67a7.csv","Month","uri",".*?$(?<!\.aspx)"
