"file_name","column_name","label","regex"
"/data/datasets/datagov/data/data/datagovdata/table-12-wastewater-treatment-plant-operations-amp-compliance.csv","Number of Plants Inspected","numbers","^[-+]?\d+(\.\d+)?|[-+]?\.\d+?$"
"/data/datasets/datagov/data/data/datagovdata/table-12-wastewater-treatment-plant-operations-amp-compliance.csv","Total Number of Plants","numbers","^[-+]?\d+(\.\d+)?|[-+]?\.\d+?$"
"/data/datasets/datagov/data/data/datagovdata/table-12-wastewater-treatment-plant-operations-amp-compliance.csv","Number of Plants Rated Unsatisfactory","numbers","^[-+]?\d+(\.\d+)?|[-+]?\.\d+?$"
"/data/datasets/datagov/data/data/datagovdata/table-12-wastewater-treatment-plant-operations-amp-compliance.csv","Calendar Year","numbers","^[-+]?\d+(\.\d+)?|[-+]?\.\d+?$"
"/data/datasets/datagov/data/data/datagovdata/table-12-wastewater-treatment-plant-operations-amp-compliance.csv","#","numbers","^[-+]?\d+(\.\d+)?|[-+]?\.\d+?$"
"/data/datasets/datagov/data/data/datagovdata/table-12-wastewater-treatment-plant-operations-amp-compliance.csv","Percentage in Compliance","numbers","^[-+]?\d+(\.\d+)?|[-+]?\.\d+?$"
