"file_name","column_name","label","regex"
"/data/datasets/datagov/data/data/datagovdata/expenditures-esd-hight-desert-fiscal-year-2014-05424.csv","RemitStreet1","strings","[^""\r\n]*"
"/data/datasets/datagov/data/data/datagovdata/expenditures-esd-hight-desert-fiscal-year-2014-05424.csv","Object","numbers","^\$?\d+(\.(\d{2}))?$"
"/data/datasets/datagov/data/data/datagovdata/expenditures-esd-hight-desert-fiscal-year-2014-05424.csv","Fund","numbers","^\$?\d+(\.(\d{2}))?$"
"/data/datasets/datagov/data/data/datagovdata/expenditures-esd-hight-desert-fiscal-year-2014-05424.csv","RemitCity","uri",".*?$(?<!\.aspx)"
"/data/datasets/datagov/data/data/datagovdata/expenditures-esd-hight-desert-fiscal-year-2014-05424.csv","Fund Name","uri",".*?$(?<!\.aspx)"
"/data/datasets/datagov/data/data/datagovdata/expenditures-esd-hight-desert-fiscal-year-2014-05424.csv","RemitZipCode","numbers","^\$?\d+(\.(\d{2}))?$"
"/data/datasets/datagov/data/data/datagovdata/expenditures-esd-hight-desert-fiscal-year-2014-05424.csv","RemitState","uri",".*?$(?<!\.aspx)"
"/data/datasets/datagov/data/data/datagovdata/expenditures-esd-hight-desert-fiscal-year-2014-05424.csv","ESD Number","numbers","^\$?\d+(\.(\d{2}))?$"
"/data/datasets/datagov/data/data/datagovdata/expenditures-esd-hight-desert-fiscal-year-2014-05424.csv","ESD Name","uri",".*?$(?<!\.aspx)"
"/data/datasets/datagov/data/data/datagovdata/expenditures-esd-hight-desert-fiscal-year-2014-05424.csv","TotalCost","numbers","^\$?\d+(\.(\d{2}))?$"
"/data/datasets/datagov/data/data/datagovdata/expenditures-esd-hight-desert-fiscal-year-2014-05424.csv","RemitName","strings","[^""\r\n]*"
"/data/datasets/datagov/data/data/datagovdata/expenditures-esd-hight-desert-fiscal-year-2014-05424.csv","Object Name","strings","[^""\r\n]*"
