"file_name","column_name","label","regex"
"/data/datasets/datagov/data/data/datagovdata/nola-zip-code-tabulation-areas-2010.csv","INTPTLON10","numbers","^-?\d*(\.\d+)?$"
"/data/datasets/datagov/data/data/datagovdata/nola-zip-code-tabulation-areas-2010.csv","STATEFP10","numbers","^-?\d*(\.\d+)?$"
"/data/datasets/datagov/data/data/datagovdata/nola-zip-code-tabulation-areas-2010.csv","ALAND10","numbers","^-?\d*(\.\d+)?$"
"/data/datasets/datagov/data/data/datagovdata/nola-zip-code-tabulation-areas-2010.csv","MTFCC10","uri",".*?$(?<!\.aspx)"
"/data/datasets/datagov/data/data/datagovdata/nola-zip-code-tabulation-areas-2010.csv","GEOID10","numbers","^-?\d*(\.\d+)?$"
"/data/datasets/datagov/data/data/datagovdata/nola-zip-code-tabulation-areas-2010.csv","PARTFLG10","uri",".*?$(?<!\.aspx)"
"/data/datasets/datagov/data/data/datagovdata/nola-zip-code-tabulation-areas-2010.csv","ZCTA5CE10","numbers","^-?\d*(\.\d+)?$"
"/data/datasets/datagov/data/data/datagovdata/nola-zip-code-tabulation-areas-2010.csv","INTPTLAT10","numbers","^-?\d*(\.\d+)?$"
"/data/datasets/datagov/data/data/datagovdata/nola-zip-code-tabulation-areas-2010.csv","the_geom","strings","[^""\r\n]*"
"/data/datasets/datagov/data/data/datagovdata/nola-zip-code-tabulation-areas-2010.csv","AWATER10","numbers","^-?\d*(\.\d+)?$"
"/data/datasets/datagov/data/data/datagovdata/nola-zip-code-tabulation-areas-2010.csv","FUNCSTAT10","uri",".*?$(?<!\.aspx)"
"/data/datasets/datagov/data/data/datagovdata/nola-zip-code-tabulation-areas-2010.csv","CLASSFP10","uri",".*?$(?<!\.aspx)"
