"file_name","column_name","label","regex"
"/data/datasets/datagov/data/data/datagovdata/election-results-april-26-2011-special-33d5d.csv","Precinct","uri",".*?$(?<!\.aspx)"
"/data/datasets/datagov/data/data/datagovdata/election-results-april-26-2011-special-33d5d.csv","CounterGroup","uri",".*?$(?<!\.aspx)"
"/data/datasets/datagov/data/data/datagovdata/election-results-april-26-2011-special-33d5d.csv","Race","uri",".*?$(?<!\.aspx)"
"/data/datasets/datagov/data/data/datagovdata/election-results-april-26-2011-special-33d5d.csv","SumOfCount","numbers","^\d*$"
"/data/datasets/datagov/data/data/datagovdata/election-results-april-26-2011-special-33d5d.csv","CounterType","uri",".*?$(?<!\.aspx)"
"/data/datasets/datagov/data/data/datagovdata/election-results-april-26-2011-special-33d5d.csv","Party","uri",".*?$(?<!\.aspx)"
"/data/datasets/datagov/data/data/datagovdata/election-results-april-26-2011-special-33d5d.csv","CC","numbers","^\d*$"
"/data/datasets/datagov/data/data/datagovdata/election-results-april-26-2011-special-33d5d.csv","LEG","numbers","^\d*$"
"/data/datasets/datagov/data/data/datagovdata/election-results-april-26-2011-special-33d5d.csv","CG","numbers","^\d*$"
