"file_name","column_name","label","regex"
"/data/datasets/datagov/data/data/datagovdata/marylands-top-ten-most-popular-baby-names-in-2011-by-race-ethnicity-and-sex-fb365.csv","NAMES: HISPANIC MALE","uri",".*?$(?<!\.aspx)"
"/data/datasets/datagov/data/data/datagovdata/marylands-top-ten-most-popular-baby-names-in-2011-by-race-ethnicity-and-sex-fb365.csv","NAMES: ALL RACES MALE","uri",".*?$(?<!\.aspx)"
"/data/datasets/datagov/data/data/datagovdata/marylands-top-ten-most-popular-baby-names-in-2011-by-race-ethnicity-and-sex-fb365.csv","NAMES: BLACK NON-HISPANIC MALE","uri",".*?$(?<!\.aspx)"
"/data/datasets/datagov/data/data/datagovdata/marylands-top-ten-most-popular-baby-names-in-2011-by-race-ethnicity-and-sex-fb365.csv","NAMES: WHITE NON-HISPANIC MALE","uri",".*?$(?<!\.aspx)"
"/data/datasets/datagov/data/data/datagovdata/marylands-top-ten-most-popular-baby-names-in-2011-by-race-ethnicity-and-sex-fb365.csv","RANK","numbers","^\d*$"
"/data/datasets/datagov/data/data/datagovdata/marylands-top-ten-most-popular-baby-names-in-2011-by-race-ethnicity-and-sex-fb365.csv","NUMBER: HISPANIC MALE","numbers","^\d*$"
"/data/datasets/datagov/data/data/datagovdata/marylands-top-ten-most-popular-baby-names-in-2011-by-race-ethnicity-and-sex-fb365.csv","NUMBER: BLACK NON-HISPANIC MALE","numbers","^\d*$"
"/data/datasets/datagov/data/data/datagovdata/marylands-top-ten-most-popular-baby-names-in-2011-by-race-ethnicity-and-sex-fb365.csv","NUMBER: ASIAN & PACIFIC ISLANDER NON-HISPANIC MALE","numbers","^\d*$"
"/data/datasets/datagov/data/data/datagovdata/marylands-top-ten-most-popular-baby-names-in-2011-by-race-ethnicity-and-sex-fb365.csv","NUMBER: WHITE NON-HISPANIC FEMALE","numbers","^\d*$"
"/data/datasets/datagov/data/data/datagovdata/marylands-top-ten-most-popular-baby-names-in-2011-by-race-ethnicity-and-sex-fb365.csv","NAMES: ALL RACES FEMALE","uri",".*?$(?<!\.aspx)"
"/data/datasets/datagov/data/data/datagovdata/marylands-top-ten-most-popular-baby-names-in-2011-by-race-ethnicity-and-sex-fb365.csv","NUMBER: HISPANIC FEMALE","numbers","^\d*$"
"/data/datasets/datagov/data/data/datagovdata/marylands-top-ten-most-popular-baby-names-in-2011-by-race-ethnicity-and-sex-fb365.csv","NUMBER: ALL RACES MALE","numbers","^\d*$"
"/data/datasets/datagov/data/data/datagovdata/marylands-top-ten-most-popular-baby-names-in-2011-by-race-ethnicity-and-sex-fb365.csv","NAMES: WHITE NON-HISPANIC FEMALE","uri",".*?$(?<!\.aspx)"
"/data/datasets/datagov/data/data/datagovdata/marylands-top-ten-most-popular-baby-names-in-2011-by-race-ethnicity-and-sex-fb365.csv","NAMES: HISPANIC FEMALE","uri",".*?$(?<!\.aspx)"
"/data/datasets/datagov/data/data/datagovdata/marylands-top-ten-most-popular-baby-names-in-2011-by-race-ethnicity-and-sex-fb365.csv","NAMES: ASIAN & PACIFIC ISLANDER NON-HISPANIC MALE","uri",".*?$(?<!\.aspx)"
"/data/datasets/datagov/data/data/datagovdata/marylands-top-ten-most-popular-baby-names-in-2011-by-race-ethnicity-and-sex-fb365.csv","NUMBER: ALL RACES FEMALE","numbers","^\d*$"
"/data/datasets/datagov/data/data/datagovdata/marylands-top-ten-most-popular-baby-names-in-2011-by-race-ethnicity-and-sex-fb365.csv","NAMES: BLACK NON-HISPANIC FEMALE","uri",".*?$(?<!\.aspx)"
"/data/datasets/datagov/data/data/datagovdata/marylands-top-ten-most-popular-baby-names-in-2011-by-race-ethnicity-and-sex-fb365.csv","NUMBER: ASIAN & PACIFIC ISLANDER NON-HISPANIC FEMALE","numbers","^\d*$"
"/data/datasets/datagov/data/data/datagovdata/marylands-top-ten-most-popular-baby-names-in-2011-by-race-ethnicity-and-sex-fb365.csv","NUMBER: BLACK NON-HISPANIC FEMALE","numbers","^\d*$"
"/data/datasets/datagov/data/data/datagovdata/marylands-top-ten-most-popular-baby-names-in-2011-by-race-ethnicity-and-sex-fb365.csv","NUMBER: WHITE NON-HISPANIC MALE","numbers","^\d*$"
"/data/datasets/datagov/data/data/datagovdata/marylands-top-ten-most-popular-baby-names-in-2011-by-race-ethnicity-and-sex-fb365.csv","NAMES: ASIAN & PACIFIC ISLANDER NON-HISPANIC FEMALE","strings","[^""\r\n]*"
