"file_name","column_name","label","regex"
"/data/datasets/datagov/data/data/datagovdata/cta-list-of-cta-datasets-de795.csv","Description","strings","[^""\r\n]*"
"/data/datasets/datagov/data/data/datagovdata/cta-list-of-cta-datasets-de795.csv","Link","strings","[^""\r\n]*"
