"file_name","column_name","label","regex"
"/data/datasets/datagov/data/data/datagovdata/porotomo-subtask-3-4-raw-data.csv","#Year","numbers","^\d*$"
"/data/datasets/datagov/data/data/datagovdata/porotomo-subtask-3-4-raw-data.csv","Sensor","uri",".*?$(?<!\.aspx)"
"/data/datasets/datagov/data/data/datagovdata/porotomo-subtask-3-4-raw-data.csv","URL (Username/Password is required to download data)","uri",".*?$(?<!\.aspx)"
"/data/datasets/datagov/data/data/datagovdata/porotomo-subtask-3-4-raw-data.csv","Strip","numbers","^\d*$"
"/data/datasets/datagov/data/data/datagovdata/porotomo-subtask-3-4-raw-data.csv","Mode","uri",".*?$(?<!\.aspx)"
"/data/datasets/datagov/data/data/datagovdata/porotomo-subtask-3-4-raw-data.csv","Day","numbers","^\d*$"
"/data/datasets/datagov/data/data/datagovdata/porotomo-subtask-3-4-raw-data.csv","Track","numbers","^\d*$"
"/data/datasets/datagov/data/data/datagovdata/porotomo-subtask-3-4-raw-data.csv","Month","numbers","^\d*$"
