"file_name","column_name","label","regex"
"/data/datasets/datagov/data/data/datagovdata/60-month-converted-to-safety-net-sn-recipients-1e4f4.csv","Month","numbers","^(\d|,)*\.?\d*$"
"/data/datasets/datagov/data/data/datagovdata/60-month-converted-to-safety-net-sn-recipients-1e4f4.csv","RECIPIENTS","numbers","^(\d|,)*\.?\d*$"
"/data/datasets/datagov/data/data/datagovdata/60-month-converted-to-safety-net-sn-recipients-1e4f4.csv","Yearly Percent Change","strings","[^""\r\n]*"
"/data/datasets/datagov/data/data/datagovdata/60-month-converted-to-safety-net-sn-recipients-1e4f4.csv","Year","numbers","^(\d|,)*\.?\d*$"
"/data/datasets/datagov/data/data/datagovdata/60-month-converted-to-safety-net-sn-recipients-1e4f4.csv","Monthly Percent Change","strings","[^""\r\n]*"
