"file_name","column_name","label","regex"
"/data/datasets/datagov/data/data/datagovdata/tra3shp.csv","STATEHW","numbers","^\d*$"
"/data/datasets/datagov/data/data/datagovdata/tra3shp.csv","TRA0003_","numbers","^\d*$"
"/data/datasets/datagov/data/data/datagovdata/tra3shp.csv","LENGTH","numbers","^\d*$"
"/data/datasets/datagov/data/data/datagovdata/tra3shp.csv","TYPE","uri",".*?$(?<!\.aspx)"
"/data/datasets/datagov/data/data/datagovdata/tra3shp.csv","LPOLY_","numbers","^\d*$"
"/data/datasets/datagov/data/data/datagovdata/tra3shp.csv","FNODE_","numbers","^\d*$"
"/data/datasets/datagov/data/data/datagovdata/tra3shp.csv","TRA0003_ID","numbers","^\d*$"
"/data/datasets/datagov/data/data/datagovdata/tra3shp.csv","NAME","uri",".*?$(?<!\.aspx)"
"/data/datasets/datagov/data/data/datagovdata/tra3shp.csv","ALTRDNAME","uri",".*?$(?<!\.aspx)"
"/data/datasets/datagov/data/data/datagovdata/tra3shp.csv","U_S_","numbers","^\d*$"
"/data/datasets/datagov/data/data/datagovdata/tra3shp.csv","RPOLY_","numbers","^\d*$"
"/data/datasets/datagov/data/data/datagovdata/tra3shp.csv","INTERSTATE","numbers","^\d*$"
"/data/datasets/datagov/data/data/datagovdata/tra3shp.csv","TNODE_","numbers","^\d*$"
