"file_name","column_name","label","regex"
"/data/datasets/chemical/chembl_21/csvdata/public.formulations.csv","ingredient","uri",".*?$(?<!\.aspx)"
"/data/datasets/chemical/chembl_21/csvdata/public.formulations.csv","formulation_id","numbers","^\d*$"
"/data/datasets/chemical/chembl_21/csvdata/public.formulations.csv","strength","strings","[^""\r\n]*"
"/data/datasets/chemical/chembl_21/csvdata/public.formulations.csv","molregno","numbers","^\d*$"
"/data/datasets/chemical/chembl_21/csvdata/public.formulations.csv","product_id","uri",".*?$(?<!\.aspx)"
"/data/datasets/chemical/chembl_21/csvdata/public.formulations.csv","record_id","numbers","^\d*$"
