"file_name","column_name","label","regex"
"/data/datasets/datagov/data/data/datagovdata/election-results-february-8-2011-cumulative-fb42f.csv","Precinct","uri",".*?$(?<!\.aspx)"
"/data/datasets/datagov/data/data/datagovdata/election-results-february-8-2011-cumulative-fb42f.csv","CounterGroup","uri",".*?$(?<!\.aspx)"
"/data/datasets/datagov/data/data/datagovdata/election-results-february-8-2011-cumulative-fb42f.csv","Race","uri",".*?$(?<!\.aspx)"
"/data/datasets/datagov/data/data/datagovdata/election-results-february-8-2011-cumulative-fb42f.csv","CounterType","uri",".*?$(?<!\.aspx)"
"/data/datasets/datagov/data/data/datagovdata/election-results-february-8-2011-cumulative-fb42f.csv","Party","uri",".*?$(?<!\.aspx)"
"/data/datasets/datagov/data/data/datagovdata/election-results-february-8-2011-cumulative-fb42f.csv","CC","numbers","^\d$"
"/data/datasets/datagov/data/data/datagovdata/election-results-february-8-2011-cumulative-fb42f.csv","LEG","numbers","^\d$"
"/data/datasets/datagov/data/data/datagovdata/election-results-february-8-2011-cumulative-fb42f.csv","CG","numbers","^\d$"
