"file_name","column_name","label","regex"
"/data/datasets/datagov/data/data/datagovdata/excess-property-f7ef9.csv","Property Name","uri",".*?$(?<!\.aspx)"
"/data/datasets/datagov/data/data/datagovdata/excess-property-f7ef9.csv","E. Property Description","uri",".*?$(?<!\.aspx)"
"/data/datasets/datagov/data/data/datagovdata/excess-property-f7ef9.csv","Review Stage","uri",".*?$(?<!\.aspx)"
"/data/datasets/datagov/data/data/datagovdata/excess-property-f7ef9.csv","Ordinance 2","uri",".*?$(?<!\.aspx)"
"/data/datasets/datagov/data/data/datagovdata/excess-property-f7ef9.csv","Page Type","strings","[^""\r\n]*"
"/data/datasets/datagov/data/data/datagovdata/excess-property-f7ef9.csv","Type","uri",".*?$(?<!\.aspx)"
"/data/datasets/datagov/data/data/datagovdata/excess-property-f7ef9.csv","E. Property Notice","uri",".*?$(?<!\.aspx)"
"/data/datasets/datagov/data/data/datagovdata/excess-property-f7ef9.csv","Map","uri",".*?$(?<!\.aspx)"
"/data/datasets/datagov/data/data/datagovdata/excess-property-f7ef9.csv","PMA #","numbers","^\d*$"
"/data/datasets/datagov/data/data/datagovdata/excess-property-f7ef9.csv","Department","uri",".*?$(?<!\.aspx)"
"/data/datasets/datagov/data/data/datagovdata/excess-property-f7ef9.csv","Page Type Select","uri",".*?$(?<!\.aspx)"
"/data/datasets/datagov/data/data/datagovdata/excess-property-f7ef9.csv","Location 1","strings","[^""\r\n]*"
"/data/datasets/datagov/data/data/datagovdata/excess-property-f7ef9.csv","picture","uri",".*?$(?<!\.aspx)"
"/data/datasets/datagov/data/data/datagovdata/excess-property-f7ef9.csv","Ordinance_3","uri",".*?$(?<!\.aspx)"
"/data/datasets/datagov/data/data/datagovdata/excess-property-f7ef9.csv","Ordinance 4","uri",".*?$(?<!\.aspx)"
"/data/datasets/datagov/data/data/datagovdata/excess-property-f7ef9.csv","Preliminary Report","uri",".*?$(?<!\.aspx)"
"/data/datasets/datagov/data/data/datagovdata/excess-property-f7ef9.csv","Ordinances","uri",".*?$(?<!\.aspx)"
"/data/datasets/datagov/data/data/datagovdata/excess-property-f7ef9.csv","Ordinance 5","uri",".*?$(?<!\.aspx)"
"/data/datasets/datagov/data/data/datagovdata/excess-property-f7ef9.csv","tmbpictures","uri",".*?$(?<!\.aspx)"
"/data/datasets/datagov/data/data/datagovdata/excess-property-f7ef9.csv","CMA","uri",".*?$(?<!\.aspx)"
"/data/datasets/datagov/data/data/datagovdata/excess-property-f7ef9.csv","PMA Detail Report","uri",".*?$(?<!\.aspx)"
"/data/datasets/datagov/data/data/datagovdata/excess-property-f7ef9.csv","Plans","uri",".*?$(?<!\.aspx)"
"/data/datasets/datagov/data/data/datagovdata/excess-property-f7ef9.csv","Public Notice Prelimreport","uri",".*?$(?<!\.aspx)"
