"file_name","column_name","label","regex"
"/data/datasets/datagov/data/data/datagovdata/information-and-financial-services-sales-9e215.csv","Historical Data","numbers","^\$?\d+(\.(\d{2}))?$"
"/data/datasets/datagov/data/data/datagovdata/information-and-financial-services-sales-9e215.csv","Target","numbers","^\$?\d+(\.(\d{2}))?$"
"/data/datasets/datagov/data/data/datagovdata/information-and-financial-services-sales-9e215.csv","Years","numbers","^\$?\d+(\.(\d{2}))?$"
