"file_name","column_name","label","regex"
"/data/datasets/datagov/data/data/datagovdata/budget-2012-cip-9ffc5.csv","Program","uri",".*?$(?<!\.aspx)"
"/data/datasets/datagov/data/data/datagovdata/budget-2012-cip-9ffc5.csv","Amount","numbers","^\$?\d+(\.(\d{2}))?$"
