"file_name","column_name","label","regex"
"/data/datasets/datagov/data/data/datagovdata/steelhead-estimates-2012-final-96faf.csv","Dec 2012","numbers","^(\d|,)*\.?\d*$"
"/data/datasets/datagov/data/data/datagovdata/steelhead-estimates-2012-final-96faf.csv","Total","numbers","^(\d|,)*\.?\d*$"
"/data/datasets/datagov/data/data/datagovdata/steelhead-estimates-2012-final-96faf.csv","Oct 2012","numbers","^(\d|,)*\.?\d*$"
"/data/datasets/datagov/data/data/datagovdata/steelhead-estimates-2012-final-96faf.csv","Aug 2012","numbers","^(\d|,)*\.?\d*$"
"/data/datasets/datagov/data/data/datagovdata/steelhead-estimates-2012-final-96faf.csv","Mar 2013","numbers","^(\d|,)*\.?\d*$"
"/data/datasets/datagov/data/data/datagovdata/steelhead-estimates-2012-final-96faf.csv","Nov 2012","numbers","^(\d|,)*\.?\d*$"
"/data/datasets/datagov/data/data/datagovdata/steelhead-estimates-2012-final-96faf.csv","Race","uri",".*?$(?<!\.aspx)"
"/data/datasets/datagov/data/data/datagovdata/steelhead-estimates-2012-final-96faf.csv","System","strings","[^""\r\n]*"
"/data/datasets/datagov/data/data/datagovdata/steelhead-estimates-2012-final-96faf.csv","Feb 2013","numbers","^(\d|,)*\.?\d*$"
"/data/datasets/datagov/data/data/datagovdata/steelhead-estimates-2012-final-96faf.csv","Jun 2012","uri",".*?$(?<!\.aspx)"
"/data/datasets/datagov/data/data/datagovdata/steelhead-estimates-2012-final-96faf.csv","May 2012","uri",".*?$(?<!\.aspx)"
"/data/datasets/datagov/data/data/datagovdata/steelhead-estimates-2012-final-96faf.csv","Water","strings","[^""\r\n]*"
"/data/datasets/datagov/data/data/datagovdata/steelhead-estimates-2012-final-96faf.csv","Sep 2012","numbers","^(\d|,)*\.?\d*$"
"/data/datasets/datagov/data/data/datagovdata/steelhead-estimates-2012-final-96faf.csv","Region","uri",".*?$(?<!\.aspx)"
"/data/datasets/datagov/data/data/datagovdata/steelhead-estimates-2012-final-96faf.csv","Jan 2013","numbers","^(\d|,)*\.?\d*$"
"/data/datasets/datagov/data/data/datagovdata/steelhead-estimates-2012-final-96faf.csv","Jul 2012","numbers","^(\d|,)*\.?\d*$"
"/data/datasets/datagov/data/data/datagovdata/steelhead-estimates-2012-final-96faf.csv","Mark","uri",".*?$(?<!\.aspx)"
"/data/datasets/datagov/data/data/datagovdata/steelhead-estimates-2012-final-96faf.csv","Apr 2012","uri",".*?$(?<!\.aspx)"
