"file_name","column_name","label","regex"
"/data/datasets/datagov/data/data/datagovdata/nms250data272154073_sts_view.csv","GID","numbers","^(\d|,)*\.?\d*$"
"/data/datasets/datagov/data/data/datagovdata/nms250data272154073_sts_view.csv","RGIS_CODE","numbers","^(\d|,)*\.?\d*$"
"/data/datasets/datagov/data/data/datagovdata/nms250data272154073_sts_view.csv","P037046","numbers","^(\d|,)*\.?\d*$"
"/data/datasets/datagov/data/data/datagovdata/nms250data272154073_sts_view.csv","STFID","numbers","^(\d|,)*\.?\d*$"
"/data/datasets/datagov/data/data/datagovdata/nms250data272154073_sts_view.csv","STATE","numbers","^(\d|,)*\.?\d*$"
"/data/datasets/datagov/data/data/datagovdata/nms250data272154073_sts_view.csv","LSAD_TRANS","uri",".*?$(?<!\.aspx)"
"/data/datasets/datagov/data/data/datagovdata/nms250data272154073_sts_view.csv","P037052","numbers","^(\d|,)*\.?\d*$"
"/data/datasets/datagov/data/data/datagovdata/nms250data272154073_sts_view.csv","NAME","numbers","^(\d|,)*\.?\d*$"
"/data/datasets/datagov/data/data/datagovdata/nms250data272154073_sts_view.csv","P037049","numbers","^(\d|,)*\.?\d*$"
"/data/datasets/datagov/data/data/datagovdata/nms250data272154073_sts_view.csv","P037051","numbers","^(\d|,)*\.?\d*$"
"/data/datasets/datagov/data/data/datagovdata/nms250data272154073_sts_view.csv","P037048","numbers","^(\d|,)*\.?\d*$"
"/data/datasets/datagov/data/data/datagovdata/nms250data272154073_sts_view.csv","P037055","numbers","^(\d|,)*\.?\d*$"
"/data/datasets/datagov/data/data/datagovdata/nms250data272154073_sts_view.csv","P037050","numbers","^(\d|,)*\.?\d*$"
"/data/datasets/datagov/data/data/datagovdata/nms250data272154073_sts_view.csv","GEO_ID","numbers","^(\d|,)*\.?\d*$"
"/data/datasets/datagov/data/data/datagovdata/nms250data272154073_sts_view.csv","AREA_NAME","uri",".*?$(?<!\.aspx)"
"/data/datasets/datagov/data/data/datagovdata/nms250data272154073_sts_view.csv","LSAD","uri",".*?$(?<!\.aspx)"
"/data/datasets/datagov/data/data/datagovdata/nms250data272154073_sts_view.csv","P037047","numbers","^(\d|,)*\.?\d*$"
"/data/datasets/datagov/data/data/datagovdata/nms250data272154073_sts_view.csv","SLDU","numbers","^(\d|,)*\.?\d*$"
"/data/datasets/datagov/data/data/datagovdata/nms250data272154073_sts_view.csv","P037002","numbers","^(\d|,)*\.?\d*$"
"/data/datasets/datagov/data/data/datagovdata/nms250data272154073_sts_view.csv","P037053","numbers","^(\d|,)*\.?\d*$"
"/data/datasets/datagov/data/data/datagovdata/nms250data272154073_sts_view.csv","P037054","numbers","^(\d|,)*\.?\d*$"
