"file_name","column_name","label","regex"
"/data/datasets/datagov/data/data/datagovdata/boundaries-census-blocks-2000.csv","BLOCK_CE_3","numbers","^(\d|,)*\.?\d*$"
"/data/datasets/datagov/data/data/datagovdata/boundaries-census-blocks-2000.csv","BLOCK_CENT","numbers","^(\d|,)*\.?\d*$"
"/data/datasets/datagov/data/data/datagovdata/boundaries-census-blocks-2000.csv","BLOCK_ZIP","numbers","^(\d|,)*\.?\d*$"
"/data/datasets/datagov/data/data/datagovdata/boundaries-census-blocks-2000.csv","PERIMETER","numbers","^(\d|,)*\.?\d*$"
"/data/datasets/datagov/data/data/datagovdata/boundaries-census-blocks-2000.csv","CENSUS_BLO","numbers","^(\d|,)*\.?\d*$"
"/data/datasets/datagov/data/data/datagovdata/boundaries-census-blocks-2000.csv","SHAPE_LEN","numbers","^(\d|,)*\.?\d*$"
"/data/datasets/datagov/data/data/datagovdata/boundaries-census-blocks-2000.csv","BLOCK_CENS","numbers","^(\d|,)*\.?\d*$"
"/data/datasets/datagov/data/data/datagovdata/boundaries-census-blocks-2000.csv","BLOCK_CE_2","numbers","^(\d|,)*\.?\d*$"
"/data/datasets/datagov/data/data/datagovdata/boundaries-census-blocks-2000.csv","CENSUS_TRA","numbers","^(\d|,)*\.?\d*$"
"/data/datasets/datagov/data/data/datagovdata/boundaries-census-blocks-2000.csv","BLOCK_COMM","numbers","^(\d|,)*\.?\d*$"
"/data/datasets/datagov/data/data/datagovdata/boundaries-census-blocks-2000.csv","SHAPE_AREA","numbers","^(\d|,)*\.?\d*$"
"/data/datasets/datagov/data/data/datagovdata/boundaries-census-blocks-2000.csv","CENSUS_T_1","numbers","^(\d|,)*\.?\d*$"
"/data/datasets/datagov/data/data/datagovdata/boundaries-census-blocks-2000.csv","the_geom","strings","[^""\r\n]*"
"/data/datasets/datagov/data/data/datagovdata/boundaries-census-blocks-2000.csv","BLOCK_CE_1","numbers","^(\d|,)*\.?\d*$"
"/data/datasets/datagov/data/data/datagovdata/boundaries-census-blocks-2000.csv","BLOCK_WARD","numbers","^(\d|,)*\.?\d*$"
"/data/datasets/datagov/data/data/datagovdata/boundaries-census-blocks-2000.csv","CENSUS_B_1","numbers","^(\d|,)*\.?\d*$"
