"file_name","column_name","label","regex"
"/data/datasets/datagov/data/data/datagovdata/library-branches-ab001.csv","Phone Number","uri","^[^\\\/\?\*\""\'\>\<\:\|]*$"
"/data/datasets/datagov/data/data/datagovdata/library-branches-ab001.csv","Email","email","(\w+?@\w+?\x2E.+)"
"/data/datasets/datagov/data/data/datagovdata/library-branches-ab001.csv","Location","uri","^[^\\\/\?\*\""\'\>\<\:\|]*$"
"/data/datasets/datagov/data/data/datagovdata/library-branches-ab001.csv","Branch Name","uri","^[^\\\/\?\*\""\'\>\<\:\|]*$"
"/data/datasets/datagov/data/data/datagovdata/library-branches-ab001.csv","Council District","numbers","^\d*$"
