"file_name","column_name","label","regex"
"/data/datasets/datagov/data/data/datagovdata/idor-fy-2011-lottery-sales-by-zip-code-a8768.csv","SALES AMOUNT","numbers","^\d*$"
"/data/datasets/datagov/data/data/datagovdata/idor-fy-2011-lottery-sales-by-zip-code-a8768.csv","ZIP CODE","numbers","^\d*$"
