"file_name","column_name","label","regex"
"/data/datasets/datagov/data/data/datagovdata/ssma-employment-centers-9c749.csv","Location 1","uri","^[^\\\/\?\*\""\'\>\<\:\|]*$"
"/data/datasets/datagov/data/data/datagovdata/ssma-employment-centers-9c749.csv","Editor","uri","^[^\\\/\?\*\""\'\>\<\:\|]*$"
"/data/datasets/datagov/data/data/datagovdata/ssma-employment-centers-9c749.csv","County","uri","^[^\\\/\?\*\""\'\>\<\:\|]*$"
"/data/datasets/datagov/data/data/datagovdata/ssma-employment-centers-9c749.csv","URNumber","uri","^[^\\\/\?\*\""\'\>\<\:\|]*$"
"/data/datasets/datagov/data/data/datagovdata/ssma-employment-centers-9c749.csv","SHAPE_Area","numbers","^(\d|,)*\.?\d*$"
"/data/datasets/datagov/data/data/datagovdata/ssma-employment-centers-9c749.csv","OBJECTID","numbers","^(\d|,)*\.?\d*$"
"/data/datasets/datagov/data/data/datagovdata/ssma-employment-centers-9c749.csv","DistrictNa","uri","^[^\\\/\?\*\""\'\>\<\:\|]*$"
"/data/datasets/datagov/data/data/datagovdata/ssma-employment-centers-9c749.csv","SHAPE_Leng","numbers","^(\d|,)*\.?\d*$"
"/data/datasets/datagov/data/data/datagovdata/ssma-employment-centers-9c749.csv","Propreitar","numbers","^(\d|,)*\.?\d*$"
"/data/datasets/datagov/data/data/datagovdata/ssma-employment-centers-9c749.csv","Municipali","uri","^[^\\\/\?\*\""\'\>\<\:\|]*$"
"/data/datasets/datagov/data/data/datagovdata/ssma-employment-centers-9c749.csv","DistrictTy","uri","^[^\\\/\?\*\""\'\>\<\:\|]*$"
