"file_name","column_name","label","regex"
"/data/datasets/datagov/data/data/datagovdata/automobiles-annual-imports-and-exports-through-port-authority-of-ny-nj-maritime-terminals-.csv","Automobile Volume","numbers","^\d*$"
"/data/datasets/datagov/data/data/datagovdata/automobiles-annual-imports-and-exports-through-port-authority-of-ny-nj-maritime-terminals-.csv","Year","numbers","^\d*$"
"/data/datasets/datagov/data/data/datagovdata/automobiles-annual-imports-and-exports-through-port-authority-of-ny-nj-maritime-terminals-.csv","Type","uri",".*?$(?<!\.aspx)"
