"file_name","column_name","label","regex"
"/data/datasets/datagov/data/data/datagovdata/campaign-finance-fppc-form-496-late-independent-expenditure-report-part-3-contributions-of-1ef0e.csv","Tran_ID","uri",".*?$(?<!\.aspx)"
"/data/datasets/datagov/data/data/datagovdata/campaign-finance-fppc-form-496-late-independent-expenditure-report-part-3-contributions-of-1ef0e.csv","Tran_NamL","strings","[^""\r\n]*"
"/data/datasets/datagov/data/data/datagovdata/campaign-finance-fppc-form-496-late-independent-expenditure-report-part-3-contributions-of-1ef0e.csv","Tran_Occ","uri",".*?$(?<!\.aspx)"
"/data/datasets/datagov/data/data/datagovdata/campaign-finance-fppc-form-496-late-independent-expenditure-report-part-3-contributions-of-1ef0e.csv","Intr_City","uri",".*?$(?<!\.aspx)"
"/data/datasets/datagov/data/data/datagovdata/campaign-finance-fppc-form-496-late-independent-expenditure-report-part-3-contributions-of-1ef0e.csv","From_Date","strings","[^""\r\n]*"
"/data/datasets/datagov/data/data/datagovdata/campaign-finance-fppc-form-496-late-independent-expenditure-report-part-3-contributions-of-1ef0e.csv","Rpt_Date","strings","[^""\r\n]*"
"/data/datasets/datagov/data/data/datagovdata/campaign-finance-fppc-form-496-late-independent-expenditure-report-part-3-contributions-of-1ef0e.csv","Filer_NamL","uri",".*?$(?<!\.aspx)"
"/data/datasets/datagov/data/data/datagovdata/campaign-finance-fppc-form-496-late-independent-expenditure-report-part-3-contributions-of-1ef0e.csv","Entity_Cd","uri",".*?$(?<!\.aspx)"
"/data/datasets/datagov/data/data/datagovdata/campaign-finance-fppc-form-496-late-independent-expenditure-report-part-3-contributions-of-1ef0e.csv","Intr_Zip4","numbers","^(\d|,)*\.?\d*$"
"/data/datasets/datagov/data/data/datagovdata/campaign-finance-fppc-form-496-late-independent-expenditure-report-part-3-contributions-of-1ef0e.csv","Cmte_ID","numbers","^(\d|,)*\.?\d*$"
"/data/datasets/datagov/data/data/datagovdata/campaign-finance-fppc-form-496-late-independent-expenditure-report-part-3-contributions-of-1ef0e.csv","Tran_Type","uri",".*?$(?<!\.aspx)"
"/data/datasets/datagov/data/data/datagovdata/campaign-finance-fppc-form-496-late-independent-expenditure-report-part-3-contributions-of-1ef0e.csv","Intr_Self","uri",".*?$(?<!\.aspx)"
"/data/datasets/datagov/data/data/datagovdata/campaign-finance-fppc-form-496-late-independent-expenditure-report-part-3-contributions-of-1ef0e.csv","Tran_Zip4","numbers","^(\d|,)*\.?\d*$"
"/data/datasets/datagov/data/data/datagovdata/campaign-finance-fppc-form-496-late-independent-expenditure-report-part-3-contributions-of-1ef0e.csv","Committee_Type","uri",".*?$(?<!\.aspx)"
"/data/datasets/datagov/data/data/datagovdata/campaign-finance-fppc-form-496-late-independent-expenditure-report-part-3-contributions-of-1ef0e.csv","Thru_Date","strings","[^""\r\n]*"
"/data/datasets/datagov/data/data/datagovdata/campaign-finance-fppc-form-496-late-independent-expenditure-report-part-3-contributions-of-1ef0e.csv","Tran_Self","uri",".*?$(?<!\.aspx)"
"/data/datasets/datagov/data/data/datagovdata/campaign-finance-fppc-form-496-late-independent-expenditure-report-part-3-contributions-of-1ef0e.csv","Filer_ID","numbers","^(\d|,)*\.?\d*$"
"/data/datasets/datagov/data/data/datagovdata/campaign-finance-fppc-form-496-late-independent-expenditure-report-part-3-contributions-of-1ef0e.csv","Intr_NamL","uri",".*?$(?<!\.aspx)"
"/data/datasets/datagov/data/data/datagovdata/campaign-finance-fppc-form-496-late-independent-expenditure-report-part-3-contributions-of-1ef0e.csv","Tran_State","uri",".*?$(?<!\.aspx)"
"/data/datasets/datagov/data/data/datagovdata/campaign-finance-fppc-form-496-late-independent-expenditure-report-part-3-contributions-of-1ef0e.csv","Loan_Rate","numbers","^(\d|,)*\.?\d*$"
"/data/datasets/datagov/data/data/datagovdata/campaign-finance-fppc-form-496-late-independent-expenditure-report-part-3-contributions-of-1ef0e.csv","Tran_Date","strings","[^""\r\n]*"
"/data/datasets/datagov/data/data/datagovdata/campaign-finance-fppc-form-496-late-independent-expenditure-report-part-3-contributions-of-1ef0e.csv","Tran_Emp","strings","[^""\r\n]*"
"/data/datasets/datagov/data/data/datagovdata/campaign-finance-fppc-form-496-late-independent-expenditure-report-part-3-contributions-of-1ef0e.csv","Rec_Type","uri",".*?$(?<!\.aspx)"
"/data/datasets/datagov/data/data/datagovdata/campaign-finance-fppc-form-496-late-independent-expenditure-report-part-3-contributions-of-1ef0e.csv","Report_Num","numbers","^(\d|,)*\.?\d*$"
"/data/datasets/datagov/data/data/datagovdata/campaign-finance-fppc-form-496-late-independent-expenditure-report-part-3-contributions-of-1ef0e.csv","Form_Type","uri",".*?$(?<!\.aspx)"
"/data/datasets/datagov/data/data/datagovdata/campaign-finance-fppc-form-496-late-independent-expenditure-report-part-3-contributions-of-1ef0e.csv","Memo_RefNo","strings","[^""\r\n]*"
"/data/datasets/datagov/data/data/datagovdata/campaign-finance-fppc-form-496-late-independent-expenditure-report-part-3-contributions-of-1ef0e.csv","Tran_Location","uri",".*?$(?<!\.aspx)"
"/data/datasets/datagov/data/data/datagovdata/campaign-finance-fppc-form-496-late-independent-expenditure-report-part-3-contributions-of-1ef0e.csv","Tran_NamF","uri",".*?$(?<!\.aspx)"
"/data/datasets/datagov/data/data/datagovdata/campaign-finance-fppc-form-496-late-independent-expenditure-report-part-3-contributions-of-1ef0e.csv","Tran_City","uri",".*?$(?<!\.aspx)"
"/data/datasets/datagov/data/data/datagovdata/campaign-finance-fppc-form-496-late-independent-expenditure-report-part-3-contributions-of-1ef0e.csv","Tran_Amt2","numbers","^(\d|,)*\.?\d*$"
"/data/datasets/datagov/data/data/datagovdata/campaign-finance-fppc-form-496-late-independent-expenditure-report-part-3-contributions-of-1ef0e.csv","Tran_Amt1","uri",".*?$(?<!\.aspx)"
"/data/datasets/datagov/data/data/datagovdata/campaign-finance-fppc-form-496-late-independent-expenditure-report-part-3-contributions-of-1ef0e.csv","Intr_Location","uri",".*?$(?<!\.aspx)"
"/data/datasets/datagov/data/data/datagovdata/campaign-finance-fppc-form-496-late-independent-expenditure-report-part-3-contributions-of-1ef0e.csv","Tran_Dscr","uri",".*?$(?<!\.aspx)"
"/data/datasets/datagov/data/data/datagovdata/campaign-finance-fppc-form-496-late-independent-expenditure-report-part-3-contributions-of-1ef0e.csv","Intr_State","uri",".*?$(?<!\.aspx)"
"/data/datasets/datagov/data/data/datagovdata/campaign-finance-fppc-form-496-late-independent-expenditure-report-part-3-contributions-of-1ef0e.csv","Elect_Date","strings","[^""\r\n]*"
