"file_name","column_name","label","regex"
"/data/datasets/datagov/data/data/datagovdata/dep-reported-sanitary-sewer-overflows-dfcc0.csv","Description","strings","[^""\r\n]*"
"/data/datasets/datagov/data/data/datagovdata/dep-reported-sanitary-sewer-overflows-dfcc0.csv","Type","uri",".*?$(?<!\.aspx)"
"/data/datasets/datagov/data/data/datagovdata/dep-reported-sanitary-sewer-overflows-dfcc0.csv","Open Date","strings","[^""\r\n]*"
"/data/datasets/datagov/data/data/datagovdata/dep-reported-sanitary-sewer-overflows-dfcc0.csv","Year","numbers","^\d*$"
"/data/datasets/datagov/data/data/datagovdata/dep-reported-sanitary-sewer-overflows-dfcc0.csv","Case Number","numbers","^\d*$"
"/data/datasets/datagov/data/data/datagovdata/dep-reported-sanitary-sewer-overflows-dfcc0.csv","Sub-Type","uri",".*?$(?<!\.aspx)"
"/data/datasets/datagov/data/data/datagovdata/dep-reported-sanitary-sewer-overflows-dfcc0.csv","Close Date","strings","[^""\r\n]*"
