"file_name","column_name","label","regex"
"/data/datasets/datagov/data/data/datagovdata/solar-photovoltaic-pv-incentive-program-completed-projects-by-city-and-contractor-beginnin.csv","Location 1","uri","^[^\\\/\?\*\""\'\>\<\:\|]*$"
"/data/datasets/datagov/data/data/datagovdata/solar-photovoltaic-pv-incentive-program-completed-projects-by-city-and-contractor-beginnin.csv","County","uri","^[^\\\/\?\*\""\'\>\<\:\|]*$"
"/data/datasets/datagov/data/data/datagovdata/solar-photovoltaic-pv-incentive-program-completed-projects-by-city-and-contractor-beginnin.csv","Total Nameplate KW","numbers","^(\d|,)*\.?\d*$"
"/data/datasets/datagov/data/data/datagovdata/solar-photovoltaic-pv-incentive-program-completed-projects-by-city-and-contractor-beginnin.csv","Project Cost","numbers","^(\d|,)*\.?\d*$"
"/data/datasets/datagov/data/data/datagovdata/solar-photovoltaic-pv-incentive-program-completed-projects-by-city-and-contractor-beginnin.csv","Project Count by City","numbers","^(\d|,)*\.?\d*$"
"/data/datasets/datagov/data/data/datagovdata/solar-photovoltaic-pv-incentive-program-completed-projects-by-city-and-contractor-beginnin.csv","Incentive, Dollars","numbers","^(\d|,)*\.?\d*$"
"/data/datasets/datagov/data/data/datagovdata/solar-photovoltaic-pv-incentive-program-completed-projects-by-city-and-contractor-beginnin.csv","Project Install Year","numbers","^(\d|,)*\.?\d*$"
"/data/datasets/datagov/data/data/datagovdata/solar-photovoltaic-pv-incentive-program-completed-projects-by-city-and-contractor-beginnin.csv","Solicitation","uri","^[^\\\/\?\*\""\'\>\<\:\|]*$"
"/data/datasets/datagov/data/data/datagovdata/solar-photovoltaic-pv-incentive-program-completed-projects-by-city-and-contractor-beginnin.csv","Expected KWh Annual Production","numbers","^(\d|,)*\.?\d*$"
"/data/datasets/datagov/data/data/datagovdata/solar-photovoltaic-pv-incentive-program-completed-projects-by-city-and-contractor-beginnin.csv","City","uri","^[^\\\/\?\*\""\'\>\<\:\|]*$"
"/data/datasets/datagov/data/data/datagovdata/solar-photovoltaic-pv-incentive-program-completed-projects-by-city-and-contractor-beginnin.csv","Contractor","uri","^[^\\\/\?\*\""\'\>\<\:\|]*$"
