"file_name","column_name","label","regex"
"/data/datasets/datagov/data/data/datagovdata/newborn-screening-disorders-by-california-region-2009-2014.csv","Case Count","numbers","^\d*$"
"/data/datasets/datagov/data/data/datagovdata/newborn-screening-disorders-by-california-region-2009-2014.csv","% of All Disorders in Region","numbers","^\d*$"
"/data/datasets/datagov/data/data/datagovdata/newborn-screening-disorders-by-california-region-2009-2014.csv","California Region","uri",".*?$(?<!\.aspx)"
"/data/datasets/datagov/data/data/datagovdata/newborn-screening-disorders-by-california-region-2009-2014.csv","Disease Type","strings","[^""\r\n]*"
"/data/datasets/datagov/data/data/datagovdata/newborn-screening-disorders-by-california-region-2009-2014.csv","Screened","numbers","^\d*$"
