"file_name","column_name","label","regex"
"/data/datasets/datagov/data/data/datagovdata/maryland-ozone-exceedance-days-in-2007-3ce55.csv","Essex","numbers","^\d*$"
"/data/datasets/datagov/data/data/datagovdata/maryland-ozone-exceedance-days-in-2007-3ce55.csv","Southern Maryland","numbers","^\d*$"
"/data/datasets/datagov/data/data/datagovdata/maryland-ozone-exceedance-days-in-2007-3ce55.csv","Date","strings","[^""\r\n]*"
"/data/datasets/datagov/data/data/datagovdata/maryland-ozone-exceedance-days-in-2007-3ce55.csv","Fairhill","numbers","^\d*$"
"/data/datasets/datagov/data/data/datagovdata/maryland-ozone-exceedance-days-in-2007-3ce55.csv","Furley E.S.  Recreation Center","numbers","^\d*$"
"/data/datasets/datagov/data/data/datagovdata/maryland-ozone-exceedance-days-in-2007-3ce55.csv","Davidsonville","numbers","^\d*$"
"/data/datasets/datagov/data/data/datagovdata/maryland-ozone-exceedance-days-in-2007-3ce55.csv","Piney Run","numbers","^\d*$"
"/data/datasets/datagov/data/data/datagovdata/maryland-ozone-exceedance-days-in-2007-3ce55.csv","Frederick Airport","numbers","^\d*$"
"/data/datasets/datagov/data/data/datagovdata/maryland-ozone-exceedance-days-in-2007-3ce55.csv","Padonia","numbers","^\d*$"
"/data/datasets/datagov/data/data/datagovdata/maryland-ozone-exceedance-days-in-2007-3ce55.csv","State-wide Max","numbers","^\d*$"
"/data/datasets/datagov/data/data/datagovdata/maryland-ozone-exceedance-days-in-2007-3ce55.csv","Rockville","numbers","^\d*$"
"/data/datasets/datagov/data/data/datagovdata/maryland-ozone-exceedance-days-in-2007-3ce55.csv","Millington","numbers","^\d*$"
"/data/datasets/datagov/data/data/datagovdata/maryland-ozone-exceedance-days-in-2007-3ce55.csv","Calvert Co / Barstow","numbers","^\d*$"
"/data/datasets/datagov/data/data/datagovdata/maryland-ozone-exceedance-days-in-2007-3ce55.csv","South Carroll","numbers","^\d*$"
"/data/datasets/datagov/data/data/datagovdata/maryland-ozone-exceedance-days-in-2007-3ce55.csv","HU-Beltsville","numbers","^\d*$"
"/data/datasets/datagov/data/data/datagovdata/maryland-ozone-exceedance-days-in-2007-3ce55.csv","Hagerstown","numbers","^\d*$"
"/data/datasets/datagov/data/data/datagovdata/maryland-ozone-exceedance-days-in-2007-3ce55.csv","Edgewood","numbers","^\d*$"
"/data/datasets/datagov/data/data/datagovdata/maryland-ozone-exceedance-days-in-2007-3ce55.csv","Aldino","numbers","^\d*$"
"/data/datasets/datagov/data/data/datagovdata/maryland-ozone-exceedance-days-in-2007-3ce55.csv","PG Equestrian Center","numbers","^\d*$"
