"file_name","column_name","label","regex"
"/data/datasets/datagov/data/data/datagovdata/new-york-state-parks-concession-contracts.csv","Region","uri",".*?$(?<!\.aspx)"
"/data/datasets/datagov/data/data/datagovdata/new-york-state-parks-concession-contracts.csv","Facility","strings","[^""\r\n]*"
"/data/datasets/datagov/data/data/datagovdata/new-york-state-parks-concession-contracts.csv","End Date","strings","[^""\r\n]*"
"/data/datasets/datagov/data/data/datagovdata/new-york-state-parks-concession-contracts.csv","Contract #","uri",".*?$(?<!\.aspx)"
"/data/datasets/datagov/data/data/datagovdata/new-york-state-parks-concession-contracts.csv","Name","strings","[^""\r\n]*"
"/data/datasets/datagov/data/data/datagovdata/new-york-state-parks-concession-contracts.csv","Start Date","strings","[^""\r\n]*"
"/data/datasets/datagov/data/data/datagovdata/new-york-state-parks-concession-contracts.csv","Type","strings","[^""\r\n]*"
