"file_name","column_name","label","regex"
"/data/datasets/datagov/data/data/datagovdata/rochester-genesee-regional-transportation-authority-rgrta-rider-volumes-beginning-2006.csv","Ridership","numbers","^\d*$"
"/data/datasets/datagov/data/data/datagovdata/rochester-genesee-regional-transportation-authority-rgrta-rider-volumes-beginning-2006.csv","Month","numbers","^\d*$"
"/data/datasets/datagov/data/data/datagovdata/rochester-genesee-regional-transportation-authority-rgrta-rider-volumes-beginning-2006.csv","Subsidiary","uri",".*?$(?<!\.aspx)"
"/data/datasets/datagov/data/data/datagovdata/rochester-genesee-regional-transportation-authority-rgrta-rider-volumes-beginning-2006.csv","Year","numbers","^\d*$"
