"file_name","column_name","label","regex"
"/data/datasets/datagov/data/data/datagovdata/2014-state-employee-pay-as-of-cob-june-30-2014-7129a.csv"," Calendar Year","numbers","^\$?\d+(\.(\d{2}))?$"
"/data/datasets/datagov/data/data/datagovdata/2014-state-employee-pay-as-of-cob-june-30-2014-7129a.csv","Position Title","uri",".*?$(?<!\.aspx)"
"/data/datasets/datagov/data/data/datagovdata/2014-state-employee-pay-as-of-cob-june-30-2014-7129a.csv","YTD Gross Pay","numbers","^\$?\d+(\.(\d{2}))?$"
"/data/datasets/datagov/data/data/datagovdata/2014-state-employee-pay-as-of-cob-june-30-2014-7129a.csv","Agency Name","uri",".*?$(?<!\.aspx)"
"/data/datasets/datagov/data/data/datagovdata/2014-state-employee-pay-as-of-cob-june-30-2014-7129a.csv","Employee Name","uri",".*?$(?<!\.aspx)"
