"file_name","column_name","label","regex"
"/data/datasets/datagov/data/data/datagovdata/electronics-stores-92826.csv","Address Bldg","uri","^[^\\\/\?\*\""\'\>\<\:\|]*$"
"/data/datasets/datagov/data/data/datagovdata/electronics-stores-92826.csv","Address Zip Code","numbers","^(\d|,)*\.?\d*$"
"/data/datasets/datagov/data/data/datagovdata/electronics-stores-92826.csv","Location","uri","^[^\\\/\?\*\""\'\>\<\:\|]*$"
"/data/datasets/datagov/data/data/datagovdata/electronics-stores-92826.csv","Entity Type","uri","^[^\\\/\?\*\""\'\>\<\:\|]*$"
"/data/datasets/datagov/data/data/datagovdata/electronics-stores-92826.csv","Address City","uri","^[^\\\/\?\*\""\'\>\<\:\|]*$"
"/data/datasets/datagov/data/data/datagovdata/electronics-stores-92826.csv","Address State","uri","^[^\\\/\?\*\""\'\>\<\:\|]*$"
"/data/datasets/datagov/data/data/datagovdata/electronics-stores-92826.csv","Entity Name","uri","^[^\\\/\?\*\""\'\>\<\:\|]*$"
"/data/datasets/datagov/data/data/datagovdata/electronics-stores-92826.csv","License Number","numbers","^(\d|,)*\.?\d*$"
"/data/datasets/datagov/data/data/datagovdata/electronics-stores-92826.csv","Camis Trade Name","uri","^[^\\\/\?\*\""\'\>\<\:\|]*$"
"/data/datasets/datagov/data/data/datagovdata/electronics-stores-92826.csv","Address Location","strings","[^""\r\n]*"
"/data/datasets/datagov/data/data/datagovdata/electronics-stores-92826.csv","Telephone Number","numbers","^(\d|,)*\.?\d*$"
"/data/datasets/datagov/data/data/datagovdata/electronics-stores-92826.csv","Address Street Name","uri","^[^\\\/\?\*\""\'\>\<\:\|]*$"
