"file_name","column_name","label","regex"
"/data/datasets/datagov/data/data/datagovdata/child-reunification-87202.csv","Historical Data","numbers","(^([0-9]+[.]+[0-9]+)|(0)$)"
"/data/datasets/datagov/data/data/datagovdata/child-reunification-87202.csv","Target","numbers","(^([0-9]+[.]+[0-9]+)|(0)$)"
"/data/datasets/datagov/data/data/datagovdata/child-reunification-87202.csv","Years","numbers","(^([0-9]+[.]+[0-9]+)|(0)$)"
