"file_name","column_name","label","regex"
"/data/datasets/datagov/data/data/datagovdata/city-of-seattle-bicycle-racks-a12fa.csv","MANUFACTUR","uri",".*?$(?<!\.aspx)"
"/data/datasets/datagov/data/data/datagovdata/city-of-seattle-bicycle-racks-a12fa.csv","DELINEATOR","uri",".*?$(?<!\.aspx)"
"/data/datasets/datagov/data/data/datagovdata/city-of-seattle-bicycle-racks-a12fa.csv","WIDTH","numbers","^-?\d*(\.\d+)?$"
"/data/datasets/datagov/data/data/datagovdata/city-of-seattle-bicycle-racks-a12fa.csv","DISTANCE","numbers","^-?\d*(\.\d+)?$"
"/data/datasets/datagov/data/data/datagovdata/city-of-seattle-bicycle-racks-a12fa.csv","LATITUDE","numbers","^-?\d*(\.\d+)?$"
"/data/datasets/datagov/data/data/datagovdata/city-of-seattle-bicycle-racks-a12fa.csv","SURFACE_TY","uri",".*?$(?<!\.aspx)"
"/data/datasets/datagov/data/data/datagovdata/city-of-seattle-bicycle-racks-a12fa.csv","RACK_CAPAC","numbers","^-?\d*(\.\d+)?$"
"/data/datasets/datagov/data/data/datagovdata/city-of-seattle-bicycle-racks-a12fa.csv","OBJECTID","numbers","^-?\d*(\.\d+)?$"
"/data/datasets/datagov/data/data/datagovdata/city-of-seattle-bicycle-racks-a12fa.csv","INSTALL_DA","strings","[^""\r\n]*"
"/data/datasets/datagov/data/data/datagovdata/city-of-seattle-bicycle-racks-a12fa.csv","SEGKEY","numbers","^-?\d*(\.\d+)?$"
"/data/datasets/datagov/data/data/datagovdata/city-of-seattle-bicycle-racks-a12fa.csv","COMPKEY","numbers","^-?\d*(\.\d+)?$"
"/data/datasets/datagov/data/data/datagovdata/city-of-seattle-bicycle-racks-a12fa.csv","Rack Location","uri",".*?$(?<!\.aspx)"
"/data/datasets/datagov/data/data/datagovdata/city-of-seattle-bicycle-racks-a12fa.csv","ASSET_COND","uri",".*?$(?<!\.aspx)"
"/data/datasets/datagov/data/data/datagovdata/city-of-seattle-bicycle-racks-a12fa.csv","MOUNT_TYPE","uri",".*?$(?<!\.aspx)"
"/data/datasets/datagov/data/data/datagovdata/city-of-seattle-bicycle-racks-a12fa.csv","UNITTYPE","uri",".*?$(?<!\.aspx)"
"/data/datasets/datagov/data/data/datagovdata/city-of-seattle-bicycle-racks-a12fa.csv","BIKE_FACIL","uri",".*?$(?<!\.aspx)"
"/data/datasets/datagov/data/data/datagovdata/city-of-seattle-bicycle-racks-a12fa.csv","LONGITUDE","numbers","^-?\d*(\.\d+)?$"
"/data/datasets/datagov/data/data/datagovdata/city-of-seattle-bicycle-racks-a12fa.csv","MODEL_TYPE","uri",".*?$(?<!\.aspx)"
"/data/datasets/datagov/data/data/datagovdata/city-of-seattle-bicycle-racks-a12fa.csv","COMPTYPE","numbers","^-?\d*(\.\d+)?$"
"/data/datasets/datagov/data/data/datagovdata/city-of-seattle-bicycle-racks-a12fa.csv","CONDITION_","strings","[^""\r\n]*"
"/data/datasets/datagov/data/data/datagovdata/city-of-seattle-bicycle-racks-a12fa.csv","CONDITION","uri",".*?$(?<!\.aspx)"
"/data/datasets/datagov/data/data/datagovdata/city-of-seattle-bicycle-racks-a12fa.csv","UNITID","uri",".*?$(?<!\.aspx)"
"/data/datasets/datagov/data/data/datagovdata/city-of-seattle-bicycle-racks-a12fa.csv","COLOR","uri",".*?$(?<!\.aspx)"
"/data/datasets/datagov/data/data/datagovdata/city-of-seattle-bicycle-racks-a12fa.csv","UNITDESC","strings","[^""\r\n]*"
"/data/datasets/datagov/data/data/datagovdata/city-of-seattle-bicycle-racks-a12fa.csv","FINISH_TYP","uri",".*?$(?<!\.aspx)"
