"file_name","column_name","label","regex"
"/data/datasets/datagov/data/data/datagovdata/total-energy-usage.csv","Historical Data","numbers","^(\d|,)*\.?\d*$"
"/data/datasets/datagov/data/data/datagovdata/total-energy-usage.csv","Target","numbers","^(\d|,)*\.?\d*$"
"/data/datasets/datagov/data/data/datagovdata/total-energy-usage.csv","Years","numbers","^(\d|,)*\.?\d*$"
