"file_name","column_name","label","regex"
"/data/datasets/datagov/data/data/datagovdata/pet-license-sales-locations-with-tags-ad2a3.csv","Agency","uri",".*?$(?<!\.aspx)"
"/data/datasets/datagov/data/data/datagovdata/pet-license-sales-locations-with-tags-ad2a3.csv","Location","uri",".*?$(?<!\.aspx)"
"/data/datasets/datagov/data/data/datagovdata/pet-license-sales-locations-with-tags-ad2a3.csv","Suite","uri",".*?$(?<!\.aspx)"
"/data/datasets/datagov/data/data/datagovdata/pet-license-sales-locations-with-tags-ad2a3.csv","License Tags Available?","uri",".*?$(?<!\.aspx)"
"/data/datasets/datagov/data/data/datagovdata/pet-license-sales-locations-with-tags-ad2a3.csv","Notes","uri",".*?$(?<!\.aspx)"
"/data/datasets/datagov/data/data/datagovdata/pet-license-sales-locations-with-tags-ad2a3.csv","City","uri",".*?$(?<!\.aspx)"
"/data/datasets/datagov/data/data/datagovdata/pet-license-sales-locations-with-tags-ad2a3.csv","Telephone","uri",".*?$(?<!\.aspx)"
"/data/datasets/datagov/data/data/datagovdata/pet-license-sales-locations-with-tags-ad2a3.csv","License Mailers Available?","uri",".*?$(?<!\.aspx)"
