"file_name","column_name","label","regex"
"/data/datasets/datagov/data/data/datagovdata/community-multi-service-office-cmso-intake-and-evening-reporting-center-erc-offices.csv","Address 2","uri","^[^\\\/\?\*\""\'\>\<\:\|]*$"
"/data/datasets/datagov/data/data/datagovdata/community-multi-service-office-cmso-intake-and-evening-reporting-center-erc-offices.csv","Location","uri","^[^\\\/\?\*\""\'\>\<\:\|]*$"
"/data/datasets/datagov/data/data/datagovdata/community-multi-service-office-cmso-intake-and-evening-reporting-center-erc-offices.csv","County","uri","^[^\\\/\?\*\""\'\>\<\:\|]*$"
"/data/datasets/datagov/data/data/datagovdata/community-multi-service-office-cmso-intake-and-evening-reporting-center-erc-offices.csv","Office Name","strings","[^""\r\n]*"
"/data/datasets/datagov/data/data/datagovdata/community-multi-service-office-cmso-intake-and-evening-reporting-center-erc-offices.csv","Phone 2","uri","^[^\\\/\?\*\""\'\>\<\:\|]*$"
"/data/datasets/datagov/data/data/datagovdata/community-multi-service-office-cmso-intake-and-evening-reporting-center-erc-offices.csv","Wraparound Fund","uri","^[^\\\/\?\*\""\'\>\<\:\|]*$"
"/data/datasets/datagov/data/data/datagovdata/community-multi-service-office-cmso-intake-and-evening-reporting-center-erc-offices.csv","Intake","uri","^[^\\\/\?\*\""\'\>\<\:\|]*$"
"/data/datasets/datagov/data/data/datagovdata/community-multi-service-office-cmso-intake-and-evening-reporting-center-erc-offices.csv","Evening Reporting Center","uri","^[^\\\/\?\*\""\'\>\<\:\|]*$"
"/data/datasets/datagov/data/data/datagovdata/community-multi-service-office-cmso-intake-and-evening-reporting-center-erc-offices.csv","Phone 1","uri","^[^\\\/\?\*\""\'\>\<\:\|]*$"
"/data/datasets/datagov/data/data/datagovdata/community-multi-service-office-cmso-intake-and-evening-reporting-center-erc-offices.csv","Fax","uri","^[^\\\/\?\*\""\'\>\<\:\|]*$"
"/data/datasets/datagov/data/data/datagovdata/community-multi-service-office-cmso-intake-and-evening-reporting-center-erc-offices.csv","Zip","numbers","^\d*$"
"/data/datasets/datagov/data/data/datagovdata/community-multi-service-office-cmso-intake-and-evening-reporting-center-erc-offices.csv","Community Multi Service Office ","uri","^[^\\\/\?\*\""\'\>\<\:\|]*$"
"/data/datasets/datagov/data/data/datagovdata/community-multi-service-office-cmso-intake-and-evening-reporting-center-erc-offices.csv","Address 3","uri","^[^\\\/\?\*\""\'\>\<\:\|]*$"
"/data/datasets/datagov/data/data/datagovdata/community-multi-service-office-cmso-intake-and-evening-reporting-center-erc-offices.csv","City","uri","^[^\\\/\?\*\""\'\>\<\:\|]*$"
"/data/datasets/datagov/data/data/datagovdata/community-multi-service-office-cmso-intake-and-evening-reporting-center-erc-offices.csv","Address 1","uri","^[^\\\/\?\*\""\'\>\<\:\|]*$"
"/data/datasets/datagov/data/data/datagovdata/community-multi-service-office-cmso-intake-and-evening-reporting-center-erc-offices.csv","State","uri","^[^\\\/\?\*\""\'\>\<\:\|]*$"
"/data/datasets/datagov/data/data/datagovdata/community-multi-service-office-cmso-intake-and-evening-reporting-center-erc-offices.csv","VC Capability","uri","^[^\\\/\?\*\""\'\>\<\:\|]*$"
