"file_name","column_name","label","regex"
"/data/datasets/datagov/data/data/datagovdata/medical-examiner-2009-manner-death-by-race-44a00.csv","COUNT","numbers","^\d*$"
"/data/datasets/datagov/data/data/datagovdata/medical-examiner-2009-manner-death-by-race-44a00.csv","MANNER OF DEATH","uri",".*?$(?<!\.aspx)"
"/data/datasets/datagov/data/data/datagovdata/medical-examiner-2009-manner-death-by-race-44a00.csv","RACE            ","uri",".*?$(?<!\.aspx)"
