"file_name","column_name","label","regex"
"/data/datasets/datagov/data/data/datagovdata/street-names.csv","STREET NAME ID","numbers","^\d*$"
"/data/datasets/datagov/data/data/datagovdata/street-names.csv","STREET EXTENSION","uri",".*?$(?<!\.aspx)"
"/data/datasets/datagov/data/data/datagovdata/street-names.csv","STREET SUFFIX DIRECTION","uri",".*?$(?<!\.aspx)"
"/data/datasets/datagov/data/data/datagovdata/street-names.csv","STREET SUFFIX TYPE","uri",".*?$(?<!\.aspx)"
"/data/datasets/datagov/data/data/datagovdata/street-names.csv","MUNICIPAL COMMUNITY","uri",".*?$(?<!\.aspx)"
"/data/datasets/datagov/data/data/datagovdata/street-names.csv","POSTAL COMMUNITY","uri",".*?$(?<!\.aspx)"
"/data/datasets/datagov/data/data/datagovdata/street-names.csv","STREET NAME","uri",".*?$(?<!\.aspx)"
"/data/datasets/datagov/data/data/datagovdata/street-names.csv","STREET PREFIX DIRECTION","uri",".*?$(?<!\.aspx)"
