"file_name","column_name","label","regex"
"/data/datasets/datagov/data/data/datagovdata/street-center-lines-deprecated-october-2014.csv","LOGICRF","numbers","^(\d|,)*\.?\d*$"
"/data/datasets/datagov/data/data/datagovdata/street-center-lines-deprecated-october-2014.csv","UPDATE_USE","uri",".*?$(?<!\.aspx)"
"/data/datasets/datagov/data/data/datagovdata/street-center-lines-deprecated-october-2014.csv","R_FIPS","numbers","^(\d|,)*\.?\d*$"
"/data/datasets/datagov/data/data/datagovdata/street-center-lines-deprecated-october-2014.csv","SUF_DIR","uri",".*?$(?<!\.aspx)"
"/data/datasets/datagov/data/data/datagovdata/street-center-lines-deprecated-october-2014.csv","R_CENSUSBL","numbers","^(\d|,)*\.?\d*$"
"/data/datasets/datagov/data/data/datagovdata/street-center-lines-deprecated-october-2014.csv","EWNS_COORD","numbers","^(\d|,)*\.?\d*$"
"/data/datasets/datagov/data/data/datagovdata/street-center-lines-deprecated-october-2014.csv","L_CENSUSBL","numbers","^(\d|,)*\.?\d*$"
"/data/datasets/datagov/data/data/datagovdata/street-center-lines-deprecated-october-2014.csv","LOGICLT","numbers","^(\d|,)*\.?\d*$"
"/data/datasets/datagov/data/data/datagovdata/street-center-lines-deprecated-october-2014.csv","FNODE_ID","numbers","^(\d|,)*\.?\d*$"
"/data/datasets/datagov/data/data/datagovdata/street-center-lines-deprecated-october-2014.csv","the_geom","strings","[^""\r\n]*"
"/data/datasets/datagov/data/data/datagovdata/street-center-lines-deprecated-october-2014.csv","TRANS_ID","numbers","^(\d|,)*\.?\d*$"
"/data/datasets/datagov/data/data/datagovdata/street-center-lines-deprecated-october-2014.csv","STATUS_DAT","strings","[^""\r\n]*"
"/data/datasets/datagov/data/data/datagovdata/street-center-lines-deprecated-october-2014.csv","T_CROSS","strings","[^""\r\n]*"
"/data/datasets/datagov/data/data/datagovdata/street-center-lines-deprecated-october-2014.csv","L_ZIP","numbers","^(\d|,)*\.?\d*$"
"/data/datasets/datagov/data/data/datagovdata/street-center-lines-deprecated-october-2014.csv","EDIT_TYPE","uri",".*?$(?<!\.aspx)"
"/data/datasets/datagov/data/data/datagovdata/street-center-lines-deprecated-october-2014.csv","TIERED","uri",".*?$(?<!\.aspx)"
"/data/datasets/datagov/data/data/datagovdata/street-center-lines-deprecated-october-2014.csv","EWNS","numbers","^(\d|,)*\.?\d*$"
"/data/datasets/datagov/data/data/datagovdata/street-center-lines-deprecated-october-2014.csv","EDIT_DATE","numbers","^(\d|,)*\.?\d*$"
"/data/datasets/datagov/data/data/datagovdata/street-center-lines-deprecated-october-2014.csv","CREATE_USE","uri",".*?$(?<!\.aspx)"
"/data/datasets/datagov/data/data/datagovdata/street-center-lines-deprecated-october-2014.csv","STATUS","uri",".*?$(?<!\.aspx)"
"/data/datasets/datagov/data/data/datagovdata/street-center-lines-deprecated-october-2014.csv","R_ZIP","numbers","^(\d|,)*\.?\d*$"
"/data/datasets/datagov/data/data/datagovdata/street-center-lines-deprecated-october-2014.csv","L_FIPS","numbers","^(\d|,)*\.?\d*$"
"/data/datasets/datagov/data/data/datagovdata/street-center-lines-deprecated-october-2014.csv","ONEWAY_DIR","uri",".*?$(?<!\.aspx)"
"/data/datasets/datagov/data/data/datagovdata/street-center-lines-deprecated-october-2014.csv","STREETNAME","numbers","^(\d|,)*\.?\d*$"
"/data/datasets/datagov/data/data/datagovdata/street-center-lines-deprecated-october-2014.csv","STREET_NAM","uri",".*?$(?<!\.aspx)"
"/data/datasets/datagov/data/data/datagovdata/street-center-lines-deprecated-october-2014.csv","UPDATE_TIM","strings","[^""\r\n]*"
"/data/datasets/datagov/data/data/datagovdata/street-center-lines-deprecated-october-2014.csv","STREET_TYP","uri",".*?$(?<!\.aspx)"
"/data/datasets/datagov/data/data/datagovdata/street-center-lines-deprecated-october-2014.csv","L_F_ADD","numbers","^(\d|,)*\.?\d*$"
"/data/datasets/datagov/data/data/datagovdata/street-center-lines-deprecated-october-2014.csv","LOGICRT","numbers","^(\d|,)*\.?\d*$"
"/data/datasets/datagov/data/data/datagovdata/street-center-lines-deprecated-october-2014.csv","LENGTH","numbers","^(\d|,)*\.?\d*$"
"/data/datasets/datagov/data/data/datagovdata/street-center-lines-deprecated-october-2014.csv","FLAG_STRIN","uri",".*?$(?<!\.aspx)"
"/data/datasets/datagov/data/data/datagovdata/street-center-lines-deprecated-october-2014.csv","R_F_ADD","numbers","^(\d|,)*\.?\d*$"
"/data/datasets/datagov/data/data/datagovdata/street-center-lines-deprecated-october-2014.csv","PRE_DIR","uri",".*?$(?<!\.aspx)"
"/data/datasets/datagov/data/data/datagovdata/street-center-lines-deprecated-october-2014.csv","L_T_ADD","numbers","^(\d|,)*\.?\d*$"
"/data/datasets/datagov/data/data/datagovdata/street-center-lines-deprecated-october-2014.csv","F_CROSS","strings","[^""\r\n]*"
"/data/datasets/datagov/data/data/datagovdata/street-center-lines-deprecated-october-2014.csv","L_PARITY","uri",".*?$(?<!\.aspx)"
"/data/datasets/datagov/data/data/datagovdata/street-center-lines-deprecated-october-2014.csv","TNODE_ID","numbers","^(\d|,)*\.?\d*$"
"/data/datasets/datagov/data/data/datagovdata/street-center-lines-deprecated-october-2014.csv","EWNS_DIR","uri",".*?$(?<!\.aspx)"
"/data/datasets/datagov/data/data/datagovdata/street-center-lines-deprecated-october-2014.csv","SHAPE_LEN","numbers","^(\d|,)*\.?\d*$"
"/data/datasets/datagov/data/data/datagovdata/street-center-lines-deprecated-october-2014.csv","CLASS","uri",".*?$(?<!\.aspx)"
"/data/datasets/datagov/data/data/datagovdata/street-center-lines-deprecated-october-2014.csv","T_CROSS_ST","numbers","^(\d|,)*\.?\d*$"
"/data/datasets/datagov/data/data/datagovdata/street-center-lines-deprecated-october-2014.csv","DIR_TRAVEL","uri",".*?$(?<!\.aspx)"
"/data/datasets/datagov/data/data/datagovdata/street-center-lines-deprecated-october-2014.csv","CREATE_TIM","strings","[^""\r\n]*"
"/data/datasets/datagov/data/data/datagovdata/street-center-lines-deprecated-october-2014.csv","LOGICLF","numbers","^(\d|,)*\.?\d*$"
"/data/datasets/datagov/data/data/datagovdata/street-center-lines-deprecated-october-2014.csv","R_PARITY","uri",".*?$(?<!\.aspx)"
"/data/datasets/datagov/data/data/datagovdata/street-center-lines-deprecated-october-2014.csv","F_CROSS_ST","numbers","^(\d|,)*\.?\d*$"
"/data/datasets/datagov/data/data/datagovdata/street-center-lines-deprecated-october-2014.csv","T_ZLEV","numbers","^(\d|,)*\.?\d*$"
"/data/datasets/datagov/data/data/datagovdata/street-center-lines-deprecated-october-2014.csv","R_T_ADD","numbers","^(\d|,)*\.?\d*$"
"/data/datasets/datagov/data/data/datagovdata/street-center-lines-deprecated-october-2014.csv","F_ZLEV","numbers","^(\d|,)*\.?\d*$"
