"file_name","column_name","label","regex"
"/data/datasets/datagov/data/data/datagovdata/tlf407shp.csv","BG","numbers","^\d*$"
"/data/datasets/datagov/data/data/datagovdata/tlf407shp.csv","TLF04007_","numbers","^\d*$"
"/data/datasets/datagov/data/data/datagovdata/tlf407shp.csv","PERIMETER","numbers","^\d*$"
"/data/datasets/datagov/data/data/datagovdata/tlf407shp.csv","AREA","uri",".*?$(?<!\.aspx)"
"/data/datasets/datagov/data/data/datagovdata/tlf407shp.csv","TLF04007_I","numbers","^\d*$"
