"file_name","column_name","label","regex"
"/data/datasets/datagov/data/data/datagovdata/grants-and-funding-matrix-75d3f.csv","Description","strings","[^""\r\n]*"
"/data/datasets/datagov/data/data/datagovdata/grants-and-funding-matrix-75d3f.csv","Youth","uri",".*?$(?<!\.aspx)"
"/data/datasets/datagov/data/data/datagovdata/grants-and-funding-matrix-75d3f.csv","Fund","uri",".*?$(?<!\.aspx)"
"/data/datasets/datagov/data/data/datagovdata/grants-and-funding-matrix-75d3f.csv","Technology","uri",".*?$(?<!\.aspx)"
"/data/datasets/datagov/data/data/datagovdata/grants-and-funding-matrix-75d3f.csv","Eligibility","strings","[^""\r\n]*"
"/data/datasets/datagov/data/data/datagovdata/grants-and-funding-matrix-75d3f.csv","Community Building/Organizing","uri",".*?$(?<!\.aspx)"
"/data/datasets/datagov/data/data/datagovdata/grants-and-funding-matrix-75d3f.csv","Arts","uri",".*?$(?<!\.aspx)"
"/data/datasets/datagov/data/data/datagovdata/grants-and-funding-matrix-75d3f.csv","Dept.","strings","[^""\r\n]*"
"/data/datasets/datagov/data/data/datagovdata/grants-and-funding-matrix-75d3f.csv","Physical Improvements","uri",".*?$(?<!\.aspx)"
"/data/datasets/datagov/data/data/datagovdata/grants-and-funding-matrix-75d3f.csv","Award","uri",".*?$(?<!\.aspx)"
"/data/datasets/datagov/data/data/datagovdata/grants-and-funding-matrix-75d3f.csv","Website","uri",".*?$(?<!\.aspx)"
"/data/datasets/datagov/data/data/datagovdata/grants-and-funding-matrix-75d3f.csv","Environment","uri",".*?$(?<!\.aspx)"
"/data/datasets/datagov/data/data/datagovdata/grants-and-funding-matrix-75d3f.csv","Deadline","strings","[^""\r\n]*"
