"file_name","column_name","label","regex"
"/data/datasets/datagov/data/data/datagovdata/brownfield-cleanup-program-certificates-of-completion.csv","Year COC Issued","numbers","^(\d|,)*\.?\d*$"
"/data/datasets/datagov/data/data/datagovdata/brownfield-cleanup-program-certificates-of-completion.csv","Location","uri","^[^\\\/\?\*\""\'\>\<\:\|]*$"
"/data/datasets/datagov/data/data/datagovdata/brownfield-cleanup-program-certificates-of-completion.csv","Site Name","strings","[^""\r\n]*"
"/data/datasets/datagov/data/data/datagovdata/brownfield-cleanup-program-certificates-of-completion.csv","Highest Allowable Future Use","uri","^[^\\\/\?\*\""\'\>\<\:\|]*$"
"/data/datasets/datagov/data/data/datagovdata/brownfield-cleanup-program-certificates-of-completion.csv","Years from Application to COC","numbers","^(\d|,)*\.?\d*$"
"/data/datasets/datagov/data/data/datagovdata/brownfield-cleanup-program-certificates-of-completion.csv","Acreage","numbers","^(\d|,)*\.?\d*$"
"/data/datasets/datagov/data/data/datagovdata/brownfield-cleanup-program-certificates-of-completion.csv","BCP Site Number","uri","^[^\\\/\?\*\""\'\>\<\:\|]*$"
"/data/datasets/datagov/data/data/datagovdata/brownfield-cleanup-program-certificates-of-completion.csv","Location1","uri","^[^\\\/\?\*\""\'\>\<\:\|]*$"
