"file_name","column_name","label","regex"
"/data/datasets/datagov/data/data/datagovdata/election-results-final-daily-november-2011-general-be715.csv","Race","uri",".*?$(?<!\.aspx)"
"/data/datasets/datagov/data/data/datagovdata/election-results-final-daily-november-2011-general-be715.csv","Votes cast in this race","numbers","^[-+]?\d+(\.\d+)?|[-+]?\.\d+?$"
"/data/datasets/datagov/data/data/datagovdata/election-results-final-daily-november-2011-general-be715.csv","Registered voters","numbers","^[-+]?\d+(\.\d+)?|[-+]?\.\d+?$"
"/data/datasets/datagov/data/data/datagovdata/election-results-final-daily-november-2011-general-be715.csv"," Percent","numbers","^[-+]?\d+(\.\d+)?|[-+]?\.\d+?$"
"/data/datasets/datagov/data/data/datagovdata/election-results-final-daily-november-2011-general-be715.csv"," Choice","uri",".*?$(?<!\.aspx)"
"/data/datasets/datagov/data/data/datagovdata/election-results-final-daily-november-2011-general-be715.csv"," Votes","numbers","^[-+]?\d+(\.\d+)?|[-+]?\.\d+?$"
