"file_name","column_name","label","regex"
"/data/datasets/datagov/data/data/datagovdata/number-of-delayed-bills-74147.csv","Apr-14","strings","[^""\r\n]*"
"/data/datasets/datagov/data/data/datagovdata/number-of-delayed-bills-74147.csv","Jan-14","numbers","^\$?\d+(\.(\d{2}))?$"
"/data/datasets/datagov/data/data/datagovdata/number-of-delayed-bills-74147.csv","Mar-14","strings","[^""\r\n]*"
"/data/datasets/datagov/data/data/datagovdata/number-of-delayed-bills-74147.csv","Month","uri",".*?$(?<!\.aspx)"
"/data/datasets/datagov/data/data/datagovdata/number-of-delayed-bills-74147.csv","Feb-14","strings","[^""\r\n]*"
