"file_name","column_name","label","regex"
"/data/datasets/datagov/data/data/datagovdata/solar-hourly-solar-direct-normal-dni-global-horizontal-ghi-and-diffuse-data-for-selected-s-98959.csv","Time Zone (hr-min)","uri",".*?$(?<!\.aspx)"
"/data/datasets/datagov/data/data/datagovdata/solar-hourly-solar-direct-normal-dni-global-horizontal-ghi-and-diffuse-data-for-selected-s-98959.csv","Latitude","uri",".*?$(?<!\.aspx)"
"/data/datasets/datagov/data/data/datagovdata/solar-hourly-solar-direct-normal-dni-global-horizontal-ghi-and-diffuse-data-for-selected-s-98959.csv","WMO Code ","numbers","^\d*$"
"/data/datasets/datagov/data/data/datagovdata/solar-hourly-solar-direct-normal-dni-global-horizontal-ghi-and-diffuse-data-for-selected-s-98959.csv","Elevation (m)","numbers","^\d*$"
"/data/datasets/datagov/data/data/datagovdata/solar-hourly-solar-direct-normal-dni-global-horizontal-ghi-and-diffuse-data-for-selected-s-98959.csv","Longitude","uri",".*?$(?<!\.aspx)"
"/data/datasets/datagov/data/data/datagovdata/solar-hourly-solar-direct-normal-dni-global-horizontal-ghi-and-diffuse-data-for-selected-s-98959.csv","Station","strings","[^""\r\n]*"
"/data/datasets/datagov/data/data/datagovdata/solar-hourly-solar-direct-normal-dni-global-horizontal-ghi-and-diffuse-data-for-selected-s-98959.csv","Country","uri",".*?$(?<!\.aspx)"
