"file_name","column_name","label","regex"
"/data/datasets/datagov/data/data/datagovdata/cabinet-breakdown-fy2012-2c9ab.csv","Average Years of Service","numbers","^(\d|,)*\.?\d*$"
"/data/datasets/datagov/data/data/datagovdata/cabinet-breakdown-fy2012-2c9ab.csv","Average Age","numbers","^(\d|,)*\.?\d*$"
"/data/datasets/datagov/data/data/datagovdata/cabinet-breakdown-fy2012-2c9ab.csv","Co","numbers","^(\d|,)*\.?\d*$"
"/data/datasets/datagov/data/data/datagovdata/cabinet-breakdown-fy2012-2c9ab.csv","Agency Name","uri",".*?$(?<!\.aspx)"
"/data/datasets/datagov/data/data/datagovdata/cabinet-breakdown-fy2012-2c9ab.csv","Cabinet Code","numbers","^(\d|,)*\.?\d*$"
"/data/datasets/datagov/data/data/datagovdata/cabinet-breakdown-fy2012-2c9ab.csv","Total Turnover","uri",".*?$(?<!\.aspx)"
"/data/datasets/datagov/data/data/datagovdata/cabinet-breakdown-fy2012-2c9ab.csv","Merit Classification","uri",".*?$(?<!\.aspx)"
"/data/datasets/datagov/data/data/datagovdata/cabinet-breakdown-fy2012-2c9ab.csv","Cabinet","uri",".*?$(?<!\.aspx)"
"/data/datasets/datagov/data/data/datagovdata/cabinet-breakdown-fy2012-2c9ab.csv","FY 2012 Emp Count","numbers","^(\d|,)*\.?\d*$"
