"file_name","column_name","label","regex"
"/data/datasets/datagov/data/data/datagovdata/new-format-august-2012-primary-results-king-county-f1ef2.csv","Registered Voters","numbers","^\d*$"
"/data/datasets/datagov/data/data/datagovdata/new-format-august-2012-primary-results-king-county-f1ef2.csv","Party","uri",".*?$(?<!\.aspx)"
"/data/datasets/datagov/data/data/datagovdata/new-format-august-2012-primary-results-king-county-f1ef2.csv","Votes","numbers","^\d*$"
"/data/datasets/datagov/data/data/datagovdata/new-format-august-2012-primary-results-king-county-f1ef2.csv","Contest Name","uri",".*?$(?<!\.aspx)"
"/data/datasets/datagov/data/data/datagovdata/new-format-august-2012-primary-results-king-county-f1ef2.csv","NameOnBallot","uri",".*?$(?<!\.aspx)"
"/data/datasets/datagov/data/data/datagovdata/new-format-august-2012-primary-results-king-county-f1ef2.csv","Votes Cast","numbers","^\d*$"
"/data/datasets/datagov/data/data/datagovdata/new-format-august-2012-primary-results-king-county-f1ef2.csv","Percent","numbers","^\d*$"
