"file_name","column_name","label","regex"
"/data/datasets/datagov/data/data/datagovdata/idph-std-illinois-by-county-by-sex-by-age-group-gonorrhea-65765.csv","Female_50-54_Count","numbers","^(\d|,)*\.?\d*$"
"/data/datasets/datagov/data/data/datagovdata/idph-std-illinois-by-county-by-sex-by-age-group-gonorrhea-65765.csv","Male_15-19_Count","numbers","^(\d|,)*\.?\d*$"
"/data/datasets/datagov/data/data/datagovdata/idph-std-illinois-by-county-by-sex-by-age-group-gonorrhea-65765.csv","Female_55-59_Count","numbers","^(\d|,)*\.?\d*$"
"/data/datasets/datagov/data/data/datagovdata/idph-std-illinois-by-county-by-sex-by-age-group-gonorrhea-65765.csv","Female_45-49_Count","numbers","^(\d|,)*\.?\d*$"
"/data/datasets/datagov/data/data/datagovdata/idph-std-illinois-by-county-by-sex-by-age-group-gonorrhea-65765.csv","Female_20-24_Count","numbers","^(\d|,)*\.?\d*$"
"/data/datasets/datagov/data/data/datagovdata/idph-std-illinois-by-county-by-sex-by-age-group-gonorrhea-65765.csv","Female_30-34_Count","numbers","^(\d|,)*\.?\d*$"
"/data/datasets/datagov/data/data/datagovdata/idph-std-illinois-by-county-by-sex-by-age-group-gonorrhea-65765.csv","Male_Less10_Count","numbers","^(\d|,)*\.?\d*$"
"/data/datasets/datagov/data/data/datagovdata/idph-std-illinois-by-county-by-sex-by-age-group-gonorrhea-65765.csv","Male_25-29_Count","numbers","^(\d|,)*\.?\d*$"
"/data/datasets/datagov/data/data/datagovdata/idph-std-illinois-by-county-by-sex-by-age-group-gonorrhea-65765.csv","Male_Unk_Count","numbers","^(\d|,)*\.?\d*$"
"/data/datasets/datagov/data/data/datagovdata/idph-std-illinois-by-county-by-sex-by-age-group-gonorrhea-65765.csv","Male_65Up_Count","numbers","^(\d|,)*\.?\d*$"
"/data/datasets/datagov/data/data/datagovdata/idph-std-illinois-by-county-by-sex-by-age-group-gonorrhea-65765.csv","Female_40-44_Count","numbers","^(\d|,)*\.?\d*$"
"/data/datasets/datagov/data/data/datagovdata/idph-std-illinois-by-county-by-sex-by-age-group-gonorrhea-65765.csv","Male_50-54_Count","numbers","^(\d|,)*\.?\d*$"
"/data/datasets/datagov/data/data/datagovdata/idph-std-illinois-by-county-by-sex-by-age-group-gonorrhea-65765.csv","CountyFIPS","numbers","^(\d|,)*\.?\d*$"
"/data/datasets/datagov/data/data/datagovdata/idph-std-illinois-by-county-by-sex-by-age-group-gonorrhea-65765.csv","Female_15-19_Count","numbers","^(\d|,)*\.?\d*$"
"/data/datasets/datagov/data/data/datagovdata/idph-std-illinois-by-county-by-sex-by-age-group-gonorrhea-65765.csv","Female_25-29_Count","numbers","^(\d|,)*\.?\d*$"
"/data/datasets/datagov/data/data/datagovdata/idph-std-illinois-by-county-by-sex-by-age-group-gonorrhea-65765.csv","Male_30-34_Count","numbers","^(\d|,)*\.?\d*$"
"/data/datasets/datagov/data/data/datagovdata/idph-std-illinois-by-county-by-sex-by-age-group-gonorrhea-65765.csv","County/Jurisdiction","uri",".*?$(?<!\.aspx)"
"/data/datasets/datagov/data/data/datagovdata/idph-std-illinois-by-county-by-sex-by-age-group-gonorrhea-65765.csv","Male_35-39_Count","numbers","^(\d|,)*\.?\d*$"
"/data/datasets/datagov/data/data/datagovdata/idph-std-illinois-by-county-by-sex-by-age-group-gonorrhea-65765.csv","Male_10-14_Count","numbers","^(\d|,)*\.?\d*$"
"/data/datasets/datagov/data/data/datagovdata/idph-std-illinois-by-county-by-sex-by-age-group-gonorrhea-65765.csv","Sort","numbers","^(\d|,)*\.?\d*$"
"/data/datasets/datagov/data/data/datagovdata/idph-std-illinois-by-county-by-sex-by-age-group-gonorrhea-65765.csv","Female_35-39_Count","numbers","^(\d|,)*\.?\d*$"
"/data/datasets/datagov/data/data/datagovdata/idph-std-illinois-by-county-by-sex-by-age-group-gonorrhea-65765.csv","Female_10-14_Count","numbers","^(\d|,)*\.?\d*$"
"/data/datasets/datagov/data/data/datagovdata/idph-std-illinois-by-county-by-sex-by-age-group-gonorrhea-65765.csv","Male_55-59_Count","numbers","^(\d|,)*\.?\d*$"
"/data/datasets/datagov/data/data/datagovdata/idph-std-illinois-by-county-by-sex-by-age-group-gonorrhea-65765.csv","Female_Total_Count","numbers","^(\d|,)*\.?\d*$"
"/data/datasets/datagov/data/data/datagovdata/idph-std-illinois-by-county-by-sex-by-age-group-gonorrhea-65765.csv","Male_60-64_Count","numbers","^(\d|,)*\.?\d*$"
"/data/datasets/datagov/data/data/datagovdata/idph-std-illinois-by-county-by-sex-by-age-group-gonorrhea-65765.csv","Female_Less10_Count","numbers","^(\d|,)*\.?\d*$"
"/data/datasets/datagov/data/data/datagovdata/idph-std-illinois-by-county-by-sex-by-age-group-gonorrhea-65765.csv","Male_20-24_Count","numbers","^(\d|,)*\.?\d*$"
"/data/datasets/datagov/data/data/datagovdata/idph-std-illinois-by-county-by-sex-by-age-group-gonorrhea-65765.csv","Female_65Up_Count","numbers","^(\d|,)*\.?\d*$"
"/data/datasets/datagov/data/data/datagovdata/idph-std-illinois-by-county-by-sex-by-age-group-gonorrhea-65765.csv","Female_60-64_Count","numbers","^(\d|,)*\.?\d*$"
"/data/datasets/datagov/data/data/datagovdata/idph-std-illinois-by-county-by-sex-by-age-group-gonorrhea-65765.csv","Male_45-49_Count","numbers","^(\d|,)*\.?\d*$"
"/data/datasets/datagov/data/data/datagovdata/idph-std-illinois-by-county-by-sex-by-age-group-gonorrhea-65765.csv","Year","numbers","^(\d|,)*\.?\d*$"
"/data/datasets/datagov/data/data/datagovdata/idph-std-illinois-by-county-by-sex-by-age-group-gonorrhea-65765.csv","Female_Unk_Count","numbers","^(\d|,)*\.?\d*$"
"/data/datasets/datagov/data/data/datagovdata/idph-std-illinois-by-county-by-sex-by-age-group-gonorrhea-65765.csv","Male_Total_Count","numbers","^(\d|,)*\.?\d*$"
"/data/datasets/datagov/data/data/datagovdata/idph-std-illinois-by-county-by-sex-by-age-group-gonorrhea-65765.csv","Male_40-44_Count","numbers","^(\d|,)*\.?\d*$"
