"file_name","column_name","label","regex"
"/data/datasets/datagov/data/data/datagovdata/facilities-management-electrical-usage-at-110-s-barrington-rd-facility-by-month-fiscal-ye--b91cd.csv","Cost","numbers","^\$?\d+(\.(\d{2}))?$"
"/data/datasets/datagov/data/data/datagovdata/facilities-management-electrical-usage-at-110-s-barrington-rd-facility-by-month-fiscal-ye--b91cd.csv","Location 1","uri","^[^\\\/\?\*\""\'\>\<\:\|]*$"
"/data/datasets/datagov/data/data/datagovdata/facilities-management-electrical-usage-at-110-s-barrington-rd-facility-by-month-fiscal-ye--b91cd.csv","Month","uri","^[^\\\/\?\*\""\'\>\<\:\|]*$"
"/data/datasets/datagov/data/data/datagovdata/facilities-management-electrical-usage-at-110-s-barrington-rd-facility-by-month-fiscal-ye--b91cd.csv","Fiscal Year","numbers","^\$?\d+(\.(\d{2}))?$"
"/data/datasets/datagov/data/data/datagovdata/facilities-management-electrical-usage-at-110-s-barrington-rd-facility-by-month-fiscal-ye--b91cd.csv","Usage (kWh)","numbers","^\$?\d+(\.(\d{2}))?$"
