"file_name","column_name","label","regex"
"/data/datasets/datagov/data/data/datagovdata/facilities-management-closed-cells-as-of-jul-29-2011-cc4d2.csv","IRON","numbers","^[-+]?\d+(\.\d+)?|[-+]?\.\d+?$"
"/data/datasets/datagov/data/data/datagovdata/facilities-management-closed-cells-as-of-jul-29-2011-cc4d2.csv","ENGINEERING","numbers","^[-+]?\d+(\.\d+)?|[-+]?\.\d+?$"
"/data/datasets/datagov/data/data/datagovdata/facilities-management-closed-cells-as-of-jul-29-2011-cc4d2.csv","CARPENTRY","numbers","^[-+]?\d+(\.\d+)?|[-+]?\.\d+?$"
"/data/datasets/datagov/data/data/datagovdata/facilities-management-closed-cells-as-of-jul-29-2011-cc4d2.csv","TIN","numbers","^[-+]?\d+(\.\d+)?|[-+]?\.\d+?$"
"/data/datasets/datagov/data/data/datagovdata/facilities-management-closed-cells-as-of-jul-29-2011-cc4d2.csv","PLUMBING ","numbers","^[-+]?\d+(\.\d+)?|[-+]?\.\d+?$"
"/data/datasets/datagov/data/data/datagovdata/facilities-management-closed-cells-as-of-jul-29-2011-cc4d2.csv","TOTAL CELLS","numbers","^[-+]?\d+(\.\d+)?|[-+]?\.\d+?$"
"/data/datasets/datagov/data/data/datagovdata/facilities-management-closed-cells-as-of-jul-29-2011-cc4d2.csv","GLAZE","numbers","^[-+]?\d+(\.\d+)?|[-+]?\.\d+?$"
"/data/datasets/datagov/data/data/datagovdata/facilities-management-closed-cells-as-of-jul-29-2011-cc4d2.csv","DIVISION","uri",".*?$(?<!\.aspx)"
"/data/datasets/datagov/data/data/datagovdata/facilities-management-closed-cells-as-of-jul-29-2011-cc4d2.csv","ELECTRICAL","numbers","^[-+]?\d+(\.\d+)?|[-+]?\.\d+?$"
"/data/datasets/datagov/data/data/datagovdata/facilities-management-closed-cells-as-of-jul-29-2011-cc4d2.csv","TOTAL PERCENT","numbers","^[-+]?\d+(\.\d+)?|[-+]?\.\d+?$"
"/data/datasets/datagov/data/data/datagovdata/facilities-management-closed-cells-as-of-jul-29-2011-cc4d2.csv","BRICK","numbers","^[-+]?\d+(\.\d+)?|[-+]?\.\d+?$"
"/data/datasets/datagov/data/data/datagovdata/facilities-management-closed-cells-as-of-jul-29-2011-cc4d2.csv","MISC","numbers","^[-+]?\d+(\.\d+)?|[-+]?\.\d+?$"
"/data/datasets/datagov/data/data/datagovdata/facilities-management-closed-cells-as-of-jul-29-2011-cc4d2.csv","ELEC TECH","numbers","^[-+]?\d+(\.\d+)?|[-+]?\.\d+?$"
