"file_name","column_name","label","regex"
"/data/datasets/datagov/data/data/datagovdata/libraries-collections-statistics-2005-2011-0dd90.csv","BOOK","numbers","^\d*$"
"/data/datasets/datagov/data/data/datagovdata/libraries-collections-statistics-2005-2011-0dd90.csv","PHONOTAPE","numbers","^\d*$"
"/data/datasets/datagov/data/data/datagovdata/libraries-collections-statistics-2005-2011-0dd90.csv","TOTAL","numbers","^\d*$"
"/data/datasets/datagov/data/data/datagovdata/libraries-collections-statistics-2005-2011-0dd90.csv","LANGUAGE LEARNING","numbers","^\d*$"
"/data/datasets/datagov/data/data/datagovdata/libraries-collections-statistics-2005-2011-0dd90.csv","UNCATALOGED","numbers","^\d*$"
"/data/datasets/datagov/data/data/datagovdata/libraries-collections-statistics-2005-2011-0dd90.csv","LIBRARY","uri",".*?$(?<!\.aspx)"
"/data/datasets/datagov/data/data/datagovdata/libraries-collections-statistics-2005-2011-0dd90.csv","Year","numbers","^\d*$"
"/data/datasets/datagov/data/data/datagovdata/libraries-collections-statistics-2005-2011-0dd90.csv","CD-ROM","numbers","^\d*$"
"/data/datasets/datagov/data/data/datagovdata/libraries-collections-statistics-2005-2011-0dd90.csv","PHONODISC","numbers","^\d*$"
"/data/datasets/datagov/data/data/datagovdata/libraries-collections-statistics-2005-2011-0dd90.csv","MICROFORM","numbers","^\d*$"
"/data/datasets/datagov/data/data/datagovdata/libraries-collections-statistics-2005-2011-0dd90.csv","REFERENCE","numbers","^\d*$"
"/data/datasets/datagov/data/data/datagovdata/libraries-collections-statistics-2005-2011-0dd90.csv","CD","numbers","^\d*$"
"/data/datasets/datagov/data/data/datagovdata/libraries-collections-statistics-2005-2011-0dd90.csv","DVD","numbers","^\d*$"
"/data/datasets/datagov/data/data/datagovdata/libraries-collections-statistics-2005-2011-0dd90.csv","VIDEO","numbers","^\d*$"
"/data/datasets/datagov/data/data/datagovdata/libraries-collections-statistics-2005-2011-0dd90.csv","AV (MISC)","numbers","^\d*$"
"/data/datasets/datagov/data/data/datagovdata/libraries-collections-statistics-2005-2011-0dd90.csv","SOFTWARE","numbers","^\d*$"
"/data/datasets/datagov/data/data/datagovdata/libraries-collections-statistics-2005-2011-0dd90.csv","Island","uri",".*?$(?<!\.aspx)"
