"file_name","column_name","label","regex"
"/data/datasets/datagov/data/data/datagovdata/spending-disclosure-fiscal-year-2012-c8308.csv","Department","uri",".*?$(?<!\.aspx)"
"/data/datasets/datagov/data/data/datagovdata/spending-disclosure-fiscal-year-2012-c8308.csv","Amount","uri",".*?$(?<!\.aspx)"
"/data/datasets/datagov/data/data/datagovdata/spending-disclosure-fiscal-year-2012-c8308.csv","Zip Code","numbers","^\d*$"
"/data/datasets/datagov/data/data/datagovdata/spending-disclosure-fiscal-year-2012-c8308.csv","Supplier Name","uri",".*?$(?<!\.aspx)"
