"file_name","column_name","label","regex"
"/data/datasets/datagov/data/data/datagovdata/tgr2006se_lea_lkc.csv","COUSUBL","numbers","^\d*$"
"/data/datasets/datagov/data/data/datagovdata/tgr2006se_lea_lkc.csv","COUNTYR","numbers","^\d*$"
"/data/datasets/datagov/data/data/datagovdata/tgr2006se_lea_lkc.csv","STATER","numbers","^\d*$"
"/data/datasets/datagov/data/data/datagovdata/tgr2006se_lea_lkc.csv","TRACTL","numbers","^\d*$"
"/data/datasets/datagov/data/data/datagovdata/tgr2006se_lea_lkc.csv","AIHHTLR","numbers","^\d*$"
"/data/datasets/datagov/data/data/datagovdata/tgr2006se_lea_lkc.csv","STATEL","numbers","^\d*$"
"/data/datasets/datagov/data/data/datagovdata/tgr2006se_lea_lkc.csv","TRACTR","numbers","^\d*$"
"/data/datasets/datagov/data/data/datagovdata/tgr2006se_lea_lkc.csv","COUNTYL","numbers","^\d*$"
"/data/datasets/datagov/data/data/datagovdata/tgr2006se_lea_lkc.csv","CFCC","uri",".*?$(?<!\.aspx)"
"/data/datasets/datagov/data/data/datagovdata/tgr2006se_lea_lkc.csv","PLACER","numbers","^\d*$"
"/data/datasets/datagov/data/data/datagovdata/tgr2006se_lea_lkc.csv","AIHHTLI","numbers","^\d*$"
"/data/datasets/datagov/data/data/datagovdata/tgr2006se_lea_lkc.csv","SOURCE","uri",".*?$(?<!\.aspx)"
"/data/datasets/datagov/data/data/datagovdata/tgr2006se_lea_lkc.csv","TLID","numbers","^\d*$"
"/data/datasets/datagov/data/data/datagovdata/tgr2006se_lea_lkc.csv","BLOCKL","numbers","^\d*$"
"/data/datasets/datagov/data/data/datagovdata/tgr2006se_lea_lkc.csv","CFCC1","uri",".*?$(?<!\.aspx)"
"/data/datasets/datagov/data/data/datagovdata/tgr2006se_lea_lkc.csv","TNODE","numbers","^\d*$"
"/data/datasets/datagov/data/data/datagovdata/tgr2006se_lea_lkc.csv","FNODE","numbers","^\d*$"
"/data/datasets/datagov/data/data/datagovdata/tgr2006se_lea_lkc.csv","LENGTH","numbers","^\d*$"
"/data/datasets/datagov/data/data/datagovdata/tgr2006se_lea_lkc.csv","PLACEL","numbers","^\d*$"
"/data/datasets/datagov/data/data/datagovdata/tgr2006se_lea_lkc.csv","CFCC2","uri",".*?$(?<!\.aspx)"
"/data/datasets/datagov/data/data/datagovdata/tgr2006se_lea_lkc.csv","CENSUS1","numbers","^\d*$"
"/data/datasets/datagov/data/data/datagovdata/tgr2006se_lea_lkc.csv","BLOCKR","numbers","^\d*$"
"/data/datasets/datagov/data/data/datagovdata/tgr2006se_lea_lkc.csv","COUSUBR","numbers","^\d*$"
"/data/datasets/datagov/data/data/datagovdata/tgr2006se_lea_lkc.csv","CENSUS2","numbers","^\d*$"
