"file_name","column_name","label","regex"
"/data/datasets/datagov/data/data/datagovdata/energy-prices-dollars-per-million-btu-beginning-1970.csv","Wood","numbers","^\$?\d+(\.(\d{2}))?$"
"/data/datasets/datagov/data/data/datagovdata/energy-prices-dollars-per-million-btu-beginning-1970.csv","Residual","numbers","^\$?\d+(\.(\d{2}))?$"
"/data/datasets/datagov/data/data/datagovdata/energy-prices-dollars-per-million-btu-beginning-1970.csv","Motor Gasoline","numbers","^\$?\d+(\.(\d{2}))?$"
"/data/datasets/datagov/data/data/datagovdata/energy-prices-dollars-per-million-btu-beginning-1970.csv","Electricity","numbers","^\$?\d+(\.(\d{2}))?$"
"/data/datasets/datagov/data/data/datagovdata/energy-prices-dollars-per-million-btu-beginning-1970.csv","Year","numbers","^\$?\d+(\.(\d{2}))?$"
"/data/datasets/datagov/data/data/datagovdata/energy-prices-dollars-per-million-btu-beginning-1970.csv","Kerosene","numbers","^\$?\d+(\.(\d{2}))?$"
"/data/datasets/datagov/data/data/datagovdata/energy-prices-dollars-per-million-btu-beginning-1970.csv","Coal","numbers","^\$?\d+(\.(\d{2}))?$"
"/data/datasets/datagov/data/data/datagovdata/energy-prices-dollars-per-million-btu-beginning-1970.csv","GDP Deflator","numbers","^\$?\d+(\.(\d{2}))?$"
"/data/datasets/datagov/data/data/datagovdata/energy-prices-dollars-per-million-btu-beginning-1970.csv","Sector","uri",".*?$(?<!\.aspx)"
"/data/datasets/datagov/data/data/datagovdata/energy-prices-dollars-per-million-btu-beginning-1970.csv","Jet Fuel","numbers","^\$?\d+(\.(\d{2}))?$"
"/data/datasets/datagov/data/data/datagovdata/energy-prices-dollars-per-million-btu-beginning-1970.csv","Propane","numbers","^\$?\d+(\.(\d{2}))?$"
"/data/datasets/datagov/data/data/datagovdata/energy-prices-dollars-per-million-btu-beginning-1970.csv","Natural Gas","numbers","^\$?\d+(\.(\d{2}))?$"
"/data/datasets/datagov/data/data/datagovdata/energy-prices-dollars-per-million-btu-beginning-1970.csv","Distillate","numbers","^\$?\d+(\.(\d{2}))?$"
