"file_name","column_name","label","regex"
"/data/datasets/datagov/data/data/datagovdata/ccgisdata-section.csv","SECTN","numbers","^(\d|,)*\.?\d*$"
"/data/datasets/datagov/data/data/datagovdata/ccgisdata-section.csv","RANGE","numbers","^(\d|,)*\.?\d*$"
"/data/datasets/datagov/data/data/datagovdata/ccgisdata-section.csv","SHAPE_len","numbers","^(\d|,)*\.?\d*$"
"/data/datasets/datagov/data/data/datagovdata/ccgisdata-section.csv","JOB_NO","numbers","^(\d|,)*\.?\d*$"
"/data/datasets/datagov/data/data/datagovdata/ccgisdata-section.csv","IBL","uri",".*?$(?<!\.aspx)"
"/data/datasets/datagov/data/data/datagovdata/ccgisdata-section.csv","SHAPE_area","numbers","^(\d|,)*\.?\d*$"
"/data/datasets/datagov/data/data/datagovdata/ccgisdata-section.csv","PAGE","numbers","^(\d|,)*\.?\d*$"
"/data/datasets/datagov/data/data/datagovdata/ccgisdata-section.csv","FRACL","numbers","^(\d|,)*\.?\d*$"
"/data/datasets/datagov/data/data/datagovdata/ccgisdata-section.csv","the_geom","strings","[^""\r\n]*"
"/data/datasets/datagov/data/data/datagovdata/ccgisdata-section.csv","HALFQUARTE","strings","[^""\r\n]*"
"/data/datasets/datagov/data/data/datagovdata/ccgisdata-section.csv","TOWNSHIP","numbers","^(\d|,)*\.?\d*$"
"/data/datasets/datagov/data/data/datagovdata/ccgisdata-section.csv","QUARTERSEC","strings","[^""\r\n]*"
