"file_name","column_name","label","regex"
"/data/datasets/datagov/data/data/datagovdata/fy2014-retirement-eligibility-by-agency.csv","Agency","uri",".*?$(?<!\.aspx)"
"/data/datasets/datagov/data/data/datagovdata/fy2014-retirement-eligibility-by-agency.csv","Number Eligible to Retire in 5 Years","numbers","^[-+]?\d+(\.\d+)?|[-+]?\.\d+?$"
"/data/datasets/datagov/data/data/datagovdata/fy2014-retirement-eligibility-by-agency.csv","Percent Eligible to Retire in 5 Years","numbers","^[-+]?\d+(\.\d+)?|[-+]?\.\d+?$"
"/data/datasets/datagov/data/data/datagovdata/fy2014-retirement-eligibility-by-agency.csv","Co","numbers","^[-+]?\d+(\.\d+)?|[-+]?\.\d+?$"
"/data/datasets/datagov/data/data/datagovdata/fy2014-retirement-eligibility-by-agency.csv","Number Eligible to Retire","numbers","^[-+]?\d+(\.\d+)?|[-+]?\.\d+?$"
"/data/datasets/datagov/data/data/datagovdata/fy2014-retirement-eligibility-by-agency.csv","Avg Years of Service","numbers","^[-+]?\d+(\.\d+)?|[-+]?\.\d+?$"
"/data/datasets/datagov/data/data/datagovdata/fy2014-retirement-eligibility-by-agency.csv","Avg Age","numbers","^[-+]?\d+(\.\d+)?|[-+]?\.\d+?$"
"/data/datasets/datagov/data/data/datagovdata/fy2014-retirement-eligibility-by-agency.csv","Total FTE","numbers","^[-+]?\d+(\.\d+)?|[-+]?\.\d+?$"
"/data/datasets/datagov/data/data/datagovdata/fy2014-retirement-eligibility-by-agency.csv","Percent Eligible to Retire","numbers","^[-+]?\d+(\.\d+)?|[-+]?\.\d+?$"
