"file_name","column_name","label","regex"
"/data/datasets/datagov/data/data/datagovdata/yearly-data-for-asian-and-pacific-islander-languages-among-initial-claims-supplemental-sec-100c8.csv","Data for Asian & Pacific Islander Spoken Language Preferences among Initial Claims - Supplemental Security Income (Blind & Disabled)","uri",".*?$(?<!\.aspx)"
"/data/datasets/datagov/data/data/datagovdata/yearly-data-for-asian-and-pacific-islander-languages-among-initial-claims-supplemental-sec-100c8.csv","Unnamed: 2","uri",".*?$(?<!\.aspx)"
"/data/datasets/datagov/data/data/datagovdata/yearly-data-for-asian-and-pacific-islander-languages-among-initial-claims-supplemental-sec-100c8.csv","Unnamed: 6","uri",".*?$(?<!\.aspx)"
"/data/datasets/datagov/data/data/datagovdata/yearly-data-for-asian-and-pacific-islander-languages-among-initial-claims-supplemental-sec-100c8.csv","Unnamed: 1","uri",".*?$(?<!\.aspx)"
"/data/datasets/datagov/data/data/datagovdata/yearly-data-for-asian-and-pacific-islander-languages-among-initial-claims-supplemental-sec-100c8.csv","Unnamed: 4","uri",".*?$(?<!\.aspx)"
"/data/datasets/datagov/data/data/datagovdata/yearly-data-for-asian-and-pacific-islander-languages-among-initial-claims-supplemental-sec-100c8.csv","Unnamed: 3","uri",".*?$(?<!\.aspx)"
"/data/datasets/datagov/data/data/datagovdata/yearly-data-for-asian-and-pacific-islander-languages-among-initial-claims-supplemental-sec-100c8.csv","Unnamed: 5","uri",".*?$(?<!\.aspx)"
