"file_name","column_name","label","regex"
"/data/datasets/datagov/data/data/datagovdata/oregon-workers-compensation-system-summary-statistics-27d52.csv","Board review requests received","numbers","^\$?\d+(\.(\d{2}))?$"
"/data/datasets/datagov/data/data/datagovdata/oregon-workers-compensation-system-summary-statistics-27d52.csv","WC system employers","numbers","^\$?\d+(\.(\d{2}))?$"
"/data/datasets/datagov/data/data/datagovdata/oregon-workers-compensation-system-summary-statistics-27d52.csv","Court of Appeals requests received","numbers","^\$?\d+(\.(\d{2}))?$"
"/data/datasets/datagov/data/data/datagovdata/oregon-workers-compensation-system-summary-statistics-27d52.csv","Subject employees","numbers","^\$?\d+(\.(\d{2}))?$"
"/data/datasets/datagov/data/data/datagovdata/oregon-workers-compensation-system-summary-statistics-27d52.csv","Benefit average weekly wage","numbers","^\$?\d+(\.(\d{2}))?$"
"/data/datasets/datagov/data/data/datagovdata/oregon-workers-compensation-system-summary-statistics-27d52.csv","Compensable fatality claims","numbers","^\$?\d+(\.(\d{2}))?$"
"/data/datasets/datagov/data/data/datagovdata/oregon-workers-compensation-system-summary-statistics-27d52.csv","Workers' compensation premium ($ millions)","uri",".*?$(?<!\.aspx)"
"/data/datasets/datagov/data/data/datagovdata/oregon-workers-compensation-system-summary-statistics-27d52.csv","Claims closures and resolutions","numbers","^\$?\d+(\.(\d{2}))?$"
"/data/datasets/datagov/data/data/datagovdata/oregon-workers-compensation-system-summary-statistics-27d52.csv","Calendar year","numbers","^\$?\d+(\.(\d{2}))?$"
"/data/datasets/datagov/data/data/datagovdata/oregon-workers-compensation-system-summary-statistics-27d52.csv","Hearing requests received","numbers","^\$?\d+(\.(\d{2}))?$"
"/data/datasets/datagov/data/data/datagovdata/oregon-workers-compensation-system-summary-statistics-27d52.csv","Vocational assistance eligibilities","numbers","^\$?\d+(\.(\d{2}))?$"
"/data/datasets/datagov/data/data/datagovdata/oregon-workers-compensation-system-summary-statistics-27d52.csv","Accepted disabling claims","numbers","^\$?\d+(\.(\d{2}))?$"
"/data/datasets/datagov/data/data/datagovdata/oregon-workers-compensation-system-summary-statistics-27d52.csv","Denied claims","numbers","^\$?\d+(\.(\d{2}))?$"
"/data/datasets/datagov/data/data/datagovdata/oregon-workers-compensation-system-summary-statistics-27d52.csv","Administrative dispute requests","numbers","^\$?\d+(\.(\d{2}))?$"
"/data/datasets/datagov/data/data/datagovdata/oregon-workers-compensation-system-summary-statistics-27d52.csv","Net permanent total disability claims","numbers","^\$?\d+(\.(\d{2}))?$"
"/data/datasets/datagov/data/data/datagovdata/oregon-workers-compensation-system-summary-statistics-27d52.csv","Claim disposition agreements","numbers","^\$?\d+(\.(\d{2}))?$"
