"file_name","column_name","label","regex"
"/data/datasets/datagov/data/data/datagovdata/procurement-by-industry-eb653.csv","Agency","uri",".*?$(?<!\.aspx)"
"/data/datasets/datagov/data/data/datagovdata/procurement-by-industry-eb653.csv","2014 FY Value","numbers","^\$?\d+(\.(\d{2}))?$"
"/data/datasets/datagov/data/data/datagovdata/procurement-by-industry-eb653.csv","2014 FY Count","numbers","^\$?\d+(\.(\d{2}))?$"
"/data/datasets/datagov/data/data/datagovdata/procurement-by-industry-eb653.csv","2011 FY Count","numbers","^\$?\d+(\.(\d{2}))?$"
"/data/datasets/datagov/data/data/datagovdata/procurement-by-industry-eb653.csv","2011 FY Value","numbers","^\$?\d+(\.(\d{2}))?$"
"/data/datasets/datagov/data/data/datagovdata/procurement-by-industry-eb653.csv","2013 FY Value","numbers","^\$?\d+(\.(\d{2}))?$"
"/data/datasets/datagov/data/data/datagovdata/procurement-by-industry-eb653.csv","2012 FY Value","numbers","^\$?\d+(\.(\d{2}))?$"
"/data/datasets/datagov/data/data/datagovdata/procurement-by-industry-eb653.csv","2012 FY Count","numbers","^\$?\d+(\.(\d{2}))?$"
"/data/datasets/datagov/data/data/datagovdata/procurement-by-industry-eb653.csv","2013 FY Count","numbers","^\$?\d+(\.(\d{2}))?$"
