"file_name","column_name","label","regex"
"/data/datasets/datagov/data/data/datagovdata/motor-vehicle-occupant-death-rate-by-age-and-gender-2012-region-6-dallas-f4c8a.csv","All Ages","numbers","^(\d|,)*\.?\d*$"
"/data/datasets/datagov/data/data/datagovdata/motor-vehicle-occupant-death-rate-by-age-and-gender-2012-region-6-dallas-f4c8a.csv","Female","numbers","^(\d|,)*\.?\d*$"
"/data/datasets/datagov/data/data/datagovdata/motor-vehicle-occupant-death-rate-by-age-and-gender-2012-region-6-dallas-f4c8a.csv","Location","uri","^[^\\\/\?\*\""\'\>\<\:\|]*$"
"/data/datasets/datagov/data/data/datagovdata/motor-vehicle-occupant-death-rate-by-age-and-gender-2012-region-6-dallas-f4c8a.csv","Age 0-20","numbers","^(\d|,)*\.?\d*$"
"/data/datasets/datagov/data/data/datagovdata/motor-vehicle-occupant-death-rate-by-age-and-gender-2012-region-6-dallas-f4c8a.csv","Age 35-54","numbers","^(\d|,)*\.?\d*$"
"/data/datasets/datagov/data/data/datagovdata/motor-vehicle-occupant-death-rate-by-age-and-gender-2012-region-6-dallas-f4c8a.csv","Age 21-34","numbers","^(\d|,)*\.?\d*$"
"/data/datasets/datagov/data/data/datagovdata/motor-vehicle-occupant-death-rate-by-age-and-gender-2012-region-6-dallas-f4c8a.csv","Male","numbers","^(\d|,)*\.?\d*$"
"/data/datasets/datagov/data/data/datagovdata/motor-vehicle-occupant-death-rate-by-age-and-gender-2012-region-6-dallas-f4c8a.csv","Age 55+","numbers","^(\d|,)*\.?\d*$"
"/data/datasets/datagov/data/data/datagovdata/motor-vehicle-occupant-death-rate-by-age-and-gender-2012-region-6-dallas-f4c8a.csv","State","uri","^[^\\\/\?\*\""\'\>\<\:\|]*$"
