"file_name","column_name","label","regex"
"/data/datasets/datagov/data/data/datagovdata/tgr2006se_torr_trtcu.csv","FIPSSTCO","numbers","^(\d|,)*\.?\d*$"
"/data/datasets/datagov/data/data/datagovdata/tgr2006se_torr_trtcu.csv","NAME","numbers","^(\d|,)*\.?\d*$"
"/data/datasets/datagov/data/data/datagovdata/tgr2006se_torr_trtcu.csv","TRACT","numbers","^(\d|,)*\.?\d*$"
"/data/datasets/datagov/data/data/datagovdata/tgr2006se_torr_trtcu.csv","STFID","numbers","^(\d|,)*\.?\d*$"
"/data/datasets/datagov/data/data/datagovdata/tgr2006se_torr_trtcu.csv","GIST_ID","numbers","^(\d|,)*\.?\d*$"
