"file_name","column_name","label","regex"
"/data/datasets/datagov/data/data/datagovdata/dop-juvenile-investigations-by-fiscal-year-a1f62.csv","Borough","uri",".*?$(?<!\.aspx)"
"/data/datasets/datagov/data/data/datagovdata/dop-juvenile-investigations-by-fiscal-year-a1f62.csv","Fiscal Year (ending in June)","numbers","^\d*$"
"/data/datasets/datagov/data/data/datagovdata/dop-juvenile-investigations-by-fiscal-year-a1f62.csv","Investigation Count","numbers","^\d*$"
