"file_name","column_name","label","regex"
"/data/datasets/datagov/data/data/datagovdata/missouri-first-reports-of-injury-by-body-part-head-49517.csv","ear(s)","numbers","^\d*$"
"/data/datasets/datagov/data/data/datagovdata/missouri-first-reports-of-injury-by-body-part-head-49517.csv","head soft tissue","numbers","^\d*$"
"/data/datasets/datagov/data/data/datagovdata/missouri-first-reports-of-injury-by-body-part-head-49517.csv","eye(s)","numbers","^\d*$"
"/data/datasets/datagov/data/data/datagovdata/missouri-first-reports-of-injury-by-body-part-head-49517.csv","year","numbers","^\d*$"
"/data/datasets/datagov/data/data/datagovdata/missouri-first-reports-of-injury-by-body-part-head-49517.csv","brain","numbers","^\d*$"
"/data/datasets/datagov/data/data/datagovdata/missouri-first-reports-of-injury-by-body-part-head-49517.csv","multiple head injury","numbers","^\d*$"
"/data/datasets/datagov/data/data/datagovdata/missouri-first-reports-of-injury-by-body-part-head-49517.csv","skull","numbers","^\d*$"
"/data/datasets/datagov/data/data/datagovdata/missouri-first-reports-of-injury-by-body-part-head-49517.csv","recordid","numbers","^\d*$"
"/data/datasets/datagov/data/data/datagovdata/missouri-first-reports-of-injury-by-body-part-head-49517.csv","month","numbers","^\d*$"
"/data/datasets/datagov/data/data/datagovdata/missouri-first-reports-of-injury-by-body-part-head-49517.csv","mouth","numbers","^\d*$"
"/data/datasets/datagov/data/data/datagovdata/missouri-first-reports-of-injury-by-body-part-head-49517.csv","nose","numbers","^\d*$"
"/data/datasets/datagov/data/data/datagovdata/missouri-first-reports-of-injury-by-body-part-head-49517.csv","facial bones","numbers","^\d*$"
"/data/datasets/datagov/data/data/datagovdata/missouri-first-reports-of-injury-by-body-part-head-49517.csv","teeth","numbers","^\d*$"
