"file_name","column_name","label","regex"
"/data/datasets/datagov/data/data/datagovdata/hcahps-national.csv","HCAHPS Answer Percent","numbers","^[-+]?\d+(\.\d+)?|[-+]?\.\d+?$"
"/data/datasets/datagov/data/data/datagovdata/hcahps-national.csv","HCAHPS Measure ID","uri",".*?$(?<!\.aspx)"
"/data/datasets/datagov/data/data/datagovdata/hcahps-national.csv","HCAHPS Answer Description","strings","[^""\r\n]*"
"/data/datasets/datagov/data/data/datagovdata/hcahps-national.csv","HCAHPS Question","strings","[^""\r\n]*"
"/data/datasets/datagov/data/data/datagovdata/hcahps-national.csv","Measure End Date","strings","[^""\r\n]*"
"/data/datasets/datagov/data/data/datagovdata/hcahps-national.csv","Measure Start Date","strings","[^""\r\n]*"
