"file_name","column_name","label","regex"
"/data/datasets/datagov/data/data/datagovdata/home-page-quick-links-5d6c0.csv","Sort","numbers","^\d$"
"/data/datasets/datagov/data/data/datagovdata/home-page-quick-links-5d6c0.csv","Image","uri",".*?$(?<!\.aspx)"
"/data/datasets/datagov/data/data/datagovdata/home-page-quick-links-5d6c0.csv","Text","strings","[^""\r\n]*"
"/data/datasets/datagov/data/data/datagovdata/home-page-quick-links-5d6c0.csv","Link","strings","[^""\r\n]*"
