"file_name","column_name","label","regex"
"/data/datasets/datagov/data/data/datagovdata/risk-management-employee-healthcare-costs-by-department-july-2012-119d8.csv","Number of Employees","numbers","^\$?\d+(\.(\d{2}))?$"
"/data/datasets/datagov/data/data/datagovdata/risk-management-employee-healthcare-costs-by-department-july-2012-119d8.csv","Health Costs for Department","numbers","^\$?\d+(\.(\d{2}))?$"
"/data/datasets/datagov/data/data/datagovdata/risk-management-employee-healthcare-costs-by-department-july-2012-119d8.csv","Dept","uri",".*?$(?<!\.aspx)"
