"file_name","column_name","label","regex"
"/data/datasets/datagov/data/data/datagovdata/port-of-los-angeles-point-of-interest.csv","Shape_Leng","numbers","^(\d|,)*\.?\d*$"
"/data/datasets/datagov/data/data/datagovdata/port-of-los-angeles-point-of-interest.csv","Address","uri",".*?$(?<!\.aspx)"
"/data/datasets/datagov/data/data/datagovdata/port-of-los-angeles-point-of-interest.csv","POINT_X","numbers","^(\d|,)*\.?\d*$"
"/data/datasets/datagov/data/data/datagovdata/port-of-los-angeles-point-of-interest.csv","Shape_Area","numbers","^(\d|,)*\.?\d*$"
"/data/datasets/datagov/data/data/datagovdata/port-of-los-angeles-point-of-interest.csv","Name","uri",".*?$(?<!\.aspx)"
"/data/datasets/datagov/data/data/datagovdata/port-of-los-angeles-point-of-interest.csv","City","uri",".*?$(?<!\.aspx)"
"/data/datasets/datagov/data/data/datagovdata/port-of-los-angeles-point-of-interest.csv","the_geom","strings","[^""\r\n]*"
"/data/datasets/datagov/data/data/datagovdata/port-of-los-angeles-point-of-interest.csv","POINT_Y","numbers","^(\d|,)*\.?\d*$"
