"file_name","column_name","label","regex"
"/data/datasets/datagov/data/data/datagovdata/city-of-champaign-most-common-violation-tickets-1999-2011-47d5e.csv","2001","numbers","^(\d|,)*\.?\d*$"
"/data/datasets/datagov/data/data/datagovdata/city-of-champaign-most-common-violation-tickets-1999-2011-47d5e.csv","2004","numbers","^(\d|,)*\.?\d*$"
"/data/datasets/datagov/data/data/datagovdata/city-of-champaign-most-common-violation-tickets-1999-2011-47d5e.csv","Violation Type","strings","[^""\r\n]*"
"/data/datasets/datagov/data/data/datagovdata/city-of-champaign-most-common-violation-tickets-1999-2011-47d5e.csv","2000","numbers","^(\d|,)*\.?\d*$"
"/data/datasets/datagov/data/data/datagovdata/city-of-champaign-most-common-violation-tickets-1999-2011-47d5e.csv","2002","numbers","^(\d|,)*\.?\d*$"
"/data/datasets/datagov/data/data/datagovdata/city-of-champaign-most-common-violation-tickets-1999-2011-47d5e.csv","2005","numbers","^(\d|,)*\.?\d*$"
"/data/datasets/datagov/data/data/datagovdata/city-of-champaign-most-common-violation-tickets-1999-2011-47d5e.csv","2003","numbers","^(\d|,)*\.?\d*$"
"/data/datasets/datagov/data/data/datagovdata/city-of-champaign-most-common-violation-tickets-1999-2011-47d5e.csv","2011","numbers","^(\d|,)*\.?\d*$"
"/data/datasets/datagov/data/data/datagovdata/city-of-champaign-most-common-violation-tickets-1999-2011-47d5e.csv","2010","numbers","^(\d|,)*\.?\d*$"
"/data/datasets/datagov/data/data/datagovdata/city-of-champaign-most-common-violation-tickets-1999-2011-47d5e.csv","1999","numbers","^(\d|,)*\.?\d*$"
"/data/datasets/datagov/data/data/datagovdata/city-of-champaign-most-common-violation-tickets-1999-2011-47d5e.csv","2006","numbers","^(\d|,)*\.?\d*$"
"/data/datasets/datagov/data/data/datagovdata/city-of-champaign-most-common-violation-tickets-1999-2011-47d5e.csv","2009","numbers","^(\d|,)*\.?\d*$"
"/data/datasets/datagov/data/data/datagovdata/city-of-champaign-most-common-violation-tickets-1999-2011-47d5e.csv","2007","numbers","^(\d|,)*\.?\d*$"
"/data/datasets/datagov/data/data/datagovdata/city-of-champaign-most-common-violation-tickets-1999-2011-47d5e.csv","2008","numbers","^(\d|,)*\.?\d*$"
