"file_name","column_name","label","regex"
"/data/datasets/datagov/data/data/datagovdata/registered-lobbyist-disclosures-past-six-years.csv","Lobbying Type","uri",".*?$(?<!\.aspx)"
"/data/datasets/datagov/data/data/datagovdata/registered-lobbyist-disclosures-past-six-years.csv","Client Phone","uri",".*?$(?<!\.aspx)"
"/data/datasets/datagov/data/data/datagovdata/registered-lobbyist-disclosures-past-six-years.csv","Procurement Details 1","strings","[^""\r\n]*"
"/data/datasets/datagov/data/data/datagovdata/registered-lobbyist-disclosures-past-six-years.csv","Client Address 2","uri",".*?$(?<!\.aspx)"
"/data/datasets/datagov/data/data/datagovdata/registered-lobbyist-disclosures-past-six-years.csv","Client Zip","numbers","^\$?\d+(\.(\d{2}))?$"
"/data/datasets/datagov/data/data/datagovdata/registered-lobbyist-disclosures-past-six-years.csv","Person 1","strings","[^""\r\n]*"
"/data/datasets/datagov/data/data/datagovdata/registered-lobbyist-disclosures-past-six-years.csv","Reporting Year","numbers","^\$?\d+(\.(\d{2}))?$"
"/data/datasets/datagov/data/data/datagovdata/registered-lobbyist-disclosures-past-six-years.csv","Lobbyist Name","strings","[^""\r\n]*"
"/data/datasets/datagov/data/data/datagovdata/registered-lobbyist-disclosures-past-six-years.csv","Lobbyist Address 1","strings","[^""\r\n]*"
"/data/datasets/datagov/data/data/datagovdata/registered-lobbyist-disclosures-past-six-years.csv","Total Compensation","numbers","^\$?\d+(\.(\d{2}))?$"
"/data/datasets/datagov/data/data/datagovdata/registered-lobbyist-disclosures-past-six-years.csv","Lobbyist City","uri",".*?$(?<!\.aspx)"
"/data/datasets/datagov/data/data/datagovdata/registered-lobbyist-disclosures-past-six-years.csv","Additional Lobbyists LR","strings","[^""\r\n]*"
"/data/datasets/datagov/data/data/datagovdata/registered-lobbyist-disclosures-past-six-years.csv","Lobbyist Address 2","uri",".*?$(?<!\.aspx)"
"/data/datasets/datagov/data/data/datagovdata/registered-lobbyist-disclosures-past-six-years.csv","Procurement Subjects 1","strings","[^""\r\n]*"
"/data/datasets/datagov/data/data/datagovdata/registered-lobbyist-disclosures-past-six-years.csv","Lobbyist Subjects 1","strings","[^""\r\n]*"
"/data/datasets/datagov/data/data/datagovdata/registered-lobbyist-disclosures-past-six-years.csv","Reporting Period","uri",".*?$(?<!\.aspx)"
"/data/datasets/datagov/data/data/datagovdata/registered-lobbyist-disclosures-past-six-years.csv","Procurement Details  2","strings","[^""\r\n]*"
"/data/datasets/datagov/data/data/datagovdata/registered-lobbyist-disclosures-past-six-years.csv","Procurement Number 2","strings","[^""\r\n]*"
"/data/datasets/datagov/data/data/datagovdata/registered-lobbyist-disclosures-past-six-years.csv","Lobbyist State","uri",".*?$(?<!\.aspx)"
"/data/datasets/datagov/data/data/datagovdata/registered-lobbyist-disclosures-past-six-years.csv","Government Level","uri",".*?$(?<!\.aspx)"
"/data/datasets/datagov/data/data/datagovdata/registered-lobbyist-disclosures-past-six-years.csv","Procurement Number 1","strings","[^""\r\n]*"
"/data/datasets/datagov/data/data/datagovdata/registered-lobbyist-disclosures-past-six-years.csv","Lobbyist Type","uri",".*?$(?<!\.aspx)"
"/data/datasets/datagov/data/data/datagovdata/registered-lobbyist-disclosures-past-six-years.csv","Client Name","strings","[^""\r\n]*"
"/data/datasets/datagov/data/data/datagovdata/registered-lobbyist-disclosures-past-six-years.csv","LR Responsible Party Last Name","uri",".*?$(?<!\.aspx)"
"/data/datasets/datagov/data/data/datagovdata/registered-lobbyist-disclosures-past-six-years.csv","Lobbyist Subjects 2","strings","[^""\r\n]*"
"/data/datasets/datagov/data/data/datagovdata/registered-lobbyist-disclosures-past-six-years.csv","LR Responsible Party First Name","uri",".*?$(?<!\.aspx)"
"/data/datasets/datagov/data/data/datagovdata/registered-lobbyist-disclosures-past-six-years.csv","Lobbyist Phone","uri",".*?$(?<!\.aspx)"
"/data/datasets/datagov/data/data/datagovdata/registered-lobbyist-disclosures-past-six-years.csv","Lobbyist Email","email","^[\w\.=-]+@[\w\.-]+\.[\w]{2,3}$"
"/data/datasets/datagov/data/data/datagovdata/registered-lobbyist-disclosures-past-six-years.csv","Client Business Nature","uri",".*?$(?<!\.aspx)"
"/data/datasets/datagov/data/data/datagovdata/registered-lobbyist-disclosures-past-six-years.csv","Total Reimbursed","numbers","^\$?\d+(\.(\d{2}))?$"
"/data/datasets/datagov/data/data/datagovdata/registered-lobbyist-disclosures-past-six-years.csv","Additional Lobbyists  LBR","strings","[^""\r\n]*"
"/data/datasets/datagov/data/data/datagovdata/registered-lobbyist-disclosures-past-six-years.csv","Client City","uri",".*?$(?<!\.aspx)"
"/data/datasets/datagov/data/data/datagovdata/registered-lobbyist-disclosures-past-six-years.csv","Bill Details 2","strings","[^""\r\n]*"
"/data/datasets/datagov/data/data/datagovdata/registered-lobbyist-disclosures-past-six-years.csv","Lobbyist Zip","numbers","^\$?\d+(\.(\d{2}))?$"
"/data/datasets/datagov/data/data/datagovdata/registered-lobbyist-disclosures-past-six-years.csv","Total Expenses","numbers","^\$?\d+(\.(\d{2}))?$"
"/data/datasets/datagov/data/data/datagovdata/registered-lobbyist-disclosures-past-six-years.csv","Person 2","strings","[^""\r\n]*"
"/data/datasets/datagov/data/data/datagovdata/registered-lobbyist-disclosures-past-six-years.csv","Client Address 1","strings","[^""\r\n]*"
"/data/datasets/datagov/data/data/datagovdata/registered-lobbyist-disclosures-past-six-years.csv","Client State","uri",".*?$(?<!\.aspx)"
"/data/datasets/datagov/data/data/datagovdata/registered-lobbyist-disclosures-past-six-years.csv","Bill Details 1","strings","[^""\r\n]*"
