"file_name","column_name","label","regex"
"/data/datasets/datagov/data/data/datagovdata/website-issues-e8fdc.csv","Your department (required)","strings","[^""\r\n]*"
"/data/datasets/datagov/data/data/datagovdata/website-issues-e8fdc.csv","Comments","strings","[^""\r\n]*"
"/data/datasets/datagov/data/data/datagovdata/website-issues-e8fdc.csv","Processed","uri",".*?$(?<!\.aspx)"
"/data/datasets/datagov/data/data/datagovdata/website-issues-e8fdc.csv","Is this change urgent?","uri",".*?$(?<!\.aspx)"
"/data/datasets/datagov/data/data/datagovdata/website-issues-e8fdc.csv","Type of change","strings","[^""\r\n]*"
"/data/datasets/datagov/data/data/datagovdata/website-issues-e8fdc.csv","Describe your request","strings","[^""\r\n]*"
"/data/datasets/datagov/data/data/datagovdata/website-issues-e8fdc.csv","TFS #","numbers","^(\d|,)*\.?\d*$"
"/data/datasets/datagov/data/data/datagovdata/website-issues-e8fdc.csv","URL and name of page you want to change (required)","strings","[^""\r\n]*"
"/data/datasets/datagov/data/data/datagovdata/website-issues-e8fdc.csv","Optional: Attachment","uri",".*?$(?<!\.aspx)"
"/data/datasets/datagov/data/data/datagovdata/website-issues-e8fdc.csv","Optional: Do you have analytics results relevant to this request? If so, describe.","strings","[^""\r\n]*"
"/data/datasets/datagov/data/data/datagovdata/website-issues-e8fdc.csv","TFS URL","uri",".*?$(?<!\.aspx)"
"/data/datasets/datagov/data/data/datagovdata/website-issues-e8fdc.csv","Your name (required)","uri",".*?$(?<!\.aspx)"
"/data/datasets/datagov/data/data/datagovdata/website-issues-e8fdc.csv","Optional: Who are the target users and what task are they trying to do that is relevant to this change?","strings","[^""\r\n]*"
"/data/datasets/datagov/data/data/datagovdata/website-issues-e8fdc.csv","Your email (required)","email","^.+@[^\.].*\.[a-z]{2,}$"
