"file_name","column_name","label","regex"
"/data/datasets/chemical/chembl_21/csvdata/public.assays.csv","assay_tissue","uri",".*?$(?<!\.aspx)"
"/data/datasets/chemical/chembl_21/csvdata/public.assays.csv","assay_organism","uri",".*?$(?<!\.aspx)"
"/data/datasets/chemical/chembl_21/csvdata/public.assays.csv","confidence_score","numbers","^(\d|,)*\.?\d*$"
"/data/datasets/chemical/chembl_21/csvdata/public.assays.csv","doc_id","numbers","^(\d|,)*\.?\d*$"
"/data/datasets/chemical/chembl_21/csvdata/public.assays.csv","assay_id","numbers","^(\d|,)*\.?\d*$"
"/data/datasets/chemical/chembl_21/csvdata/public.assays.csv","assay_tax_id","numbers","^(\d|,)*\.?\d*$"
"/data/datasets/chemical/chembl_21/csvdata/public.assays.csv","assay_type","uri",".*?$(?<!\.aspx)"
"/data/datasets/chemical/chembl_21/csvdata/public.assays.csv","relationship_type","uri",".*?$(?<!\.aspx)"
"/data/datasets/chemical/chembl_21/csvdata/public.assays.csv","assay_test_type","uri",".*?$(?<!\.aspx)"
"/data/datasets/chemical/chembl_21/csvdata/public.assays.csv","bao_format","uri",".*?$(?<!\.aspx)"
"/data/datasets/chemical/chembl_21/csvdata/public.assays.csv","description","strings","[^""\r\n]*"
"/data/datasets/chemical/chembl_21/csvdata/public.assays.csv","tid","numbers","^(\d|,)*\.?\d*$"
"/data/datasets/chemical/chembl_21/csvdata/public.assays.csv","src_id","numbers","^(\d|,)*\.?\d*$"
"/data/datasets/chemical/chembl_21/csvdata/public.assays.csv","chembl_id","uri",".*?$(?<!\.aspx)"
"/data/datasets/chemical/chembl_21/csvdata/public.assays.csv","curated_by","uri",".*?$(?<!\.aspx)"
"/data/datasets/chemical/chembl_21/csvdata/public.assays.csv","cell_id","numbers","^(\d|,)*\.?\d*$"
"/data/datasets/chemical/chembl_21/csvdata/public.assays.csv","assay_subcellular_fraction","uri",".*?$(?<!\.aspx)"
"/data/datasets/chemical/chembl_21/csvdata/public.assays.csv","assay_cell_type","uri",".*?$(?<!\.aspx)"
"/data/datasets/chemical/chembl_21/csvdata/public.assays.csv","assay_strain","strings","[^""\r\n]*"
"/data/datasets/chemical/chembl_21/csvdata/public.assays.csv","src_assay_id","numbers","^(\d|,)*\.?\d*$"
"/data/datasets/chemical/chembl_21/csvdata/public.assays.csv","assay_category","uri",".*?$(?<!\.aspx)"
