"file_name","column_name","label","regex"
"/data/datasets/datagov/data/data/datagovdata/k00274data569815536_cnty_view.csv","GID","numbers","^(\d|,)*\.?\d*$"
"/data/datasets/datagov/data/data/datagovdata/k00274data569815536_cnty_view.csv","RGIS_CODE","numbers","^(\d|,)*\.?\d*$"
"/data/datasets/datagov/data/data/datagovdata/k00274data569815536_cnty_view.csv","COUNTY","uri",".*?$(?<!\.aspx)"
"/data/datasets/datagov/data/data/datagovdata/k00274data569815536_cnty_view.csv","STFID","numbers","^(\d|,)*\.?\d*$"
"/data/datasets/datagov/data/data/datagovdata/k00274data569815536_cnty_view.csv","TGR_","numbers","^(\d|,)*\.?\d*$"
"/data/datasets/datagov/data/data/datagovdata/k00274data569815536_cnty_view.csv","P008154","numbers","^(\d|,)*\.?\d*$"
"/data/datasets/datagov/data/data/datagovdata/k00274data569815536_cnty_view.csv","FIPSTC_NO","numbers","^(\d|,)*\.?\d*$"
"/data/datasets/datagov/data/data/datagovdata/k00274data569815536_cnty_view.csv","P008152","numbers","^(\d|,)*\.?\d*$"
"/data/datasets/datagov/data/data/datagovdata/k00274data569815536_cnty_view.csv","P008080","numbers","^(\d|,)*\.?\d*$"
"/data/datasets/datagov/data/data/datagovdata/k00274data569815536_cnty_view.csv","P008097","numbers","^(\d|,)*\.?\d*$"
"/data/datasets/datagov/data/data/datagovdata/k00274data569815536_cnty_view.csv","TGR_ID","numbers","^(\d|,)*\.?\d*$"
"/data/datasets/datagov/data/data/datagovdata/k00274data569815536_cnty_view.csv","P013001","numbers","^(\d|,)*\.?\d*$"
"/data/datasets/datagov/data/data/datagovdata/k00274data569815536_cnty_view.csv","CTY_UC","uri",".*?$(?<!\.aspx)"
"/data/datasets/datagov/data/data/datagovdata/k00274data569815536_cnty_view.csv","AREA_NAME","uri",".*?$(?<!\.aspx)"
"/data/datasets/datagov/data/data/datagovdata/k00274data569815536_cnty_view.csv","P008155","numbers","^(\d|,)*\.?\d*$"
"/data/datasets/datagov/data/data/datagovdata/k00274data569815536_cnty_view.csv","FIPS","numbers","^(\d|,)*\.?\d*$"
"/data/datasets/datagov/data/data/datagovdata/k00274data569815536_cnty_view.csv","P008153","numbers","^(\d|,)*\.?\d*$"
"/data/datasets/datagov/data/data/datagovdata/k00274data569815536_cnty_view.csv","P008001","numbers","^(\d|,)*\.?\d*$"
"/data/datasets/datagov/data/data/datagovdata/k00274data569815536_cnty_view.csv","PERIMETER","numbers","^(\d|,)*\.?\d*$"
"/data/datasets/datagov/data/data/datagovdata/k00274data569815536_cnty_view.csv","AREA","numbers","^(\d|,)*\.?\d*$"
"/data/datasets/datagov/data/data/datagovdata/k00274data569815536_cnty_view.csv","FIPS_NO","numbers","^(\d|,)*\.?\d*$"
