"file_name","column_name","label","regex"
"/data/datasets/datagov/data/data/datagovdata/fiscal-year-2015-county-executive-recommended-operating-budget-internal-service-funds-0ba5a.csv","Fund SubType","uri",".*?$(?<!\.aspx)"
"/data/datasets/datagov/data/data/datagovdata/fiscal-year-2015-county-executive-recommended-operating-budget-internal-service-funds-0ba5a.csv","Account Name","strings","[^""\r\n]*"
"/data/datasets/datagov/data/data/datagovdata/fiscal-year-2015-county-executive-recommended-operating-budget-internal-service-funds-0ba5a.csv","Department","uri",".*?$(?<!\.aspx)"
"/data/datasets/datagov/data/data/datagovdata/fiscal-year-2015-county-executive-recommended-operating-budget-internal-service-funds-0ba5a.csv","SubFund Name","uri",".*?$(?<!\.aspx)"
"/data/datasets/datagov/data/data/datagovdata/fiscal-year-2015-county-executive-recommended-operating-budget-internal-service-funds-0ba5a.csv","Fund Type","uri",".*?$(?<!\.aspx)"
"/data/datasets/datagov/data/data/datagovdata/fiscal-year-2015-county-executive-recommended-operating-budget-internal-service-funds-0ba5a.csv","Function","uri",".*?$(?<!\.aspx)"
"/data/datasets/datagov/data/data/datagovdata/fiscal-year-2015-county-executive-recommended-operating-budget-internal-service-funds-0ba5a.csv","Cost Center Name","strings","[^""\r\n]*"
"/data/datasets/datagov/data/data/datagovdata/fiscal-year-2015-county-executive-recommended-operating-budget-internal-service-funds-0ba5a.csv","Object Name","strings","[^""\r\n]*"
"/data/datasets/datagov/data/data/datagovdata/fiscal-year-2015-county-executive-recommended-operating-budget-internal-service-funds-0ba5a.csv","Personnel Costs & Operating Expenses","uri",".*?$(?<!\.aspx)"
"/data/datasets/datagov/data/data/datagovdata/fiscal-year-2015-county-executive-recommended-operating-budget-internal-service-funds-0ba5a.csv","Fund Name","uri",".*?$(?<!\.aspx)"
"/data/datasets/datagov/data/data/datagovdata/fiscal-year-2015-county-executive-recommended-operating-budget-internal-service-funds-0ba5a.csv","Amount","uri",".*?$(?<!\.aspx)"
"/data/datasets/datagov/data/data/datagovdata/fiscal-year-2015-county-executive-recommended-operating-budget-internal-service-funds-0ba5a.csv","Program Name","uri",".*?$(?<!\.aspx)"
