"file_name","column_name","label","regex"
"/data/datasets/datagov/data/data/datagovdata/tl_2010_35047_pointlm.csv","FULLNAME","uri",".*?$(?<!\.aspx)"
"/data/datasets/datagov/data/data/datagovdata/tl_2010_35047_pointlm.csv","ANSICODE","numbers","^\d*$"
"/data/datasets/datagov/data/data/datagovdata/tl_2010_35047_pointlm.csv","MTFCC","uri",".*?$(?<!\.aspx)"
"/data/datasets/datagov/data/data/datagovdata/tl_2010_35047_pointlm.csv","POINTID","numbers","^\d*$"
"/data/datasets/datagov/data/data/datagovdata/tl_2010_35047_pointlm.csv","COUNTYFP","numbers","^\d*$"
"/data/datasets/datagov/data/data/datagovdata/tl_2010_35047_pointlm.csv","STATEFP","numbers","^\d*$"
