"file_name","column_name","label","regex"
"/data/datasets/datagov/data/data/datagovdata/contributions-received-by-hawaii-noncandidate-committees-from-january-1-2008-through-novem.csv","Noncandidate Committee Name","uri",".*?$(?<!\.aspx)"
"/data/datasets/datagov/data/data/datagovdata/contributions-received-by-hawaii-noncandidate-committees-from-january-1-2008-through-novem.csv","Aggregate","numbers","^[-+]?\d+(\.\d+)?|[-+]?\.\d+?$"
"/data/datasets/datagov/data/data/datagovdata/contributions-received-by-hawaii-noncandidate-committees-from-january-1-2008-through-novem.csv","Address 2","uri",".*?$(?<!\.aspx)"
"/data/datasets/datagov/data/data/datagovdata/contributions-received-by-hawaii-noncandidate-committees-from-january-1-2008-through-novem.csv","Amount","numbers","^[-+]?\d+(\.\d+)?|[-+]?\.\d+?$"
"/data/datasets/datagov/data/data/datagovdata/contributions-received-by-hawaii-noncandidate-committees-from-january-1-2008-through-novem.csv","Contributor Type","strings","[^""\r\n]*"
"/data/datasets/datagov/data/data/datagovdata/contributions-received-by-hawaii-noncandidate-committees-from-january-1-2008-through-novem.csv","Address 1","uri",".*?$(?<!\.aspx)"
"/data/datasets/datagov/data/data/datagovdata/contributions-received-by-hawaii-noncandidate-committees-from-january-1-2008-through-novem.csv","Non-Monetary Description","strings","[^""\r\n]*"
"/data/datasets/datagov/data/data/datagovdata/contributions-received-by-hawaii-noncandidate-committees-from-january-1-2008-through-novem.csv","Occupation","uri",".*?$(?<!\.aspx)"
"/data/datasets/datagov/data/data/datagovdata/contributions-received-by-hawaii-noncandidate-committees-from-january-1-2008-through-novem.csv","Range","strings","[^""\r\n]*"
"/data/datasets/datagov/data/data/datagovdata/contributions-received-by-hawaii-noncandidate-committees-from-january-1-2008-through-novem.csv","Non-Monetary Category","strings","[^""\r\n]*"
"/data/datasets/datagov/data/data/datagovdata/contributions-received-by-hawaii-noncandidate-committees-from-january-1-2008-through-novem.csv","Election Period","numbers","^[-+]?\d+(\.\d+)?|[-+]?\.\d+?$"
"/data/datasets/datagov/data/data/datagovdata/contributions-received-by-hawaii-noncandidate-committees-from-january-1-2008-through-novem.csv","Non-Monetary (Yes or No)","uri",".*?$(?<!\.aspx)"
"/data/datasets/datagov/data/data/datagovdata/contributions-received-by-hawaii-noncandidate-committees-from-january-1-2008-through-novem.csv","Contributor Name","uri",".*?$(?<!\.aspx)"
"/data/datasets/datagov/data/data/datagovdata/contributions-received-by-hawaii-noncandidate-committees-from-january-1-2008-through-novem.csv","Zip Code","address_or_phone","(\d{4,6})"
"/data/datasets/datagov/data/data/datagovdata/contributions-received-by-hawaii-noncandidate-committees-from-january-1-2008-through-novem.csv","City","uri",".*?$(?<!\.aspx)"
"/data/datasets/datagov/data/data/datagovdata/contributions-received-by-hawaii-noncandidate-committees-from-january-1-2008-through-novem.csv","Mapping Location","uri",".*?$(?<!\.aspx)"
"/data/datasets/datagov/data/data/datagovdata/contributions-received-by-hawaii-noncandidate-committees-from-january-1-2008-through-novem.csv","InOutState","uri",".*?$(?<!\.aspx)"
"/data/datasets/datagov/data/data/datagovdata/contributions-received-by-hawaii-noncandidate-committees-from-january-1-2008-through-novem.csv","Date","strings","[^""\r\n]*"
"/data/datasets/datagov/data/data/datagovdata/contributions-received-by-hawaii-noncandidate-committees-from-january-1-2008-through-novem.csv","Employer","uri",".*?$(?<!\.aspx)"
"/data/datasets/datagov/data/data/datagovdata/contributions-received-by-hawaii-noncandidate-committees-from-january-1-2008-through-novem.csv","State","uri",".*?$(?<!\.aspx)"
"/data/datasets/datagov/data/data/datagovdata/contributions-received-by-hawaii-noncandidate-committees-from-january-1-2008-through-novem.csv","Reg No","uri",".*?$(?<!\.aspx)"
