"file_name","column_name","label","regex"
"/data/datasets/datagov/data/data/datagovdata/doe-user-facilities-and-rd-equipment-edfae.csv","Description","strings","[^""\r\n]*"
"/data/datasets/datagov/data/data/datagovdata/doe-user-facilities-and-rd-equipment-edfae.csv","Facility","strings","[^""\r\n]*"
"/data/datasets/datagov/data/data/datagovdata/doe-user-facilities-and-rd-equipment-edfae.csv","Laboratory_Name","uri",".*?$(?<!\.aspx)"
"/data/datasets/datagov/data/data/datagovdata/doe-user-facilities-and-rd-equipment-edfae.csv","Type","uri",".*?$(?<!\.aspx)"
"/data/datasets/datagov/data/data/datagovdata/doe-user-facilities-and-rd-equipment-edfae.csv","Link","strings","[^""\r\n]*"
"/data/datasets/datagov/data/data/datagovdata/doe-user-facilities-and-rd-equipment-edfae.csv","State","uri",".*?$(?<!\.aspx)"
"/data/datasets/datagov/data/data/datagovdata/doe-user-facilities-and-rd-equipment-edfae.csv","City","uri",".*?$(?<!\.aspx)"
"/data/datasets/datagov/data/data/datagovdata/doe-user-facilities-and-rd-equipment-edfae.csv","POC Email","uri",".*?$(?<!\.aspx)"
"/data/datasets/datagov/data/data/datagovdata/doe-user-facilities-and-rd-equipment-edfae.csv","POC Phone","uri",".*?$(?<!\.aspx)"
"/data/datasets/datagov/data/data/datagovdata/doe-user-facilities-and-rd-equipment-edfae.csv","Address","uri",".*?$(?<!\.aspx)"
"/data/datasets/datagov/data/data/datagovdata/doe-user-facilities-and-rd-equipment-edfae.csv","Agency_Name","uri",".*?$(?<!\.aspx)"
"/data/datasets/datagov/data/data/datagovdata/doe-user-facilities-and-rd-equipment-edfae.csv","Country","uri",".*?$(?<!\.aspx)"
"/data/datasets/datagov/data/data/datagovdata/doe-user-facilities-and-rd-equipment-edfae.csv","ZIP Code","numbers","^(\d|,)*\.?\d*$"
