"file_name","column_name","label","regex"
"/data/datasets/datagov/data/data/datagovdata/emergency-operating-center-tools-caa3d.csv","Historical Data","numbers","^[-+]?\d+(\.\d+)?|[-+]?\.\d+?$"
"/data/datasets/datagov/data/data/datagovdata/emergency-operating-center-tools-caa3d.csv","Target","numbers","^[-+]?\d+(\.\d+)?|[-+]?\.\d+?$"
"/data/datasets/datagov/data/data/datagovdata/emergency-operating-center-tools-caa3d.csv","Years","numbers","^[-+]?\d+(\.\d+)?|[-+]?\.\d+?$"
