"file_name","column_name","label","regex"
"/data/datasets/datagov/data/data/datagovdata/tl_2010_35001_linearwater.csv","ARTPATH","uri",".*?$(?<!\.aspx)"
"/data/datasets/datagov/data/data/datagovdata/tl_2010_35001_linearwater.csv","FULLNAME","uri",".*?$(?<!\.aspx)"
"/data/datasets/datagov/data/data/datagovdata/tl_2010_35001_linearwater.csv","MTFCC","uri",".*?$(?<!\.aspx)"
"/data/datasets/datagov/data/data/datagovdata/tl_2010_35001_linearwater.csv","COUNTYFP","numbers","^\d*$"
"/data/datasets/datagov/data/data/datagovdata/tl_2010_35001_linearwater.csv","STATEFP","numbers","^\d*$"
"/data/datasets/datagov/data/data/datagovdata/tl_2010_35001_linearwater.csv","LINEARID","numbers","^\d*$"
