"file_name","column_name","label","regex"
"/data/datasets/datagov/data/data/datagovdata/schools.csv","SCHOOL3 NAME","uri",".*?$(?<!\.aspx)"
"/data/datasets/datagov/data/data/datagovdata/schools.csv","SCHOOL2 PRIMARY ADDRESS","uri",".*?$(?<!\.aspx)"
"/data/datasets/datagov/data/data/datagovdata/schools.csv","SCHOOL3 DEFINITION","uri",".*?$(?<!\.aspx)"
"/data/datasets/datagov/data/data/datagovdata/schools.csv","SCHOOL2 NAME","strings","[^""\r\n]*"
"/data/datasets/datagov/data/data/datagovdata/schools.csv","SCHOOL3 PRIMARY ADDRESS","uri",".*?$(?<!\.aspx)"
"/data/datasets/datagov/data/data/datagovdata/schools.csv","SCHOOL2 DEFINITION","uri",".*?$(?<!\.aspx)"
"/data/datasets/datagov/data/data/datagovdata/schools.csv","SECOND ADDRESS","uri",".*?$(?<!\.aspx)"
"/data/datasets/datagov/data/data/datagovdata/schools.csv","PRIMARY ADDRESS","uri",".*?$(?<!\.aspx)"
"/data/datasets/datagov/data/data/datagovdata/schools.csv","SCHOOL NAME","strings","[^""\r\n]*"
"/data/datasets/datagov/data/data/datagovdata/schools.csv","SCHOOL4 NAME","uri",".*?$(?<!\.aspx)"
"/data/datasets/datagov/data/data/datagovdata/schools.csv","SCHOOL4 DEFINITION","uri",".*?$(?<!\.aspx)"
"/data/datasets/datagov/data/data/datagovdata/schools.csv","DEFINITION","uri",".*?$(?<!\.aspx)"
"/data/datasets/datagov/data/data/datagovdata/schools.csv","SCHOOL2 GRADES","uri",".*?$(?<!\.aspx)"
"/data/datasets/datagov/data/data/datagovdata/schools.csv","SCHOOL3 GRADES","uri",".*?$(?<!\.aspx)"
"/data/datasets/datagov/data/data/datagovdata/schools.csv","SCHOOL4 GRADES","uri",".*?$(?<!\.aspx)"
"/data/datasets/datagov/data/data/datagovdata/schools.csv","GRADES","uri",".*?$(?<!\.aspx)"
"/data/datasets/datagov/data/data/datagovdata/schools.csv","SCHOOL4 PRIMARY ADDRESS","uri",".*?$(?<!\.aspx)"
