"file_name","column_name","label","regex"
"/data/datasets/datagov/data/data/datagovdata/wdfw-hatchery-reform-challenges-93b2f.csv","Costs","numbers","^(\d|,)*\.?\d*$"
"/data/datasets/datagov/data/data/datagovdata/wdfw-hatchery-reform-challenges-93b2f.csv","Fund Source","strings","[^""\r\n]*"
"/data/datasets/datagov/data/data/datagovdata/wdfw-hatchery-reform-challenges-93b2f.csv","Costs Notes","strings","[^""\r\n]*"
"/data/datasets/datagov/data/data/datagovdata/wdfw-hatchery-reform-challenges-93b2f.csv","Facility Name","uri",".*?$(?<!\.aspx)"
"/data/datasets/datagov/data/data/datagovdata/wdfw-hatchery-reform-challenges-93b2f.csv","Schedule","address_or_phone","(\d{4,6})"
"/data/datasets/datagov/data/data/datagovdata/wdfw-hatchery-reform-challenges-93b2f.csv","Action Needed","uri",".*?$(?<!\.aspx)"
"/data/datasets/datagov/data/data/datagovdata/wdfw-hatchery-reform-challenges-93b2f.csv","Action Needed Description","strings","[^""\r\n]*"
