"file_name","column_name","label","regex"
"/data/datasets/datagov/data/data/datagovdata/nih-core-facilities.csv","POC First name","uri",".*?$(?<!\.aspx)"
"/data/datasets/datagov/data/data/datagovdata/nih-core-facilities.csv","Institute/Center (IC)","uri",".*?$(?<!\.aspx)"
"/data/datasets/datagov/data/data/datagovdata/nih-core-facilities.csv","Description of Use Acess","uri",".*?$(?<!\.aspx)"
"/data/datasets/datagov/data/data/datagovdata/nih-core-facilities.csv","URL","strings","[^""\r\n]*"
"/data/datasets/datagov/data/data/datagovdata/nih-core-facilities.csv","Agency","strings","[^""\r\n]*"
"/data/datasets/datagov/data/data/datagovdata/nih-core-facilities.csv","Zip","numbers","^(\d|,)*\.?\d*$"
"/data/datasets/datagov/data/data/datagovdata/nih-core-facilities.csv","POC Phone","address_or_phone","^[2-9]\d{2}-\d{3}-\d{4}$"
"/data/datasets/datagov/data/data/datagovdata/nih-core-facilities.csv","Street Address","uri",".*?$(?<!\.aspx)"
"/data/datasets/datagov/data/data/datagovdata/nih-core-facilities.csv","POC Last Name","uri",".*?$(?<!\.aspx)"
"/data/datasets/datagov/data/data/datagovdata/nih-core-facilities.csv","City","uri",".*?$(?<!\.aspx)"
"/data/datasets/datagov/data/data/datagovdata/nih-core-facilities.csv","Name of Facility","strings","[^""\r\n]*"
"/data/datasets/datagov/data/data/datagovdata/nih-core-facilities.csv","POC Email","uri",".*?$(?<!\.aspx)"
"/data/datasets/datagov/data/data/datagovdata/nih-core-facilities.csv","State","uri",".*?$(?<!\.aspx)"
