"file_name","column_name","label","regex"
"/data/datasets/datagov/data/data/datagovdata/expenditures-ftes-8e71f.csv","2013 Adopted","numbers","^(\d|,)*\.?\d*$"
"/data/datasets/datagov/data/data/datagovdata/expenditures-ftes-8e71f.csv","2014 Endorsed","numbers","^(\d|,)*\.?\d*$"
"/data/datasets/datagov/data/data/datagovdata/expenditures-ftes-8e71f.csv","2012 Actual","numbers","^(\d|,)*\.?\d*$"
"/data/datasets/datagov/data/data/datagovdata/expenditures-ftes-8e71f.csv","2014 Proposed","numbers","^(\d|,)*\.?\d*$"
"/data/datasets/datagov/data/data/datagovdata/expenditures-ftes-8e71f.csv","BCLName","strings","[^""\r\n]*"
"/data/datasets/datagov/data/data/datagovdata/expenditures-ftes-8e71f.csv","DeptCode","uri",".*?$(?<!\.aspx)"
