"file_name","column_name","label","regex"
"/data/datasets/datagov/data/data/datagovdata/solar-monthly-and-annual-average-direct-normal-dni-gis-data-at-40km-resolution-for-mexico--6c105.csv","diroct","numbers","^\d*$"
"/data/datasets/datagov/data/data/datagovdata/solar-monthly-and-annual-average-direct-normal-dni-gis-data-at-40km-resolution-for-mexico--6c105.csv","dirsep","numbers","^\d*$"
"/data/datasets/datagov/data/data/datagovdata/solar-monthly-and-annual-average-direct-normal-dni-gis-data-at-40km-resolution-for-mexico--6c105.csv","Lat","numbers","^\d*$"
"/data/datasets/datagov/data/data/datagovdata/solar-monthly-and-annual-average-direct-normal-dni-gis-data-at-40km-resolution-for-mexico--6c105.csv","dirmay","numbers","^\d*$"
"/data/datasets/datagov/data/data/datagovdata/solar-monthly-and-annual-average-direct-normal-dni-gis-data-at-40km-resolution-for-mexico--6c105.csv","dirmar","numbers","^\d*$"
"/data/datasets/datagov/data/data/datagovdata/solar-monthly-and-annual-average-direct-normal-dni-gis-data-at-40km-resolution-for-mexico--6c105.csv","diraug","numbers","^\d*$"
"/data/datasets/datagov/data/data/datagovdata/solar-monthly-and-annual-average-direct-normal-dni-gis-data-at-40km-resolution-for-mexico--6c105.csv","dirjun","numbers","^\d*$"
"/data/datasets/datagov/data/data/datagovdata/solar-monthly-and-annual-average-direct-normal-dni-gis-data-at-40km-resolution-for-mexico--6c105.csv","dirann","numbers","^\d*$"
"/data/datasets/datagov/data/data/datagovdata/solar-monthly-and-annual-average-direct-normal-dni-gis-data-at-40km-resolution-for-mexico--6c105.csv","dirjan","numbers","^\d*$"
"/data/datasets/datagov/data/data/datagovdata/solar-monthly-and-annual-average-direct-normal-dni-gis-data-at-40km-resolution-for-mexico--6c105.csv","dirdec","numbers","^\d*$"
"/data/datasets/datagov/data/data/datagovdata/solar-monthly-and-annual-average-direct-normal-dni-gis-data-at-40km-resolution-for-mexico--6c105.csv","dirnov","numbers","^\d*$"
"/data/datasets/datagov/data/data/datagovdata/solar-monthly-and-annual-average-direct-normal-dni-gis-data-at-40km-resolution-for-mexico--6c105.csv","CELL_ID","numbers","^\d*$"
"/data/datasets/datagov/data/data/datagovdata/solar-monthly-and-annual-average-direct-normal-dni-gis-data-at-40km-resolution-for-mexico--6c105.csv","dirfeb","numbers","^\d*$"
"/data/datasets/datagov/data/data/datagovdata/solar-monthly-and-annual-average-direct-normal-dni-gis-data-at-40km-resolution-for-mexico--6c105.csv","dirapr","numbers","^\d*$"
"/data/datasets/datagov/data/data/datagovdata/solar-monthly-and-annual-average-direct-normal-dni-gis-data-at-40km-resolution-for-mexico--6c105.csv","NHMPOLY_WG","numbers","^\d*$"
"/data/datasets/datagov/data/data/datagovdata/solar-monthly-and-annual-average-direct-normal-dni-gis-data-at-40km-resolution-for-mexico--6c105.csv","PERIMETER","numbers","^\d*$"
"/data/datasets/datagov/data/data/datagovdata/solar-monthly-and-annual-average-direct-normal-dni-gis-data-at-40km-resolution-for-mexico--6c105.csv","AREA","numbers","^\d*$"
"/data/datasets/datagov/data/data/datagovdata/solar-monthly-and-annual-average-direct-normal-dni-gis-data-at-40km-resolution-for-mexico--6c105.csv","dirjul","numbers","^\d*$"
"/data/datasets/datagov/data/data/datagovdata/solar-monthly-and-annual-average-direct-normal-dni-gis-data-at-40km-resolution-for-mexico--6c105.csv","Lon","numbers","^\d*$"
