"file_name","column_name","label","regex"
"/data/datasets/datagov/data/data/datagovdata/daily-fire-incidents-01012012-current.csv","Alarm Date","strings","[^""\r\n]*"
"/data/datasets/datagov/data/data/datagovdata/daily-fire-incidents-01012012-current.csv","All Other Calls","numbers","^\d*$"
"/data/datasets/datagov/data/data/datagovdata/daily-fire-incidents-01012012-current.csv","Fire Calls","numbers","^\d*$"
"/data/datasets/datagov/data/data/datagovdata/daily-fire-incidents-01012012-current.csv","EMS Calls","numbers","^\d*$"
"/data/datasets/datagov/data/data/datagovdata/daily-fire-incidents-01012012-current.csv","Total Number of Calls","numbers","^\d*$"
