"file_name","column_name","label","regex"
"/data/datasets/datagov/data/data/datagovdata/csc-kent-ed461.csv","Location","uri","^[^\\\/\?\*\""\'\>\<\:\|]*$"
"/data/datasets/datagov/data/data/datagovdata/csc-kent-ed461.csv","Name","uri","^[^\\\/\?\*\""\'\>\<\:\|]*$"
"/data/datasets/datagov/data/data/datagovdata/csc-kent-ed461.csv","Hours","strings","[^""\r\n]*"
"/data/datasets/datagov/data/data/datagovdata/csc-kent-ed461.csv","Phone","address_or_phone","^[2-9]\d{2}-\d{3}-\d{4}$"
