"file_name","column_name","label","regex"
"/data/datasets/datagov/data/data/datagovdata/office-of-the-president-s-t-a-r-report-2011-q2-4b052.csv","December Actual","uri",".*?$(?<!\.aspx)"
"/data/datasets/datagov/data/data/datagovdata/office-of-the-president-s-t-a-r-report-2011-q2-4b052.csv","Q2 YTD Target","uri",".*?$(?<!\.aspx)"
"/data/datasets/datagov/data/data/datagovdata/office-of-the-president-s-t-a-r-report-2011-q2-4b052.csv","2011 Target ","uri",".*?$(?<!\.aspx)"
"/data/datasets/datagov/data/data/datagovdata/office-of-the-president-s-t-a-r-report-2011-q2-4b052.csv","February Actual","uri",".*?$(?<!\.aspx)"
"/data/datasets/datagov/data/data/datagovdata/office-of-the-president-s-t-a-r-report-2011-q2-4b052.csv","Goal","strings","[^""\r\n]*"
"/data/datasets/datagov/data/data/datagovdata/office-of-the-president-s-t-a-r-report-2011-q2-4b052.csv","April Target","uri",".*?$(?<!\.aspx)"
"/data/datasets/datagov/data/data/datagovdata/office-of-the-president-s-t-a-r-report-2011-q2-4b052.csv","Elected Official","uri",".*?$(?<!\.aspx)"
"/data/datasets/datagov/data/data/datagovdata/office-of-the-president-s-t-a-r-report-2011-q2-4b052.csv","Q2 YTD Actual","uri",".*?$(?<!\.aspx)"
"/data/datasets/datagov/data/data/datagovdata/office-of-the-president-s-t-a-r-report-2011-q2-4b052.csv","June Actual","uri",".*?$(?<!\.aspx)"
"/data/datasets/datagov/data/data/datagovdata/office-of-the-president-s-t-a-r-report-2011-q2-4b052.csv","May Target","uri",".*?$(?<!\.aspx)"
"/data/datasets/datagov/data/data/datagovdata/office-of-the-president-s-t-a-r-report-2011-q2-4b052.csv","Sub goal","strings","[^""\r\n]*"
"/data/datasets/datagov/data/data/datagovdata/office-of-the-president-s-t-a-r-report-2011-q2-4b052.csv","June Target","uri",".*?$(?<!\.aspx)"
"/data/datasets/datagov/data/data/datagovdata/office-of-the-president-s-t-a-r-report-2011-q2-4b052.csv","March Actual","uri",".*?$(?<!\.aspx)"
"/data/datasets/datagov/data/data/datagovdata/office-of-the-president-s-t-a-r-report-2011-q2-4b052.csv","March Target","uri",".*?$(?<!\.aspx)"
"/data/datasets/datagov/data/data/datagovdata/office-of-the-president-s-t-a-r-report-2011-q2-4b052.csv","October Target","uri",".*?$(?<!\.aspx)"
"/data/datasets/datagov/data/data/datagovdata/office-of-the-president-s-t-a-r-report-2011-q2-4b052.csv","February Target","uri",".*?$(?<!\.aspx)"
"/data/datasets/datagov/data/data/datagovdata/office-of-the-president-s-t-a-r-report-2011-q2-4b052.csv","Department","uri",".*?$(?<!\.aspx)"
"/data/datasets/datagov/data/data/datagovdata/office-of-the-president-s-t-a-r-report-2011-q2-4b052.csv","December Target","uri",".*?$(?<!\.aspx)"
"/data/datasets/datagov/data/data/datagovdata/office-of-the-president-s-t-a-r-report-2011-q2-4b052.csv","August Target","uri",".*?$(?<!\.aspx)"
"/data/datasets/datagov/data/data/datagovdata/office-of-the-president-s-t-a-r-report-2011-q2-4b052.csv","Sub Goal #","numbers","^\d*$"
"/data/datasets/datagov/data/data/datagovdata/office-of-the-president-s-t-a-r-report-2011-q2-4b052.csv","January Actual","uri",".*?$(?<!\.aspx)"
"/data/datasets/datagov/data/data/datagovdata/office-of-the-president-s-t-a-r-report-2011-q2-4b052.csv","2010 Actual","uri",".*?$(?<!\.aspx)"
"/data/datasets/datagov/data/data/datagovdata/office-of-the-president-s-t-a-r-report-2011-q2-4b052.csv","Bureau","uri",".*?$(?<!\.aspx)"
"/data/datasets/datagov/data/data/datagovdata/office-of-the-president-s-t-a-r-report-2011-q2-4b052.csv","January Target","uri",".*?$(?<!\.aspx)"
"/data/datasets/datagov/data/data/datagovdata/office-of-the-president-s-t-a-r-report-2011-q2-4b052.csv","July Target","uri",".*?$(?<!\.aspx)"
"/data/datasets/datagov/data/data/datagovdata/office-of-the-president-s-t-a-r-report-2011-q2-4b052.csv","April Actual","uri",".*?$(?<!\.aspx)"
"/data/datasets/datagov/data/data/datagovdata/office-of-the-president-s-t-a-r-report-2011-q2-4b052.csv","November Target","uri",".*?$(?<!\.aspx)"
"/data/datasets/datagov/data/data/datagovdata/office-of-the-president-s-t-a-r-report-2011-q2-4b052.csv","Data Type","uri",".*?$(?<!\.aspx)"
"/data/datasets/datagov/data/data/datagovdata/office-of-the-president-s-t-a-r-report-2011-q2-4b052.csv","September Target","uri",".*?$(?<!\.aspx)"
"/data/datasets/datagov/data/data/datagovdata/office-of-the-president-s-t-a-r-report-2011-q2-4b052.csv","May Actual","uri",".*?$(?<!\.aspx)"
"/data/datasets/datagov/data/data/datagovdata/office-of-the-president-s-t-a-r-report-2011-q2-4b052.csv","External Report","uri",".*?$(?<!\.aspx)"
"/data/datasets/datagov/data/data/datagovdata/office-of-the-president-s-t-a-r-report-2011-q2-4b052.csv","Goal #","numbers","^\d*$"
