"file_name","column_name","label","regex"
"/data/datasets/datagov/data/data/datagovdata/ConflictedAreas_SE.csv","Shape_Leng","numbers","(^([0-9]+[.]+[0-9]+)|(0)$)"
"/data/datasets/datagov/data/data/datagovdata/ConflictedAreas_SE.csv","COMMENT","uri",".*?$(?<!\.aspx)"
"/data/datasets/datagov/data/data/datagovdata/ConflictedAreas_SE.csv","Shape_Area","numbers","(^([0-9]+[.]+[0-9]+)|(0)$)"
"/data/datasets/datagov/data/data/datagovdata/ConflictedAreas_SE.csv","STEWARD2","numbers","(^([0-9]+[.]+[0-9]+)|(0)$)"
"/data/datasets/datagov/data/data/datagovdata/ConflictedAreas_SE.csv","STEWARD1","uri",".*?$(?<!\.aspx)"
