"file_name","column_name","label","regex"
"/data/datasets/mitdwh/Fclt_major_use.csv","Major Use","uri",".*?$(?<!\.aspx)"
"/data/datasets/mitdwh/Fclt_major_use.csv","Description","uri",".*?$(?<!\.aspx)"
"/data/datasets/mitdwh/Fclt_major_use.csv","Fclt Major Use Key","numbers","^\d$"
"/data/datasets/mitdwh/Fclt_major_use.csv","Warehouse Load Date","strings","[^""\r\n]*"
"/data/datasets/mitdwh/Fclt_major_use.csv","Assignable","numbers","^\d$"
