"file_name","column_name","label","regex"
"/data/datasets/mitdwh/Space_floor.csv","Warehouse Load Date","strings","[^""\r\n]*"
"/data/datasets/mitdwh/Space_floor.csv","Floor2","uri",".*?$(?<!\.aspx)"
"/data/datasets/mitdwh/Space_floor.csv","Floor Key","uri",".*?$(?<!\.aspx)"
"/data/datasets/mitdwh/Space_floor.csv","Floor Name","uri",".*?$(?<!\.aspx)"
