"file_name","column_name","label","regex"
"/data/datasets/datagov/data/data/datagovdata/tlc-commuter-van-authorizations-f0d30.csv","Street_Address","uri",".*?$(?<!\.aspx)"
"/data/datasets/datagov/data/data/datagovdata/tlc-commuter-van-authorizations-f0d30.csv","Alternative Name of Licensee","uri",".*?$(?<!\.aspx)"
"/data/datasets/datagov/data/data/datagovdata/tlc-commuter-van-authorizations-f0d30.csv","Zip_Code","uri",".*?$(?<!\.aspx)"
"/data/datasets/datagov/data/data/datagovdata/tlc-commuter-van-authorizations-f0d30.csv","License Number","uri",".*?$(?<!\.aspx)"
"/data/datasets/datagov/data/data/datagovdata/tlc-commuter-van-authorizations-f0d30.csv","License Type","uri",".*?$(?<!\.aspx)"
"/data/datasets/datagov/data/data/datagovdata/tlc-commuter-van-authorizations-f0d30.csv","Name of Licensee","uri",".*?$(?<!\.aspx)"
"/data/datasets/datagov/data/data/datagovdata/tlc-commuter-van-authorizations-f0d30.csv","Telephone","uri",".*?$(?<!\.aspx)"
