"file_name","column_name","label","regex"
"/data/datasets/datagov/data/data/datagovdata/investing-in-innovation-2010-applications.csv","Award Length","uri","^[^\\\/\?\*\""\'\>\<\:\|]*$"
"/data/datasets/datagov/data/data/datagovdata/investing-in-innovation-2010-applications.csv","Project Title","strings","[^""\r\n]*"
"/data/datasets/datagov/data/data/datagovdata/investing-in-innovation-2010-applications.csv","Grant Type","uri","^[^\\\/\?\*\""\'\>\<\:\|]*$"
"/data/datasets/datagov/data/data/datagovdata/investing-in-innovation-2010-applications.csv","Location","uri","^[^\\\/\?\*\""\'\>\<\:\|]*$"
"/data/datasets/datagov/data/data/datagovdata/investing-in-innovation-2010-applications.csv","Award Requested","numbers","^(\d|,)*\.?\d*$"
"/data/datasets/datagov/data/data/datagovdata/investing-in-innovation-2010-applications.csv","Private Match Waiver","uri","^[^\\\/\?\*\""\'\>\<\:\|]*$"
"/data/datasets/datagov/data/data/datagovdata/investing-in-innovation-2010-applications.csv","Absolute Priority","strings","[^""\r\n]*"
"/data/datasets/datagov/data/data/datagovdata/investing-in-innovation-2010-applications.csv","Applicant","strings","[^""\r\n]*"
"/data/datasets/datagov/data/data/datagovdata/investing-in-innovation-2010-applications.csv","Project Description","strings","[^""\r\n]*"
"/data/datasets/datagov/data/data/datagovdata/investing-in-innovation-2010-applications.csv","City","uri","^[^\\\/\?\*\""\'\>\<\:\|]*$"
"/data/datasets/datagov/data/data/datagovdata/investing-in-innovation-2010-applications.csv","Organization Zip","numbers","^(\d|,)*\.?\d*$"
"/data/datasets/datagov/data/data/datagovdata/investing-in-innovation-2010-applications.csv","Competitive Preference Priority","strings","[^""\r\n]*"
"/data/datasets/datagov/data/data/datagovdata/investing-in-innovation-2010-applications.csv","Applicant Type","strings","[^""\r\n]*"
"/data/datasets/datagov/data/data/datagovdata/investing-in-innovation-2010-applications.csv","State","uri","^[^\\\/\?\*\""\'\>\<\:\|]*$"
