"file_name","column_name","label","regex"
"/data/datasets/datagov/data/data/datagovdata/king-county-metro-access-2013-sept-weekday-service-area-1500-1800.csv","Id","numbers","^\d*$"
"/data/datasets/datagov/data/data/datagovdata/king-county-metro-access-2013-sept-weekday-service-area-1500-1800.csv","Area","numbers","^\d*$"
"/data/datasets/datagov/data/data/datagovdata/king-county-metro-access-2013-sept-weekday-service-area-1500-1800.csv","the_geom","strings","[^""\r\n]*"
