"file_name","column_name","label","regex"
"/data/datasets/datagov/data/data/datagovdata/ccgisdata-state-senate-district-2010.csv","Shape_area","numbers","^(\d|,)*\.?\d*$"
"/data/datasets/datagov/data/data/datagovdata/ccgisdata-state-senate-district-2010.csv","Shape_len","numbers","^(\d|,)*\.?\d*$"
"/data/datasets/datagov/data/data/datagovdata/ccgisdata-state-senate-district-2010.csv","SenateDist","numbers","^(\d|,)*\.?\d*$"
"/data/datasets/datagov/data/data/datagovdata/ccgisdata-state-senate-district-2010.csv","SenateNum","numbers","^(\d|,)*\.?\d*$"
"/data/datasets/datagov/data/data/datagovdata/ccgisdata-state-senate-district-2010.csv","the_geom","strings","[^""\r\n]*"
