"file_name","column_name","label","regex"
"/data/datasets/datagov/data/data/datagovdata/department-of-revenue-services-fy-2013-14-tax-credits-by-industry-sector.csv","Urban & Industrial Site Reinvestment ","numbers","^(\d|,)*\.?\d*$"
"/data/datasets/datagov/data/data/datagovdata/department-of-revenue-services-fy-2013-14-tax-credits-by-industry-sector.csv","NAICS Code","numbers","^(\d|,)*\.?\d*$"
"/data/datasets/datagov/data/data/datagovdata/department-of-revenue-services-fy-2013-14-tax-credits-by-industry-sector.csv","Job Expansion ","numbers","^(\d|,)*\.?\d*$"
"/data/datasets/datagov/data/data/datagovdata/department-of-revenue-services-fy-2013-14-tax-credits-by-industry-sector.csv","Film Infrastructure ","numbers","^(\d|,)*\.?\d*$"
"/data/datasets/datagov/data/data/datagovdata/department-of-revenue-services-fy-2013-14-tax-credits-by-industry-sector.csv","Research & Development","numbers","^(\d|,)*\.?\d*$"
"/data/datasets/datagov/data/data/datagovdata/department-of-revenue-services-fy-2013-14-tax-credits-by-industry-sector.csv","Electronic Data Processing ","numbers","^(\d|,)*\.?\d*$"
"/data/datasets/datagov/data/data/datagovdata/department-of-revenue-services-fy-2013-14-tax-credits-by-industry-sector.csv","Digital Animation","numbers","^(\d|,)*\.?\d*$"
"/data/datasets/datagov/data/data/datagovdata/department-of-revenue-services-fy-2013-14-tax-credits-by-industry-sector.csv","Research & Experimentation","numbers","^(\d|,)*\.?\d*$"
"/data/datasets/datagov/data/data/datagovdata/department-of-revenue-services-fy-2013-14-tax-credits-by-industry-sector.csv","Fixed Cap Investment ","numbers","^(\d|,)*\.?\d*$"
"/data/datasets/datagov/data/data/datagovdata/department-of-revenue-services-fy-2013-14-tax-credits-by-industry-sector.csv","NAICS Industry Group","uri",".*?$(?<!\.aspx)"
"/data/datasets/datagov/data/data/datagovdata/department-of-revenue-services-fy-2013-14-tax-credits-by-industry-sector.csv","Film Production","numbers","^(\d|,)*\.?\d*$"
