"file_name","column_name","label","regex"
"/data/datasets/datagov/data/data/datagovdata/contracts-state-agency-oregon-judicial-department-fiscal-year-2012-eedaa.csv","Award Title","strings","[^""\r\n]*"
"/data/datasets/datagov/data/data/datagovdata/contracts-state-agency-oregon-judicial-department-fiscal-year-2012-eedaa.csv","Total Contract Value with amendments","numbers","^\$?\d+(\.(\d{2}))?$"
"/data/datasets/datagov/data/data/datagovdata/contracts-state-agency-oregon-judicial-department-fiscal-year-2012-eedaa.csv","Company Address","uri",".*?$(?<!\.aspx)"
"/data/datasets/datagov/data/data/datagovdata/contracts-state-agency-oregon-judicial-department-fiscal-year-2012-eedaa.csv","*Award Type","uri",".*?$(?<!\.aspx)"
"/data/datasets/datagov/data/data/datagovdata/contracts-state-agency-oregon-judicial-department-fiscal-year-2012-eedaa.csv","Agency Name","uri",".*?$(?<!\.aspx)"
"/data/datasets/datagov/data/data/datagovdata/contracts-state-agency-oregon-judicial-department-fiscal-year-2012-eedaa.csv","Agency Number","numbers","^\$?\d+(\.(\d{2}))?$"
"/data/datasets/datagov/data/data/datagovdata/contracts-state-agency-oregon-judicial-department-fiscal-year-2012-eedaa.csv","Company Name","strings","[^""\r\n]*"
"/data/datasets/datagov/data/data/datagovdata/contracts-state-agency-oregon-judicial-department-fiscal-year-2012-eedaa.csv","Original Contract Value","numbers","^\$?\d+(\.(\d{2}))?$"
"/data/datasets/datagov/data/data/datagovdata/contracts-state-agency-oregon-judicial-department-fiscal-year-2012-eedaa.csv","Contract Expiration Date                                                            ","strings","[^""\r\n]*"
"/data/datasets/datagov/data/data/datagovdata/contracts-state-agency-oregon-judicial-department-fiscal-year-2012-eedaa.csv","Award Number","uri",".*?$(?<!\.aspx)"
"/data/datasets/datagov/data/data/datagovdata/contracts-state-agency-oregon-judicial-department-fiscal-year-2012-eedaa.csv","Contract Effective Date                                                              ","strings","[^""\r\n]*"
"/data/datasets/datagov/data/data/datagovdata/contracts-state-agency-oregon-judicial-department-fiscal-year-2012-eedaa.csv","Company Phone","uri",".*?$(?<!\.aspx)"
"/data/datasets/datagov/data/data/datagovdata/contracts-state-agency-oregon-judicial-department-fiscal-year-2012-eedaa.csv","Total Amendment Value","numbers","^\$?\d+(\.(\d{2}))?$"
