"file_name","column_name","label","regex"
"/data/datasets/datagov/data/data/datagovdata/rsmp-illicit-discharge-detection-and-elimination-idde.csv","14. Correction/Elimination Method:","strings","[^""\r\n]*"
"/data/datasets/datagov/data/data/datagovdata/rsmp-illicit-discharge-detection-and-elimination-idde.csv","10. Source Tracing Methods:","uri",".*?$(?<!\.aspx)"
"/data/datasets/datagov/data/data/datagovdata/rsmp-illicit-discharge-detection-and-elimination-idde.csv","6. Frequency","uri",".*?$(?<!\.aspx)"
"/data/datasets/datagov/data/data/datagovdata/rsmp-illicit-discharge-detection-and-elimination-idde.csv","1A. Email","email","^.+@[^\.].*\.[a-z]{2,}$"
"/data/datasets/datagov/data/data/datagovdata/rsmp-illicit-discharge-detection-and-elimination-idde.csv","7. Threat Determination and G3 Notification:","uri",".*?$(?<!\.aspx)"
"/data/datasets/datagov/data/data/datagovdata/rsmp-illicit-discharge-detection-and-elimination-idde.csv","13a. Commercial","uri",".*?$(?<!\.aspx)"
"/data/datasets/datagov/data/data/datagovdata/rsmp-illicit-discharge-detection-and-elimination-idde.csv","14a. Enforcement","uri",".*?$(?<!\.aspx)"
"/data/datasets/datagov/data/data/datagovdata/rsmp-illicit-discharge-detection-and-elimination-idde.csv","4c. And/or Nearest Intersection","uri",".*?$(?<!\.aspx)"
"/data/datasets/datagov/data/data/datagovdata/rsmp-illicit-discharge-detection-and-elimination-idde.csv","5a. Temperature","numbers","^(\d|,)*\.?\d*$"
"/data/datasets/datagov/data/data/datagovdata/rsmp-illicit-discharge-detection-and-elimination-idde.csv","9a. ERTS Number","uri",".*?$(?<!\.aspx)"
"/data/datasets/datagov/data/data/datagovdata/rsmp-illicit-discharge-detection-and-elimination-idde.csv","15. Final Resolution Date","strings","[^""\r\n]*"
"/data/datasets/datagov/data/data/datagovdata/rsmp-illicit-discharge-detection-and-elimination-idde.csv","13. Source or Cause:","strings","[^""\r\n]*"
"/data/datasets/datagov/data/data/datagovdata/rsmp-illicit-discharge-detection-and-elimination-idde.csv","2a. New or Edited Entry?","uri",".*?$(?<!\.aspx)"
"/data/datasets/datagov/data/data/datagovdata/rsmp-illicit-discharge-detection-and-elimination-idde.csv","11. Indicator Testing:","strings","[^""\r\n]*"
"/data/datasets/datagov/data/data/datagovdata/rsmp-illicit-discharge-detection-and-elimination-idde.csv","4. Location","strings","[^""\r\n]*"
"/data/datasets/datagov/data/data/datagovdata/rsmp-illicit-discharge-detection-and-elimination-idde.csv","5b. Precipitation in previous 24hrs","numbers","^(\d|,)*\.?\d*$"
"/data/datasets/datagov/data/data/datagovdata/rsmp-illicit-discharge-detection-and-elimination-idde.csv","7a. Immediate Response?","uri",".*?$(?<!\.aspx)"
"/data/datasets/datagov/data/data/datagovdata/rsmp-illicit-discharge-detection-and-elimination-idde.csv","15a. Final Resolution In Process","uri",".*?$(?<!\.aspx)"
"/data/datasets/datagov/data/data/datagovdata/rsmp-illicit-discharge-detection-and-elimination-idde.csv","8a. If suspected illicit connection, investigated within 21 days?","uri",".*?$(?<!\.aspx)"
"/data/datasets/datagov/data/data/datagovdata/rsmp-illicit-discharge-detection-and-elimination-idde.csv","9. How did you learn about the problem?","strings","[^""\r\n]*"
"/data/datasets/datagov/data/data/datagovdata/rsmp-illicit-discharge-detection-and-elimination-idde.csv","8. Investigated within 7 days per program procedures?","uri",".*?$(?<!\.aspx)"
"/data/datasets/datagov/data/data/datagovdata/rsmp-illicit-discharge-detection-and-elimination-idde.csv","2. Unique Identifier","uri",".*?$(?<!\.aspx)"
"/data/datasets/datagov/data/data/datagovdata/rsmp-illicit-discharge-detection-and-elimination-idde.csv","12. Pollutant(s) Identified:","strings","[^""\r\n]*"
"/data/datasets/datagov/data/data/datagovdata/rsmp-illicit-discharge-detection-and-elimination-idde.csv","16. Field notes, explanations, and other comments:","strings","[^""\r\n]*"
"/data/datasets/datagov/data/data/datagovdata/rsmp-illicit-discharge-detection-and-elimination-idde.csv","3. Date incident initially reported","strings","[^""\r\n]*"
"/data/datasets/datagov/data/data/datagovdata/rsmp-illicit-discharge-detection-and-elimination-idde.csv","17. Other helpful or relevant information","strings","[^""\r\n]*"
"/data/datasets/datagov/data/data/datagovdata/rsmp-illicit-discharge-detection-and-elimination-idde.csv","1. Jurisdiction Name","uri",".*?$(?<!\.aspx)"
"/data/datasets/datagov/data/data/datagovdata/rsmp-illicit-discharge-detection-and-elimination-idde.csv","8b. Final resolution of illicit connection within 6 months?","uri",".*?$(?<!\.aspx)"
"/data/datasets/datagov/data/data/datagovdata/rsmp-illicit-discharge-detection-and-elimination-idde.csv","5. Weather condition at time of report","uri",".*?$(?<!\.aspx)"
"/data/datasets/datagov/data/data/datagovdata/rsmp-illicit-discharge-detection-and-elimination-idde.csv","4a. Street Address","uri",".*?$(?<!\.aspx)"
"/data/datasets/datagov/data/data/datagovdata/rsmp-illicit-discharge-detection-and-elimination-idde.csv","4d. Is the structure mapped/inventoried?","uri",".*?$(?<!\.aspx)"
"/data/datasets/datagov/data/data/datagovdata/rsmp-illicit-discharge-detection-and-elimination-idde.csv","7b. G3 Notification?","uri",".*?$(?<!\.aspx)"
"/data/datasets/datagov/data/data/datagovdata/rsmp-illicit-discharge-detection-and-elimination-idde.csv","4b. And/or Zip Code","uri",".*?$(?<!\.aspx)"
