"file_name","column_name","label","regex"
"/data/datasets/datagov/data/data/datagovdata/tlf441shp.csv","BG","numbers","^\d*$"
"/data/datasets/datagov/data/data/datagovdata/tlf441shp.csv","PERIMETER","numbers","^\d*$"
"/data/datasets/datagov/data/data/datagovdata/tlf441shp.csv","AREA","uri",".*?$(?<!\.aspx)"
"/data/datasets/datagov/data/data/datagovdata/tlf441shp.csv","TLF04041_I","numbers","^\d*$"
"/data/datasets/datagov/data/data/datagovdata/tlf441shp.csv","TLF04041_","numbers","^\d*$"
