"file_name","column_name","label","regex"
"/data/datasets/datagov/data/data/datagovdata/ua99_d90_nmshp.csv","UA99_D90_I","numbers","^\d*$"
"/data/datasets/datagov/data/data/datagovdata/ua99_d90_nmshp.csv","UA","numbers","^\d*$"
"/data/datasets/datagov/data/data/datagovdata/ua99_d90_nmshp.csv","NAME","uri",".*?$(?<!\.aspx)"
"/data/datasets/datagov/data/data/datagovdata/ua99_d90_nmshp.csv","UA99_D90_","numbers","^\d*$"
"/data/datasets/datagov/data/data/datagovdata/ua99_d90_nmshp.csv","PERIMETER","numbers","^\d*$"
"/data/datasets/datagov/data/data/datagovdata/ua99_d90_nmshp.csv","AREA","numbers","^\d*$"
