"file_name","column_name","label","regex"
"/data/datasets/datagov/data/data/datagovdata/port-of-los-angeles-tsunami-evacuation-routes-signs.csv","PCITY2","uri",".*?$(?<!\.aspx)"
"/data/datasets/datagov/data/data/datagovdata/port-of-los-angeles-tsunami-evacuation-routes-signs.csv","PreDir","uri",".*?$(?<!\.aspx)"
"/data/datasets/datagov/data/data/datagovdata/port-of-los-angeles-tsunami-evacuation-routes-signs.csv","RightZip","numbers","^(\d|,)*\.?\d*$"
"/data/datasets/datagov/data/data/datagovdata/port-of-los-angeles-tsunami-evacuation-routes-signs.csv","RParity","uri",".*?$(?<!\.aspx)"
"/data/datasets/datagov/data/data/datagovdata/port-of-los-angeles-tsunami-evacuation-routes-signs.csv","RightFrom","numbers","^(\d|,)*\.?\d*$"
"/data/datasets/datagov/data/data/datagovdata/port-of-los-angeles-tsunami-evacuation-routes-signs.csv","OBJECTID","numbers","^(\d|,)*\.?\d*$"
"/data/datasets/datagov/data/data/datagovdata/port-of-los-angeles-tsunami-evacuation-routes-signs.csv","RLegalComm","uri",".*?$(?<!\.aspx)"
"/data/datasets/datagov/data/data/datagovdata/port-of-los-angeles-tsunami-evacuation-routes-signs.csv","LParity","uri",".*?$(?<!\.aspx)"
"/data/datasets/datagov/data/data/datagovdata/port-of-los-angeles-tsunami-evacuation-routes-signs.csv","LLegalCom","uri",".*?$(?<!\.aspx)"
"/data/datasets/datagov/data/data/datagovdata/port-of-los-angeles-tsunami-evacuation-routes-signs.csv","LeftTo","numbers","^(\d|,)*\.?\d*$"
"/data/datasets/datagov/data/data/datagovdata/port-of-los-angeles-tsunami-evacuation-routes-signs.csv","Shape_Leng","numbers","^(\d|,)*\.?\d*$"
"/data/datasets/datagov/data/data/datagovdata/port-of-los-angeles-tsunami-evacuation-routes-signs.csv","ZIPC","numbers","^(\d|,)*\.?\d*$"
"/data/datasets/datagov/data/data/datagovdata/port-of-los-angeles-tsunami-evacuation-routes-signs.csv","LeftZip","numbers","^(\d|,)*\.?\d*$"
"/data/datasets/datagov/data/data/datagovdata/port-of-los-angeles-tsunami-evacuation-routes-signs.csv","PCITY3","uri",".*?$(?<!\.aspx)"
"/data/datasets/datagov/data/data/datagovdata/port-of-los-angeles-tsunami-evacuation-routes-signs.csv","AddrName","uri",".*?$(?<!\.aspx)"
"/data/datasets/datagov/data/data/datagovdata/port-of-los-angeles-tsunami-evacuation-routes-signs.csv","the_geom","strings","[^""\r\n]*"
"/data/datasets/datagov/data/data/datagovdata/port-of-los-angeles-tsunami-evacuation-routes-signs.csv","LeftFrom","numbers","^(\d|,)*\.?\d*$"
"/data/datasets/datagov/data/data/datagovdata/port-of-los-angeles-tsunami-evacuation-routes-signs.csv","PostType","uri",".*?$(?<!\.aspx)"
"/data/datasets/datagov/data/data/datagovdata/port-of-los-angeles-tsunami-evacuation-routes-signs.csv","PCITY1","uri",".*?$(?<!\.aspx)"
"/data/datasets/datagov/data/data/datagovdata/port-of-los-angeles-tsunami-evacuation-routes-signs.csv","RightTo","numbers","^(\d|,)*\.?\d*$"
