"file_name","column_name","label","regex"
"/data/datasets/datagov/data/data/datagovdata/hgbp-retail-stores-offices-91a9a.csv","First Green report","address_or_phone","(\d{4,6})"
"/data/datasets/datagov/data/data/datagovdata/hgbp-retail-stores-offices-91a9a.csv","Retail Stores & Offices Website","uri",".*?$(?<!\.aspx)"
"/data/datasets/datagov/data/data/datagovdata/hgbp-retail-stores-offices-91a9a.csv","Logo","uri",".*?$(?<!\.aspx)"
"/data/datasets/datagov/data/data/datagovdata/hgbp-retail-stores-offices-91a9a.csv","Retail Stores & Offices Address","uri",".*?$(?<!\.aspx)"
"/data/datasets/datagov/data/data/datagovdata/hgbp-retail-stores-offices-91a9a.csv","Green Report","address_or_phone","(\d{4,6})"
"/data/datasets/datagov/data/data/datagovdata/hgbp-retail-stores-offices-91a9a.csv","Retail Stores & Offices Phone Number","strings","[^""\r\n]*"
"/data/datasets/datagov/data/data/datagovdata/hgbp-retail-stores-offices-91a9a.csv","Retail Stores & Offices name","strings","[^""\r\n]*"
