"file_name","column_name","label","regex"
"/data/datasets/datagov/data/data/datagovdata/election-2013-march-primary-voting-results-05d55.csv","JAN PERRY","numbers","^(\d|,)*\.?\d*$"
"/data/datasets/datagov/data/data/datagovdata/election-2013-march-primary-voting-results-05d55.csv","ANA CUBAS","numbers","^(\d|,)*\.?\d*$"
"/data/datasets/datagov/data/data/datagovdata/election-2013-march-primary-voting-results-05d55.csv","SAM KBUSHYAN","numbers","^(\d|,)*\.?\d*$"
"/data/datasets/datagov/data/data/datagovdata/election-2013-march-primary-voting-results-05d55.csv","JEFF BORNSTEIN","numbers","^(\d|,)*\.?\d*$"
"/data/datasets/datagov/data/data/datagovdata/election-2013-march-primary-voting-results-05d55.csv","PROP A-NO","numbers","^(\d|,)*\.?\d*$"
"/data/datasets/datagov/data/data/datagovdata/election-2013-march-primary-voting-results-05d55.csv","ABELARDO DIAZ","numbers","^(\d|,)*\.?\d*$"
"/data/datasets/datagov/data/data/datagovdata/election-2013-march-primary-voting-results-05d55.csv","GREG SMITH","numbers","^(\d|,)*\.?\d*$"
"/data/datasets/datagov/data/data/datagovdata/election-2013-march-primary-voting-results-05d55.csv","MIKE BONIN","numbers","^(\d|,)*\.?\d*$"
"/data/datasets/datagov/data/data/datagovdata/election-2013-march-primary-voting-results-05d55.csv","ODYSSEUS BOSTICK","numbers","^(\d|,)*\.?\d*$"
"/data/datasets/datagov/data/data/datagovdata/election-2013-march-primary-voting-results-05d55.csv","KATE ANDERSON","numbers","^(\d|,)*\.?\d*$"
"/data/datasets/datagov/data/data/datagovdata/election-2013-march-primary-voting-results-05d55.csv","SCOTT SILVERSTEIN","numbers","^(\d|,)*\.?\d*$"
"/data/datasets/datagov/data/data/datagovdata/election-2013-march-primary-voting-results-05d55.csv","MANUEL ""MANNY"" ALDANA","numbers","^(\d|,)*\.?\d*$"
"/data/datasets/datagov/data/data/datagovdata/election-2013-march-primary-voting-results-05d55.csv","AMEND B-YES","numbers","^(\d|,)*\.?\d*$"
"/data/datasets/datagov/data/data/datagovdata/election-2013-march-primary-voting-results-05d55.csv","DAVID VELA","numbers","^(\d|,)*\.?\d*$"
"/data/datasets/datagov/data/data/datagovdata/election-2013-march-primary-voting-results-05d55.csv","DAVID ROBERTS","numbers","^(\d|,)*\.?\d*$"
"/data/datasets/datagov/data/data/datagovdata/election-2013-march-primary-voting-results-05d55.csv","NORTON SANDLER","numbers","^(\d|,)*\.?\d*$"
"/data/datasets/datagov/data/data/datagovdata/election-2013-march-primary-voting-results-05d55.csv","AMEND B-NO","numbers","^(\d|,)*\.?\d*$"
"/data/datasets/datagov/data/data/datagovdata/election-2013-march-primary-voting-results-05d55.csv","DENNIS P. ZINE","numbers","^(\d|,)*\.?\d*$"
"/data/datasets/datagov/data/data/datagovdata/election-2013-march-primary-voting-results-05d55.csv","JOSÉ SIGALA","numbers","^(\d|,)*\.?\d*$"
"/data/datasets/datagov/data/data/datagovdata/election-2013-march-primary-voting-results-05d55.csv","EMANUEL ALBERTO PLEITEZ","numbers","^(\d|,)*\.?\d*$"
"/data/datasets/datagov/data/data/datagovdata/election-2013-march-primary-voting-results-05d55.csv","ANTONIO SANCHEZ","numbers","^(\d|,)*\.?\d*$"
"/data/datasets/datagov/data/data/datagovdata/election-2013-march-primary-voting-results-05d55.csv","VOTERS","numbers","^(\d|,)*\.?\d*$"
"/data/datasets/datagov/data/data/datagovdata/election-2013-march-primary-voting-results-05d55.csv","PAUL KORETZ","numbers","^(\d|,)*\.?\d*$"
"/data/datasets/datagov/data/data/datagovdata/election-2013-march-primary-voting-results-05d55.csv","MITCH O'FARRELL","numbers","^(\d|,)*\.?\d*$"
"/data/datasets/datagov/data/data/datagovdata/election-2013-march-primary-voting-results-05d55.csv","KRYSTEE CLARK","numbers","^(\d|,)*\.?\d*$"
"/data/datasets/datagov/data/data/datagovdata/election-2013-march-primary-voting-results-05d55.csv","FELIPE FUENTES","numbers","^(\d|,)*\.?\d*$"
"/data/datasets/datagov/data/data/datagovdata/election-2013-march-primary-voting-results-05d55.csv","MEASURE S-NO","numbers","^(\d|,)*\.?\d*$"
"/data/datasets/datagov/data/data/datagovdata/election-2013-march-primary-voting-results-05d55.csv","ROBERTO HARALDSON","numbers","^(\d|,)*\.?\d*$"
"/data/datasets/datagov/data/data/datagovdata/election-2013-march-primary-voting-results-05d55.csv","PRECINCT","address_or_phone","(\d{4,6})"
"/data/datasets/datagov/data/data/datagovdata/election-2013-march-primary-voting-results-05d55.csv","JOHN C. BURKE","numbers","^(\d|,)*\.?\d*$"
"/data/datasets/datagov/data/data/datagovdata/election-2013-march-primary-voting-results-05d55.csv","ERIC GARCETTI","numbers","^(\d|,)*\.?\d*$"
"/data/datasets/datagov/data/data/datagovdata/election-2013-march-primary-voting-results-05d55.csv","ANALILIA JOYA","numbers","^(\d|,)*\.?\d*$"
"/data/datasets/datagov/data/data/datagovdata/election-2013-march-primary-voting-results-05d55.csv","IRIS ZUÑIGA","numbers","^(\d|,)*\.?\d*$"
"/data/datasets/datagov/data/data/datagovdata/election-2013-march-primary-voting-results-05d55.csv","FREDERICK SUTTON","numbers","^(\d|,)*\.?\d*$"
"/data/datasets/datagov/data/data/datagovdata/election-2013-march-primary-voting-results-05d55.csv","YEHUDA ""YJ"" DRAIMAN","numbers","^(\d|,)*\.?\d*$"
"/data/datasets/datagov/data/data/datagovdata/election-2013-march-primary-voting-results-05d55.csv","NANCY PEARLMAN","numbers","^(\d|,)*\.?\d*$"
"/data/datasets/datagov/data/data/datagovdata/election-2013-march-primary-voting-results-05d55.csv","JESSE ROSAS","numbers","^(\d|,)*\.?\d*$"
"/data/datasets/datagov/data/data/datagovdata/election-2013-march-primary-voting-results-05d55.csv","ISABEL VAZQUEZ","numbers","^(\d|,)*\.?\d*$"
"/data/datasets/datagov/data/data/datagovdata/election-2013-march-primary-voting-results-05d55.csv","JOYCE J. PEARSON","numbers","^(\d|,)*\.?\d*$"
"/data/datasets/datagov/data/data/datagovdata/election-2013-march-primary-voting-results-05d55.csv","ANNAMARIE MONTAÑEZ","numbers","^(\d|,)*\.?\d*$"
"/data/datasets/datagov/data/data/datagovdata/election-2013-march-primary-voting-results-05d55.csv","STEVE ZIMMER","numbers","^(\d|,)*\.?\d*$"
"/data/datasets/datagov/data/data/datagovdata/election-2013-march-primary-voting-results-05d55.csv","NOEL WEISS","numbers","^(\d|,)*\.?\d*$"
"/data/datasets/datagov/data/data/datagovdata/election-2013-march-primary-voting-results-05d55.csv","BOB BLUMENFIELD","numbers","^(\d|,)*\.?\d*$"
"/data/datasets/datagov/data/data/datagovdata/election-2013-march-primary-voting-results-05d55.csv","MONICA RATLIFF","numbers","^(\d|,)*\.?\d*$"
"/data/datasets/datagov/data/data/datagovdata/election-2013-march-primary-voting-results-05d55.csv","JAMES T. LAW","numbers","^(\d|,)*\.?\d*$"
"/data/datasets/datagov/data/data/datagovdata/election-2013-march-primary-voting-results-05d55.csv","ERNEST HENRY MORENO","numbers","^(\d|,)*\.?\d*$"
"/data/datasets/datagov/data/data/datagovdata/election-2013-march-primary-voting-results-05d55.csv","MICHAEL SCHAEFER","numbers","^(\d|,)*\.?\d*$"
"/data/datasets/datagov/data/data/datagovdata/election-2013-march-primary-voting-results-05d55.csv","JOE BUSCAINO","numbers","^(\d|,)*\.?\d*$"
"/data/datasets/datagov/data/data/datagovdata/election-2013-march-primary-voting-results-05d55.csv","CARMEN ""NUCH"" TRUTANICH","numbers","^(\d|,)*\.?\d*$"
"/data/datasets/datagov/data/data/datagovdata/election-2013-march-primary-voting-results-05d55.csv","ADDIE M. MILLER","numbers","^(\d|,)*\.?\d*$"
"/data/datasets/datagov/data/data/datagovdata/election-2013-march-primary-voting-results-05d55.csv","TERRY HARA","numbers","^(\d|,)*\.?\d*$"
"/data/datasets/datagov/data/data/datagovdata/election-2013-march-primary-voting-results-05d55.csv","OCTAVIO PESCADOR","numbers","^(\d|,)*\.?\d*$"
"/data/datasets/datagov/data/data/datagovdata/election-2013-march-primary-voting-results-05d55.csv","TINA HESS","numbers","^(\d|,)*\.?\d*$"
"/data/datasets/datagov/data/data/datagovdata/election-2013-march-primary-voting-results-05d55.csv","CARY BRAZEMAN","numbers","^(\d|,)*\.?\d*$"
"/data/datasets/datagov/data/data/datagovdata/election-2013-march-primary-voting-results-05d55.csv","NAME","uri",".*?$(?<!\.aspx)"
"/data/datasets/datagov/data/data/datagovdata/election-2013-march-primary-voting-results-05d55.csv","KEVIN JAMES","numbers","^(\d|,)*\.?\d*$"
"/data/datasets/datagov/data/data/datagovdata/election-2013-march-primary-voting-results-05d55.csv","JESSE DAVID BARRON","numbers","^(\d|,)*\.?\d*$"
"/data/datasets/datagov/data/data/datagovdata/election-2013-march-primary-voting-results-05d55.csv","NICOLE CHASE","numbers","^(\d|,)*\.?\d*$"
"/data/datasets/datagov/data/data/datagovdata/election-2013-march-primary-voting-results-05d55.csv","JOSE A. GARDEA","numbers","^(\d|,)*\.?\d*$"
"/data/datasets/datagov/data/data/datagovdata/election-2013-march-primary-voting-results-05d55.csv","MARIA CANO","numbers","^(\d|,)*\.?\d*$"
"/data/datasets/datagov/data/data/datagovdata/election-2013-march-primary-voting-results-05d55.csv","JOZEF ""JOE"" THOMAS ESSAVI","numbers","^(\d|,)*\.?\d*$"
"/data/datasets/datagov/data/data/datagovdata/election-2013-march-primary-voting-results-05d55.csv","ELIZABETH BADGER","numbers","^(\d|,)*\.?\d*$"
"/data/datasets/datagov/data/data/datagovdata/election-2013-march-primary-voting-results-05d55.csv","MATT SZABO","numbers","^(\d|,)*\.?\d*$"
"/data/datasets/datagov/data/data/datagovdata/election-2013-march-primary-voting-results-05d55.csv","JOHN J. CHOI","numbers","^(\d|,)*\.?\d*$"
"/data/datasets/datagov/data/data/datagovdata/election-2013-march-primary-voting-results-05d55.csv","MIKE DAVIS","numbers","^(\d|,)*\.?\d*$"
"/data/datasets/datagov/data/data/datagovdata/election-2013-march-primary-voting-results-05d55.csv","CARY T. IACCINO","numbers","^(\d|,)*\.?\d*$"
"/data/datasets/datagov/data/data/datagovdata/election-2013-march-primary-voting-results-05d55.csv","WENDY J. GREUEL","numbers","^(\d|,)*\.?\d*$"
"/data/datasets/datagov/data/data/datagovdata/election-2013-march-primary-voting-results-05d55.csv","MIKE ENG","numbers","^(\d|,)*\.?\d*$"
"/data/datasets/datagov/data/data/datagovdata/election-2013-march-primary-voting-results-05d55.csv","JOSH POST","numbers","^(\d|,)*\.?\d*$"
"/data/datasets/datagov/data/data/datagovdata/election-2013-march-primary-voting-results-05d55.csv","CURREN D PRICE JR","numbers","^(\d|,)*\.?\d*$"
"/data/datasets/datagov/data/data/datagovdata/election-2013-march-primary-voting-results-05d55.csv","ROBERT NEGRETE","numbers","^(\d|,)*\.?\d*$"
"/data/datasets/datagov/data/data/datagovdata/election-2013-march-primary-voting-results-05d55.csv","MARK MATTHEW HERD","numbers","^(\d|,)*\.?\d*$"
"/data/datasets/datagov/data/data/datagovdata/election-2013-march-primary-voting-results-05d55.csv","STEVEN E. PRESBERG","numbers","^(\d|,)*\.?\d*$"
"/data/datasets/datagov/data/data/datagovdata/election-2013-march-primary-voting-results-05d55.csv","ALEXANDER CRUZ DE OCAMPO","numbers","^(\d|,)*\.?\d*$"
"/data/datasets/datagov/data/data/datagovdata/election-2013-march-primary-voting-results-05d55.csv","MICHAEL ""MIKE"" ALDAPA","numbers","^(\d|,)*\.?\d*$"
"/data/datasets/datagov/data/data/datagovdata/election-2013-march-primary-voting-results-05d55.csv","ANKUR PATEL","numbers","^(\d|,)*\.?\d*$"
"/data/datasets/datagov/data/data/datagovdata/election-2013-march-primary-voting-results-05d55.csv","MÓNICA GARCÍA","numbers","^(\d|,)*\.?\d*$"
"/data/datasets/datagov/data/data/datagovdata/election-2013-march-primary-voting-results-05d55.csv","GILBERT CEDILLO","numbers","^(\d|,)*\.?\d*$"
"/data/datasets/datagov/data/data/datagovdata/election-2013-march-primary-voting-results-05d55.csv","RON GOCHEZ","numbers","^(\d|,)*\.?\d*$"
"/data/datasets/datagov/data/data/datagovdata/election-2013-march-primary-voting-results-05d55.csv","ROBERT D. SKEELS","numbers","^(\d|,)*\.?\d*$"
"/data/datasets/datagov/data/data/datagovdata/election-2013-march-primary-voting-results-05d55.csv","MIKE FEUER","numbers","^(\d|,)*\.?\d*$"
"/data/datasets/datagov/data/data/datagovdata/election-2013-march-primary-voting-results-05d55.csv","PROP A-YES","numbers","^(\d|,)*\.?\d*$"
"/data/datasets/datagov/data/data/datagovdata/election-2013-march-primary-voting-results-05d55.csv","EMILE MACK","numbers","^(\d|,)*\.?\d*$"
"/data/datasets/datagov/data/data/datagovdata/election-2013-march-primary-voting-results-05d55.csv","MEASURE S-YES","numbers","^(\d|,)*\.?\d*$"
"/data/datasets/datagov/data/data/datagovdata/election-2013-march-primary-voting-results-05d55.csv","TOM OLIVER","numbers","^(\d|,)*\.?\d*$"
"/data/datasets/datagov/data/data/datagovdata/election-2013-march-primary-voting-results-05d55.csv","RON GALPERIN","numbers","^(\d|,)*\.?\d*$"
"/data/datasets/datagov/data/data/datagovdata/election-2013-march-primary-voting-results-05d55.csv","BALLOTS","numbers","^(\d|,)*\.?\d*$"
