"file_name","column_name","label","regex"
"/data/datasets/datagov/data/data/datagovdata/pmmr-raw-data-fy-2013-ad9e5.csv","Agency","uri",".*?$(?<!\.aspx)"
"/data/datasets/datagov/data/data/datagovdata/pmmr-raw-data-fy-2013-ad9e5.csv","Subindicator Sequence","numbers","^[-+]?\d+(\.\d+)?|[-+]?\.\d+?$"
"/data/datasets/datagov/data/data/datagovdata/pmmr-raw-data-fy-2013-ad9e5.csv","Fiscal Year","numbers","^[-+]?\d+(\.\d+)?|[-+]?\.\d+?$"
"/data/datasets/datagov/data/data/datagovdata/pmmr-raw-data-fy-2013-ad9e5.csv","Indicator Sequence","numbers","^[-+]?\d+(\.\d+)?|[-+]?\.\d+?$"
"/data/datasets/datagov/data/data/datagovdata/pmmr-raw-data-fy-2013-ad9e5.csv","Value Ratio","numbers","^[-+]?\d+(\.\d+)?|[-+]?\.\d+?$"
"/data/datasets/datagov/data/data/datagovdata/pmmr-raw-data-fy-2013-ad9e5.csv","Indicator Name","strings","[^""\r\n]*"
"/data/datasets/datagov/data/data/datagovdata/pmmr-raw-data-fy-2013-ad9e5.csv","Value Percent","uri",".*?$(?<!\.aspx)"
"/data/datasets/datagov/data/data/datagovdata/pmmr-raw-data-fy-2013-ad9e5.csv","Desired Direction","uri",".*?$(?<!\.aspx)"
"/data/datasets/datagov/data/data/datagovdata/pmmr-raw-data-fy-2013-ad9e5.csv","Geography","uri",".*?$(?<!\.aspx)"
"/data/datasets/datagov/data/data/datagovdata/pmmr-raw-data-fy-2013-ad9e5.csv","Critical Flag","uri",".*?$(?<!\.aspx)"
"/data/datasets/datagov/data/data/datagovdata/pmmr-raw-data-fy-2013-ad9e5.csv","Measure Type","uri",".*?$(?<!\.aspx)"
"/data/datasets/datagov/data/data/datagovdata/pmmr-raw-data-fy-2013-ad9e5.csv","Value Number","numbers","^[-+]?\d+(\.\d+)?|[-+]?\.\d+?$"
"/data/datasets/datagov/data/data/datagovdata/pmmr-raw-data-fy-2013-ad9e5.csv","Format Type","uri",".*?$(?<!\.aspx)"
"/data/datasets/datagov/data/data/datagovdata/pmmr-raw-data-fy-2013-ad9e5.csv","Value Currency","numbers","^[-+]?\d+(\.\d+)?|[-+]?\.\d+?$"
"/data/datasets/datagov/data/data/datagovdata/pmmr-raw-data-fy-2013-ad9e5.csv","Value Time","numbers","^[-+]?\d+(\.\d+)?|[-+]?\.\d+?$"
"/data/datasets/datagov/data/data/datagovdata/pmmr-raw-data-fy-2013-ad9e5.csv","Indicator ID","uri",".*?$(?<!\.aspx)"
"/data/datasets/datagov/data/data/datagovdata/pmmr-raw-data-fy-2013-ad9e5.csv","Record Type","uri",".*?$(?<!\.aspx)"
"/data/datasets/datagov/data/data/datagovdata/pmmr-raw-data-fy-2013-ad9e5.csv","Raw Value","numbers","^[-+]?\d+(\.\d+)?|[-+]?\.\d+?$"
"/data/datasets/datagov/data/data/datagovdata/pmmr-raw-data-fy-2013-ad9e5.csv","Sub-Indicator","strings","[^""\r\n]*"
