"file_name","column_name","label","regex"
"/data/datasets/datagov/data/data/datagovdata/libraries-2013-holds-filled-by-location-be9c2.csv","LOCATION","uri",".*?$(?<!\.aspx)"
"/data/datasets/datagov/data/data/datagovdata/libraries-2013-holds-filled-by-location-be9c2.csv","ADDRESS","uri",".*?$(?<!\.aspx)"
"/data/datasets/datagov/data/data/datagovdata/libraries-2013-holds-filled-by-location-be9c2.csv","YTD","numbers","^\d*$"
"/data/datasets/datagov/data/data/datagovdata/libraries-2013-holds-filled-by-location-be9c2.csv","MARCH","numbers","^\d*$"
"/data/datasets/datagov/data/data/datagovdata/libraries-2013-holds-filled-by-location-be9c2.csv","JANUARY","numbers","^\d*$"
"/data/datasets/datagov/data/data/datagovdata/libraries-2013-holds-filled-by-location-be9c2.csv","AUGUST","numbers","^\d*$"
"/data/datasets/datagov/data/data/datagovdata/libraries-2013-holds-filled-by-location-be9c2.csv","NOVEMBER","numbers","^\d*$"
"/data/datasets/datagov/data/data/datagovdata/libraries-2013-holds-filled-by-location-be9c2.csv","APRIL","numbers","^\d*$"
"/data/datasets/datagov/data/data/datagovdata/libraries-2013-holds-filled-by-location-be9c2.csv","OCTOBER","numbers","^\d*$"
"/data/datasets/datagov/data/data/datagovdata/libraries-2013-holds-filled-by-location-be9c2.csv","ZIP","numbers","^\d*$"
"/data/datasets/datagov/data/data/datagovdata/libraries-2013-holds-filled-by-location-be9c2.csv","SEPTEMBER","numbers","^\d*$"
"/data/datasets/datagov/data/data/datagovdata/libraries-2013-holds-filled-by-location-be9c2.csv","MAY","numbers","^\d*$"
"/data/datasets/datagov/data/data/datagovdata/libraries-2013-holds-filled-by-location-be9c2.csv","FEBRUARY","numbers","^\d*$"
"/data/datasets/datagov/data/data/datagovdata/libraries-2013-holds-filled-by-location-be9c2.csv","CITY","uri",".*?$(?<!\.aspx)"
"/data/datasets/datagov/data/data/datagovdata/libraries-2013-holds-filled-by-location-be9c2.csv","DECEMBER","numbers","^\d*$"
"/data/datasets/datagov/data/data/datagovdata/libraries-2013-holds-filled-by-location-be9c2.csv","JULY","numbers","^\d*$"
"/data/datasets/datagov/data/data/datagovdata/libraries-2013-holds-filled-by-location-be9c2.csv","JUNE","numbers","^\d*$"
