"file_name","column_name","label","regex"
"/data/datasets/mitdwh/Sdo_non_available_elem_units.csv","Source Srid","numbers","^(\d|,)*\.?\d*$"
"/data/datasets/mitdwh/Sdo_non_available_elem_units.csv","Is Implemented","numbers","^(\d|,)*\.?\d*$"
"/data/datasets/mitdwh/Sdo_non_available_elem_units.csv","Coord Op Id","numbers","^(\d|,)*\.?\d*$"
"/data/datasets/mitdwh/Sdo_non_available_elem_units.csv","Target Srid","numbers","^(\d|,)*\.?\d*$"
