"file_name","column_name","label","regex"
"/data/datasets/datagov/data/data/datagovdata/baltimore-city-employee-salaries-fy2014-5924b.csv","AnnualSalary","numbers","^\$?\d+(\.(\d{2}))?$"
"/data/datasets/datagov/data/data/datagovdata/baltimore-city-employee-salaries-fy2014-5924b.csv","Agency","uri",".*?$(?<!\.aspx)"
"/data/datasets/datagov/data/data/datagovdata/baltimore-city-employee-salaries-fy2014-5924b.csv","AgencyID","uri",".*?$(?<!\.aspx)"
"/data/datasets/datagov/data/data/datagovdata/baltimore-city-employee-salaries-fy2014-5924b.csv","JobTitle","strings","[^""\r\n]*"
"/data/datasets/datagov/data/data/datagovdata/baltimore-city-employee-salaries-fy2014-5924b.csv"," Name","uri",".*?$(?<!\.aspx)"
"/data/datasets/datagov/data/data/datagovdata/baltimore-city-employee-salaries-fy2014-5924b.csv","HireDate","strings","[^""\r\n]*"
"/data/datasets/datagov/data/data/datagovdata/baltimore-city-employee-salaries-fy2014-5924b.csv","GrossPay","numbers","^\$?\d+(\.(\d{2}))?$"
