"file_name","column_name","label","regex"
"/data/datasets/datagov/data/data/datagovdata/2012-vehicle-collisions-investigated-by-state-police-4fcd0.csv","ROAD","uri",".*?$(?<!\.aspx)"
"/data/datasets/datagov/data/data/datagovdata/2012-vehicle-collisions-investigated-by-state-police-4fcd0.csv","COLLISION_WITH_2","uri",".*?$(?<!\.aspx)"
"/data/datasets/datagov/data/data/datagovdata/2012-vehicle-collisions-investigated-by-state-police-4fcd0.csv","COUNTY_NAME","uri",".*?$(?<!\.aspx)"
"/data/datasets/datagov/data/data/datagovdata/2012-vehicle-collisions-investigated-by-state-police-4fcd0.csv","ACC_DATE","strings","[^""\r\n]*"
"/data/datasets/datagov/data/data/datagovdata/2012-vehicle-collisions-investigated-by-state-police-4fcd0.csv","BARRACK","uri",".*?$(?<!\.aspx)"
"/data/datasets/datagov/data/data/datagovdata/2012-vehicle-collisions-investigated-by-state-police-4fcd0.csv","COUNTY_CODE","numbers","^(\d|,)*\.?\d*$"
"/data/datasets/datagov/data/data/datagovdata/2012-vehicle-collisions-investigated-by-state-police-4fcd0.csv","ACC_TIME_CODE","numbers","^(\d|,)*\.?\d*$"
"/data/datasets/datagov/data/data/datagovdata/2012-vehicle-collisions-investigated-by-state-police-4fcd0.csv","DIST_DIRECTION","uri",".*?$(?<!\.aspx)"
"/data/datasets/datagov/data/data/datagovdata/2012-vehicle-collisions-investigated-by-state-police-4fcd0.csv","CASE_NUMBER","numbers","^(\d|,)*\.?\d*$"
"/data/datasets/datagov/data/data/datagovdata/2012-vehicle-collisions-investigated-by-state-police-4fcd0.csv","INJURY","uri",".*?$(?<!\.aspx)"
"/data/datasets/datagov/data/data/datagovdata/2012-vehicle-collisions-investigated-by-state-police-4fcd0.csv","DAY_OF_WEEK","uri",".*?$(?<!\.aspx)"
"/data/datasets/datagov/data/data/datagovdata/2012-vehicle-collisions-investigated-by-state-police-4fcd0.csv","DIST_FROM_INTERSECT","numbers","^(\d|,)*\.?\d*$"
"/data/datasets/datagov/data/data/datagovdata/2012-vehicle-collisions-investigated-by-state-police-4fcd0.csv","COLLISION_WITH_1","uri",".*?$(?<!\.aspx)"
"/data/datasets/datagov/data/data/datagovdata/2012-vehicle-collisions-investigated-by-state-police-4fcd0.csv","CITY_NAME","uri",".*?$(?<!\.aspx)"
"/data/datasets/datagov/data/data/datagovdata/2012-vehicle-collisions-investigated-by-state-police-4fcd0.csv","PROP_DEST","uri",".*?$(?<!\.aspx)"
"/data/datasets/datagov/data/data/datagovdata/2012-vehicle-collisions-investigated-by-state-police-4fcd0.csv","INTERSECT_ROAD","strings","[^""\r\n]*"
"/data/datasets/datagov/data/data/datagovdata/2012-vehicle-collisions-investigated-by-state-police-4fcd0.csv","ACC_TIME","dates_and_times","^(\d{1,2})(\s?(H|h)?)(:([0-5]\d))?$"
"/data/datasets/datagov/data/data/datagovdata/2012-vehicle-collisions-investigated-by-state-police-4fcd0.csv","VEHICLE_COUNT","numbers","^(\d|,)*\.?\d*$"
