"file_name","column_name","label","regex"
"/data/datasets/datagov/data/data/datagovdata/ap-results-b65bc.csv","SCHOOL NAME","strings","[^""\r\n]*"
"/data/datasets/datagov/data/data/datagovdata/ap-results-b65bc.csv","Num of AP Total Exams Taken","uri",".*?$(?<!\.aspx)"
"/data/datasets/datagov/data/data/datagovdata/ap-results-b65bc.csv","Num of AP Exams Passed","uri",".*?$(?<!\.aspx)"
"/data/datasets/datagov/data/data/datagovdata/ap-results-b65bc.csv","DBN","numbers","^[-+]?\d+(\.\d+)?|[-+]?\.\d+?$"
"/data/datasets/datagov/data/data/datagovdata/ap-results-b65bc.csv","Num of AP Test Takers","uri",".*?$(?<!\.aspx)"
