"file_name","column_name","label","regex"
"/data/datasets/datagov/data/data/datagovdata/denied-licensees-and-registrants-for-trade-waste-8b412.csv","Location 1","uri","^[^\\\/\?\*\""\'\>\<\:\|]*$"
"/data/datasets/datagov/data/data/datagovdata/denied-licensees-and-registrants-for-trade-waste-8b412.csv","MSTAT","uri","^[^\\\/\?\*\""\'\>\<\:\|]*$"
"/data/datasets/datagov/data/data/datagovdata/denied-licensees-and-registrants-for-trade-waste-8b412.csv","TYPE","uri","^[^\\\/\?\*\""\'\>\<\:\|]*$"
"/data/datasets/datagov/data/data/datagovdata/denied-licensees-and-registrants-for-trade-waste-8b412.csv","MAILING OFFICE","uri","^[^\\\/\?\*\""\'\>\<\:\|]*$"
"/data/datasets/datagov/data/data/datagovdata/denied-licensees-and-registrants-for-trade-waste-8b412.csv","MAIL CITY","uri","^[^\\\/\?\*\""\'\>\<\:\|]*$"
"/data/datasets/datagov/data/data/datagovdata/denied-licensees-and-registrants-for-trade-waste-8b412.csv","BUS NAME","uri","^[^\\\/\?\*\""\'\>\<\:\|]*$"
"/data/datasets/datagov/data/data/datagovdata/denied-licensees-and-registrants-for-trade-waste-8b412.csv","COMP PHONE","uri","^[^\\\/\?\*\""\'\>\<\:\|]*$"
