"file_name","column_name","label","regex"
"/data/datasets/datagov/data/data/datagovdata/uniform-crime-reporting-system-arrests-in-2010.csv","Tolland CSP","numbers","^\d*$"
"/data/datasets/datagov/data/data/datagovdata/uniform-crime-reporting-system-arrests-in-2010.csv","Summary","numbers","^\d*$"
"/data/datasets/datagov/data/data/datagovdata/uniform-crime-reporting-system-arrests-in-2010.csv","East Haven PD","numbers","^\d*$"
"/data/datasets/datagov/data/data/datagovdata/uniform-crime-reporting-system-arrests-in-2010.csv","Scotland CSP","numbers","^\d*$"
"/data/datasets/datagov/data/data/datagovdata/uniform-crime-reporting-system-arrests-in-2010.csv","New Hartford CSP","numbers","^\d*$"
"/data/datasets/datagov/data/data/datagovdata/uniform-crime-reporting-system-arrests-in-2010.csv","Sprague CSP","numbers","^\d*$"
"/data/datasets/datagov/data/data/datagovdata/uniform-crime-reporting-system-arrests-in-2010.csv","Fairfield","numbers","^\d*$"
"/data/datasets/datagov/data/data/datagovdata/uniform-crime-reporting-system-arrests-in-2010.csv","Morris CSP","numbers","^\d*$"
"/data/datasets/datagov/data/data/datagovdata/uniform-crime-reporting-system-arrests-in-2010.csv","Watertown PD","numbers","^\d*$"
"/data/datasets/datagov/data/data/datagovdata/uniform-crime-reporting-system-arrests-in-2010.csv","Capitol Police PD","numbers","^\d*$"
"/data/datasets/datagov/data/data/datagovdata/uniform-crime-reporting-system-arrests-in-2010.csv","MTA PD","numbers","^\d*$"
"/data/datasets/datagov/data/data/datagovdata/uniform-crime-reporting-system-arrests-in-2010.csv","Berlin PD","numbers","^\d*$"
"/data/datasets/datagov/data/data/datagovdata/uniform-crime-reporting-system-arrests-in-2010.csv","Meriden PD","numbers","^\d*$"
"/data/datasets/datagov/data/data/datagovdata/uniform-crime-reporting-system-arrests-in-2010.csv","Coventry PD","numbers","^\d*$"
"/data/datasets/datagov/data/data/datagovdata/uniform-crime-reporting-system-arrests-in-2010.csv","Windham CSP","numbers","^\d*$"
"/data/datasets/datagov/data/data/datagovdata/uniform-crime-reporting-system-arrests-in-2010.csv","Middletown PD","numbers","^\d*$"
"/data/datasets/datagov/data/data/datagovdata/uniform-crime-reporting-system-arrests-in-2010.csv","Woodbridge PD","numbers","^\d*$"
"/data/datasets/datagov/data/data/datagovdata/uniform-crime-reporting-system-arrests-in-2010.csv","Chaplin CSP","numbers","^\d*$"
"/data/datasets/datagov/data/data/datagovdata/uniform-crime-reporting-system-arrests-in-2010.csv","North Haven PD","numbers","^\d*$"
"/data/datasets/datagov/data/data/datagovdata/uniform-crime-reporting-system-arrests-in-2010.csv","Oxford CSP","numbers","^\d*$"
"/data/datasets/datagov/data/data/datagovdata/uniform-crime-reporting-system-arrests-in-2010.csv","Clinton PD","numbers","^\d*$"
"/data/datasets/datagov/data/data/datagovdata/uniform-crime-reporting-system-arrests-in-2010.csv","Burlington CSP","numbers","^\d*$"
"/data/datasets/datagov/data/data/datagovdata/uniform-crime-reporting-system-arrests-in-2010.csv","Hartford","numbers","^\d*$"
"/data/datasets/datagov/data/data/datagovdata/uniform-crime-reporting-system-arrests-in-2010.csv","New London PD","numbers","^\d*$"
"/data/datasets/datagov/data/data/datagovdata/uniform-crime-reporting-system-arrests-in-2010.csv","Seymour PD","numbers","^\d*$"
"/data/datasets/datagov/data/data/datagovdata/uniform-crime-reporting-system-arrests-in-2010.csv","Fairfield PD","numbers","^\d*$"
"/data/datasets/datagov/data/data/datagovdata/uniform-crime-reporting-system-arrests-in-2010.csv","New Canaan PD","numbers","^\d*$"
"/data/datasets/datagov/data/data/datagovdata/uniform-crime-reporting-system-arrests-in-2010.csv","Description","strings","[^""\r\n]*"
"/data/datasets/datagov/data/data/datagovdata/uniform-crime-reporting-system-arrests-in-2010.csv","Waterford PD","numbers","^\d*$"
"/data/datasets/datagov/data/data/datagovdata/uniform-crime-reporting-system-arrests-in-2010.csv","Mohegan Sun Casino CSP","numbers","^\d*$"
"/data/datasets/datagov/data/data/datagovdata/uniform-crime-reporting-system-arrests-in-2010.csv","Redding PD","numbers","^\d*$"
"/data/datasets/datagov/data/data/datagovdata/uniform-crime-reporting-system-arrests-in-2010.csv","Old Saybrook PD","numbers","^\d*$"
"/data/datasets/datagov/data/data/datagovdata/uniform-crime-reporting-system-arrests-in-2010.csv","Mansfield CSP","numbers","^\d*$"
"/data/datasets/datagov/data/data/datagovdata/uniform-crime-reporting-system-arrests-in-2010.csv","Norwich PD","numbers","^\d*$"
"/data/datasets/datagov/data/data/datagovdata/uniform-crime-reporting-system-arrests-in-2010.csv","Durham CSP","numbers","^\d*$"
"/data/datasets/datagov/data/data/datagovdata/uniform-crime-reporting-system-arrests-in-2010.csv","Salem CSP","numbers","^\d*$"
"/data/datasets/datagov/data/data/datagovdata/uniform-crime-reporting-system-arrests-in-2010.csv","North Stonington CSP","numbers","^\d*$"
"/data/datasets/datagov/data/data/datagovdata/uniform-crime-reporting-system-arrests-in-2010.csv","NonUrban","numbers","^\d*$"
"/data/datasets/datagov/data/data/datagovdata/uniform-crime-reporting-system-arrests-in-2010.csv","Ansonia PD","numbers","^\d*$"
"/data/datasets/datagov/data/data/datagovdata/uniform-crime-reporting-system-arrests-in-2010.csv","Brooklyn CSP","numbers","^\d*$"
"/data/datasets/datagov/data/data/datagovdata/uniform-crime-reporting-system-arrests-in-2010.csv","Portland PD","numbers","^\d*$"
"/data/datasets/datagov/data/data/datagovdata/uniform-crime-reporting-system-arrests-in-2010.csv","Westbrook CSP","numbers","^\d*$"
"/data/datasets/datagov/data/data/datagovdata/uniform-crime-reporting-system-arrests-in-2010.csv","Woodstock CSP","numbers","^\d*$"
"/data/datasets/datagov/data/data/datagovdata/uniform-crime-reporting-system-arrests-in-2010.csv","CSP Total","numbers","^\d*$"
"/data/datasets/datagov/data/data/datagovdata/uniform-crime-reporting-system-arrests-in-2010.csv","Beacon Falls CSP","numbers","^\d*$"
"/data/datasets/datagov/data/data/datagovdata/uniform-crime-reporting-system-arrests-in-2010.csv","New Britain PD","numbers","^\d*$"
"/data/datasets/datagov/data/data/datagovdata/uniform-crime-reporting-system-arrests-in-2010.csv","Granby PD","numbers","^\d*$"
"/data/datasets/datagov/data/data/datagovdata/uniform-crime-reporting-system-arrests-in-2010.csv","Index","numbers","^\d*$"
"/data/datasets/datagov/data/data/datagovdata/uniform-crime-reporting-system-arrests-in-2010.csv","Guilford PD","numbers","^\d*$"
"/data/datasets/datagov/data/data/datagovdata/uniform-crime-reporting-system-arrests-in-2010.csv","Thomaston PD","numbers","^\d*$"
"/data/datasets/datagov/data/data/datagovdata/uniform-crime-reporting-system-arrests-in-2010.csv","Waterbury PD","numbers","^\d*$"
"/data/datasets/datagov/data/data/datagovdata/uniform-crime-reporting-system-arrests-in-2010.csv","UCONN-Storrs PD","numbers","^\d*$"
"/data/datasets/datagov/data/data/datagovdata/uniform-crime-reporting-system-arrests-in-2010.csv","Middlesex","numbers","^\d*$"
"/data/datasets/datagov/data/data/datagovdata/uniform-crime-reporting-system-arrests-in-2010.csv","Haddam CSP","numbers","^\d*$"
"/data/datasets/datagov/data/data/datagovdata/uniform-crime-reporting-system-arrests-in-2010.csv","Stonington PD","numbers","^\d*$"
"/data/datasets/datagov/data/data/datagovdata/uniform-crime-reporting-system-arrests-in-2010.csv","Salisbury CSP","numbers","^\d*$"
"/data/datasets/datagov/data/data/datagovdata/uniform-crime-reporting-system-arrests-in-2010.csv","Union CSP","numbers","^\d*$"
"/data/datasets/datagov/data/data/datagovdata/uniform-crime-reporting-system-arrests-in-2010.csv","Marlborough CSP","numbers","^\d*$"
"/data/datasets/datagov/data/data/datagovdata/uniform-crime-reporting-system-arrests-in-2010.csv","New Fairfield CSP","numbers","^\d*$"
"/data/datasets/datagov/data/data/datagovdata/uniform-crime-reporting-system-arrests-in-2010.csv","Suffield PD","numbers","^\d*$"
"/data/datasets/datagov/data/data/datagovdata/uniform-crime-reporting-system-arrests-in-2010.csv","Bolton CSP","numbers","^\d*$"
"/data/datasets/datagov/data/data/datagovdata/uniform-crime-reporting-system-arrests-in-2010.csv","Griswold CSP","numbers","^\d*$"
"/data/datasets/datagov/data/data/datagovdata/uniform-crime-reporting-system-arrests-in-2010.csv","Litchfield CSP","numbers","^\d*$"
"/data/datasets/datagov/data/data/datagovdata/uniform-crime-reporting-system-arrests-in-2010.csv","Washington CSP","numbers","^\d*$"
"/data/datasets/datagov/data/data/datagovdata/uniform-crime-reporting-system-arrests-in-2010.csv","Vernon PD","numbers","^\d*$"
"/data/datasets/datagov/data/data/datagovdata/uniform-crime-reporting-system-arrests-in-2010.csv","Canterbury CSP","numbers","^\d*$"
"/data/datasets/datagov/data/data/datagovdata/uniform-crime-reporting-system-arrests-in-2010.csv","Hampton CSP","numbers","^\d*$"
"/data/datasets/datagov/data/data/datagovdata/uniform-crime-reporting-system-arrests-in-2010.csv","East Granby CSP","numbers","^\d*$"
"/data/datasets/datagov/data/data/datagovdata/uniform-crime-reporting-system-arrests-in-2010.csv","Southbury CSP","numbers","^\d*$"
"/data/datasets/datagov/data/data/datagovdata/uniform-crime-reporting-system-arrests-in-2010.csv","WCSU PD","numbers","^\d*$"
"/data/datasets/datagov/data/data/datagovdata/uniform-crime-reporting-system-arrests-in-2010.csv","Glastonbury PD","numbers","^\d*$"
"/data/datasets/datagov/data/data/datagovdata/uniform-crime-reporting-system-arrests-in-2010.csv","East Haddam CSP","numbers","^\d*$"
"/data/datasets/datagov/data/data/datagovdata/uniform-crime-reporting-system-arrests-in-2010.csv","Barkhamsted CSP","numbers","^\d*$"
"/data/datasets/datagov/data/data/datagovdata/uniform-crime-reporting-system-arrests-in-2010.csv","Norfolk CSP","numbers","^\d*$"
"/data/datasets/datagov/data/data/datagovdata/uniform-crime-reporting-system-arrests-in-2010.csv","East Hartford PD","numbers","^\d*$"
"/data/datasets/datagov/data/data/datagovdata/uniform-crime-reporting-system-arrests-in-2010.csv","Wilton PD","numbers","^\d*$"
"/data/datasets/datagov/data/data/datagovdata/uniform-crime-reporting-system-arrests-in-2010.csv","Essex CSP","numbers","^\d*$"
"/data/datasets/datagov/data/data/datagovdata/uniform-crime-reporting-system-arrests-in-2010.csv","Cornwall CSP","numbers","^\d*$"
"/data/datasets/datagov/data/data/datagovdata/uniform-crime-reporting-system-arrests-in-2010.csv","Ashford CSP","numbers","^\d*$"
"/data/datasets/datagov/data/data/datagovdata/uniform-crime-reporting-system-arrests-in-2010.csv","Lyme CSP","numbers","^\d*$"
"/data/datasets/datagov/data/data/datagovdata/uniform-crime-reporting-system-arrests-in-2010.csv","Middlefield CSP","numbers","^\d*$"
"/data/datasets/datagov/data/data/datagovdata/uniform-crime-reporting-system-arrests-in-2010.csv","CCSU PD","numbers","^\d*$"
"/data/datasets/datagov/data/data/datagovdata/uniform-crime-reporting-system-arrests-in-2010.csv","Eastford CSP","numbers","^\d*$"
"/data/datasets/datagov/data/data/datagovdata/uniform-crime-reporting-system-arrests-in-2010.csv","CT","numbers","^\d*$"
"/data/datasets/datagov/data/data/datagovdata/uniform-crime-reporting-system-arrests-in-2010.csv","Naugatuck PD","numbers","^\d*$"
"/data/datasets/datagov/data/data/datagovdata/uniform-crime-reporting-system-arrests-in-2010.csv","Wolcott PD","numbers","^\d*$"
"/data/datasets/datagov/data/data/datagovdata/uniform-crime-reporting-system-arrests-in-2010.csv","Sterling CSP","numbers","^\d*$"
"/data/datasets/datagov/data/data/datagovdata/uniform-crime-reporting-system-arrests-in-2010.csv","Bridgewater CSP","numbers","^\d*$"
"/data/datasets/datagov/data/data/datagovdata/uniform-crime-reporting-system-arrests-in-2010.csv","Columbia CSP","numbers","^\d*$"
"/data/datasets/datagov/data/data/datagovdata/uniform-crime-reporting-system-arrests-in-2010.csv","Newington PD","numbers","^\d*$"
"/data/datasets/datagov/data/data/datagovdata/uniform-crime-reporting-system-arrests-in-2010.csv","Pomfret CSP","numbers","^\d*$"
"/data/datasets/datagov/data/data/datagovdata/uniform-crime-reporting-system-arrests-in-2010.csv","Brookfield PD","numbers","^\d*$"
"/data/datasets/datagov/data/data/datagovdata/uniform-crime-reporting-system-arrests-in-2010.csv","North Canaan CSP","numbers","^\d*$"
"/data/datasets/datagov/data/data/datagovdata/uniform-crime-reporting-system-arrests-in-2010.csv","Goshen CSP","numbers","^\d*$"
"/data/datasets/datagov/data/data/datagovdata/uniform-crime-reporting-system-arrests-in-2010.csv","Trumbull PD","numbers","^\d*$"
"/data/datasets/datagov/data/data/datagovdata/uniform-crime-reporting-system-arrests-in-2010.csv","Wallingford PD","numbers","^\d*$"
"/data/datasets/datagov/data/data/datagovdata/uniform-crime-reporting-system-arrests-in-2010.csv","East Hampton PD","numbers","^\d*$"
"/data/datasets/datagov/data/data/datagovdata/uniform-crime-reporting-system-arrests-in-2010.csv","Groton City PD","numbers","^\d*$"
"/data/datasets/datagov/data/data/datagovdata/uniform-crime-reporting-system-arrests-in-2010.csv","Windham","numbers","^\d*$"
"/data/datasets/datagov/data/data/datagovdata/uniform-crime-reporting-system-arrests-in-2010.csv","Stafford CSP","numbers","^\d*$"
"/data/datasets/datagov/data/data/datagovdata/uniform-crime-reporting-system-arrests-in-2010.csv","Montville CSP","numbers","^\d*$"
"/data/datasets/datagov/data/data/datagovdata/uniform-crime-reporting-system-arrests-in-2010.csv","Bethlehem CSP","numbers","^\d*$"
"/data/datasets/datagov/data/data/datagovdata/uniform-crime-reporting-system-arrests-in-2010.csv","Tolland","numbers","^\d*$"
"/data/datasets/datagov/data/data/datagovdata/uniform-crime-reporting-system-arrests-in-2010.csv","Norwalk PD","numbers","^\d*$"
"/data/datasets/datagov/data/data/datagovdata/uniform-crime-reporting-system-arrests-in-2010.csv","Colebrook CSP","numbers","^\d*$"
"/data/datasets/datagov/data/data/datagovdata/uniform-crime-reporting-system-arrests-in-2010.csv","East Windsor PD","numbers","^\d*$"
"/data/datasets/datagov/data/data/datagovdata/uniform-crime-reporting-system-arrests-in-2010.csv","Thompson CSP","numbers","^\d*$"
"/data/datasets/datagov/data/data/datagovdata/uniform-crime-reporting-system-arrests-in-2010.csv","Somers CSP","numbers","^\d*$"
"/data/datasets/datagov/data/data/datagovdata/uniform-crime-reporting-system-arrests-in-2010.csv","Enfield PD","numbers","^\d*$"
"/data/datasets/datagov/data/data/datagovdata/uniform-crime-reporting-system-arrests-in-2010.csv","Bristol PD","numbers","^\d*$"
"/data/datasets/datagov/data/data/datagovdata/uniform-crime-reporting-system-arrests-in-2010.csv","Groton Long Pt. PD","numbers","^\d*$"
"/data/datasets/datagov/data/data/datagovdata/uniform-crime-reporting-system-arrests-in-2010.csv","Branford PD","numbers","^\d*$"
"/data/datasets/datagov/data/data/datagovdata/uniform-crime-reporting-system-arrests-in-2010.csv","NIBRS","numbers","^\d*$"
"/data/datasets/datagov/data/data/datagovdata/uniform-crime-reporting-system-arrests-in-2010.csv","Avon PD","numbers","^\d*$"
"/data/datasets/datagov/data/data/datagovdata/uniform-crime-reporting-system-arrests-in-2010.csv","Hartford PD","numbers","^\d*$"
"/data/datasets/datagov/data/data/datagovdata/uniform-crime-reporting-system-arrests-in-2010.csv","Warren CSP","numbers","^\d*$"
"/data/datasets/datagov/data/data/datagovdata/uniform-crime-reporting-system-arrests-in-2010.csv","Groton Town PD","numbers","^\d*$"
"/data/datasets/datagov/data/data/datagovdata/uniform-crime-reporting-system-arrests-in-2010.csv","Plainfield PD","numbers","^\d*$"
"/data/datasets/datagov/data/data/datagovdata/uniform-crime-reporting-system-arrests-in-2010.csv","Bozrah CSP","numbers","^\d*$"
"/data/datasets/datagov/data/data/datagovdata/uniform-crime-reporting-system-arrests-in-2010.csv","Farmington PD","numbers","^\d*$"
"/data/datasets/datagov/data/data/datagovdata/uniform-crime-reporting-system-arrests-in-2010.csv","Chester CSP","numbers","^\d*$"
"/data/datasets/datagov/data/data/datagovdata/uniform-crime-reporting-system-arrests-in-2010.csv","Urban","numbers","^\d*$"
"/data/datasets/datagov/data/data/datagovdata/uniform-crime-reporting-system-arrests-in-2010.csv","Canaan CSP","numbers","^\d*$"
"/data/datasets/datagov/data/data/datagovdata/uniform-crime-reporting-system-arrests-in-2010.csv","Bridgeport PD","numbers","^\d*$"
"/data/datasets/datagov/data/data/datagovdata/uniform-crime-reporting-system-arrests-in-2010.csv","Plymouth PD","numbers","^\d*$"
"/data/datasets/datagov/data/data/datagovdata/uniform-crime-reporting-system-arrests-in-2010.csv","West Hartford PD","numbers","^\d*$"
"/data/datasets/datagov/data/data/datagovdata/uniform-crime-reporting-system-arrests-in-2010.csv","New York","numbers","^\d*$"
"/data/datasets/datagov/data/data/datagovdata/uniform-crime-reporting-system-arrests-in-2010.csv","Madison PD","numbers","^\d*$"
"/data/datasets/datagov/data/data/datagovdata/uniform-crime-reporting-system-arrests-in-2010.csv","Bloomfield PD","numbers","^\d*$"
"/data/datasets/datagov/data/data/datagovdata/uniform-crime-reporting-system-arrests-in-2010.csv","East Lyme CSP","numbers","^\d*$"
"/data/datasets/datagov/data/data/datagovdata/uniform-crime-reporting-system-arrests-in-2010.csv","Greenwich PD","numbers","^\d*$"
"/data/datasets/datagov/data/data/datagovdata/uniform-crime-reporting-system-arrests-in-2010.csv","Simsbury PD","numbers","^\d*$"
"/data/datasets/datagov/data/data/datagovdata/uniform-crime-reporting-system-arrests-in-2010.csv","Wethersfield PD","numbers","^\d*$"
"/data/datasets/datagov/data/data/datagovdata/uniform-crime-reporting-system-arrests-in-2010.csv","North Branford PD","numbers","^\d*$"
"/data/datasets/datagov/data/data/datagovdata/uniform-crime-reporting-system-arrests-in-2010.csv","Cromwell PD","numbers","^\d*$"
"/data/datasets/datagov/data/data/datagovdata/uniform-crime-reporting-system-arrests-in-2010.csv","Ridgefield PD","numbers","^\d*$"
"/data/datasets/datagov/data/data/datagovdata/uniform-crime-reporting-system-arrests-in-2010.csv","New Haven","numbers","^\d*$"
"/data/datasets/datagov/data/data/datagovdata/uniform-crime-reporting-system-arrests-in-2010.csv","Stamford PD","numbers","^\d*$"
"/data/datasets/datagov/data/data/datagovdata/uniform-crime-reporting-system-arrests-in-2010.csv","Yale Univ. PD","numbers","^\d*$"
"/data/datasets/datagov/data/data/datagovdata/uniform-crime-reporting-system-arrests-in-2010.csv","Danbury PD","numbers","^\d*$"
"/data/datasets/datagov/data/data/datagovdata/uniform-crime-reporting-system-arrests-in-2010.csv","Stratford PD","numbers","^\d*$"
"/data/datasets/datagov/data/data/datagovdata/uniform-crime-reporting-system-arrests-in-2010.csv","SCSU PD","numbers","^\d*$"
"/data/datasets/datagov/data/data/datagovdata/uniform-crime-reporting-system-arrests-in-2010.csv","Hartland CSP","numbers","^\d*$"
"/data/datasets/datagov/data/data/datagovdata/uniform-crime-reporting-system-arrests-in-2010.csv","Ellington CSP","numbers","^\d*$"
"/data/datasets/datagov/data/data/datagovdata/uniform-crime-reporting-system-arrests-in-2010.csv","Harwinton CSP","numbers","^\d*$"
"/data/datasets/datagov/data/data/datagovdata/uniform-crime-reporting-system-arrests-in-2010.csv","Voluntown CSP","numbers","^\d*$"
"/data/datasets/datagov/data/data/datagovdata/uniform-crime-reporting-system-arrests-in-2010.csv","Weston PD","numbers","^\d*$"
"/data/datasets/datagov/data/data/datagovdata/uniform-crime-reporting-system-arrests-in-2010.csv","Sherman CSP","numbers","^\d*$"
"/data/datasets/datagov/data/data/datagovdata/uniform-crime-reporting-system-arrests-in-2010.csv","Manchester PD","numbers","^\d*$"
"/data/datasets/datagov/data/data/datagovdata/uniform-crime-reporting-system-arrests-in-2010.csv","New Haven PD","numbers","^\d*$"
"/data/datasets/datagov/data/data/datagovdata/uniform-crime-reporting-system-arrests-in-2010.csv","Newtown PD","numbers","^\d*$"
"/data/datasets/datagov/data/data/datagovdata/uniform-crime-reporting-system-arrests-in-2010.csv","Franklin CSP","numbers","^\d*$"
"/data/datasets/datagov/data/data/datagovdata/uniform-crime-reporting-system-arrests-in-2010.csv","Milford PD","numbers","^\d*$"
"/data/datasets/datagov/data/data/datagovdata/uniform-crime-reporting-system-arrests-in-2010.csv","CTSPOther","numbers","^\d*$"
"/data/datasets/datagov/data/data/datagovdata/uniform-crime-reporting-system-arrests-in-2010.csv","Hebron CSP","numbers","^\d*$"
"/data/datasets/datagov/data/data/datagovdata/uniform-crime-reporting-system-arrests-in-2010.csv","UCONN Health Ctr. PD","numbers","^\d*$"
"/data/datasets/datagov/data/data/datagovdata/uniform-crime-reporting-system-arrests-in-2010.csv","Old Lyme CSP","numbers","^\d*$"
"/data/datasets/datagov/data/data/datagovdata/uniform-crime-reporting-system-arrests-in-2010.csv","New Milford PD","numbers","^\d*$"
"/data/datasets/datagov/data/data/datagovdata/uniform-crime-reporting-system-arrests-in-2010.csv","New London","numbers","^\d*$"
"/data/datasets/datagov/data/data/datagovdata/uniform-crime-reporting-system-arrests-in-2010.csv","Killingworth CSP","numbers","^\d*$"
"/data/datasets/datagov/data/data/datagovdata/uniform-crime-reporting-system-arrests-in-2010.csv","Bethany CSP","numbers","^\d*$"
"/data/datasets/datagov/data/data/datagovdata/uniform-crime-reporting-system-arrests-in-2010.csv","Derby PD","numbers","^\d*$"
"/data/datasets/datagov/data/data/datagovdata/uniform-crime-reporting-system-arrests-in-2010.csv","Shelton PD","numbers","^\d*$"
"/data/datasets/datagov/data/data/datagovdata/uniform-crime-reporting-system-arrests-in-2010.csv","Windsor Locks PD","numbers","^\d*$"
"/data/datasets/datagov/data/data/datagovdata/uniform-crime-reporting-system-arrests-in-2010.csv","Lisbon CSP","numbers","^\d*$"
"/data/datasets/datagov/data/data/datagovdata/uniform-crime-reporting-system-arrests-in-2010.csv","Darien PD","numbers","^\d*$"
"/data/datasets/datagov/data/data/datagovdata/uniform-crime-reporting-system-arrests-in-2010.csv","Andover","numbers","^\d*$"
"/data/datasets/datagov/data/data/datagovdata/uniform-crime-reporting-system-arrests-in-2010.csv","Prospect CSP","numbers","^\d*$"
"/data/datasets/datagov/data/data/datagovdata/uniform-crime-reporting-system-arrests-in-2010.csv","Plainville PD","numbers","^\d*$"
"/data/datasets/datagov/data/data/datagovdata/uniform-crime-reporting-system-arrests-in-2010.csv","South Windsor PD","numbers","^\d*$"
"/data/datasets/datagov/data/data/datagovdata/uniform-crime-reporting-system-arrests-in-2010.csv","Cheshire PD","numbers","^\d*$"
"/data/datasets/datagov/data/data/datagovdata/uniform-crime-reporting-system-arrests-in-2010.csv","Preston CSP","numbers","^\d*$"
"/data/datasets/datagov/data/data/datagovdata/uniform-crime-reporting-system-arrests-in-2010.csv","Willimantic PD","numbers","^\d*$"
"/data/datasets/datagov/data/data/datagovdata/uniform-crime-reporting-system-arrests-in-2010.csv","West Haven PD","numbers","^\d*$"
"/data/datasets/datagov/data/data/datagovdata/uniform-crime-reporting-system-arrests-in-2010.csv","Monroe PD","numbers","^\d*$"
"/data/datasets/datagov/data/data/datagovdata/uniform-crime-reporting-system-arrests-in-2010.csv","Woodbury CSP","numbers","^\d*$"
"/data/datasets/datagov/data/data/datagovdata/uniform-crime-reporting-system-arrests-in-2010.csv","Putnam CSP","numbers","^\d*$"
"/data/datasets/datagov/data/data/datagovdata/uniform-crime-reporting-system-arrests-in-2010.csv","Southington PD","numbers","^\d*$"
"/data/datasets/datagov/data/data/datagovdata/uniform-crime-reporting-system-arrests-in-2010.csv","Torrington PD","numbers","^\d*$"
"/data/datasets/datagov/data/data/datagovdata/uniform-crime-reporting-system-arrests-in-2010.csv","Deep River CSP","numbers","^\d*$"
"/data/datasets/datagov/data/data/datagovdata/uniform-crime-reporting-system-arrests-in-2010.csv","Roxbury CSP","numbers","^\d*$"
"/data/datasets/datagov/data/data/datagovdata/uniform-crime-reporting-system-arrests-in-2010.csv","Bethel PD","numbers","^\d*$"
"/data/datasets/datagov/data/data/datagovdata/uniform-crime-reporting-system-arrests-in-2010.csv","Westport PD","numbers","^\d*$"
"/data/datasets/datagov/data/data/datagovdata/uniform-crime-reporting-system-arrests-in-2010.csv","Kent CSP","numbers","^\d*$"
"/data/datasets/datagov/data/data/datagovdata/uniform-crime-reporting-system-arrests-in-2010.csv","Sharon CSP","numbers","^\d*$"
"/data/datasets/datagov/data/data/datagovdata/uniform-crime-reporting-system-arrests-in-2010.csv","Lebanon CSP","numbers","^\d*$"
"/data/datasets/datagov/data/data/datagovdata/uniform-crime-reporting-system-arrests-in-2010.csv","Putnam PD","numbers","^\d*$"
"/data/datasets/datagov/data/data/datagovdata/uniform-crime-reporting-system-arrests-in-2010.csv","Willington CSP","numbers","^\d*$"
"/data/datasets/datagov/data/data/datagovdata/uniform-crime-reporting-system-arrests-in-2010.csv","Ledyard CSP","numbers","^\d*$"
"/data/datasets/datagov/data/data/datagovdata/uniform-crime-reporting-system-arrests-in-2010.csv","Middlebury PD","numbers","^\d*$"
"/data/datasets/datagov/data/data/datagovdata/uniform-crime-reporting-system-arrests-in-2010.csv","Foxwoods Casino CSP","numbers","^\d*$"
"/data/datasets/datagov/data/data/datagovdata/uniform-crime-reporting-system-arrests-in-2010.csv","Killingly CSP","numbers","^\d*$"
"/data/datasets/datagov/data/data/datagovdata/uniform-crime-reporting-system-arrests-in-2010.csv","Rocky Hill PD","numbers","^\d*$"
"/data/datasets/datagov/data/data/datagovdata/uniform-crime-reporting-system-arrests-in-2010.csv","Windsor PD","numbers","^\d*$"
"/data/datasets/datagov/data/data/datagovdata/uniform-crime-reporting-system-arrests-in-2010.csv","Hamden PD","numbers","^\d*$"
"/data/datasets/datagov/data/data/datagovdata/uniform-crime-reporting-system-arrests-in-2010.csv","Canton PD","numbers","^\d*$"
"/data/datasets/datagov/data/data/datagovdata/uniform-crime-reporting-system-arrests-in-2010.csv","Orange PD","numbers","^\d*$"
"/data/datasets/datagov/data/data/datagovdata/uniform-crime-reporting-system-arrests-in-2010.csv","ECSU PD","numbers","^\d*$"
"/data/datasets/datagov/data/data/datagovdata/uniform-crime-reporting-system-arrests-in-2010.csv","Winchester PD","numbers","^\d*$"
"/data/datasets/datagov/data/data/datagovdata/uniform-crime-reporting-system-arrests-in-2010.csv","Litchfield","numbers","^\d*$"
"/data/datasets/datagov/data/data/datagovdata/uniform-crime-reporting-system-arrests-in-2010.csv","Easton PD","numbers","^\d*$"
"/data/datasets/datagov/data/data/datagovdata/uniform-crime-reporting-system-arrests-in-2010.csv","Colchester CSP","numbers","^\d*$"
