"file_name","column_name","label","regex"
"/data/datasets/datagov/data/data/datagovdata/public-health-statistics-births-to-mothers-aged-15-19-years-old-in-chicago-by-year-1999-20.csv","Teen Birth Rate 2006","numbers","^(\d|,)*\.?\d*$"
"/data/datasets/datagov/data/data/datagovdata/public-health-statistics-births-to-mothers-aged-15-19-years-old-in-chicago-by-year-1999-20.csv","Teen Births 2009","numbers","^(\d|,)*\.?\d*$"
"/data/datasets/datagov/data/data/datagovdata/public-health-statistics-births-to-mothers-aged-15-19-years-old-in-chicago-by-year-1999-20.csv"," Teen Birth Rate 2002 Lower CI","numbers","^(\d|,)*\.?\d*$"
"/data/datasets/datagov/data/data/datagovdata/public-health-statistics-births-to-mothers-aged-15-19-years-old-in-chicago-by-year-1999-20.csv"," Teen Birth Rate 2000 Upper CI","numbers","^(\d|,)*\.?\d*$"
"/data/datasets/datagov/data/data/datagovdata/public-health-statistics-births-to-mothers-aged-15-19-years-old-in-chicago-by-year-1999-20.csv","Teen Birth Rate 2007 Lower CI","numbers","^(\d|,)*\.?\d*$"
"/data/datasets/datagov/data/data/datagovdata/public-health-statistics-births-to-mothers-aged-15-19-years-old-in-chicago-by-year-1999-20.csv","Teen Birth Rate 2008 Lower CI","numbers","^(\d|,)*\.?\d*$"
"/data/datasets/datagov/data/data/datagovdata/public-health-statistics-births-to-mothers-aged-15-19-years-old-in-chicago-by-year-1999-20.csv","Teen Births 2007","numbers","^(\d|,)*\.?\d*$"
"/data/datasets/datagov/data/data/datagovdata/public-health-statistics-births-to-mothers-aged-15-19-years-old-in-chicago-by-year-1999-20.csv","Teen Birth Rate 2001 Lower CI","numbers","^(\d|,)*\.?\d*$"
"/data/datasets/datagov/data/data/datagovdata/public-health-statistics-births-to-mothers-aged-15-19-years-old-in-chicago-by-year-1999-20.csv","Teen Births 2008","numbers","^(\d|,)*\.?\d*$"
"/data/datasets/datagov/data/data/datagovdata/public-health-statistics-births-to-mothers-aged-15-19-years-old-in-chicago-by-year-1999-20.csv","Teen Birth Rate 2003","numbers","^(\d|,)*\.?\d*$"
"/data/datasets/datagov/data/data/datagovdata/public-health-statistics-births-to-mothers-aged-15-19-years-old-in-chicago-by-year-1999-20.csv","Teen Births 2003","numbers","^(\d|,)*\.?\d*$"
"/data/datasets/datagov/data/data/datagovdata/public-health-statistics-births-to-mothers-aged-15-19-years-old-in-chicago-by-year-1999-20.csv"," Teen Birth Rate 2000 Lower CI","numbers","^(\d|,)*\.?\d*$"
"/data/datasets/datagov/data/data/datagovdata/public-health-statistics-births-to-mothers-aged-15-19-years-old-in-chicago-by-year-1999-20.csv","Teen Birth Rate 2003 Lower CI","numbers","^(\d|,)*\.?\d*$"
"/data/datasets/datagov/data/data/datagovdata/public-health-statistics-births-to-mothers-aged-15-19-years-old-in-chicago-by-year-1999-20.csv"," Teen Births 2000","numbers","^(\d|,)*\.?\d*$"
"/data/datasets/datagov/data/data/datagovdata/public-health-statistics-births-to-mothers-aged-15-19-years-old-in-chicago-by-year-1999-20.csv"," Teen Birth Rate 2001 Upper CI","numbers","^(\d|,)*\.?\d*$"
"/data/datasets/datagov/data/data/datagovdata/public-health-statistics-births-to-mothers-aged-15-19-years-old-in-chicago-by-year-1999-20.csv","Teen Birth Rate 2009","numbers","^(\d|,)*\.?\d*$"
"/data/datasets/datagov/data/data/datagovdata/public-health-statistics-births-to-mothers-aged-15-19-years-old-in-chicago-by-year-1999-20.csv","Teen Birth Rate 2005","numbers","^(\d|,)*\.?\d*$"
"/data/datasets/datagov/data/data/datagovdata/public-health-statistics-births-to-mothers-aged-15-19-years-old-in-chicago-by-year-1999-20.csv"," Teen Birth Rate 2002 Upper CI","numbers","^(\d|,)*\.?\d*$"
"/data/datasets/datagov/data/data/datagovdata/public-health-statistics-births-to-mothers-aged-15-19-years-old-in-chicago-by-year-1999-20.csv","Teen Births 2006","numbers","^(\d|,)*\.?\d*$"
"/data/datasets/datagov/data/data/datagovdata/public-health-statistics-births-to-mothers-aged-15-19-years-old-in-chicago-by-year-1999-20.csv","Teen Birth Rate 2004 Upper CI","numbers","^(\d|,)*\.?\d*$"
"/data/datasets/datagov/data/data/datagovdata/public-health-statistics-births-to-mothers-aged-15-19-years-old-in-chicago-by-year-1999-20.csv","Teen Birth Rate 2008 Upper CI","numbers","^(\d|,)*\.?\d*$"
"/data/datasets/datagov/data/data/datagovdata/public-health-statistics-births-to-mothers-aged-15-19-years-old-in-chicago-by-year-1999-20.csv"," Teen Births  2001","numbers","^(\d|,)*\.?\d*$"
"/data/datasets/datagov/data/data/datagovdata/public-health-statistics-births-to-mothers-aged-15-19-years-old-in-chicago-by-year-1999-20.csv","Teen Birth Rate 2004","numbers","^(\d|,)*\.?\d*$"
"/data/datasets/datagov/data/data/datagovdata/public-health-statistics-births-to-mothers-aged-15-19-years-old-in-chicago-by-year-1999-20.csv","Teen Birth Rate 2002","numbers","^(\d|,)*\.?\d*$"
"/data/datasets/datagov/data/data/datagovdata/public-health-statistics-births-to-mothers-aged-15-19-years-old-in-chicago-by-year-1999-20.csv"," Teen Birth Rate 2003 Upper CI","numbers","^(\d|,)*\.?\d*$"
"/data/datasets/datagov/data/data/datagovdata/public-health-statistics-births-to-mothers-aged-15-19-years-old-in-chicago-by-year-1999-20.csv","Teen Birth Rate 2005 Upper CI","numbers","^(\d|,)*\.?\d*$"
"/data/datasets/datagov/data/data/datagovdata/public-health-statistics-births-to-mothers-aged-15-19-years-old-in-chicago-by-year-1999-20.csv"," Teen Birth  Rate 1999 Upper CI","numbers","^(\d|,)*\.?\d*$"
"/data/datasets/datagov/data/data/datagovdata/public-health-statistics-births-to-mothers-aged-15-19-years-old-in-chicago-by-year-1999-20.csv","Teen Birth Rate 2007","numbers","^(\d|,)*\.?\d*$"
"/data/datasets/datagov/data/data/datagovdata/public-health-statistics-births-to-mothers-aged-15-19-years-old-in-chicago-by-year-1999-20.csv","Teen Birth Rate 2009 Upper CI","numbers","^(\d|,)*\.?\d*$"
"/data/datasets/datagov/data/data/datagovdata/public-health-statistics-births-to-mothers-aged-15-19-years-old-in-chicago-by-year-1999-20.csv","Teen Birth Rate 2005 Lower CI","numbers","^(\d|,)*\.?\d*$"
"/data/datasets/datagov/data/data/datagovdata/public-health-statistics-births-to-mothers-aged-15-19-years-old-in-chicago-by-year-1999-20.csv","Teen Birth Rate 2007 Upper CI","numbers","^(\d|,)*\.?\d*$"
"/data/datasets/datagov/data/data/datagovdata/public-health-statistics-births-to-mothers-aged-15-19-years-old-in-chicago-by-year-1999-20.csv","Teen Birth Rate 2001","numbers","^(\d|,)*\.?\d*$"
"/data/datasets/datagov/data/data/datagovdata/public-health-statistics-births-to-mothers-aged-15-19-years-old-in-chicago-by-year-1999-20.csv","Community Area Number","numbers","^(\d|,)*\.?\d*$"
"/data/datasets/datagov/data/data/datagovdata/public-health-statistics-births-to-mothers-aged-15-19-years-old-in-chicago-by-year-1999-20.csv"," Teen Births 2005","numbers","^(\d|,)*\.?\d*$"
"/data/datasets/datagov/data/data/datagovdata/public-health-statistics-births-to-mothers-aged-15-19-years-old-in-chicago-by-year-1999-20.csv","Teen Birth Rate 2009 Lower CI","numbers","^(\d|,)*\.?\d*$"
"/data/datasets/datagov/data/data/datagovdata/public-health-statistics-births-to-mothers-aged-15-19-years-old-in-chicago-by-year-1999-20.csv","Teen Birth  Rate 2004 Lower CI","numbers","^(\d|,)*\.?\d*$"
"/data/datasets/datagov/data/data/datagovdata/public-health-statistics-births-to-mothers-aged-15-19-years-old-in-chicago-by-year-1999-20.csv","Teen Birth Rate 2006 Upper CI","numbers","^(\d|,)*\.?\d*$"
"/data/datasets/datagov/data/data/datagovdata/public-health-statistics-births-to-mothers-aged-15-19-years-old-in-chicago-by-year-1999-20.csv","Teen Birth Rate 2008","numbers","^(\d|,)*\.?\d*$"
"/data/datasets/datagov/data/data/datagovdata/public-health-statistics-births-to-mothers-aged-15-19-years-old-in-chicago-by-year-1999-20.csv","Teen Birth Rate 1999","numbers","^(\d|,)*\.?\d*$"
"/data/datasets/datagov/data/data/datagovdata/public-health-statistics-births-to-mothers-aged-15-19-years-old-in-chicago-by-year-1999-20.csv","Teen Birth Rate 2006 Lower CI","numbers","^(\d|,)*\.?\d*$"
"/data/datasets/datagov/data/data/datagovdata/public-health-statistics-births-to-mothers-aged-15-19-years-old-in-chicago-by-year-1999-20.csv"," Teen Birth Rate 1999 Lower CI","numbers","^(\d|,)*\.?\d*$"
"/data/datasets/datagov/data/data/datagovdata/public-health-statistics-births-to-mothers-aged-15-19-years-old-in-chicago-by-year-1999-20.csv","Community Area Name","uri",".*?$(?<!\.aspx)"
"/data/datasets/datagov/data/data/datagovdata/public-health-statistics-births-to-mothers-aged-15-19-years-old-in-chicago-by-year-1999-20.csv","Teen Births 1999","numbers","^(\d|,)*\.?\d*$"
"/data/datasets/datagov/data/data/datagovdata/public-health-statistics-births-to-mothers-aged-15-19-years-old-in-chicago-by-year-1999-20.csv","Teen Birth Rate  2000","numbers","^(\d|,)*\.?\d*$"
"/data/datasets/datagov/data/data/datagovdata/public-health-statistics-births-to-mothers-aged-15-19-years-old-in-chicago-by-year-1999-20.csv","Teen Births 2004","numbers","^(\d|,)*\.?\d*$"
"/data/datasets/datagov/data/data/datagovdata/public-health-statistics-births-to-mothers-aged-15-19-years-old-in-chicago-by-year-1999-20.csv"," Teen Births 2002","numbers","^(\d|,)*\.?\d*$"
