"file_name","column_name","label","regex"
"/data/datasets/datagov/data/data/datagovdata/solar-monthly-and-annual-average-direct-normal-dni-gis-data-at-40km-resolution-for-ghana-f-40a0c.csv","csep","numbers","^\d*$"
"/data/datasets/datagov/data/data/datagovdata/solar-monthly-and-annual-average-direct-normal-dni-gis-data-at-40km-resolution-for-ghana-f-40a0c.csv","Lat","numbers","^\d*$"
"/data/datasets/datagov/data/data/datagovdata/solar-monthly-and-annual-average-direct-normal-dni-gis-data-at-40km-resolution-for-ghana-f-40a0c.csv","coct","numbers","^\d*$"
"/data/datasets/datagov/data/data/datagovdata/solar-monthly-and-annual-average-direct-normal-dni-gis-data-at-40km-resolution-for-ghana-f-40a0c.csv","cjan","numbers","^\d*$"
"/data/datasets/datagov/data/data/datagovdata/solar-monthly-and-annual-average-direct-normal-dni-gis-data-at-40km-resolution-for-ghana-f-40a0c.csv","caug","numbers","^\d*$"
"/data/datasets/datagov/data/data/datagovdata/solar-monthly-and-annual-average-direct-normal-dni-gis-data-at-40km-resolution-for-ghana-f-40a0c.csv","capr","numbers","^\d*$"
"/data/datasets/datagov/data/data/datagovdata/solar-monthly-and-annual-average-direct-normal-dni-gis-data-at-40km-resolution-for-ghana-f-40a0c.csv","cmar","numbers","^\d*$"
"/data/datasets/datagov/data/data/datagovdata/solar-monthly-and-annual-average-direct-normal-dni-gis-data-at-40km-resolution-for-ghana-f-40a0c.csv","cjul","numbers","^\d*$"
"/data/datasets/datagov/data/data/datagovdata/solar-monthly-and-annual-average-direct-normal-dni-gis-data-at-40km-resolution-for-ghana-f-40a0c.csv","CELL_ID","numbers","^\d*$"
"/data/datasets/datagov/data/data/datagovdata/solar-monthly-and-annual-average-direct-normal-dni-gis-data-at-40km-resolution-for-ghana-f-40a0c.csv","cann","numbers","^\d*$"
"/data/datasets/datagov/data/data/datagovdata/solar-monthly-and-annual-average-direct-normal-dni-gis-data-at-40km-resolution-for-ghana-f-40a0c.csv","cdec","numbers","^\d*$"
"/data/datasets/datagov/data/data/datagovdata/solar-monthly-and-annual-average-direct-normal-dni-gis-data-at-40km-resolution-for-ghana-f-40a0c.csv","cfeb","numbers","^\d*$"
"/data/datasets/datagov/data/data/datagovdata/solar-monthly-and-annual-average-direct-normal-dni-gis-data-at-40km-resolution-for-ghana-f-40a0c.csv","cjun","numbers","^\d*$"
"/data/datasets/datagov/data/data/datagovdata/solar-monthly-and-annual-average-direct-normal-dni-gis-data-at-40km-resolution-for-ghana-f-40a0c.csv","PERIMETER","numbers","^\d*$"
"/data/datasets/datagov/data/data/datagovdata/solar-monthly-and-annual-average-direct-normal-dni-gis-data-at-40km-resolution-for-ghana-f-40a0c.csv","AREA","numbers","^\d*$"
"/data/datasets/datagov/data/data/datagovdata/solar-monthly-and-annual-average-direct-normal-dni-gis-data-at-40km-resolution-for-ghana-f-40a0c.csv","cmay","numbers","^\d*$"
"/data/datasets/datagov/data/data/datagovdata/solar-monthly-and-annual-average-direct-normal-dni-gis-data-at-40km-resolution-for-ghana-f-40a0c.csv","cnov","numbers","^\d*$"
"/data/datasets/datagov/data/data/datagovdata/solar-monthly-and-annual-average-direct-normal-dni-gis-data-at-40km-resolution-for-ghana-f-40a0c.csv","Lon","numbers","^\d*$"
