"file_name","column_name","label","regex"
"/data/datasets/datagov/data/data/datagovdata/current-san-francisco-advisories-b1338.csv","ALERT FLAG","uri",".*?$(?<!\.aspx)"
"/data/datasets/datagov/data/data/datagovdata/current-san-francisco-advisories-b1338.csv","DETAILS","strings","[^""\r\n]*"
"/data/datasets/datagov/data/data/datagovdata/current-san-francisco-advisories-b1338.csv","CREATED","strings","[^""\r\n]*"
"/data/datasets/datagov/data/data/datagovdata/current-san-francisco-advisories-b1338.csv","TITLE","strings","[^""\r\n]*"
"/data/datasets/datagov/data/data/datagovdata/current-san-francisco-advisories-b1338.csv","UPDATED","strings","[^""\r\n]*"
