"file_name","column_name","label","regex"
"/data/datasets/datagov/data/data/datagovdata/performance-metrics-chicago-park-district-natural-resources-trees-and-shrubs-c3e93.csv","# Tree's Removed","numbers","^(\d|,)*\.?\d*$"
"/data/datasets/datagov/data/data/datagovdata/performance-metrics-chicago-park-district-natural-resources-trees-and-shrubs-c3e93.csv","Date","uri",".*?$(?<!\.aspx)"
"/data/datasets/datagov/data/data/datagovdata/performance-metrics-chicago-park-district-natural-resources-trees-and-shrubs-c3e93.csv","Removal & Stumping","numbers","^(\d|,)*\.?\d*$"
"/data/datasets/datagov/data/data/datagovdata/performance-metrics-chicago-park-district-natural-resources-trees-and-shrubs-c3e93.csv","# Tree's Pruned","numbers","^(\d|,)*\.?\d*$"
"/data/datasets/datagov/data/data/datagovdata/performance-metrics-chicago-park-district-natural-resources-trees-and-shrubs-c3e93.csv","Shrub Pruning","numbers","^(\d|,)*\.?\d*$"
"/data/datasets/datagov/data/data/datagovdata/performance-metrics-chicago-park-district-natural-resources-trees-and-shrubs-c3e93.csv","# Tree's and Shrubs Pruned","numbers","^(\d|,)*\.?\d*$"
