"file_name","column_name","label","regex"
"/data/datasets/datagov/data/data/datagovdata/disposition-of-abuse-of-authority-allegations-2005-f8a99.csv","Miscellaneous","uri",".*?$(?<!\.aspx)"
"/data/datasets/datagov/data/data/datagovdata/disposition-of-abuse-of-authority-allegations-2005-f8a99.csv","Unsubstantiated rate","uri",".*?$(?<!\.aspx)"
"/data/datasets/datagov/data/data/datagovdata/disposition-of-abuse-of-authority-allegations-2005-f8a99.csv","Type of Abuse of Authority Allegation","strings","[^""\r\n]*"
"/data/datasets/datagov/data/data/datagovdata/disposition-of-abuse-of-authority-allegations-2005-f8a99.csv","Unfounded number","uri",".*?$(?<!\.aspx)"
"/data/datasets/datagov/data/data/datagovdata/disposition-of-abuse-of-authority-allegations-2005-f8a99.csv","Exonerated rate","uri",".*?$(?<!\.aspx)"
"/data/datasets/datagov/data/data/datagovdata/disposition-of-abuse-of-authority-allegations-2005-f8a99.csv","Exonerated number","uri",".*?$(?<!\.aspx)"
"/data/datasets/datagov/data/data/datagovdata/disposition-of-abuse-of-authority-allegations-2005-f8a99.csv","Unsubstantiated number","uri",".*?$(?<!\.aspx)"
"/data/datasets/datagov/data/data/datagovdata/disposition-of-abuse-of-authority-allegations-2005-f8a99.csv","Miscellaneous rate","uri",".*?$(?<!\.aspx)"
"/data/datasets/datagov/data/data/datagovdata/disposition-of-abuse-of-authority-allegations-2005-f8a99.csv","Officer Unidentified rate","uri",".*?$(?<!\.aspx)"
"/data/datasets/datagov/data/data/datagovdata/disposition-of-abuse-of-authority-allegations-2005-f8a99.csv","Unfounded rate","uri",".*?$(?<!\.aspx)"
"/data/datasets/datagov/data/data/datagovdata/disposition-of-abuse-of-authority-allegations-2005-f8a99.csv","Sunstantiated rate","uri",".*?$(?<!\.aspx)"
"/data/datasets/datagov/data/data/datagovdata/disposition-of-abuse-of-authority-allegations-2005-f8a99.csv","Officer Unidentified number","uri",".*?$(?<!\.aspx)"
"/data/datasets/datagov/data/data/datagovdata/disposition-of-abuse-of-authority-allegations-2005-f8a99.csv","Substantiated Number","uri",".*?$(?<!\.aspx)"
