"file_name","column_name","label","regex"
"/data/datasets/mitdwh/Student_department.csv","School Name","uri",".*?$(?<!\.aspx)"
"/data/datasets/mitdwh/Student_department.csv","Department Full Name","strings","[^""\r\n]*"
"/data/datasets/mitdwh/Student_department.csv","School Code","uri",".*?$(?<!\.aspx)"
"/data/datasets/mitdwh/Student_department.csv","Department Code","uri",".*?$(?<!\.aspx)"
"/data/datasets/mitdwh/Student_department.csv","Department Name","strings","[^""\r\n]*"
