"file_name","column_name","label","regex"
"/data/datasets/datagov/data/data/datagovdata/aqperm-9219c.csv","Email Address","email","^.+@[^\.].*\.[a-z]{2,}$"
"/data/datasets/datagov/data/data/datagovdata/aqperm-9219c.csv","Comment","strings","[^""\r\n]*"
"/data/datasets/datagov/data/data/datagovdata/aqperm-9219c.csv","First Name","uri",".*?$(?<!\.aspx)"
"/data/datasets/datagov/data/data/datagovdata/aqperm-9219c.csv","Organization","uri",".*?$(?<!\.aspx)"
"/data/datasets/datagov/data/data/datagovdata/aqperm-9219c.csv","Additional Document","uri",".*?$(?<!\.aspx)"
"/data/datasets/datagov/data/data/datagovdata/aqperm-9219c.csv","Last Name","uri",".*?$(?<!\.aspx)"
"/data/datasets/datagov/data/data/datagovdata/aqperm-9219c.csv","State","uri",".*?$(?<!\.aspx)"
