"file_name","column_name","label","regex"
"/data/datasets/datagov/data/data/datagovdata/unemployment-insurance-benefits-bdd0b.csv","Historical Data","numbers","^(\d|,)*\.?\d*$"
"/data/datasets/datagov/data/data/datagovdata/unemployment-insurance-benefits-bdd0b.csv","Target","numbers","^(\d|,)*\.?\d*$"
"/data/datasets/datagov/data/data/datagovdata/unemployment-insurance-benefits-bdd0b.csv","Years","numbers","^(\d|,)*\.?\d*$"
