"file_name","column_name","label","regex"
"/data/datasets/datagov/data/data/datagovdata/idph-life-expectancy-at-birth-by-sex-for-illinois-chicago-and-illinois-counties-1989-2009-.csv","Margin of Error (±) (Year 1990) Female","numbers","^(\d|,)*\.?\d*$"
"/data/datasets/datagov/data/data/datagovdata/idph-life-expectancy-at-birth-by-sex-for-illinois-chicago-and-illinois-counties-1989-2009-.csv"," Life Expectancy (Year 2010) Male","numbers","^(\d|,)*\.?\d*$"
"/data/datasets/datagov/data/data/datagovdata/idph-life-expectancy-at-birth-by-sex-for-illinois-chicago-and-illinois-counties-1989-2009-.csv"," Life Expectancy (Year 2000) Both Sex","numbers","^(\d|,)*\.?\d*$"
"/data/datasets/datagov/data/data/datagovdata/idph-life-expectancy-at-birth-by-sex-for-illinois-chicago-and-illinois-counties-1989-2009-.csv"," Life Expectancy (Year 1990) Male","numbers","^(\d|,)*\.?\d*$"
"/data/datasets/datagov/data/data/datagovdata/idph-life-expectancy-at-birth-by-sex-for-illinois-chicago-and-illinois-counties-1989-2009-.csv"," Life Expectancy (Year 1990) Female","numbers","^(\d|,)*\.?\d*$"
"/data/datasets/datagov/data/data/datagovdata/idph-life-expectancy-at-birth-by-sex-for-illinois-chicago-and-illinois-counties-1989-2009-.csv","Margin of Error (±) (Year 2000) Both Sex","numbers","^(\d|,)*\.?\d*$"
"/data/datasets/datagov/data/data/datagovdata/idph-life-expectancy-at-birth-by-sex-for-illinois-chicago-and-illinois-counties-1989-2009-.csv"," Life Expectancy (Year 2010) Female","numbers","^(\d|,)*\.?\d*$"
"/data/datasets/datagov/data/data/datagovdata/idph-life-expectancy-at-birth-by-sex-for-illinois-chicago-and-illinois-counties-1989-2009-.csv"," Life Expectancy (Year 1990) Both Sex","uri",".*?$(?<!\.aspx)"
"/data/datasets/datagov/data/data/datagovdata/idph-life-expectancy-at-birth-by-sex-for-illinois-chicago-and-illinois-counties-1989-2009-.csv","Margin of Error (±) (Year 2000) Male","numbers","^(\d|,)*\.?\d*$"
"/data/datasets/datagov/data/data/datagovdata/idph-life-expectancy-at-birth-by-sex-for-illinois-chicago-and-illinois-counties-1989-2009-.csv","Margin of Error (±) (Year 2010) Both Sex","numbers","^(\d|,)*\.?\d*$"
"/data/datasets/datagov/data/data/datagovdata/idph-life-expectancy-at-birth-by-sex-for-illinois-chicago-and-illinois-counties-1989-2009-.csv","Margin of Error (±) (Year 2010) Female","numbers","^(\d|,)*\.?\d*$"
"/data/datasets/datagov/data/data/datagovdata/idph-life-expectancy-at-birth-by-sex-for-illinois-chicago-and-illinois-counties-1989-2009-.csv","State/City/County","uri",".*?$(?<!\.aspx)"
"/data/datasets/datagov/data/data/datagovdata/idph-life-expectancy-at-birth-by-sex-for-illinois-chicago-and-illinois-counties-1989-2009-.csv"," Life Expectancy (Year 2000) Female","numbers","^(\d|,)*\.?\d*$"
"/data/datasets/datagov/data/data/datagovdata/idph-life-expectancy-at-birth-by-sex-for-illinois-chicago-and-illinois-counties-1989-2009-.csv"," Life Expectancy. (Year 2000) Male","numbers","^(\d|,)*\.?\d*$"
"/data/datasets/datagov/data/data/datagovdata/idph-life-expectancy-at-birth-by-sex-for-illinois-chicago-and-illinois-counties-1989-2009-.csv","Margin of Error (±) (Year 2010) Male","numbers","^(\d|,)*\.?\d*$"
"/data/datasets/datagov/data/data/datagovdata/idph-life-expectancy-at-birth-by-sex-for-illinois-chicago-and-illinois-counties-1989-2009-.csv","Margin of Error (±) (Year 1990) Both Sex","numbers","^(\d|,)*\.?\d*$"
"/data/datasets/datagov/data/data/datagovdata/idph-life-expectancy-at-birth-by-sex-for-illinois-chicago-and-illinois-counties-1989-2009-.csv"," Life Expectancy (Year 2010) Both Sex","numbers","^(\d|,)*\.?\d*$"
"/data/datasets/datagov/data/data/datagovdata/idph-life-expectancy-at-birth-by-sex-for-illinois-chicago-and-illinois-counties-1989-2009-.csv","Margin of Error (±)(Year 1990) Male","numbers","^(\d|,)*\.?\d*$"
"/data/datasets/datagov/data/data/datagovdata/idph-life-expectancy-at-birth-by-sex-for-illinois-chicago-and-illinois-counties-1989-2009-.csv","Margin of Error (±) (Year 2000) Female","numbers","^(\d|,)*\.?\d*$"
