"file_name","column_name","label","regex"
"/data/datasets/chemical/chembl_21/csvdata/public.bioassay_ontology.csv","label","strings","[^""\r\n]*"
"/data/datasets/chemical/chembl_21/csvdata/public.bioassay_ontology.csv","bao_id","uri",".*?$(?<!\.aspx)"
