"file_name","column_name","label","regex"
"/data/datasets/datagov/data/data/datagovdata/ccrb-attribution-of-complaints-to-patrol-borough-brooklyn-south-2005-2009-348b7.csv","2005","numbers","^\d*$"
"/data/datasets/datagov/data/data/datagovdata/ccrb-attribution-of-complaints-to-patrol-borough-brooklyn-south-2005-2009-348b7.csv","Brooklyn South","uri",".*?$(?<!\.aspx)"
"/data/datasets/datagov/data/data/datagovdata/ccrb-attribution-of-complaints-to-patrol-borough-brooklyn-south-2005-2009-348b7.csv","Total","numbers","^\d*$"
"/data/datasets/datagov/data/data/datagovdata/ccrb-attribution-of-complaints-to-patrol-borough-brooklyn-south-2005-2009-348b7.csv","2006","numbers","^\d*$"
"/data/datasets/datagov/data/data/datagovdata/ccrb-attribution-of-complaints-to-patrol-borough-brooklyn-south-2005-2009-348b7.csv","2009","numbers","^\d*$"
"/data/datasets/datagov/data/data/datagovdata/ccrb-attribution-of-complaints-to-patrol-borough-brooklyn-south-2005-2009-348b7.csv","2007","numbers","^\d*$"
"/data/datasets/datagov/data/data/datagovdata/ccrb-attribution-of-complaints-to-patrol-borough-brooklyn-south-2005-2009-348b7.csv","2008","numbers","^\d*$"
