"file_name","column_name","label","regex"
"/data/datasets/datagov/data/data/datagovdata/meter-rate-schedules-58041.csv","Days Applied","uri",".*?$(?<!\.aspx)"
"/data/datasets/datagov/data/data/datagovdata/meter-rate-schedules-58041.csv","Rate","numbers","^(\d|,)*\.?\d*$"
"/data/datasets/datagov/data/data/datagovdata/meter-rate-schedules-58041.csv","Schedule Priority","numbers","^(\d|,)*\.?\d*$"
"/data/datasets/datagov/data/data/datagovdata/meter-rate-schedules-58041.csv","Post ID","numbers","^(\d|,)*\.?\d*$"
"/data/datasets/datagov/data/data/datagovdata/meter-rate-schedules-58041.csv","Rate Type","uri",".*?$(?<!\.aspx)"
"/data/datasets/datagov/data/data/datagovdata/meter-rate-schedules-58041.csv","From Time","strings","[^""\r\n]*"
"/data/datasets/datagov/data/data/datagovdata/meter-rate-schedules-58041.csv","To Time","strings","[^""\r\n]*"
