"file_name","column_name","label","regex"
"/data/datasets/datagov/data/data/datagovdata/hi-nbm-address-shp-december-2011.csv","TYPICDOWN","numbers","(^([0-9]+[.]+[0-9]+)|(0)$)"
"/data/datasets/datagov/data/data/datagovdata/hi-nbm-address-shp-december-2011.csv","FRN","numbers","(^([0-9]+[.]+[0-9]+)|(0)$)"
"/data/datasets/datagov/data/data/datagovdata/hi-nbm-address-shp-december-2011.csv","Shape_Leng","numbers","(^([0-9]+[.]+[0-9]+)|(0)$)"
"/data/datasets/datagov/data/data/datagovdata/hi-nbm-address-shp-december-2011.csv","Shape_Area","numbers","(^([0-9]+[.]+[0-9]+)|(0)$)"
"/data/datasets/datagov/data/data/datagovdata/hi-nbm-address-shp-december-2011.csv","TRANSTECH","numbers","(^([0-9]+[.]+[0-9]+)|(0)$)"
"/data/datasets/datagov/data/data/datagovdata/hi-nbm-address-shp-december-2011.csv","MAXADDOWN","numbers","(^([0-9]+[.]+[0-9]+)|(0)$)"
"/data/datasets/datagov/data/data/datagovdata/hi-nbm-address-shp-december-2011.csv","PROVNAME","uri",".*?$(?<!\.aspx)"
"/data/datasets/datagov/data/data/datagovdata/hi-nbm-address-shp-december-2011.csv","MAXADUP","numbers","(^([0-9]+[.]+[0-9]+)|(0)$)"
"/data/datasets/datagov/data/data/datagovdata/hi-nbm-address-shp-december-2011.csv","TYPICUP","numbers","(^([0-9]+[.]+[0-9]+)|(0)$)"
"/data/datasets/datagov/data/data/datagovdata/hi-nbm-address-shp-december-2011.csv","the_geom","strings","[^""\r\n]*"
"/data/datasets/datagov/data/data/datagovdata/hi-nbm-address-shp-december-2011.csv","DBANAME","uri",".*?$(?<!\.aspx)"
