"file_name","column_name","label","regex"
"/data/datasets/datagov/data/data/datagovdata/gis-3f8c7.csv","GIS information is stored on another site","uri",".*?$(?<!\.aspx)"
"/data/datasets/datagov/data/data/datagovdata/gis-3f8c7.csv","GIS Website","uri",".*?$(?<!\.aspx)"
