"file_name","column_name","label","regex"
"/data/datasets/datagov/data/data/datagovdata/lake-owner-associations.csv","region_id","uri",".*?$(?<!\.aspx)"
"/data/datasets/datagov/data/data/datagovdata/lake-owner-associations.csv","SOUTH","uri",".*?$(?<!\.aspx)"
"/data/datasets/datagov/data/data/datagovdata/lake-owner-associations.csv","POLICE_DIS","uri",".*?$(?<!\.aspx)"
"/data/datasets/datagov/data/data/datagovdata/lake-owner-associations.csv","EAST","uri",".*?$(?<!\.aspx)"
"/data/datasets/datagov/data/data/datagovdata/lake-owner-associations.csv","PLN_AREA","numbers","^(\d|,)*\.?\d*$"
"/data/datasets/datagov/data/data/datagovdata/lake-owner-associations.csv","Shape_area","numbers","^(\d|,)*\.?\d*$"
"/data/datasets/datagov/data/data/datagovdata/lake-owner-associations.csv","NORTH","uri",".*?$(?<!\.aspx)"
"/data/datasets/datagov/data/data/datagovdata/lake-owner-associations.csv","COUNCIL_DI","numbers","^(\d|,)*\.?\d*$"
"/data/datasets/datagov/data/data/datagovdata/lake-owner-associations.csv","OBJECTID","numbers","^(\d|,)*\.?\d*$"
"/data/datasets/datagov/data/data/datagovdata/lake-owner-associations.csv","NAME","uri",".*?$(?<!\.aspx)"
"/data/datasets/datagov/data/data/datagovdata/lake-owner-associations.csv","the_geom","strings","[^""\r\n]*"
"/data/datasets/datagov/data/data/datagovdata/lake-owner-associations.csv","Shape_len","numbers","^(\d|,)*\.?\d*$"
"/data/datasets/datagov/data/data/datagovdata/lake-owner-associations.csv","WEST","uri",".*?$(?<!\.aspx)"
