"file_name","column_name","label","regex"
"/data/datasets/datagov/data/data/datagovdata/PLSSPoints_BROWNFIELD.csv","HDATUM","uri",".*?$(?<!\.aspx)"
"/data/datasets/datagov/data/data/datagovdata/PLSSPoints_BROWNFIELD.csv","LOCAL1","uri",".*?$(?<!\.aspx)"
"/data/datasets/datagov/data/data/datagovdata/PLSSPoints_BROWNFIELD.csv","ERRORX","numbers","^\d*$"
"/data/datasets/datagov/data/data/datagovdata/PLSSPoints_BROWNFIELD.csv","ZCOORD","numbers","^\d*$"
"/data/datasets/datagov/data/data/datagovdata/PLSSPoints_BROWNFIELD.csv","ELEV","numbers","^\d*$"
"/data/datasets/datagov/data/data/datagovdata/PLSSPoints_BROWNFIELD.csv","POINTLAB","numbers","^\d*$"
"/data/datasets/datagov/data/data/datagovdata/PLSSPoints_BROWNFIELD.csv","STEWARD1","uri",".*?$(?<!\.aspx)"
"/data/datasets/datagov/data/data/datagovdata/PLSSPoints_BROWNFIELD.csv","COORDSYS","uri",".*?$(?<!\.aspx)"
"/data/datasets/datagov/data/data/datagovdata/PLSSPoints_BROWNFIELD.csv","XCOORD","numbers","^\d*$"
"/data/datasets/datagov/data/data/datagovdata/PLSSPoints_BROWNFIELD.csv","RELY","numbers","^\d*$"
"/data/datasets/datagov/data/data/datagovdata/PLSSPoints_BROWNFIELD.csv","LOCAL2","numbers","^\d*$"
"/data/datasets/datagov/data/data/datagovdata/PLSSPoints_BROWNFIELD.csv","LOCAL4","numbers","^\d*$"
"/data/datasets/datagov/data/data/datagovdata/PLSSPoints_BROWNFIELD.csv","ERRORY","numbers","^\d*$"
"/data/datasets/datagov/data/data/datagovdata/PLSSPoints_BROWNFIELD.csv","ERRORZ","numbers","^\d*$"
"/data/datasets/datagov/data/data/datagovdata/PLSSPoints_BROWNFIELD.csv","REVISEDDAT","address_or_phone","(\d{4,6})"
"/data/datasets/datagov/data/data/datagovdata/PLSSPoints_BROWNFIELD.csv","YCOORD","numbers","^\d*$"
"/data/datasets/datagov/data/data/datagovdata/PLSSPoints_BROWNFIELD.csv","VDATUM","numbers","^\d*$"
"/data/datasets/datagov/data/data/datagovdata/PLSSPoints_BROWNFIELD.csv","LOCAL3","numbers","^\d*$"
"/data/datasets/datagov/data/data/datagovdata/PLSSPoints_BROWNFIELD.csv","PLSSID","uri",".*?$(?<!\.aspx)"
"/data/datasets/datagov/data/data/datagovdata/PLSSPoints_BROWNFIELD.csv","POINTID","uri",".*?$(?<!\.aspx)"
"/data/datasets/datagov/data/data/datagovdata/PLSSPoints_BROWNFIELD.csv","COORDMETH","uri",".*?$(?<!\.aspx)"
"/data/datasets/datagov/data/data/datagovdata/PLSSPoints_BROWNFIELD.csv","COORDPROC","uri",".*?$(?<!\.aspx)"
"/data/datasets/datagov/data/data/datagovdata/PLSSPoints_BROWNFIELD.csv","STEWARD2","numbers","^\d*$"
