"file_name","column_name","label","regex"
"/data/datasets/mitdwh/Si_image_format_covnersions.csv","Si Source Format","uri",".*?$(?<!\.aspx)"
"/data/datasets/mitdwh/Si_image_format_covnersions.csv","Si Target Format","uri",".*?$(?<!\.aspx)"
