"file_name","column_name","label","regex"
"/data/datasets/datagov/data/data/datagovdata/funding-summary-fiscal-year-2015-f279f.csv","Account- Sub- Class","numbers","^\d*$"
"/data/datasets/datagov/data/data/datagovdata/funding-summary-fiscal-year-2015-f279f.csv","Agency Number","numbers","^\d*$"
"/data/datasets/datagov/data/data/datagovdata/funding-summary-fiscal-year-2015-f279f.csv","Account Description- Sub- Class","strings","[^""\r\n]*"
"/data/datasets/datagov/data/data/datagovdata/funding-summary-fiscal-year-2015-f279f.csv","Fiscal Year","numbers","^\d*$"
"/data/datasets/datagov/data/data/datagovdata/funding-summary-fiscal-year-2015-f279f.csv","Account Description","strings","[^""\r\n]*"
"/data/datasets/datagov/data/data/datagovdata/funding-summary-fiscal-year-2015-f279f.csv","Account Description- Major Class","strings","[^""\r\n]*"
"/data/datasets/datagov/data/data/datagovdata/funding-summary-fiscal-year-2015-f279f.csv","Agency Name","uri",".*?$(?<!\.aspx)"
"/data/datasets/datagov/data/data/datagovdata/funding-summary-fiscal-year-2015-f279f.csv","Account","numbers","^\d*$"
"/data/datasets/datagov/data/data/datagovdata/funding-summary-fiscal-year-2015-f279f.csv","Account- Major Class","numbers","^\d*$"
"/data/datasets/datagov/data/data/datagovdata/funding-summary-fiscal-year-2015-f279f.csv","Amount","uri",".*?$(?<!\.aspx)"
"/data/datasets/datagov/data/data/datagovdata/funding-summary-fiscal-year-2015-f279f.csv","Accounting Period (Month)","numbers","^\d*$"
