"file_name","column_name","label","regex"
"/data/datasets/datagov/data/data/datagovdata/election-2014-august-lausd-district-1-precinct-boundaries.csv","VBM","uri",".*?$(?<!\.aspx)"
"/data/datasets/datagov/data/data/datagovdata/election-2014-august-lausd-district-1-precinct-boundaries.csv","CNSLD","address_or_phone","(\d{4,6})"
"/data/datasets/datagov/data/data/datagovdata/election-2014-august-lausd-district-1-precinct-boundaries.csv","the_geom","strings","[^""\r\n]*"
