"file_name","column_name","label","regex"
"/data/datasets/datagov/data/data/datagovdata/oip-master-uipa-record-request-year-end-log-for-fy-2015-replacement-18dec15.csv","Agency Ultimately Unable to Respond","numbers","^(\d|,)*\.?\d*$"
"/data/datasets/datagov/data/data/datagovdata/oip-master-uipa-record-request-year-end-log-for-fy-2015-replacement-18dec15.csv","Agency 's Initial Response  Sent Within 10 Work Days","numbers","^(\d|,)*\.?\d*$"
"/data/datasets/datagov/data/data/datagovdata/oip-master-uipa-record-request-year-end-log-for-fy-2015-replacement-18dec15.csv","NET Copy/Delivery Costs CHARGEABLE to Requester","numbers","^(\d|,)*\.?\d*$"
"/data/datasets/datagov/data/data/datagovdata/oip-master-uipa-record-request-year-end-log-for-fy-2015-replacement-18dec15.csv","Fees for Personal Records","uri",".*?$(?<!\.aspx)"
"/data/datasets/datagov/data/data/datagovdata/oip-master-uipa-record-request-year-end-log-for-fy-2015-replacement-18dec15.csv","# of Workdays to Complete COMPLEX Requests","numbers","^(\d|,)*\.?\d*$"
"/data/datasets/datagov/data/data/datagovdata/oip-master-uipa-record-request-year-end-log-for-fy-2015-replacement-18dec15.csv","# of Workdays  to Complete NONCOMPLEX, NONPERSONAL RECORD Requests","numbers","^(\d|,)*\.?\d*$"
"/data/datasets/datagov/data/data/datagovdata/oip-master-uipa-record-request-year-end-log-for-fy-2015-replacement-18dec15.csv","# of Workdays to Complete ALL Requests","numbers","^(\d|,)*\.?\d*$"
"/data/datasets/datagov/data/data/datagovdata/oip-master-uipa-record-request-year-end-log-for-fy-2015-replacement-18dec15.csv","Date Completed","numbers","^(\d|,)*\.?\d*$"
"/data/datasets/datagov/data/data/datagovdata/oip-master-uipa-record-request-year-end-log-for-fy-2015-replacement-18dec15.csv","TOTAL NET Fees & Costs ACTUALLY PAID for COMPLEX Requests","numbers","^(\d|,)*\.?\d*$"
"/data/datasets/datagov/data/data/datagovdata/oip-master-uipa-record-request-year-end-log-for-fy-2015-replacement-18dec15.csv","# of Review & Segregation Hours Incurred for NONCOMPLEX, NONPERSONAL RECORD Requests","numbers","^(\d|,)*\.?\d*$"
"/data/datasets/datagov/data/data/datagovdata/oip-master-uipa-record-request-year-end-log-for-fy-2015-replacement-18dec15.csv","TOTAL GROSS SRS Fees Incurred","numbers","^(\d|,)*\.?\d*$"
"/data/datasets/datagov/data/data/datagovdata/oip-master-uipa-record-request-year-end-log-for-fy-2015-replacement-18dec15.csv","Request Needed Initial Clarification","numbers","^(\d|,)*\.?\d*$"
"/data/datasets/datagov/data/data/datagovdata/oip-master-uipa-record-request-year-end-log-for-fy-2015-replacement-18dec15.csv","Actual Legal Review Hours","numbers","^(\d|,)*\.?\d*$"
"/data/datasets/datagov/data/data/datagovdata/oip-master-uipa-record-request-year-end-log-for-fy-2015-replacement-18dec15.csv","Requester Withdrew","numbers","^(\d|,)*\.?\d*$"
"/data/datasets/datagov/data/data/datagovdata/oip-master-uipa-record-request-year-end-log-for-fy-2015-replacement-18dec15.csv","Date Agency's Notice Was Sent","numbers","^(\d|,)*\.?\d*$"
"/data/datasets/datagov/data/data/datagovdata/oip-master-uipa-record-request-year-end-log-for-fy-2015-replacement-18dec15.csv","Minus $30 Fee Waiver ","numbers","^(\d|,)*\.?\d*$"
"/data/datasets/datagov/data/data/datagovdata/oip-master-uipa-record-request-year-end-log-for-fy-2015-replacement-18dec15.csv","TOTAL GROSS Fees & Costs INCURRED for COMPLEX Requests","numbers","^(\d|,)*\.?\d*$"
"/data/datasets/datagov/data/data/datagovdata/oip-master-uipa-record-request-year-end-log-for-fy-2015-replacement-18dec15.csv","Agency","strings","[^""\r\n]*"
"/data/datasets/datagov/data/data/datagovdata/oip-master-uipa-record-request-year-end-log-for-fy-2015-replacement-18dec15.csv","UIPA Lawsuit Filed Against Agency?","numbers","^(\d|,)*\.?\d*$"
"/data/datasets/datagov/data/data/datagovdata/oip-master-uipa-record-request-year-end-log-for-fy-2015-replacement-18dec15.csv","# of Search Hours Incurred for ALL Requests","numbers","^(\d|,)*\.?\d*$"
"/data/datasets/datagov/data/data/datagovdata/oip-master-uipa-record-request-year-end-log-for-fy-2015-replacement-18dec15.csv","TOTAL Fees & Costs ACTUALLY PAID by Requesters for ALL Requests","numbers","^(\d|,)*\.?\d*$"
"/data/datasets/datagov/data/data/datagovdata/oip-master-uipa-record-request-year-end-log-for-fy-2015-replacement-18dec15.csv","# of Review & Segregation Hours Incurred for COMPLEX Requests","numbers","^(\d|,)*\.?\d*$"
"/data/datasets/datagov/data/data/datagovdata/oip-master-uipa-record-request-year-end-log-for-fy-2015-replacement-18dec15.csv","TOTAL NET Fees & Costs CHARGEABLE for COMPLEX Requests","numbers","^(\d|,)*\.?\d*$"
"/data/datasets/datagov/data/data/datagovdata/oip-master-uipa-record-request-year-end-log-for-fy-2015-replacement-18dec15.csv","# of Review & Segregation Hours Incurred for PERSONAL RECORD Requests","numbers","^(\d|,)*\.?\d*$"
"/data/datasets/datagov/data/data/datagovdata/oip-master-uipa-record-request-year-end-log-for-fy-2015-replacement-18dec15.csv","Minus $60 Fee Waiver ","numbers","^(\d|,)*\.?\d*$"
"/data/datasets/datagov/data/data/datagovdata/oip-master-uipa-record-request-year-end-log-for-fy-2015-replacement-18dec15.csv","# of Search Hours Incurred for PERSONAL RECORD Requests","numbers","^(\d|,)*\.?\d*$"
"/data/datasets/datagov/data/data/datagovdata/oip-master-uipa-record-request-year-end-log-for-fy-2015-replacement-18dec15.csv","TOTAL GROSS Fees &  Costs Agency INCURRED for ALL Requests","numbers","^(\d|,)*\.?\d*$"
"/data/datasets/datagov/data/data/datagovdata/oip-master-uipa-record-request-year-end-log-for-fy-2015-replacement-18dec15.csv","TOTAL ROUTINE REQUESTS","numbers","^(\d|,)*\.?\d*$"
"/data/datasets/datagov/data/data/datagovdata/oip-master-uipa-record-request-year-end-log-for-fy-2015-replacement-18dec15.csv","# of Review & Segregation Hours Incurred for ALL Requests","numbers","^(\d|,)*\.?\d*$"
"/data/datasets/datagov/data/data/datagovdata/oip-master-uipa-record-request-year-end-log-for-fy-2015-replacement-18dec15.csv","TOTAL NET SRS Fees  CHARGEABLE","numbers","^(\d|,)*\.?\d*$"
"/data/datasets/datagov/data/data/datagovdata/oip-master-uipa-record-request-year-end-log-for-fy-2015-replacement-18dec15.csv","Department","uri",".*?$(?<!\.aspx)"
"/data/datasets/datagov/data/data/datagovdata/oip-master-uipa-record-request-year-end-log-for-fy-2015-replacement-18dec15.csv","Personal Records Request?  ","numbers","^(\d|,)*\.?\d*$"
"/data/datasets/datagov/data/data/datagovdata/oip-master-uipa-record-request-year-end-log-for-fy-2015-replacement-18dec15.csv","# of Search Hours Incurred for  NONCOMPLEX, NONPERSONAL RECORD Requests","numbers","^(\d|,)*\.?\d*$"
"/data/datasets/datagov/data/data/datagovdata/oip-master-uipa-record-request-year-end-log-for-fy-2015-replacement-18dec15.csv","TOTAL Actual SRS & Legal Review Hours","numbers","^(\d|,)*\.?\d*$"
"/data/datasets/datagov/data/data/datagovdata/oip-master-uipa-record-request-year-end-log-for-fy-2015-replacement-18dec15.csv"," Agency Gave Incremental Responses?","numbers","^(\d|,)*\.?\d*$"
"/data/datasets/datagov/data/data/datagovdata/oip-master-uipa-record-request-year-end-log-for-fy-2015-replacement-18dec15.csv","GROSS Copy/Delivery Costs that Agency INCURRED","numbers","^(\d|,)*\.?\d*$"
"/data/datasets/datagov/data/data/datagovdata/oip-master-uipa-record-request-year-end-log-for-fy-2015-replacement-18dec15.csv"," Actual Review/ Segregation Hours","numbers","^(\d|,)*\.?\d*$"
"/data/datasets/datagov/data/data/datagovdata/oip-master-uipa-record-request-year-end-log-for-fy-2015-replacement-18dec15.csv","# of Search Hours Incurred for COMPLEX Requests","numbers","^(\d|,)*\.?\d*$"
"/data/datasets/datagov/data/data/datagovdata/oip-master-uipa-record-request-year-end-log-for-fy-2015-replacement-18dec15.csv","Requester Abandoned or Failed to Pay","numbers","^(\d|,)*\.?\d*$"
"/data/datasets/datagov/data/data/datagovdata/oip-master-uipa-record-request-year-end-log-for-fy-2015-replacement-18dec15.csv","TOTAL GROSS Fees & Costs INCURRED BUT NOT CHARGED for COMPLEX Requests","numbers","^(\d|,)*\.?\d*$"
"/data/datasets/datagov/data/data/datagovdata/oip-master-uipa-record-request-year-end-log-for-fy-2015-replacement-18dec15.csv","Request Granted in Full","numbers","^(\d|,)*\.?\d*$"
"/data/datasets/datagov/data/data/datagovdata/oip-master-uipa-record-request-year-end-log-for-fy-2015-replacement-18dec15.csv","Request Denied in Part","numbers","^(\d|,)*\.?\d*$"
"/data/datasets/datagov/data/data/datagovdata/oip-master-uipa-record-request-year-end-log-for-fy-2015-replacement-18dec15.csv","# of Workdays to Complete PERSONAL RECORD Requests   ","numbers","^(\d|,)*\.?\d*$"
"/data/datasets/datagov/data/data/datagovdata/oip-master-uipa-record-request-year-end-log-for-fy-2015-replacement-18dec15.csv","Date Agency Received Request","numbers","^(\d|,)*\.?\d*$"
"/data/datasets/datagov/data/data/datagovdata/oip-master-uipa-record-request-year-end-log-for-fy-2015-replacement-18dec15.csv","TOTAL GROSS Fees & Costs INCURRED BUT  NOT CHARGED  for ALL Requests","numbers","^(\d|,)*\.?\d*$"
"/data/datasets/datagov/data/data/datagovdata/oip-master-uipa-record-request-year-end-log-for-fy-2015-replacement-18dec15.csv","Additional Response Fees Incurred But Not Chargeable","numbers","^(\d|,)*\.?\d*$"
"/data/datasets/datagov/data/data/datagovdata/oip-master-uipa-record-request-year-end-log-for-fy-2015-replacement-18dec15.csv","Request Denied in Full","numbers","^(\d|,)*\.?\d*$"
"/data/datasets/datagov/data/data/datagovdata/oip-master-uipa-record-request-year-end-log-for-fy-2015-replacement-18dec15.csv","TOTAL NET Fees & Costs CHARGEABLE for ALL Requests","numbers","^(\d|,)*\.?\d*$"
"/data/datasets/datagov/data/data/datagovdata/oip-master-uipa-record-request-year-end-log-for-fy-2015-replacement-18dec15.csv","Complex Request?","numbers","^(\d|,)*\.?\d*$"
"/data/datasets/datagov/data/data/datagovdata/oip-master-uipa-record-request-year-end-log-for-fy-2015-replacement-18dec15.csv","# of Workdays to Complete","numbers","^(\d|,)*\.?\d*$"
"/data/datasets/datagov/data/data/datagovdata/oip-master-uipa-record-request-year-end-log-for-fy-2015-replacement-18dec15.csv","Actual Search Hours","numbers","^(\d|,)*\.?\d*$"
