"file_name","column_name","label","regex"
"/data/datasets/datagov/data/data/datagovdata/directory-of-service-hotlines-0e4cf.csv","Phone Number","uri",".*?$(?<!\.aspx)"
"/data/datasets/datagov/data/data/datagovdata/directory-of-service-hotlines-0e4cf.csv","Comments","strings","[^""\r\n]*"
"/data/datasets/datagov/data/data/datagovdata/directory-of-service-hotlines-0e4cf.csv","Service Name","strings","[^""\r\n]*"
