"file_name","column_name","label","regex"
"/data/datasets/datagov/data/data/datagovdata/summary-financial-information-for-state-authorities.csv","Other Assets (Noncurrent)","numbers","^\$?\d+(\.(\d{2}))?$"
"/data/datasets/datagov/data/data/datagovdata/summary-financial-information-for-state-authorities.csv","Authority Name","uri",".*?$(?<!\.aspx)"
"/data/datasets/datagov/data/data/datagovdata/summary-financial-information-for-state-authorities.csv","Accumulated Depreciation","numbers","^\$?\d+(\.(\d{2}))?$"
"/data/datasets/datagov/data/data/datagovdata/summary-financial-information-for-state-authorities.csv","Rental And Financing Income","numbers","^\$?\d+(\.(\d{2}))?$"
"/data/datasets/datagov/data/data/datagovdata/summary-financial-information-for-state-authorities.csv","Other Post-Employment Benefits (Noncurrent)","numbers","^\$?\d+(\.(\d{2}))?$"
"/data/datasets/datagov/data/data/datagovdata/summary-financial-information-for-state-authorities.csv","Other Assets (Current)","numbers","^\$?\d+(\.(\d{2}))?$"
"/data/datasets/datagov/data/data/datagovdata/summary-financial-information-for-state-authorities.csv","Receivables, Net","numbers","^\$?\d+(\.(\d{2}))?$"
"/data/datasets/datagov/data/data/datagovdata/summary-financial-information-for-state-authorities.csv","Other Non-Operating Revenues","uri",".*?$(?<!\.aspx)"
"/data/datasets/datagov/data/data/datagovdata/summary-financial-information-for-state-authorities.csv","Income (Loss) Before Contributions","uri",".*?$(?<!\.aspx)"
"/data/datasets/datagov/data/data/datagovdata/summary-financial-information-for-state-authorities.csv","Grants And Donations","numbers","^\$?\d+(\.(\d{2}))?$"
"/data/datasets/datagov/data/data/datagovdata/summary-financial-information-for-state-authorities.csv","Total Assets","numbers","^\$?\d+(\.(\d{2}))?$"
"/data/datasets/datagov/data/data/datagovdata/summary-financial-information-for-state-authorities.csv","Invested In Capital Assets, Net Of Related Debt","uri",".*?$(?<!\.aspx)"
"/data/datasets/datagov/data/data/datagovdata/summary-financial-information-for-state-authorities.csv","Other Long-Term Obligations Due Within One Year","numbers","^\$?\d+(\.(\d{2}))?$"
"/data/datasets/datagov/data/data/datagovdata/summary-financial-information-for-state-authorities.csv","Other Employee Benefits","numbers","^\$?\d+(\.(\d{2}))?$"
"/data/datasets/datagov/data/data/datagovdata/summary-financial-information-for-state-authorities.csv","Other Non-Operating Expenses","uri",".*?$(?<!\.aspx)"
"/data/datasets/datagov/data/data/datagovdata/summary-financial-information-for-state-authorities.csv","Cash/Cash Equivalents","numbers","^\$?\d+(\.(\d{2}))?$"
"/data/datasets/datagov/data/data/datagovdata/summary-financial-information-for-state-authorities.csv","Net Capital Assets","numbers","^\$?\d+(\.(\d{2}))?$"
"/data/datasets/datagov/data/data/datagovdata/summary-financial-information-for-state-authorities.csv","Operating Income (Loss)","uri",".*?$(?<!\.aspx)"
"/data/datasets/datagov/data/data/datagovdata/summary-financial-information-for-state-authorities.csv","Other Operating Expenses","numbers","^\$?\d+(\.(\d{2}))?$"
"/data/datasets/datagov/data/data/datagovdata/summary-financial-information-for-state-authorities.csv","Bonds And Notes Payable (Current)","numbers","^\$?\d+(\.(\d{2}))?$"
"/data/datasets/datagov/data/data/datagovdata/summary-financial-information-for-state-authorities.csv","Total Non-Operating Revenue","uri",".*?$(?<!\.aspx)"
"/data/datasets/datagov/data/data/datagovdata/summary-financial-information-for-state-authorities.csv","Restricted Net Assets","uri",".*?$(?<!\.aspx)"
"/data/datasets/datagov/data/data/datagovdata/summary-financial-information-for-state-authorities.csv","Total Operating Revenue","numbers","^\$?\d+(\.(\d{2}))?$"
"/data/datasets/datagov/data/data/datagovdata/summary-financial-information-for-state-authorities.csv","Charges For Services","numbers","^\$?\d+(\.(\d{2}))?$"
"/data/datasets/datagov/data/data/datagovdata/summary-financial-information-for-state-authorities.csv","Total Liabilities","numbers","^\$?\d+(\.(\d{2}))?$"
"/data/datasets/datagov/data/data/datagovdata/summary-financial-information-for-state-authorities.csv","Pension Contribution Payable (Noncurrent)","numbers","^\$?\d+(\.(\d{2}))?$"
"/data/datasets/datagov/data/data/datagovdata/summary-financial-information-for-state-authorities.csv","Interest And Other Financing Charges","numbers","^\$?\d+(\.(\d{2}))?$"
"/data/datasets/datagov/data/data/datagovdata/summary-financial-information-for-state-authorities.csv","Total Noncurrent Assets","numbers","^\$?\d+(\.(\d{2}))?$"
"/data/datasets/datagov/data/data/datagovdata/summary-financial-information-for-state-authorities.csv","Long-Term Leases","numbers","^\$?\d+(\.(\d{2}))?$"
"/data/datasets/datagov/data/data/datagovdata/summary-financial-information-for-state-authorities.csv","Other Long-Term Obligations","numbers","^\$?\d+(\.(\d{2}))?$"
"/data/datasets/datagov/data/data/datagovdata/summary-financial-information-for-state-authorities.csv","Other Post-Employment Benefits (Current)","numbers","^\$?\d+(\.(\d{2}))?$"
"/data/datasets/datagov/data/data/datagovdata/summary-financial-information-for-state-authorities.csv","Buildings And Equipment","numbers","^\$?\d+(\.(\d{2}))?$"
"/data/datasets/datagov/data/data/datagovdata/summary-financial-information-for-state-authorities.csv","BondsAnd Notes Payable (Noncurrent)","numbers","^\$?\d+(\.(\d{2}))?$"
"/data/datasets/datagov/data/data/datagovdata/summary-financial-information-for-state-authorities.csv","Professional Services Contracts","numbers","^\$?\d+(\.(\d{2}))?$"
"/data/datasets/datagov/data/data/datagovdata/summary-financial-information-for-state-authorities.csv","Net Assets (Deficit) Beginning Of Year","uri",".*?$(?<!\.aspx)"
"/data/datasets/datagov/data/data/datagovdata/summary-financial-information-for-state-authorities.csv","Pension Contribution Payable (Current)","numbers","^\$?\d+(\.(\d{2}))?$"
"/data/datasets/datagov/data/data/datagovdata/summary-financial-information-for-state-authorities.csv","Supplies And Materials","numbers","^\$?\d+(\.(\d{2}))?$"
"/data/datasets/datagov/data/data/datagovdata/summary-financial-information-for-state-authorities.csv","Subsidies To Other Public Authorities","numbers","^\$?\d+(\.(\d{2}))?$"
"/data/datasets/datagov/data/data/datagovdata/summary-financial-information-for-state-authorities.csv","Total Current Assets","numbers","^\$?\d+(\.(\d{2}))?$"
"/data/datasets/datagov/data/data/datagovdata/summary-financial-information-for-state-authorities.csv","Infrastructure","numbers","^\$?\d+(\.(\d{2}))?$"
"/data/datasets/datagov/data/data/datagovdata/summary-financial-information-for-state-authorities.csv","Restricted Cash And Investments","numbers","^\$?\d+(\.(\d{2}))?$"
"/data/datasets/datagov/data/data/datagovdata/summary-financial-information-for-state-authorities.csv","Capital Contributions","numbers","^\$?\d+(\.(\d{2}))?$"
"/data/datasets/datagov/data/data/datagovdata/summary-financial-information-for-state-authorities.csv","Total Net Assets","uri",".*?$(?<!\.aspx)"
"/data/datasets/datagov/data/data/datagovdata/summary-financial-information-for-state-authorities.csv","Total Noncurrent Liabilities","numbers","^\$?\d+(\.(\d{2}))?$"
"/data/datasets/datagov/data/data/datagovdata/summary-financial-information-for-state-authorities.csv","Accrued Liabilities","numbers","^\$?\d+(\.(\d{2}))?$"
"/data/datasets/datagov/data/data/datagovdata/summary-financial-information-for-state-authorities.csv","Total Non-Operating Expenses","numbers","^\$?\d+(\.(\d{2}))?$"
"/data/datasets/datagov/data/data/datagovdata/summary-financial-information-for-state-authorities.csv","Deferred Revenues","numbers","^\$?\d+(\.(\d{2}))?$"
"/data/datasets/datagov/data/data/datagovdata/summary-financial-information-for-state-authorities.csv","Long-Term Receivables, Net","numbers","^\$?\d+(\.(\d{2}))?$"
"/data/datasets/datagov/data/data/datagovdata/summary-financial-information-for-state-authorities.csv","Accounts Payable","numbers","^\$?\d+(\.(\d{2}))?$"
"/data/datasets/datagov/data/data/datagovdata/summary-financial-information-for-state-authorities.csv","Municipal Subsidies / Grants","numbers","^\$?\d+(\.(\d{2}))?$"
"/data/datasets/datagov/data/data/datagovdata/summary-financial-information-for-state-authorities.csv","Depreciation And Amortization","numbers","^\$?\d+(\.(\d{2}))?$"
"/data/datasets/datagov/data/data/datagovdata/summary-financial-information-for-state-authorities.csv","Total Current Liabilities","numbers","^\$?\d+(\.(\d{2}))?$"
"/data/datasets/datagov/data/data/datagovdata/summary-financial-information-for-state-authorities.csv","Net Assets (Deficit) At End Of Year","uri",".*?$(?<!\.aspx)"
"/data/datasets/datagov/data/data/datagovdata/summary-financial-information-for-state-authorities.csv","Salaries And Wages","numbers","^\$?\d+(\.(\d{2}))?$"
"/data/datasets/datagov/data/data/datagovdata/summary-financial-information-for-state-authorities.csv","Change In Net Assets","uri",".*?$(?<!\.aspx)"
"/data/datasets/datagov/data/data/datagovdata/summary-financial-information-for-state-authorities.csv","Total Operating Expenses","numbers","^\$?\d+(\.(\d{2}))?$"
"/data/datasets/datagov/data/data/datagovdata/summary-financial-information-for-state-authorities.csv","Public Authority Subsidies","numbers","^\$?\d+(\.(\d{2}))?$"
"/data/datasets/datagov/data/data/datagovdata/summary-financial-information-for-state-authorities.csv","State Subsidies / Grants","numbers","^\$?\d+(\.(\d{2}))?$"
"/data/datasets/datagov/data/data/datagovdata/summary-financial-information-for-state-authorities.csv","Federal Subsidies / Grants","numbers","^\$?\d+(\.(\d{2}))?$"
"/data/datasets/datagov/data/data/datagovdata/summary-financial-information-for-state-authorities.csv","Investments","numbers","^\$?\d+(\.(\d{2}))?$"
"/data/datasets/datagov/data/data/datagovdata/summary-financial-information-for-state-authorities.csv","Investment Earnings","uri",".*?$(?<!\.aspx)"
"/data/datasets/datagov/data/data/datagovdata/summary-financial-information-for-state-authorities.csv","Other Operating Revenues","numbers","^\$?\d+(\.(\d{2}))?$"
"/data/datasets/datagov/data/data/datagovdata/summary-financial-information-for-state-authorities.csv","Other Net Assets Changes","uri",".*?$(?<!\.aspx)"
"/data/datasets/datagov/data/data/datagovdata/summary-financial-information-for-state-authorities.csv","Unrestricted Net Assets","uri",".*?$(?<!\.aspx)"
"/data/datasets/datagov/data/data/datagovdata/summary-financial-information-for-state-authorities.csv","Fiscal Year End Date","strings","[^""\r\n]*"
"/data/datasets/datagov/data/data/datagovdata/summary-financial-information-for-state-authorities.csv","Land And Other Non-Depreciable Property","numbers","^\$?\d+(\.(\d{2}))?$"
