"file_name","column_name","label","regex"
"/data/datasets/datagov/data/data/datagovdata/birth-rate-state-of-hawaii-1900-2011.csv","Rate Per 1000 Resident Population","numbers","^(\d|,)*\.?\d*$"
"/data/datasets/datagov/data/data/datagovdata/birth-rate-state-of-hawaii-1900-2011.csv","Year","numbers","^(\d|,)*\.?\d*$"
