"file_name","column_name","label","regex"
"/data/datasets/datagov/data/data/datagovdata/campaign-consultants-and-employees-c3bfb.csv","Employees (if applicable)","uri",".*?$(?<!\.aspx)"
"/data/datasets/datagov/data/data/datagovdata/campaign-consultants-and-employees-c3bfb.csv","Registration Year","numbers","^\d*$"
"/data/datasets/datagov/data/data/datagovdata/campaign-consultants-and-employees-c3bfb.csv","Termination Date (if applicable)","strings","[^""\r\n]*"
"/data/datasets/datagov/data/data/datagovdata/campaign-consultants-and-employees-c3bfb.csv","Registered Campaign Consultant","uri",".*?$(?<!\.aspx)"
"/data/datasets/datagov/data/data/datagovdata/campaign-consultants-and-employees-c3bfb.csv","Registration/Re-Registration Date","strings","[^""\r\n]*"
