"file_name","column_name","label","regex"
"/data/datasets/datagov/data/data/datagovdata/oklahoma-public-school-site-directory-november-2014.csv","School Site","uri",".*?$(?<!\.aspx)"
"/data/datasets/datagov/data/data/datagovdata/oklahoma-public-school-site-directory-november-2014.csv","Mailing Zip","numbers","^\d*$"
"/data/datasets/datagov/data/data/datagovdata/oklahoma-public-school-site-directory-november-2014.csv","County Name","uri",".*?$(?<!\.aspx)"
"/data/datasets/datagov/data/data/datagovdata/oklahoma-public-school-site-directory-november-2014.csv","Grade Range","uri",".*?$(?<!\.aspx)"
"/data/datasets/datagov/data/data/datagovdata/oklahoma-public-school-site-directory-november-2014.csv","Co/Dist Code","numbers","^\d*$"
"/data/datasets/datagov/data/data/datagovdata/oklahoma-public-school-site-directory-november-2014.csv","Principal","uri",".*?$(?<!\.aspx)"
"/data/datasets/datagov/data/data/datagovdata/oklahoma-public-school-site-directory-november-2014.csv","Mailing Address","uri",".*?$(?<!\.aspx)"
"/data/datasets/datagov/data/data/datagovdata/oklahoma-public-school-site-directory-november-2014.csv","Certified Staff","numbers","^\d*$"
"/data/datasets/datagov/data/data/datagovdata/oklahoma-public-school-site-directory-november-2014.csv","Total Enrollment","numbers","^\d*$"
"/data/datasets/datagov/data/data/datagovdata/oklahoma-public-school-site-directory-november-2014.csv","Mailing State","uri",".*?$(?<!\.aspx)"
"/data/datasets/datagov/data/data/datagovdata/oklahoma-public-school-site-directory-november-2014.csv","Telephone","uri",".*?$(?<!\.aspx)"
"/data/datasets/datagov/data/data/datagovdata/oklahoma-public-school-site-directory-november-2014.csv","Mailing City","uri",".*?$(?<!\.aspx)"
"/data/datasets/datagov/data/data/datagovdata/oklahoma-public-school-site-directory-november-2014.csv","District Name","uri",".*?$(?<!\.aspx)"
"/data/datasets/datagov/data/data/datagovdata/oklahoma-public-school-site-directory-november-2014.csv","Site Code","numbers","^\d*$"
