"file_name","column_name","label","regex"
"/data/datasets/datagov/data/data/datagovdata/new-patents-filed-ca755.csv","Historical Data","numbers","^(\d|,)*\.?\d*$"
"/data/datasets/datagov/data/data/datagovdata/new-patents-filed-ca755.csv","Target","numbers","^(\d|,)*\.?\d*$"
"/data/datasets/datagov/data/data/datagovdata/new-patents-filed-ca755.csv","Years","numbers","^(\d|,)*\.?\d*$"
