"file_name","column_name","label","regex"
"/data/datasets/datagov/data/data/datagovdata/salaries-esd-lbl-fy2013-c0c5d.csv","Total Salary/Wages","numbers","^\$?\d+(\.(\d{2}))?$"
"/data/datasets/datagov/data/data/datagovdata/salaries-esd-lbl-fy2013-c0c5d.csv","Total FTE","strings","[^""\r\n]*"
"/data/datasets/datagov/data/data/datagovdata/salaries-esd-lbl-fy2013-c0c5d.csv","ESD ID","numbers","^\$?\d+(\.(\d{2}))?$"
"/data/datasets/datagov/data/data/datagovdata/salaries-esd-lbl-fy2013-c0c5d.csv","Number of Employees","numbers","^\$?\d+(\.(\d{2}))?$"
"/data/datasets/datagov/data/data/datagovdata/salaries-esd-lbl-fy2013-c0c5d.csv","ESDName","uri",".*?$(?<!\.aspx)"
"/data/datasets/datagov/data/data/datagovdata/salaries-esd-lbl-fy2013-c0c5d.csv","PstnCd","numbers","^\$?\d+(\.(\d{2}))?$"
"/data/datasets/datagov/data/data/datagovdata/salaries-esd-lbl-fy2013-c0c5d.csv","Position","strings","[^""\r\n]*"
