"file_name","column_name","label","regex"
"/data/datasets/datagov/data/data/datagovdata/state-of-oklahoma-vendor-payments-q4-fiscal-year-2013-0334c.csv","Location 1","uri",".*?$(?<!\.aspx)"
"/data/datasets/datagov/data/data/datagovdata/state-of-oklahoma-vendor-payments-q4-fiscal-year-2013-0334c.csv","DEPTID_DESCR","strings","[^""\r\n]*"
"/data/datasets/datagov/data/data/datagovdata/state-of-oklahoma-vendor-payments-q4-fiscal-year-2013-0334c.csv","PYMNT_AMT","uri",".*?$(?<!\.aspx)"
"/data/datasets/datagov/data/data/datagovdata/state-of-oklahoma-vendor-payments-q4-fiscal-year-2013-0334c.csv","EFFDT","strings","[^""\r\n]*"
"/data/datasets/datagov/data/data/datagovdata/state-of-oklahoma-vendor-payments-q4-fiscal-year-2013-0334c.csv","NAME1","strings","[^""\r\n]*"
"/data/datasets/datagov/data/data/datagovdata/state-of-oklahoma-vendor-payments-q4-fiscal-year-2013-0334c.csv","ACCOUNT","numbers","^(\d|,)*\.?\d*$"
"/data/datasets/datagov/data/data/datagovdata/state-of-oklahoma-vendor-payments-q4-fiscal-year-2013-0334c.csv","TRANSACTION_TYPE","uri",".*?$(?<!\.aspx)"
"/data/datasets/datagov/data/data/datagovdata/state-of-oklahoma-vendor-payments-q4-fiscal-year-2013-0334c.csv","DESCR1","uri",".*?$(?<!\.aspx)"
"/data/datasets/datagov/data/data/datagovdata/state-of-oklahoma-vendor-payments-q4-fiscal-year-2013-0334c.csv","FUND_CODE","numbers","^(\d|,)*\.?\d*$"
"/data/datasets/datagov/data/data/datagovdata/state-of-oklahoma-vendor-payments-q4-fiscal-year-2013-0334c.csv","ACCOUNT_DESCR","strings","[^""\r\n]*"
"/data/datasets/datagov/data/data/datagovdata/state-of-oklahoma-vendor-payments-q4-fiscal-year-2013-0334c.csv","OCP_AGNCY_NAME","uri",".*?$(?<!\.aspx)"
"/data/datasets/datagov/data/data/datagovdata/state-of-oklahoma-vendor-payments-q4-fiscal-year-2013-0334c.csv","ITEM_DESCRIPTION","strings","[^""\r\n]*"
"/data/datasets/datagov/data/data/datagovdata/state-of-oklahoma-vendor-payments-q4-fiscal-year-2013-0334c.csv","CLASS_FLD","numbers","^(\d|,)*\.?\d*$"
"/data/datasets/datagov/data/data/datagovdata/state-of-oklahoma-vendor-payments-q4-fiscal-year-2013-0334c.csv","CANCEL_DT","strings","[^""\r\n]*"
"/data/datasets/datagov/data/data/datagovdata/state-of-oklahoma-vendor-payments-q4-fiscal-year-2013-0334c.csv","POSTAL","address_or_phone","(\d{4,6})"
"/data/datasets/datagov/data/data/datagovdata/state-of-oklahoma-vendor-payments-q4-fiscal-year-2013-0334c.csv","PO_ID","numbers","^(\d|,)*\.?\d*$"
"/data/datasets/datagov/data/data/datagovdata/state-of-oklahoma-vendor-payments-q4-fiscal-year-2013-0334c.csv","FISCAL_YR_TAS","numbers","^(\d|,)*\.?\d*$"
"/data/datasets/datagov/data/data/datagovdata/state-of-oklahoma-vendor-payments-q4-fiscal-year-2013-0334c.csv","PYMNT_DT","strings","[^""\r\n]*"
"/data/datasets/datagov/data/data/datagovdata/state-of-oklahoma-vendor-payments-q4-fiscal-year-2013-0334c.csv","BUSINESS_UNIT","numbers","^(\d|,)*\.?\d*$"
"/data/datasets/datagov/data/data/datagovdata/state-of-oklahoma-vendor-payments-q4-fiscal-year-2013-0334c.csv","INVOICE_ID","strings","[^""\r\n]*"
"/data/datasets/datagov/data/data/datagovdata/state-of-oklahoma-vendor-payments-q4-fiscal-year-2013-0334c.csv","VOUCHER_STYLE","uri",".*?$(?<!\.aspx)"
"/data/datasets/datagov/data/data/datagovdata/state-of-oklahoma-vendor-payments-q4-fiscal-year-2013-0334c.csv","DEPTID","numbers","^(\d|,)*\.?\d*$"
"/data/datasets/datagov/data/data/datagovdata/state-of-oklahoma-vendor-payments-q4-fiscal-year-2013-0334c.csv","FUND_DESCR","uri",".*?$(?<!\.aspx)"
"/data/datasets/datagov/data/data/datagovdata/state-of-oklahoma-vendor-payments-q4-fiscal-year-2013-0334c.csv","VOUCHER_ID","numbers","^(\d|,)*\.?\d*$"
"/data/datasets/datagov/data/data/datagovdata/state-of-oklahoma-vendor-payments-q4-fiscal-year-2013-0334c.csv","OCP_MONTH","numbers","^(\d|,)*\.?\d*$"
"/data/datasets/datagov/data/data/datagovdata/state-of-oklahoma-vendor-payments-q4-fiscal-year-2013-0334c.csv","CLASS_DESCR","uri",".*?$(?<!\.aspx)"
"/data/datasets/datagov/data/data/datagovdata/state-of-oklahoma-vendor-payments-q4-fiscal-year-2013-0334c.csv","INVOICE_DT","strings","[^""\r\n]*"
"/data/datasets/datagov/data/data/datagovdata/state-of-oklahoma-vendor-payments-q4-fiscal-year-2013-0334c.csv","OCP_DS_DATE","strings","[^""\r\n]*"
"/data/datasets/datagov/data/data/datagovdata/state-of-oklahoma-vendor-payments-q4-fiscal-year-2013-0334c.csv","VOUCHER_ID_RELATED","numbers","^(\d|,)*\.?\d*$"
