"file_name","column_name","label","regex"
"/data/datasets/datagov/data/data/datagovdata/plant-nurseries-2013-61ed1.csv","COUNTY","uri",".*?$(?<!\.aspx)"
"/data/datasets/datagov/data/data/datagovdata/plant-nurseries-2013-61ed1.csv","COMPANY","strings","[^""\r\n]*"
"/data/datasets/datagov/data/data/datagovdata/plant-nurseries-2013-61ed1.csv","PHONE1","numbers","^(\d|,)*\d*$"
"/data/datasets/datagov/data/data/datagovdata/plant-nurseries-2013-61ed1.csv","PHONE2","numbers","^(\d|,)*\d*$"
"/data/datasets/datagov/data/data/datagovdata/plant-nurseries-2013-61ed1.csv","BUSINESS TYPE","uri",".*?$(?<!\.aspx)"
"/data/datasets/datagov/data/data/datagovdata/plant-nurseries-2013-61ed1.csv","PRODUCT CODE","numbers","^(\d|,)*\d*$"
"/data/datasets/datagov/data/data/datagovdata/plant-nurseries-2013-61ed1.csv","ADDRESS","strings","[^""\r\n]*"
"/data/datasets/datagov/data/data/datagovdata/plant-nurseries-2013-61ed1.csv","SALES STRUCTURE","uri",".*?$(?<!\.aspx)"
