"file_name","column_name","label","regex"
"/data/datasets/datagov/data/data/datagovdata/waofm-legislative-districts-table-2-census-2010-population-by-race-and-hispanic-or-latino--358ce.csv","Black or African American Alone Over 18 2010","numbers","^\d*$"
"/data/datasets/datagov/data/data/datagovdata/waofm-legislative-districts-table-2-census-2010-population-by-race-and-hispanic-or-latino--358ce.csv","Population of Two or More Races Not Hispanic or Latino 2010","numbers","^\d*$"
"/data/datasets/datagov/data/data/datagovdata/waofm-legislative-districts-table-2-census-2010-population-by-race-and-hispanic-or-latino--358ce.csv","Hispanic or Latino (of Any Race) 2010","numbers","^\d*$"
"/data/datasets/datagov/data/data/datagovdata/waofm-legislative-districts-table-2-census-2010-population-by-race-and-hispanic-or-latino--358ce.csv","Population of One Race Over 18 2010","numbers","^\d*$"
"/data/datasets/datagov/data/data/datagovdata/waofm-legislative-districts-table-2-census-2010-population-by-race-and-hispanic-or-latino--358ce.csv","Asian Alone Not Hispanic or Latino Over 18 2010","numbers","^\d*$"
"/data/datasets/datagov/data/data/datagovdata/waofm-legislative-districts-table-2-census-2010-population-by-race-and-hispanic-or-latino--358ce.csv","Asian Alone Not Hispanic or Latino 2010","numbers","^\d*$"
"/data/datasets/datagov/data/data/datagovdata/waofm-legislative-districts-table-2-census-2010-population-by-race-and-hispanic-or-latino--358ce.csv","Population of Two or More Races Over 18 2010","numbers","^\d*$"
"/data/datasets/datagov/data/data/datagovdata/waofm-legislative-districts-table-2-census-2010-population-by-race-and-hispanic-or-latino--358ce.csv","Some Other Race Alone 2010","numbers","^\d*$"
"/data/datasets/datagov/data/data/datagovdata/waofm-legislative-districts-table-2-census-2010-population-by-race-and-hispanic-or-latino--358ce.csv","Not Hispanic or Latino 2010","numbers","^\d*$"
"/data/datasets/datagov/data/data/datagovdata/waofm-legislative-districts-table-2-census-2010-population-by-race-and-hispanic-or-latino--358ce.csv","American Indian and Alaska Native Alone Not Hispanic or Latino 2010","numbers","^\d*$"
"/data/datasets/datagov/data/data/datagovdata/waofm-legislative-districts-table-2-census-2010-population-by-race-and-hispanic-or-latino--358ce.csv","Total Population Over 18 2010","numbers","^\d*$"
"/data/datasets/datagov/data/data/datagovdata/waofm-legislative-districts-table-2-census-2010-population-by-race-and-hispanic-or-latino--358ce.csv","Native Hawaiian and Other Pacific Islander Alone Over 18 2010","numbers","^\d*$"
"/data/datasets/datagov/data/data/datagovdata/waofm-legislative-districts-table-2-census-2010-population-by-race-and-hispanic-or-latino--358ce.csv","Population of Two or More Races Not Hispanic or Latino Over 18 2010","numbers","^\d*$"
"/data/datasets/datagov/data/data/datagovdata/waofm-legislative-districts-table-2-census-2010-population-by-race-and-hispanic-or-latino--358ce.csv","Native Hawaiian and Other Pacific Islander Alone Not Hispanic or Latino Over 18 2010","numbers","^\d*$"
"/data/datasets/datagov/data/data/datagovdata/waofm-legislative-districts-table-2-census-2010-population-by-race-and-hispanic-or-latino--358ce.csv","American Indian and Alaska Native Alone Over 18 2010","numbers","^\d*$"
"/data/datasets/datagov/data/data/datagovdata/waofm-legislative-districts-table-2-census-2010-population-by-race-and-hispanic-or-latino--358ce.csv","American Indian and Alaska Native Alone Not Hispanic or Latino Over 18 2010","numbers","^\d*$"
"/data/datasets/datagov/data/data/datagovdata/waofm-legislative-districts-table-2-census-2010-population-by-race-and-hispanic-or-latino--358ce.csv","American Indian and Alaska Native Alone 2010","numbers","^\d*$"
"/data/datasets/datagov/data/data/datagovdata/waofm-legislative-districts-table-2-census-2010-population-by-race-and-hispanic-or-latino--358ce.csv","Population of One Race 2010","numbers","^\d*$"
"/data/datasets/datagov/data/data/datagovdata/waofm-legislative-districts-table-2-census-2010-population-by-race-and-hispanic-or-latino--358ce.csv","Some Other Race Alone Not Hispanic or Latino Over 18 2010","numbers","^\d*$"
"/data/datasets/datagov/data/data/datagovdata/waofm-legislative-districts-table-2-census-2010-population-by-race-and-hispanic-or-latino--358ce.csv","Asian Alone 2010","numbers","^\d*$"
"/data/datasets/datagov/data/data/datagovdata/waofm-legislative-districts-table-2-census-2010-population-by-race-and-hispanic-or-latino--358ce.csv","Some Other Race Alone Not Hispanic or Latino 2010","numbers","^\d*$"
"/data/datasets/datagov/data/data/datagovdata/waofm-legislative-districts-table-2-census-2010-population-by-race-and-hispanic-or-latino--358ce.csv","Not Hispanic or Latino Over 18 2010","numbers","^\d*$"
"/data/datasets/datagov/data/data/datagovdata/waofm-legislative-districts-table-2-census-2010-population-by-race-and-hispanic-or-latino--358ce.csv","Native Hawaiian and Other Pacific Islander Alone Not Hispanic or Latino 2010","numbers","^\d*$"
"/data/datasets/datagov/data/data/datagovdata/waofm-legislative-districts-table-2-census-2010-population-by-race-and-hispanic-or-latino--358ce.csv","Population of One Race Not Hispanic or Latino 2010","numbers","^\d*$"
"/data/datasets/datagov/data/data/datagovdata/waofm-legislative-districts-table-2-census-2010-population-by-race-and-hispanic-or-latino--358ce.csv","Population of One Race Not Hispanic or Latino Over 18 2010","numbers","^\d*$"
"/data/datasets/datagov/data/data/datagovdata/waofm-legislative-districts-table-2-census-2010-population-by-race-and-hispanic-or-latino--358ce.csv","Some Other Race Alone Over 18 2010","numbers","^\d*$"
"/data/datasets/datagov/data/data/datagovdata/waofm-legislative-districts-table-2-census-2010-population-by-race-and-hispanic-or-latino--358ce.csv","Population of Two or More Races 2010","numbers","^\d*$"
"/data/datasets/datagov/data/data/datagovdata/waofm-legislative-districts-table-2-census-2010-population-by-race-and-hispanic-or-latino--358ce.csv","White Alone Over 18 2010","numbers","^\d*$"
"/data/datasets/datagov/data/data/datagovdata/waofm-legislative-districts-table-2-census-2010-population-by-race-and-hispanic-or-latino--358ce.csv","Legislative District","uri",".*?$(?<!\.aspx)"
"/data/datasets/datagov/data/data/datagovdata/waofm-legislative-districts-table-2-census-2010-population-by-race-and-hispanic-or-latino--358ce.csv","Black or African American Alone Not Hispanic or Latino 2010","numbers","^\d*$"
"/data/datasets/datagov/data/data/datagovdata/waofm-legislative-districts-table-2-census-2010-population-by-race-and-hispanic-or-latino--358ce.csv","Hispanic or Latino (of Any Race) Over 18 2010","numbers","^\d*$"
"/data/datasets/datagov/data/data/datagovdata/waofm-legislative-districts-table-2-census-2010-population-by-race-and-hispanic-or-latino--358ce.csv","White Alone Not Hispanic or Latino 2010","numbers","^\d*$"
"/data/datasets/datagov/data/data/datagovdata/waofm-legislative-districts-table-2-census-2010-population-by-race-and-hispanic-or-latino--358ce.csv","Black or African American Alone Not Hispanic or Latino Over 18 2010","numbers","^\d*$"
"/data/datasets/datagov/data/data/datagovdata/waofm-legislative-districts-table-2-census-2010-population-by-race-and-hispanic-or-latino--358ce.csv","White Alone Not Hispanic or Latino Over 18 2010","numbers","^\d*$"
"/data/datasets/datagov/data/data/datagovdata/waofm-legislative-districts-table-2-census-2010-population-by-race-and-hispanic-or-latino--358ce.csv","Total Population 2010","numbers","^\d*$"
"/data/datasets/datagov/data/data/datagovdata/waofm-legislative-districts-table-2-census-2010-population-by-race-and-hispanic-or-latino--358ce.csv","Black or African American Alone 2010","numbers","^\d*$"
"/data/datasets/datagov/data/data/datagovdata/waofm-legislative-districts-table-2-census-2010-population-by-race-and-hispanic-or-latino--358ce.csv","Native Hawaiian and Other Pacific Islander Alone 2010","numbers","^\d*$"
"/data/datasets/datagov/data/data/datagovdata/waofm-legislative-districts-table-2-census-2010-population-by-race-and-hispanic-or-latino--358ce.csv","Asian Alone Over 18 2010","numbers","^\d*$"
"/data/datasets/datagov/data/data/datagovdata/waofm-legislative-districts-table-2-census-2010-population-by-race-and-hispanic-or-latino--358ce.csv","White Alone 2010","numbers","^\d*$"
