"file_name","column_name","label","regex"
"/data/datasets/mitdwh/Fclt_organization_hist.csv","Hr Department Code Old","numbers","^(\d|,)*\.?\d*$"
"/data/datasets/mitdwh/Fclt_organization_hist.csv","Warehouse Load Date","strings","[^""\r\n]*"
"/data/datasets/mitdwh/Fclt_organization_hist.csv","Dlc Name","strings","[^""\r\n]*"
"/data/datasets/mitdwh/Fclt_organization_hist.csv","Organization Name","uri",".*?$(?<!\.aspx)"
"/data/datasets/mitdwh/Fclt_organization_hist.csv","Fclt Organization Key","numbers","^(\d|,)*\.?\d*$"
"/data/datasets/mitdwh/Fclt_organization_hist.csv","Major Org","uri",".*?$(?<!\.aspx)"
"/data/datasets/mitdwh/Fclt_organization_hist.csv","Fclt Org Parent Key","numbers","^(\d|,)*\.?\d*$"
"/data/datasets/mitdwh/Fclt_organization_hist.csv","Organization Sort","numbers","^(\d|,)*\.?\d*$"
"/data/datasets/mitdwh/Fclt_organization_hist.csv","Dlc Key","strings","[^""\r\n]*"
"/data/datasets/mitdwh/Fclt_organization_hist.csv","Fclt Major Org Key","uri",".*?$(?<!\.aspx)"
"/data/datasets/mitdwh/Fclt_organization_hist.csv","Assignable","numbers","^(\d|,)*\.?\d*$"
"/data/datasets/mitdwh/Fclt_organization_hist.csv","Hr Department Name","strings","[^""\r\n]*"
"/data/datasets/mitdwh/Fclt_organization_hist.csv","Organization Id","numbers","^(\d|,)*\.?\d*$"
"/data/datasets/mitdwh/Fclt_organization_hist.csv","Hr Org Unit Id","numbers","^(\d|,)*\.?\d*$"
"/data/datasets/mitdwh/Fclt_organization_hist.csv","Fiscal Period","numbers","^(\d|,)*\.?\d*$"
"/data/datasets/mitdwh/Fclt_organization_hist.csv","Org Parent","uri",".*?$(?<!\.aspx)"
"/data/datasets/mitdwh/Fclt_organization_hist.csv","Organization","strings","[^""\r\n]*"
"/data/datasets/mitdwh/Fclt_organization_hist.csv","Organization Level","numbers","^(\d|,)*\.?\d*$"
"/data/datasets/mitdwh/Fclt_organization_hist.csv","Course","uri",".*?$(?<!\.aspx)"
"/data/datasets/mitdwh/Fclt_organization_hist.csv","Organization Number","numbers","^(\d|,)*\.?\d*$"
"/data/datasets/mitdwh/Fclt_organization_hist.csv","Description","uri",".*?$(?<!\.aspx)"
"/data/datasets/mitdwh/Fclt_organization_hist.csv","Fclt Organization Hist Key","numbers","^(\d|,)*\.?\d*$"
