"file_name","column_name","label","regex"
"/data/datasets/datagov/data/data/datagovdata/camagis-property-details.csv","Owner3Last","strings","[^""\r\n]*"
"/data/datasets/datagov/data/data/datagovdata/camagis-property-details.csv","Bedrooms","numbers","^(\d|,)*\.?\d*$"
"/data/datasets/datagov/data/data/datagovdata/camagis-property-details.csv","PrimHeatType","numbers","^(\d|,)*\.?\d*$"
"/data/datasets/datagov/data/data/datagovdata/camagis-property-details.csv","LastSalecode","strings","[^""\r\n]*"
"/data/datasets/datagov/data/data/datagovdata/camagis-property-details.csv","City","uri",".*?$(?<!\.aspx)"
"/data/datasets/datagov/data/data/datagovdata/camagis-property-details.csv","YearBuilt","numbers","^(\d|,)*\.?\d*$"
"/data/datasets/datagov/data/data/datagovdata/camagis-property-details.csv","PrimIntWall","uri",".*?$(?<!\.aspx)"
"/data/datasets/datagov/data/data/datagovdata/camagis-property-details.csv","AccountNumber","numbers","^(\d|,)*\.?\d*$"
"/data/datasets/datagov/data/data/datagovdata/camagis-property-details.csv","State","uri",".*?$(?<!\.aspx)"
"/data/datasets/datagov/data/data/datagovdata/camagis-property-details.csv","BldgType","uri",".*?$(?<!\.aspx)"
"/data/datasets/datagov/data/data/datagovdata/camagis-property-details.csv","CardNumber","numbers","^(\d|,)*\.?\d*$"
"/data/datasets/datagov/data/data/datagovdata/camagis-property-details.csv","StreetName","uri",".*?$(?<!\.aspx)"
"/data/datasets/datagov/data/data/datagovdata/camagis-property-details.csv","NbhdCode","uri",".*?$(?<!\.aspx)"
"/data/datasets/datagov/data/data/datagovdata/camagis-property-details.csv","BldgFoundation","strings","[^""\r\n]*"
"/data/datasets/datagov/data/data/datagovdata/camagis-property-details.csv","Owner2Last","strings","[^""\r\n]*"
"/data/datasets/datagov/data/data/datagovdata/camagis-property-details.csv","PrimHeatFuel","numbers","^(\d|,)*\.?\d*$"
"/data/datasets/datagov/data/data/datagovdata/camagis-property-details.csv","Zip10","address_or_phone","(\d{4,6})"
"/data/datasets/datagov/data/data/datagovdata/camagis-property-details.csv","OwnerFullName","uri",".*?$(?<!\.aspx)"
"/data/datasets/datagov/data/data/datagovdata/camagis-property-details.csv","BldgRoofCover","uri",".*?$(?<!\.aspx)"
"/data/datasets/datagov/data/data/datagovdata/camagis-property-details.csv","PrimHeatFuelDesc","uri",".*?$(?<!\.aspx)"
"/data/datasets/datagov/data/data/datagovdata/camagis-property-details.csv","Owner1FName","uri",".*?$(?<!\.aspx)"
"/data/datasets/datagov/data/data/datagovdata/camagis-property-details.csv","Zoning","uri",".*?$(?<!\.aspx)"
"/data/datasets/datagov/data/data/datagovdata/camagis-property-details.csv","TotApprsdValue","numbers","^(\d|,)*\.?\d*$"
"/data/datasets/datagov/data/data/datagovdata/camagis-property-details.csv","Owner3FName","uri",".*?$(?<!\.aspx)"
"/data/datasets/datagov/data/data/datagovdata/camagis-property-details.csv","LUC","numbers","^(\d|,)*\.?\d*$"
"/data/datasets/datagov/data/data/datagovdata/camagis-property-details.csv","NbhdDesc","uri",".*?$(?<!\.aspx)"
"/data/datasets/datagov/data/data/datagovdata/camagis-property-details.csv","GISParcelNumber","numbers","^(\d|,)*\.?\d*$"
"/data/datasets/datagov/data/data/datagovdata/camagis-property-details.csv","StreetNumberFrom","numbers","^(\d|,)*\.?\d*$"
"/data/datasets/datagov/data/data/datagovdata/camagis-property-details.csv","MailingAddress2","strings","[^""\r\n]*"
"/data/datasets/datagov/data/data/datagovdata/camagis-property-details.csv","LastSalePrice","numbers","^(\d|,)*\.?\d*$"
"/data/datasets/datagov/data/data/datagovdata/camagis-property-details.csv","StoryHeight","numbers","^(\d|,)*\.?\d*$"
"/data/datasets/datagov/data/data/datagovdata/camagis-property-details.csv","BldgFrameType","uri",".*?$(?<!\.aspx)"
"/data/datasets/datagov/data/data/datagovdata/camagis-property-details.csv","MailingStreet","uri",".*?$(?<!\.aspx)"
"/data/datasets/datagov/data/data/datagovdata/camagis-property-details.csv","PrimExtWall","strings","[^""\r\n]*"
"/data/datasets/datagov/data/data/datagovdata/camagis-property-details.csv","TotAcreage","numbers","^(\d|,)*\.?\d*$"
"/data/datasets/datagov/data/data/datagovdata/camagis-property-details.csv","TotFinishdArea","numbers","^(\d|,)*\.?\d*$"
"/data/datasets/datagov/data/data/datagovdata/camagis-property-details.csv","Owner2FName","uri",".*?$(?<!\.aspx)"
"/data/datasets/datagov/data/data/datagovdata/camagis-property-details.csv","LastSaleType","numbers","^(\d|,)*\.?\d*$"
"/data/datasets/datagov/data/data/datagovdata/camagis-property-details.csv","BldgRoofType","strings","[^""\r\n]*"
"/data/datasets/datagov/data/data/datagovdata/camagis-property-details.csv","MailingAddress1","uri",".*?$(?<!\.aspx)"
"/data/datasets/datagov/data/data/datagovdata/camagis-property-details.csv","CondoNumber","uri",".*?$(?<!\.aspx)"
"/data/datasets/datagov/data/data/datagovdata/camagis-property-details.csv","Owner1Last","uri",".*?$(?<!\.aspx)"
"/data/datasets/datagov/data/data/datagovdata/camagis-property-details.csv","PrimHeatTypeDesc","uri",".*?$(?<!\.aspx)"
"/data/datasets/datagov/data/data/datagovdata/camagis-property-details.csv","LastGrantor","uri",".*?$(?<!\.aspx)"
"/data/datasets/datagov/data/data/datagovdata/camagis-property-details.csv","LastSaleDate","strings","[^""\r\n]*"
"/data/datasets/datagov/data/data/datagovdata/camagis-property-details.csv","LUCDescription","strings","[^""\r\n]*"
"/data/datasets/datagov/data/data/datagovdata/camagis-property-details.csv","LivingUnits","numbers","^(\d|,)*\.?\d*$"
"/data/datasets/datagov/data/data/datagovdata/camagis-property-details.csv","ParcelNumber","numbers","^(\d|,)*\.?\d*$"
"/data/datasets/datagov/data/data/datagovdata/camagis-property-details.csv","StreetNumberTo","uri",".*?$(?<!\.aspx)"
"/data/datasets/datagov/data/data/datagovdata/camagis-property-details.csv","LegalRef","numbers","^(\d|,)*\.?\d*$"
"/data/datasets/datagov/data/data/datagovdata/camagis-property-details.csv","GrossBuiltArea","numbers","^(\d|,)*\.?\d*$"
