"file_name","column_name","label","regex"
"/data/datasets/datagov/data/data/datagovdata/graduation-outcomes-classes-of-2005-2010-by-borough-f7bb6.csv","Local - % of grads","uri",".*?$(?<!\.aspx)"
"/data/datasets/datagov/data/data/datagovdata/graduation-outcomes-classes-of-2005-2010-by-borough-f7bb6.csv","Total Regents - % of cohort","uri",".*?$(?<!\.aspx)"
"/data/datasets/datagov/data/data/datagovdata/graduation-outcomes-classes-of-2005-2010-by-borough-f7bb6.csv","Advanced Regents - % of cohort","uri",".*?$(?<!\.aspx)"
"/data/datasets/datagov/data/data/datagovdata/graduation-outcomes-classes-of-2005-2010-by-borough-f7bb6.csv","Cohort","uri",".*?$(?<!\.aspx)"
"/data/datasets/datagov/data/data/datagovdata/graduation-outcomes-classes-of-2005-2010-by-borough-f7bb6.csv","Local - % of cohort","numbers","^[-+]?\d+(\.\d+)?|[-+]?\.\d+?$"
"/data/datasets/datagov/data/data/datagovdata/graduation-outcomes-classes-of-2005-2010-by-borough-f7bb6.csv","Dropped Out - n","numbers","^[-+]?\d+(\.\d+)?|[-+]?\.\d+?$"
"/data/datasets/datagov/data/data/datagovdata/graduation-outcomes-classes-of-2005-2010-by-borough-f7bb6.csv","Still Enrolled - % of cohort","numbers","^[-+]?\d+(\.\d+)?|[-+]?\.\d+?$"
"/data/datasets/datagov/data/data/datagovdata/graduation-outcomes-classes-of-2005-2010-by-borough-f7bb6.csv","Still Enrolled - n","numbers","^[-+]?\d+(\.\d+)?|[-+]?\.\d+?$"
"/data/datasets/datagov/data/data/datagovdata/graduation-outcomes-classes-of-2005-2010-by-borough-f7bb6.csv","Advanced Regents - % of grads","uri",".*?$(?<!\.aspx)"
"/data/datasets/datagov/data/data/datagovdata/graduation-outcomes-classes-of-2005-2010-by-borough-f7bb6.csv","Total Grads - % of cohort","numbers","^[-+]?\d+(\.\d+)?|[-+]?\.\d+?$"
"/data/datasets/datagov/data/data/datagovdata/graduation-outcomes-classes-of-2005-2010-by-borough-f7bb6.csv","Total Cohort","numbers","^[-+]?\d+(\.\d+)?|[-+]?\.\d+?$"
"/data/datasets/datagov/data/data/datagovdata/graduation-outcomes-classes-of-2005-2010-by-borough-f7bb6.csv","Total Grads - n","numbers","^[-+]?\d+(\.\d+)?|[-+]?\.\d+?$"
"/data/datasets/datagov/data/data/datagovdata/graduation-outcomes-classes-of-2005-2010-by-borough-f7bb6.csv","Regents w/o Advanced - % of grads","numbers","^[-+]?\d+(\.\d+)?|[-+]?\.\d+?$"
"/data/datasets/datagov/data/data/datagovdata/graduation-outcomes-classes-of-2005-2010-by-borough-f7bb6.csv","Regents w/o Advanced - n","numbers","^[-+]?\d+(\.\d+)?|[-+]?\.\d+?$"
"/data/datasets/datagov/data/data/datagovdata/graduation-outcomes-classes-of-2005-2010-by-borough-f7bb6.csv","Total Regents - % of grads","uri",".*?$(?<!\.aspx)"
"/data/datasets/datagov/data/data/datagovdata/graduation-outcomes-classes-of-2005-2010-by-borough-f7bb6.csv","Dropped Out - % of cohort","numbers","^[-+]?\d+(\.\d+)?|[-+]?\.\d+?$"
"/data/datasets/datagov/data/data/datagovdata/graduation-outcomes-classes-of-2005-2010-by-borough-f7bb6.csv","Local - n","numbers","^[-+]?\d+(\.\d+)?|[-+]?\.\d+?$"
"/data/datasets/datagov/data/data/datagovdata/graduation-outcomes-classes-of-2005-2010-by-borough-f7bb6.csv","Borough","uri",".*?$(?<!\.aspx)"
"/data/datasets/datagov/data/data/datagovdata/graduation-outcomes-classes-of-2005-2010-by-borough-f7bb6.csv","Total Regents - n","numbers","^[-+]?\d+(\.\d+)?|[-+]?\.\d+?$"
"/data/datasets/datagov/data/data/datagovdata/graduation-outcomes-classes-of-2005-2010-by-borough-f7bb6.csv","Regents w/o Advanced - % of cohort","uri",".*?$(?<!\.aspx)"
"/data/datasets/datagov/data/data/datagovdata/graduation-outcomes-classes-of-2005-2010-by-borough-f7bb6.csv","Demographic","uri",".*?$(?<!\.aspx)"
"/data/datasets/datagov/data/data/datagovdata/graduation-outcomes-classes-of-2005-2010-by-borough-f7bb6.csv","Advanced Regents - n","numbers","^[-+]?\d+(\.\d+)?|[-+]?\.\d+?$"
