"file_name","column_name","label","regex"
"/data/datasets/datagov/data/data/datagovdata/nowcast-predictions-for-chikungunya-virus-infected-travelers-187b8.csv","location","uri",".*?$(?<!\.aspx)"
"/data/datasets/datagov/data/data/datagovdata/nowcast-predictions-for-chikungunya-virus-infected-travelers-187b8.csv","pInfectedTravelerMin","numbers","^\d$"
"/data/datasets/datagov/data/data/datagovdata/nowcast-predictions-for-chikungunya-virus-infected-travelers-187b8.csv","pInfectedTravelerMax","numbers","^\d$"
"/data/datasets/datagov/data/data/datagovdata/nowcast-predictions-for-chikungunya-virus-infected-travelers-187b8.csv","pInfectedTravelerAve","numbers","^\d$"
"/data/datasets/datagov/data/data/datagovdata/nowcast-predictions-for-chikungunya-virus-infected-travelers-187b8.csv","month","strings","[^""\r\n]*"
"/data/datasets/datagov/data/data/datagovdata/nowcast-predictions-for-chikungunya-virus-infected-travelers-187b8.csv","localcases","numbers","^\d$"
