"file_name","column_name","label","regex"
"/data/datasets/datagov/data/data/datagovdata/reportable-communicable-disease-cases-2010-2012-331b7.csv","2010","numbers","^-?\d*(\.\d+)?$"
"/data/datasets/datagov/data/data/datagovdata/reportable-communicable-disease-cases-2010-2012-331b7.csv","Disease","strings","[^""\r\n]*"
"/data/datasets/datagov/data/data/datagovdata/reportable-communicable-disease-cases-2010-2012-331b7.csv","2012","numbers","^-?\d*(\.\d+)?$"
"/data/datasets/datagov/data/data/datagovdata/reportable-communicable-disease-cases-2010-2012-331b7.csv","2011","numbers","^-?\d*(\.\d+)?$"
