"file_name","column_name","label","regex"
"/data/datasets/datagov/data/data/datagovdata/tgr2006se_sanm_wat.csv","CFCC","uri",".*?$(?<!\.aspx)"
"/data/datasets/datagov/data/data/datagovdata/tgr2006se_sanm_wat.csv","COUNTY","numbers","^\d$"
"/data/datasets/datagov/data/data/datagovdata/tgr2006se_sanm_wat.csv","LANDNAME","uri",".*?$(?<!\.aspx)"
"/data/datasets/datagov/data/data/datagovdata/tgr2006se_sanm_wat.csv","FLAG","numbers","^\d$"
"/data/datasets/datagov/data/data/datagovdata/tgr2006se_sanm_wat.csv","GIST_ID","numbers","^\d$"
