"file_name","column_name","label","regex"
"/data/datasets/datagov/data/data/datagovdata/most-popular-baby-girl-names-1980-2013-3f00a.csv","Frequency","numbers","^\d*$"
"/data/datasets/datagov/data/data/datagovdata/most-popular-baby-girl-names-1980-2013-3f00a.csv","Rank","numbers","^\d*$"
"/data/datasets/datagov/data/data/datagovdata/most-popular-baby-girl-names-1980-2013-3f00a.csv","Name","uri",".*?$(?<!\.aspx)"
"/data/datasets/datagov/data/data/datagovdata/most-popular-baby-girl-names-1980-2013-3f00a.csv","Year","numbers","^\d*$"
