"file_name","column_name","label","regex"
"/data/datasets/datagov/data/data/datagovdata/stamford-school-lookup.csv","Location 1","uri",".*?$(?<!\.aspx)"
"/data/datasets/datagov/data/data/datagovdata/stamford-school-lookup.csv","Mid_Sch","uri",".*?$(?<!\.aspx)"
"/data/datasets/datagov/data/data/datagovdata/stamford-school-lookup.csv","Elem_Sch","uri",".*?$(?<!\.aspx)"
"/data/datasets/datagov/data/data/datagovdata/stamford-school-lookup.csv","H_Sch","uri",".*?$(?<!\.aspx)"
"/data/datasets/datagov/data/data/datagovdata/stamford-school-lookup.csv","Side","uri",".*?$(?<!\.aspx)"
"/data/datasets/datagov/data/data/datagovdata/stamford-school-lookup.csv","HN_End","numbers","^\d*$"
"/data/datasets/datagov/data/data/datagovdata/stamford-school-lookup.csv","HN_Start","numbers","^\d*$"
