"file_name","column_name","label","regex"
"/data/datasets/datagov/data/data/datagovdata/protected-lands.csv","GIS_Acres","numbers","^(\d|,)*\.?\d*$"
"/data/datasets/datagov/data/data/datagovdata/protected-lands.csv","Shape_Leng","numbers","^(\d|,)*\.?\d*$"
"/data/datasets/datagov/data/data/datagovdata/protected-lands.csv","DESCRIP","uri",".*?$(?<!\.aspx)"
"/data/datasets/datagov/data/data/datagovdata/protected-lands.csv","M_B_L","strings","[^""\r\n]*"
"/data/datasets/datagov/data/data/datagovdata/protected-lands.csv","Favor_of","uri",".*?$(?<!\.aspx)"
"/data/datasets/datagov/data/data/datagovdata/protected-lands.csv","CD_SRC","uri",".*?$(?<!\.aspx)"
"/data/datasets/datagov/data/data/datagovdata/protected-lands.csv","OBJECTID","numbers","^(\d|,)*\.?\d*$"
"/data/datasets/datagov/data/data/datagovdata/protected-lands.csv","NAME","uri",".*?$(?<!\.aspx)"
"/data/datasets/datagov/data/data/datagovdata/protected-lands.csv","TOWN","uri",".*?$(?<!\.aspx)"
"/data/datasets/datagov/data/data/datagovdata/protected-lands.csv","Shape.area","numbers","^(\d|,)*\.?\d*$"
"/data/datasets/datagov/data/data/datagovdata/protected-lands.csv","TYPE","strings","[^""\r\n]*"
"/data/datasets/datagov/data/data/datagovdata/protected-lands.csv","COMMITTED_","uri",".*?$(?<!\.aspx)"
"/data/datasets/datagov/data/data/datagovdata/protected-lands.csv","Shape","uri",".*?$(?<!\.aspx)"
