"file_name","column_name","label","regex"
"/data/datasets/datagov/data/data/datagovdata/g20121az.csv","Unnamed: 39","numbers","^(\d|,)*\.?\d*$"
"/data/datasets/datagov/data/data/datagovdata/g20121az.csv","0000001","numbers","^(\d|,)*\.?\d*$"
"/data/datasets/datagov/data/data/datagovdata/g20121az.csv","040","numbers","^(\d|,)*\.?\d*$"
"/data/datasets/datagov/data/data/datagovdata/g20121az.csv","04000US04","uri",".*?$(?<!\.aspx)"
"/data/datasets/datagov/data/data/datagovdata/g20121az.csv","Unnamed: 26","numbers","^(\d|,)*\.?\d*$"
"/data/datasets/datagov/data/data/datagovdata/g20121az.csv","Unnamed: 40","numbers","^(\d|,)*\.?\d*$"
"/data/datasets/datagov/data/data/datagovdata/g20121az.csv","Unnamed: 43","uri",".*?$(?<!\.aspx)"
"/data/datasets/datagov/data/data/datagovdata/g20121az.csv","ACSSF","uri",".*?$(?<!\.aspx)"
"/data/datasets/datagov/data/data/datagovdata/g20121az.csv","00","uri",".*?$(?<!\.aspx)"
"/data/datasets/datagov/data/data/datagovdata/g20121az.csv","Unnamed: 41","numbers","^(\d|,)*\.?\d*$"
"/data/datasets/datagov/data/data/datagovdata/g20121az.csv","AZ","uri",".*?$(?<!\.aspx)"
"/data/datasets/datagov/data/data/datagovdata/g20121az.csv","04","numbers","^(\d|,)*\.?\d*$"
"/data/datasets/datagov/data/data/datagovdata/g20121az.csv","Unnamed: 22","numbers","^(\d|,)*\.?\d*$"
"/data/datasets/datagov/data/data/datagovdata/g20121az.csv","Unnamed: 42","uri",".*?$(?<!\.aspx)"
"/data/datasets/datagov/data/data/datagovdata/g20121az.csv","Unnamed: 12","numbers","^(\d|,)*\.?\d*$"
"/data/datasets/datagov/data/data/datagovdata/g20121az.csv","Arizona","uri",".*?$(?<!\.aspx)"
"/data/datasets/datagov/data/data/datagovdata/g20121az.csv","Unnamed: 10","numbers","^(\d|,)*\.?\d*$"
"/data/datasets/datagov/data/data/datagovdata/g20121az.csv","Unnamed: 32","numbers","^(\d|,)*\.?\d*$"
"/data/datasets/datagov/data/data/datagovdata/g20121az.csv","Unnamed: 46","numbers","^(\d|,)*\.?\d*$"
