"file_name","column_name","label","regex"
"/data/datasets/datagov/data/data/datagovdata/foia-request-log-water-management-4bb3b.csv","DUE DATE","strings","[^""\r\n]*"
"/data/datasets/datagov/data/data/datagovdata/foia-request-log-water-management-4bb3b.csv","DESCRIPTION OF REQUEST","strings","[^""\r\n]*"
"/data/datasets/datagov/data/data/datagovdata/foia-request-log-water-management-4bb3b.csv","REQUESTOR NAME","strings","[^""\r\n]*"
"/data/datasets/datagov/data/data/datagovdata/foia-request-log-water-management-4bb3b.csv","DATE RECEIVED","strings","[^""\r\n]*"
"/data/datasets/datagov/data/data/datagovdata/foia-request-log-water-management-4bb3b.csv","ORGANIZATION","strings","[^""\r\n]*"
