"file_name","column_name","label","regex"
"/data/datasets/datagov/data/data/datagovdata/violent-crimes.csv","Historical Data","numbers","^(\d|,)*\.?\d*$"
"/data/datasets/datagov/data/data/datagovdata/violent-crimes.csv","Target","numbers","^(\d|,)*\.?\d*$"
"/data/datasets/datagov/data/data/datagovdata/violent-crimes.csv","Years","numbers","^(\d|,)*\.?\d*$"
