"file_name","column_name","label","regex"
"/data/datasets/datagov/data/data/datagovdata/dialysis-facility-compare-national-averages.csv","Hospitalizations - As expected","numbers","^\d*$"
"/data/datasets/datagov/data/data/datagovdata/dialysis-facility-compare-national-averages.csv","Lists the percentage of adult patients with serum phosphorus between 4.6-5.5 mg/dL","numbers","^\d*$"
"/data/datasets/datagov/data/data/datagovdata/dialysis-facility-compare-national-averages.csv","Lists the number of facilities in the nation with patient transfusions categorized as ""As expected""","numbers","^\d*$"
"/data/datasets/datagov/data/data/datagovdata/dialysis-facility-compare-national-averages.csv","Survival - Better than expected","numbers","^\d*$"
"/data/datasets/datagov/data/data/datagovdata/dialysis-facility-compare-national-averages.csv","Percentage of adult HD patients with Kt/V >=1.2","uri","9[0-9]"
"/data/datasets/datagov/data/data/datagovdata/dialysis-facility-compare-national-averages.csv","Percentage of pediatric HD patients with Kt/V >=1.2","numbers","^\d*$"
"/data/datasets/datagov/data/data/datagovdata/dialysis-facility-compare-national-averages.csv","Survival - As expected","numbers","^\d*$"
"/data/datasets/datagov/data/data/datagovdata/dialysis-facility-compare-national-averages.csv","Number of facilities in the nation with patient hospital readmissions categorized as ""As expected""","numbers","^\d*$"
"/data/datasets/datagov/data/data/datagovdata/dialysis-facility-compare-national-averages.csv","Lists the percentage of adult patients with serum phosphorus greater than 7.0 mg/dL","numbers","^\d*$"
"/data/datasets/datagov/data/data/datagovdata/dialysis-facility-compare-national-averages.csv","Lists the number of facilities in the nation with patient transfusions categorized as ""Worse than expected""","numbers","^\d*$"
"/data/datasets/datagov/data/data/datagovdata/dialysis-facility-compare-national-averages.csv","Hospitalizations - Worse than expected","numbers","^\d*$"
"/data/datasets/datagov/data/data/datagovdata/dialysis-facility-compare-national-averages.csv","Percentage of patients with Hgb<10 g/dL","numbers","^\d*$"
"/data/datasets/datagov/data/data/datagovdata/dialysis-facility-compare-national-averages.csv","Lists the percentage of adult patients with serum phosphorus between 5.6-7.0 mg/dL","numbers","^\d*$"
"/data/datasets/datagov/data/data/datagovdata/dialysis-facility-compare-national-averages.csv","Lists the percentage of adult patients with serum phosphorus between 3.5-4.5 mg/dL","numbers","^\d*$"
"/data/datasets/datagov/data/data/datagovdata/dialysis-facility-compare-national-averages.csv","Percentage of adult PD PTS with Kt/V >=1.7","numbers","^\d*$"
"/data/datasets/datagov/data/data/datagovdata/dialysis-facility-compare-national-averages.csv","Number of facilities in the nation with patient hospital readmissions categorized as ""Worse than expected""","numbers","^\d*$"
"/data/datasets/datagov/data/data/datagovdata/dialysis-facility-compare-national-averages.csv","Percentage of patients with vascular catheter in use for 90 days or longer","numbers","^\d*$"
"/data/datasets/datagov/data/data/datagovdata/dialysis-facility-compare-national-averages.csv","Survival - Worse than expected","numbers","^\d*$"
"/data/datasets/datagov/data/data/datagovdata/dialysis-facility-compare-national-averages.csv","Number of facilities in the nation with patient hospital readmissions categorized as ""Better than expected""","numbers","^\d*$"
"/data/datasets/datagov/data/data/datagovdata/dialysis-facility-compare-national-averages.csv","Lists the number of facilities in the nation with patient transfusions categorized as ""Better than expected""","numbers","^\d*$"
"/data/datasets/datagov/data/data/datagovdata/dialysis-facility-compare-national-averages.csv","Hospitalizations - Better than expected","numbers","^\d*$"
"/data/datasets/datagov/data/data/datagovdata/dialysis-facility-compare-national-averages.csv","Lists the percentage of adult patients with hypercalcemia (serum calcium greater than 10.2 mg/dL)","numbers","^\d*$"
"/data/datasets/datagov/data/data/datagovdata/dialysis-facility-compare-national-averages.csv","Lists the percentage of adult patients with serum phosphorus less than 3.5 mg/dL","numbers","^\d*$"
"/data/datasets/datagov/data/data/datagovdata/dialysis-facility-compare-national-averages.csv","Percentage of patients with Hgb> 12 g/dL","numbers","^\d*$"
"/data/datasets/datagov/data/data/datagovdata/dialysis-facility-compare-national-averages.csv","Percentage of patients with arteriovenous fistulae in place","numbers","^\d*$"
"/data/datasets/datagov/data/data/datagovdata/dialysis-facility-compare-national-averages.csv","Country","uri","9[0-9]"
