"file_name","column_name","label","regex"
"/data/datasets/datagov/data/data/datagovdata/dbedt-hawaii-utility-companies-rank-among-the-top-in-cumulative-solar-watts-per-customer-1b934.csv","Cumulative Through 2010 (WAC/customer)","numbers","^(\d|,)*\.?\d*$"
"/data/datasets/datagov/data/data/datagovdata/dbedt-hawaii-utility-companies-rank-among-the-top-in-cumulative-solar-watts-per-customer-1b934.csv","Utility","uri",".*?$(?<!\.aspx)"
