"file_name","column_name","label","regex"
"/data/datasets/datagov/data/data/datagovdata/montgomery-county-ride-on-bus-stops.csv","OnStreet","uri",".*?$(?<!\.aspx)"
"/data/datasets/datagov/data/data/datagovdata/montgomery-county-ride-on-bus-stops.csv","Location","uri",".*?$(?<!\.aspx)"
"/data/datasets/datagov/data/data/datagovdata/montgomery-county-ride-on-bus-stops.csv","Latitude","numbers","^(\d|,)*\.?\d*$"
"/data/datasets/datagov/data/data/datagovdata/montgomery-county-ride-on-bus-stops.csv","City","uri",".*?$(?<!\.aspx)"
"/data/datasets/datagov/data/data/datagovdata/montgomery-county-ride-on-bus-stops.csv","Longitude","numbers","^(\d|,)*\.?\d*$"
"/data/datasets/datagov/data/data/datagovdata/montgomery-county-ride-on-bus-stops.csv","State","uri",".*?$(?<!\.aspx)"
"/data/datasets/datagov/data/data/datagovdata/montgomery-county-ride-on-bus-stops.csv","StopId","numbers","^(\d|,)*\.?\d*$"
"/data/datasets/datagov/data/data/datagovdata/montgomery-county-ride-on-bus-stops.csv","OBJECTID","numbers","^(\d|,)*\.?\d*$"
"/data/datasets/datagov/data/data/datagovdata/montgomery-county-ride-on-bus-stops.csv","AtStreet","uri",".*?$(?<!\.aspx)"
"/data/datasets/datagov/data/data/datagovdata/montgomery-county-ride-on-bus-stops.csv","AbbrName","uri",".*?$(?<!\.aspx)"
"/data/datasets/datagov/data/data/datagovdata/montgomery-county-ride-on-bus-stops.csv","StopName","uri",".*?$(?<!\.aspx)"
"/data/datasets/datagov/data/data/datagovdata/montgomery-county-ride-on-bus-stops.csv","Bus_Routes","uri",".*?$(?<!\.aspx)"
"/data/datasets/datagov/data/data/datagovdata/montgomery-county-ride-on-bus-stops.csv","StopAbbr","numbers","^(\d|,)*\.?\d*$"
"/data/datasets/datagov/data/data/datagovdata/montgomery-county-ride-on-bus-stops.csv","ZipCode","uri",".*?$(?<!\.aspx)"
"/data/datasets/datagov/data/data/datagovdata/montgomery-county-ride-on-bus-stops.csv","Shape","uri",".*?$(?<!\.aspx)"
