"file_name","column_name","label","regex"
"/data/datasets/datagov/data/data/datagovdata/selected-trend-table-from-health-united-states-2011-low-birthweight-live-births-by-race-an.csv","2008-2010","numbers","^(\d|,)*\.?\d*$"
"/data/datasets/datagov/data/data/datagovdata/selected-trend-table-from-health-united-states-2011-low-birthweight-live-births-by-race-an.csv","Location 1","uri","^[^\\\/\?\*\""\'\>\<\:\|]*$"
"/data/datasets/datagov/data/data/datagovdata/selected-trend-table-from-health-united-states-2011-low-birthweight-live-births-by-race-an.csv","2000-2002 Flag","strings","[^""\r\n]*"
"/data/datasets/datagov/data/data/datagovdata/selected-trend-table-from-health-united-states-2011-low-birthweight-live-births-by-race-an.csv","Race Ethnicity","uri","^[^\\\/\?\*\""\'\>\<\:\|]*$"
"/data/datasets/datagov/data/data/datagovdata/selected-trend-table-from-health-united-states-2011-low-birthweight-live-births-by-race-an.csv","2003-2005","numbers","^(\d|,)*\.?\d*$"
"/data/datasets/datagov/data/data/datagovdata/selected-trend-table-from-health-united-states-2011-low-birthweight-live-births-by-race-an.csv","2007-2009 Flag","strings","[^""\r\n]*"
"/data/datasets/datagov/data/data/datagovdata/selected-trend-table-from-health-united-states-2011-low-birthweight-live-births-by-race-an.csv","RE Sort","numbers","^(\d|,)*\.?\d*$"
"/data/datasets/datagov/data/data/datagovdata/selected-trend-table-from-health-united-states-2011-low-birthweight-live-births-by-race-an.csv","2008-2010 Flag","strings","[^""\r\n]*"
"/data/datasets/datagov/data/data/datagovdata/selected-trend-table-from-health-united-states-2011-low-birthweight-live-births-by-race-an.csv","2007-2009","numbers","^(\d|,)*\.?\d*$"
"/data/datasets/datagov/data/data/datagovdata/selected-trend-table-from-health-united-states-2011-low-birthweight-live-births-by-race-an.csv","2003-2005 Flag","strings","[^""\r\n]*"
"/data/datasets/datagov/data/data/datagovdata/selected-trend-table-from-health-united-states-2011-low-birthweight-live-births-by-race-an.csv","2000-2002","numbers","^(\d|,)*\.?\d*$"
"/data/datasets/datagov/data/data/datagovdata/selected-trend-table-from-health-united-states-2011-low-birthweight-live-births-by-race-an.csv","RE Flag","numbers","^(\d|,)*\.?\d*$"
"/data/datasets/datagov/data/data/datagovdata/selected-trend-table-from-health-united-states-2011-low-birthweight-live-births-by-race-an.csv","State","uri","^[^\\\/\?\*\""\'\>\<\:\|]*$"
