"file_name","column_name","label","regex"
"/data/datasets/datagov/data/data/datagovdata/nyc-open-data-plan-list-of-datasets-removed-03693.csv","Agency","uri",".*?$(?<!\.aspx)"
"/data/datasets/datagov/data/data/datagovdata/nyc-open-data-plan-list-of-datasets-removed-03693.csv","Dataset Description","strings","[^""\r\n]*"
"/data/datasets/datagov/data/data/datagovdata/nyc-open-data-plan-list-of-datasets-removed-03693.csv","Dataset","strings","[^""\r\n]*"
"/data/datasets/datagov/data/data/datagovdata/nyc-open-data-plan-list-of-datasets-removed-03693.csv","Reason for Removal","strings","[^""\r\n]*"
