"file_name","column_name","label","regex"
"/data/datasets/datagov/data/data/datagovdata/better-brakes-baseline-dataset-a6c28.csv","ZincWtPercent","numbers","^[-+]?\d+(\.\d+)?|[-+]?\.\d+?$"
"/data/datasets/datagov/data/data/datagovdata/better-brakes-baseline-dataset-a6c28.csv","AntimonyWtPercent","numbers","^[-+]?\d+(\.\d+)?|[-+]?\.\d+?$"
"/data/datasets/datagov/data/data/datagovdata/better-brakes-baseline-dataset-a6c28.csv","HeavyVechicleFlag","uri",".*?$(?<!\.aspx)"
"/data/datasets/datagov/data/data/datagovdata/better-brakes-baseline-dataset-a6c28.csv","LightVechicleFlag","uri",".*?$(?<!\.aspx)"
"/data/datasets/datagov/data/data/datagovdata/better-brakes-baseline-dataset-a6c28.csv","CopperWtPercent","numbers","^[-+]?\d+(\.\d+)?|[-+]?\.\d+?$"
"/data/datasets/datagov/data/data/datagovdata/better-brakes-baseline-dataset-a6c28.csv","NickelWtPercent","numbers","^[-+]?\d+(\.\d+)?|[-+]?\.\d+?$"
