"file_name","column_name","label","regex"
"/data/datasets/datagov/data/data/datagovdata/historical-inspection-requests.csv","PropertyKey","uri",".*?$(?<!\.aspx)"
"/data/datasets/datagov/data/data/datagovdata/historical-inspection-requests.csv","ComplaintClass","uri",".*?$(?<!\.aspx)"
"/data/datasets/datagov/data/data/datagovdata/historical-inspection-requests.csv","ViolatorName","uri",".*?$(?<!\.aspx)"
"/data/datasets/datagov/data/data/datagovdata/historical-inspection-requests.csv","ComplaintType","uri",".*?$(?<!\.aspx)"
"/data/datasets/datagov/data/data/datagovdata/historical-inspection-requests.csv","StreetName","uri",".*?$(?<!\.aspx)"
"/data/datasets/datagov/data/data/datagovdata/historical-inspection-requests.csv","HouseNum","numbers","^(\d|,)*\.?\d*$"
"/data/datasets/datagov/data/data/datagovdata/historical-inspection-requests.csv","UnitNumber","uri",".*?$(?<!\.aspx)"
"/data/datasets/datagov/data/data/datagovdata/historical-inspection-requests.csv","ComplaintNumber","uri",".*?$(?<!\.aspx)"
"/data/datasets/datagov/data/data/datagovdata/historical-inspection-requests.csv","Inspector","numbers","^(\d|,)*\.?\d*$"
"/data/datasets/datagov/data/data/datagovdata/historical-inspection-requests.csv","ComplaintMeth","uri",".*?$(?<!\.aspx)"
"/data/datasets/datagov/data/data/datagovdata/historical-inspection-requests.csv","StreetDir","uri",".*?$(?<!\.aspx)"
"/data/datasets/datagov/data/data/datagovdata/historical-inspection-requests.csv","UpdateDateTime","strings","[^""\r\n]*"
"/data/datasets/datagov/data/data/datagovdata/historical-inspection-requests.csv","CreateOpID","uri",".*?$(?<!\.aspx)"
"/data/datasets/datagov/data/data/datagovdata/historical-inspection-requests.csv","Zoning","uri",".*?$(?<!\.aspx)"
"/data/datasets/datagov/data/data/datagovdata/historical-inspection-requests.csv","ParcelOwner","uri",".*?$(?<!\.aspx)"
"/data/datasets/datagov/data/data/datagovdata/historical-inspection-requests.csv","Description","strings","[^""\r\n]*"
"/data/datasets/datagov/data/data/datagovdata/historical-inspection-requests.csv","Y","numbers","^(\d|,)*\.?\d*$"
"/data/datasets/datagov/data/data/datagovdata/historical-inspection-requests.csv","UpdateOpID","uri",".*?$(?<!\.aspx)"
"/data/datasets/datagov/data/data/datagovdata/historical-inspection-requests.csv","StopWorkIssued","uri",".*?$(?<!\.aspx)"
"/data/datasets/datagov/data/data/datagovdata/historical-inspection-requests.csv","RecievedDate","strings","[^""\r\n]*"
"/data/datasets/datagov/data/data/datagovdata/historical-inspection-requests.csv","StreetSuffix","uri",".*?$(?<!\.aspx)"
"/data/datasets/datagov/data/data/datagovdata/historical-inspection-requests.csv","ViolationAddress","uri",".*?$(?<!\.aspx)"
"/data/datasets/datagov/data/data/datagovdata/historical-inspection-requests.csv","X","numbers","^(\d|,)*\.?\d*$"
"/data/datasets/datagov/data/data/datagovdata/historical-inspection-requests.csv","Category","uri",".*?$(?<!\.aspx)"
"/data/datasets/datagov/data/data/datagovdata/historical-inspection-requests.csv","CreateDateTime","strings","[^""\r\n]*"
"/data/datasets/datagov/data/data/datagovdata/historical-inspection-requests.csv","ResolutionType","uri",".*?$(?<!\.aspx)"
