"file_name","column_name","label","regex"
"/data/datasets/datagov/data/data/datagovdata/city-of-seattle-webstats-most-popular-pages.csv","AvgTimeonPage","strings","[^""\r\n]*"
"/data/datasets/datagov/data/data/datagovdata/city-of-seattle-webstats-most-popular-pages.csv","UniquePageviews","numbers","^[-+]?\d+(\.\d+)?|[-+]?\.\d+?$"
"/data/datasets/datagov/data/data/datagovdata/city-of-seattle-webstats-most-popular-pages.csv","Pageviews","numbers","^[-+]?\d+(\.\d+)?|[-+]?\.\d+?$"
"/data/datasets/datagov/data/data/datagovdata/city-of-seattle-webstats-most-popular-pages.csv","Month","strings","[^""\r\n]*"
"/data/datasets/datagov/data/data/datagovdata/city-of-seattle-webstats-most-popular-pages.csv","Entrances","numbers","^[-+]?\d+(\.\d+)?|[-+]?\.\d+?$"
"/data/datasets/datagov/data/data/datagovdata/city-of-seattle-webstats-most-popular-pages.csv","Page","strings","[^""\r\n]*"
"/data/datasets/datagov/data/data/datagovdata/city-of-seattle-webstats-most-popular-pages.csv","PercentExit","numbers","^[-+]?\d+(\.\d+)?|[-+]?\.\d+?$"
"/data/datasets/datagov/data/data/datagovdata/city-of-seattle-webstats-most-popular-pages.csv","BounceRate","uri",".*?$(?<!\.aspx)"
