"file_name","column_name","label","regex"
"/data/datasets/datagov/data/data/datagovdata/tgr2006se_eddy_lkd.csv","COUSUBL","numbers","^\d*$"
"/data/datasets/datagov/data/data/datagovdata/tgr2006se_eddy_lkd.csv","COUNTYR","numbers","^\d*$"
"/data/datasets/datagov/data/data/datagovdata/tgr2006se_eddy_lkd.csv","STATER","numbers","^\d*$"
"/data/datasets/datagov/data/data/datagovdata/tgr2006se_eddy_lkd.csv","TRACTL","numbers","^\d*$"
"/data/datasets/datagov/data/data/datagovdata/tgr2006se_eddy_lkd.csv","AIHHTLR","numbers","^\d*$"
"/data/datasets/datagov/data/data/datagovdata/tgr2006se_eddy_lkd.csv","STATEL","numbers","^\d*$"
"/data/datasets/datagov/data/data/datagovdata/tgr2006se_eddy_lkd.csv","TRACTR","numbers","^\d*$"
"/data/datasets/datagov/data/data/datagovdata/tgr2006se_eddy_lkd.csv","COUNTYL","numbers","^\d*$"
"/data/datasets/datagov/data/data/datagovdata/tgr2006se_eddy_lkd.csv","CFCC","uri",".*?$(?<!\.aspx)"
"/data/datasets/datagov/data/data/datagovdata/tgr2006se_eddy_lkd.csv","PLACER","numbers","^\d*$"
"/data/datasets/datagov/data/data/datagovdata/tgr2006se_eddy_lkd.csv","AIHHTLI","numbers","^\d*$"
"/data/datasets/datagov/data/data/datagovdata/tgr2006se_eddy_lkd.csv","SOURCE","uri",".*?$(?<!\.aspx)"
"/data/datasets/datagov/data/data/datagovdata/tgr2006se_eddy_lkd.csv","TLID","numbers","^\d*$"
"/data/datasets/datagov/data/data/datagovdata/tgr2006se_eddy_lkd.csv","BLOCKL","numbers","^\d*$"
"/data/datasets/datagov/data/data/datagovdata/tgr2006se_eddy_lkd.csv","CFCC1","uri",".*?$(?<!\.aspx)"
"/data/datasets/datagov/data/data/datagovdata/tgr2006se_eddy_lkd.csv","TNODE","numbers","^\d*$"
"/data/datasets/datagov/data/data/datagovdata/tgr2006se_eddy_lkd.csv","FNODE","numbers","^\d*$"
"/data/datasets/datagov/data/data/datagovdata/tgr2006se_eddy_lkd.csv","LENGTH","numbers","^\d*$"
"/data/datasets/datagov/data/data/datagovdata/tgr2006se_eddy_lkd.csv","PLACEL","numbers","^\d*$"
"/data/datasets/datagov/data/data/datagovdata/tgr2006se_eddy_lkd.csv","CFCC2","uri",".*?$(?<!\.aspx)"
"/data/datasets/datagov/data/data/datagovdata/tgr2006se_eddy_lkd.csv","CENSUS1","numbers","^\d*$"
"/data/datasets/datagov/data/data/datagovdata/tgr2006se_eddy_lkd.csv","BLOCKR","numbers","^\d*$"
"/data/datasets/datagov/data/data/datagovdata/tgr2006se_eddy_lkd.csv","COUSUBR","numbers","^\d*$"
"/data/datasets/datagov/data/data/datagovdata/tgr2006se_eddy_lkd.csv","FENAME","uri",".*?$(?<!\.aspx)"
"/data/datasets/datagov/data/data/datagovdata/tgr2006se_eddy_lkd.csv","CENSUS2","numbers","^\d*$"
