"file_name","column_name","label","regex"
"/data/datasets/datagov/data/data/datagovdata/profile-pictures-for-hawaii-state-and-county-candidates-2992b.csv","Pic","uri",".*?$(?<!\.aspx)"
"/data/datasets/datagov/data/data/datagovdata/profile-pictures-for-hawaii-state-and-county-candidates-2992b.csv","Candidate Name","uri",".*?$(?<!\.aspx)"
"/data/datasets/datagov/data/data/datagovdata/profile-pictures-for-hawaii-state-and-county-candidates-2992b.csv","Reg No","uri",".*?$(?<!\.aspx)"
