"file_name","column_name","label","regex"
"/data/datasets/datagov/data/data/datagovdata/state-of-oklahoma-county-government-websites-f0f05.csv","Name","uri",".*?$(?<!\.aspx)"
"/data/datasets/datagov/data/data/datagovdata/state-of-oklahoma-county-government-websites-f0f05.csv","Website","uri",".*?$(?<!\.aspx)"
