"file_name","column_name","label","regex"
"/data/datasets/datagov/data/data/datagovdata/outpatient-physical-therapy-locations-b8446.csv","Location 1","uri","^[^\\\/\?\*\""\'\>\<\:\|]*$"
"/data/datasets/datagov/data/data/datagovdata/outpatient-physical-therapy-locations-b8446.csv","PHONE","uri","^[^\\\/\?\*\""\'\>\<\:\|]*$"
"/data/datasets/datagov/data/data/datagovdata/outpatient-physical-therapy-locations-b8446.csv","Services","uri","^[^\\\/\?\*\""\'\>\<\:\|]*$"
"/data/datasets/datagov/data/data/datagovdata/outpatient-physical-therapy-locations-b8446.csv","Name","uri","^[^\\\/\?\*\""\'\>\<\:\|]*$"
"/data/datasets/datagov/data/data/datagovdata/outpatient-physical-therapy-locations-b8446.csv","Island","uri","^[^\\\/\?\*\""\'\>\<\:\|]*$"
"/data/datasets/datagov/data/data/datagovdata/outpatient-physical-therapy-locations-b8446.csv","House","uri","^[^\\\/\?\*\""\'\>\<\:\|]*$"
"/data/datasets/datagov/data/data/datagovdata/outpatient-physical-therapy-locations-b8446.csv","Zip code","numbers","^\d*$"
