"file_name","column_name","label","regex"
"/data/datasets/datagov/data/data/datagovdata/treasurer-2010-annual-tax-sale-registered-buyers-c336b.csv","BuyerName","uri",".*?$(?<!\.aspx)"
"/data/datasets/datagov/data/data/datagovdata/treasurer-2010-annual-tax-sale-registered-buyers-c336b.csv","BuyerID","numbers","^\d*$"
