"file_name","column_name","label","regex"
"/data/datasets/datagov/data/data/datagovdata/ssmma-sales-tax-07aef.csv","OBJECTID","numbers","^(\d|,)*\.?\d*$"
"/data/datasets/datagov/data/data/datagovdata/ssmma-sales-tax-07aef.csv","NAME","uri",".*?$(?<!\.aspx)"
"/data/datasets/datagov/data/data/datagovdata/ssmma-sales-tax-07aef.csv","SalesTax","numbers","^(\d|,)*\.?\d*$"
"/data/datasets/datagov/data/data/datagovdata/ssmma-sales-tax-07aef.csv","TYPE","uri",".*?$(?<!\.aspx)"
