"file_name","column_name","label","regex"
"/data/datasets/datagov/data/data/datagovdata/biodiversity-by-county-distribution-of-animals-plants-and-natural-communities.csv","Taxonomic Group","uri",".*?$(?<!\.aspx)"
"/data/datasets/datagov/data/data/datagovdata/biodiversity-by-county-distribution-of-animals-plants-and-natural-communities.csv","Taxonomic Subgroup","uri",".*?$(?<!\.aspx)"
"/data/datasets/datagov/data/data/datagovdata/biodiversity-by-county-distribution-of-animals-plants-and-natural-communities.csv","County","uri",".*?$(?<!\.aspx)"
"/data/datasets/datagov/data/data/datagovdata/biodiversity-by-county-distribution-of-animals-plants-and-natural-communities.csv","Year Last Documented","uri",".*?$(?<!\.aspx)"
"/data/datasets/datagov/data/data/datagovdata/biodiversity-by-county-distribution-of-animals-plants-and-natural-communities.csv","Distribution Status","uri",".*?$(?<!\.aspx)"
"/data/datasets/datagov/data/data/datagovdata/biodiversity-by-county-distribution-of-animals-plants-and-natural-communities.csv","Common Name","uri",".*?$(?<!\.aspx)"
"/data/datasets/datagov/data/data/datagovdata/biodiversity-by-county-distribution-of-animals-plants-and-natural-communities.csv","Global Conservation Rank","strings","[^""\r\n]*"
"/data/datasets/datagov/data/data/datagovdata/biodiversity-by-county-distribution-of-animals-plants-and-natural-communities.csv","Category","uri",".*?$(?<!\.aspx)"
"/data/datasets/datagov/data/data/datagovdata/biodiversity-by-county-distribution-of-animals-plants-and-natural-communities.csv","Scientific Name","uri",".*?$(?<!\.aspx)"
"/data/datasets/datagov/data/data/datagovdata/biodiversity-by-county-distribution-of-animals-plants-and-natural-communities.csv","State Conservation Rank","strings","[^""\r\n]*"
"/data/datasets/datagov/data/data/datagovdata/biodiversity-by-county-distribution-of-animals-plants-and-natural-communities.csv","NY Listing Status","uri",".*?$(?<!\.aspx)"
"/data/datasets/datagov/data/data/datagovdata/biodiversity-by-county-distribution-of-animals-plants-and-natural-communities.csv","Federal Listing Status","uri",".*?$(?<!\.aspx)"
