"file_name","column_name","label","regex"
"/data/datasets/datagov/data/data/datagovdata/physical-activity.csv","Historical Data","numbers","(^([0-9]+[.]+[0-9]+)|(0)$)"
"/data/datasets/datagov/data/data/datagovdata/physical-activity.csv","Target","numbers","(^([0-9]+[.]+[0-9]+)|(0)$)"
"/data/datasets/datagov/data/data/datagovdata/physical-activity.csv","Years","numbers","(^([0-9]+[.]+[0-9]+)|(0)$)"
