"file_name","column_name","label","regex"
"/data/datasets/datagov/data/data/datagovdata/ocio-it-project-oversight-status-details-c93ca.csv","Scope Status","uri",".*?$(?<!\.aspx)"
"/data/datasets/datagov/data/data/datagovdata/ocio-it-project-oversight-status-details-c93ca.csv","Explanation","strings","[^""\r\n]*"
"/data/datasets/datagov/data/data/datagovdata/ocio-it-project-oversight-status-details-c93ca.csv","Budget Status","uri",".*?$(?<!\.aspx)"
"/data/datasets/datagov/data/data/datagovdata/ocio-it-project-oversight-status-details-c93ca.csv","Schedule Status","uri",".*?$(?<!\.aspx)"
"/data/datasets/datagov/data/data/datagovdata/ocio-it-project-oversight-status-details-c93ca.csv","Status","uri",".*?$(?<!\.aspx)"
"/data/datasets/datagov/data/data/datagovdata/ocio-it-project-oversight-status-details-c93ca.csv","Entered On","strings","[^""\r\n]*"
"/data/datasets/datagov/data/data/datagovdata/ocio-it-project-oversight-status-details-c93ca.csv","Project","strings","[^""\r\n]*"
