"file_name","column_name","label","regex"
"/data/datasets/datagov/data/data/datagovdata/hawaii-county-births-deaths-marriages-civil-unions-2012.csv","Deaths","numbers","^(\d|,)*\.?\d*$"
"/data/datasets/datagov/data/data/datagovdata/hawaii-county-births-deaths-marriages-civil-unions-2012.csv","Birth","numbers","^(\d|,)*\.?\d*$"
"/data/datasets/datagov/data/data/datagovdata/hawaii-county-births-deaths-marriages-civil-unions-2012.csv","Marriages","numbers","^(\d|,)*\.?\d*$"
"/data/datasets/datagov/data/data/datagovdata/hawaii-county-births-deaths-marriages-civil-unions-2012.csv","Civil Unions","numbers","^(\d|,)*\.?\d*$"
"/data/datasets/datagov/data/data/datagovdata/hawaii-county-births-deaths-marriages-civil-unions-2012.csv","Month of Occurrence","uri",".*?$(?<!\.aspx)"
