"file_name","column_name","label","regex"
"/data/datasets/datagov/data/data/datagovdata/state-of-oklahoma-payroll-q2-2013.csv","Report Date","uri",".*?$(?<!\.aspx)"
"/data/datasets/datagov/data/data/datagovdata/state-of-oklahoma-payroll-q2-2013.csv","Amount","numbers","^\d*$"
"/data/datasets/datagov/data/data/datagovdata/state-of-oklahoma-payroll-q2-2013.csv","Account Description","uri",".*?$(?<!\.aspx)"
"/data/datasets/datagov/data/data/datagovdata/state-of-oklahoma-payroll-q2-2013.csv","Hours","numbers","^\d*$"
"/data/datasets/datagov/data/data/datagovdata/state-of-oklahoma-payroll-q2-2013.csv","Agency Name","uri",".*?$(?<!\.aspx)"
"/data/datasets/datagov/data/data/datagovdata/state-of-oklahoma-payroll-q2-2013.csv","Agency Number","numbers","^\d*$"
"/data/datasets/datagov/data/data/datagovdata/state-of-oklahoma-payroll-q2-2013.csv","Check Date","uri",".*?$(?<!\.aspx)"
"/data/datasets/datagov/data/data/datagovdata/state-of-oklahoma-payroll-q2-2013.csv","Account","numbers","^\d*$"
"/data/datasets/datagov/data/data/datagovdata/state-of-oklahoma-payroll-q2-2013.csv","Middle Initial","uri",".*?$(?<!\.aspx)"
"/data/datasets/datagov/data/data/datagovdata/state-of-oklahoma-payroll-q2-2013.csv","Update Date","uri",".*?$(?<!\.aspx)"
"/data/datasets/datagov/data/data/datagovdata/state-of-oklahoma-payroll-q2-2013.csv","Last Name","uri",".*?$(?<!\.aspx)"
"/data/datasets/datagov/data/data/datagovdata/state-of-oklahoma-payroll-q2-2013.csv","First Initial","uri",".*?$(?<!\.aspx)"
