"file_name","column_name","label","regex"
"/data/datasets/datagov/data/data/datagovdata/nms244data455369724_sts_view.csv","GID","numbers","^(\d|,)*\.?\d*$"
"/data/datasets/datagov/data/data/datagovdata/nms244data455369724_sts_view.csv","RGIS_CODE","numbers","^(\d|,)*\.?\d*$"
"/data/datasets/datagov/data/data/datagovdata/nms244data455369724_sts_view.csv","P076006","numbers","^(\d|,)*\.?\d*$"
"/data/datasets/datagov/data/data/datagovdata/nms244data455369724_sts_view.csv","GEO_ID","numbers","^(\d|,)*\.?\d*$"
"/data/datasets/datagov/data/data/datagovdata/nms244data455369724_sts_view.csv","P076010","numbers","^(\d|,)*\.?\d*$"
"/data/datasets/datagov/data/data/datagovdata/nms244data455369724_sts_view.csv","LSAD","uri",".*?$(?<!\.aspx)"
"/data/datasets/datagov/data/data/datagovdata/nms244data455369724_sts_view.csv","P076003","numbers","^(\d|,)*\.?\d*$"
"/data/datasets/datagov/data/data/datagovdata/nms244data455369724_sts_view.csv","P076014","numbers","^(\d|,)*\.?\d*$"
"/data/datasets/datagov/data/data/datagovdata/nms244data455369724_sts_view.csv","STFID","numbers","^(\d|,)*\.?\d*$"
"/data/datasets/datagov/data/data/datagovdata/nms244data455369724_sts_view.csv","LSAD_TRANS","uri",".*?$(?<!\.aspx)"
"/data/datasets/datagov/data/data/datagovdata/nms244data455369724_sts_view.csv","P076013","numbers","^(\d|,)*\.?\d*$"
"/data/datasets/datagov/data/data/datagovdata/nms244data455369724_sts_view.csv","P076007","numbers","^(\d|,)*\.?\d*$"
"/data/datasets/datagov/data/data/datagovdata/nms244data455369724_sts_view.csv","P076008","numbers","^(\d|,)*\.?\d*$"
"/data/datasets/datagov/data/data/datagovdata/nms244data455369724_sts_view.csv","P076009","numbers","^(\d|,)*\.?\d*$"
"/data/datasets/datagov/data/data/datagovdata/nms244data455369724_sts_view.csv","P076004","numbers","^(\d|,)*\.?\d*$"
"/data/datasets/datagov/data/data/datagovdata/nms244data455369724_sts_view.csv","P076017","numbers","^(\d|,)*\.?\d*$"
"/data/datasets/datagov/data/data/datagovdata/nms244data455369724_sts_view.csv","NAME","numbers","^(\d|,)*\.?\d*$"
"/data/datasets/datagov/data/data/datagovdata/nms244data455369724_sts_view.csv","P076016","numbers","^(\d|,)*\.?\d*$"
"/data/datasets/datagov/data/data/datagovdata/nms244data455369724_sts_view.csv","AREA_NAME","uri",".*?$(?<!\.aspx)"
"/data/datasets/datagov/data/data/datagovdata/nms244data455369724_sts_view.csv","SLDU","numbers","^(\d|,)*\.?\d*$"
"/data/datasets/datagov/data/data/datagovdata/nms244data455369724_sts_view.csv","P076005","numbers","^(\d|,)*\.?\d*$"
"/data/datasets/datagov/data/data/datagovdata/nms244data455369724_sts_view.csv","STATE","numbers","^(\d|,)*\.?\d*$"
"/data/datasets/datagov/data/data/datagovdata/nms244data455369724_sts_view.csv","P076012","numbers","^(\d|,)*\.?\d*$"
"/data/datasets/datagov/data/data/datagovdata/nms244data455369724_sts_view.csv","P076001","numbers","^(\d|,)*\.?\d*$"
"/data/datasets/datagov/data/data/datagovdata/nms244data455369724_sts_view.csv","P076011","numbers","^(\d|,)*\.?\d*$"
"/data/datasets/datagov/data/data/datagovdata/nms244data455369724_sts_view.csv","P076002","numbers","^(\d|,)*\.?\d*$"
"/data/datasets/datagov/data/data/datagovdata/nms244data455369724_sts_view.csv","P076015","numbers","^(\d|,)*\.?\d*$"
