"file_name","column_name","label","regex"
"/data/datasets/datagov/data/data/datagovdata/oregon-nursing-homes-2010-02-26-b0dcd.csv","Location","uri",".*?$(?<!\.aspx)"
"/data/datasets/datagov/data/data/datagovdata/oregon-nursing-homes-2010-02-26-b0dcd.csv","County","uri",".*?$(?<!\.aspx)"
"/data/datasets/datagov/data/data/datagovdata/oregon-nursing-homes-2010-02-26-b0dcd.csv","Address","uri",".*?$(?<!\.aspx)"
"/data/datasets/datagov/data/data/datagovdata/oregon-nursing-homes-2010-02-26-b0dcd.csv","Medicare-ID","numbers","^\d*$"
"/data/datasets/datagov/data/data/datagovdata/oregon-nursing-homes-2010-02-26-b0dcd.csv","X","numbers","^\d*$"
"/data/datasets/datagov/data/data/datagovdata/oregon-nursing-homes-2010-02-26-b0dcd.csv","Source","uri",".*?$(?<!\.aspx)"
"/data/datasets/datagov/data/data/datagovdata/oregon-nursing-homes-2010-02-26-b0dcd.csv","Ownership","strings","[^""\r\n]*"
"/data/datasets/datagov/data/data/datagovdata/oregon-nursing-homes-2010-02-26-b0dcd.csv","BEDS","numbers","^\d*$"
"/data/datasets/datagov/data/data/datagovdata/oregon-nursing-homes-2010-02-26-b0dcd.csv","NAICSDESCR","uri",".*?$(?<!\.aspx)"
"/data/datasets/datagov/data/data/datagovdata/oregon-nursing-homes-2010-02-26-b0dcd.csv","SUPFACTYPE","uri",".*?$(?<!\.aspx)"
"/data/datasets/datagov/data/data/datagovdata/oregon-nursing-homes-2010-02-26-b0dcd.csv","Phone","address_or_phone","^[2-9]\d{2}-\d{3}-\d{4}$"
"/data/datasets/datagov/data/data/datagovdata/oregon-nursing-homes-2010-02-26-b0dcd.csv","Name","uri",".*?$(?<!\.aspx)"
"/data/datasets/datagov/data/data/datagovdata/oregon-nursing-homes-2010-02-26-b0dcd.csv","Y","numbers","^\d*$"
"/data/datasets/datagov/data/data/datagovdata/oregon-nursing-homes-2010-02-26-b0dcd.csv","Address2","uri",".*?$(?<!\.aspx)"
"/data/datasets/datagov/data/data/datagovdata/oregon-nursing-homes-2010-02-26-b0dcd.csv","City","uri",".*?$(?<!\.aspx)"
"/data/datasets/datagov/data/data/datagovdata/oregon-nursing-homes-2010-02-26-b0dcd.csv","Facility Type","strings","[^""\r\n]*"
"/data/datasets/datagov/data/data/datagovdata/oregon-nursing-homes-2010-02-26-b0dcd.csv","WEBSITE","strings","[^""\r\n]*"
"/data/datasets/datagov/data/data/datagovdata/oregon-nursing-homes-2010-02-26-b0dcd.csv","State","uri",".*?$(?<!\.aspx)"
"/data/datasets/datagov/data/data/datagovdata/oregon-nursing-homes-2010-02-26-b0dcd.csv","ZIPP4","numbers","^\d*$"
"/data/datasets/datagov/data/data/datagovdata/oregon-nursing-homes-2010-02-26-b0dcd.csv","Zip code","numbers","^\d*$"
