"file_name","column_name","label","regex"
"/data/datasets/datagov/data/data/datagovdata/cultural-affairs-performance-metrics-92019.csv","% of ""% for Public Art"" Projects Completed in tandem with delivery of associated capital project (Annually FY)","uri",".*?$(?<!\.aspx)"
"/data/datasets/datagov/data/data/datagovdata/cultural-affairs-performance-metrics-92019.csv","# of participants and audience members at DCA grant-supported programs (Annually FY)","numbers","^(\d|,)*\.?\d*$"
"/data/datasets/datagov/data/data/datagovdata/cultural-affairs-performance-metrics-92019.csv","PROJECTED: Dollar Value of Grants and Corporate Donations Raised (Annually FY)","numbers","^(\d|,)*\.?\d*$"
"/data/datasets/datagov/data/data/datagovdata/cultural-affairs-performance-metrics-92019.csv","Dollar Value of Grants and Corporate Donations Raised (Annually FY)","numbers","^(\d|,)*\.?\d*$"
"/data/datasets/datagov/data/data/datagovdata/cultural-affairs-performance-metrics-92019.csv","Annual-FY","uri",".*?$(?<!\.aspx)"
"/data/datasets/datagov/data/data/datagovdata/cultural-affairs-performance-metrics-92019.csv","PROJECTED: # of audience members, visitors and participants for DCA-managed Community Arts programs (Annually FY)","numbers","^(\d|,)*\.?\d*$"
"/data/datasets/datagov/data/data/datagovdata/cultural-affairs-performance-metrics-92019.csv","PROJECTED: # of participants and audience members at DCA grant-supported programs (Annually FY)","numbers","^(\d|,)*\.?\d*$"
"/data/datasets/datagov/data/data/datagovdata/cultural-affairs-performance-metrics-92019.csv","# of audience members, visitors and participants for DCA-managed Community Arts programs (Annually FY)","numbers","^(\d|,)*\.?\d*$"
"/data/datasets/datagov/data/data/datagovdata/cultural-affairs-performance-metrics-92019.csv","Date Value","strings","[^""\r\n]*"
"/data/datasets/datagov/data/data/datagovdata/cultural-affairs-performance-metrics-92019.csv","Month-Year","uri",".*?$(?<!\.aspx)"
"/data/datasets/datagov/data/data/datagovdata/cultural-affairs-performance-metrics-92019.csv","PROJECTED: % of ""% for Public Art"" Projects Completed in tandem with delivery of associated capital project (Annually FY)","numbers","^(\d|,)*\.?\d*$"
"/data/datasets/datagov/data/data/datagovdata/cultural-affairs-performance-metrics-92019.csv","Quarter-FY","uri",".*?$(?<!\.aspx)"
