"file_name","column_name","label","regex"
"/data/datasets/datagov/data/data/datagovdata/g20103mt.csv","Unnamed: 39","numbers","^(\d|,)*\.?\d*$"
"/data/datasets/datagov/data/data/datagovdata/g20103mt.csv","0000001","numbers","^(\d|,)*\.?\d*$"
"/data/datasets/datagov/data/data/datagovdata/g20103mt.csv","04000US30","uri",".*?$(?<!\.aspx)"
"/data/datasets/datagov/data/data/datagovdata/g20103mt.csv","040","numbers","^(\d|,)*\.?\d*$"
"/data/datasets/datagov/data/data/datagovdata/g20103mt.csv","MT","uri",".*?$(?<!\.aspx)"
"/data/datasets/datagov/data/data/datagovdata/g20103mt.csv","Unnamed: 40","numbers","^(\d|,)*\.?\d*$"
"/data/datasets/datagov/data/data/datagovdata/g20103mt.csv","30","numbers","^(\d|,)*\.?\d*$"
"/data/datasets/datagov/data/data/datagovdata/g20103mt.csv","Unnamed: 43","uri",".*?$(?<!\.aspx)"
"/data/datasets/datagov/data/data/datagovdata/g20103mt.csv","ACSSF","uri",".*?$(?<!\.aspx)"
"/data/datasets/datagov/data/data/datagovdata/g20103mt.csv","00","uri",".*?$(?<!\.aspx)"
"/data/datasets/datagov/data/data/datagovdata/g20103mt.csv","Montana","uri",".*?$(?<!\.aspx)"
"/data/datasets/datagov/data/data/datagovdata/g20103mt.csv","Unnamed: 46","numbers","^(\d|,)*\.?\d*$"
"/data/datasets/datagov/data/data/datagovdata/g20103mt.csv","Unnamed: 22","numbers","^(\d|,)*\.?\d*$"
"/data/datasets/datagov/data/data/datagovdata/g20103mt.csv","Unnamed: 42","uri",".*?$(?<!\.aspx)"
"/data/datasets/datagov/data/data/datagovdata/g20103mt.csv","Unnamed: 12","numbers","^(\d|,)*\.?\d*$"
"/data/datasets/datagov/data/data/datagovdata/g20103mt.csv","Unnamed: 26","numbers","^(\d|,)*\.?\d*$"
"/data/datasets/datagov/data/data/datagovdata/g20103mt.csv","Unnamed: 10","numbers","^(\d|,)*\.?\d*$"
"/data/datasets/datagov/data/data/datagovdata/g20103mt.csv","Unnamed: 32","numbers","^(\d|,)*\.?\d*$"
