"file_name","column_name","label","regex"
"/data/datasets/datagov/data/data/datagovdata/veterans-affairs-geographic-distribution-of-expenditures-fy08-by-congressional-d.csv","Construction","numbers","^(\d|,)*\.?\d*$"
"/data/datasets/datagov/data/data/datagovdata/veterans-affairs-geographic-distribution-of-expenditures-fy08-by-congressional-d.csv"," General Operating Expenses ","numbers","^(\d|,)*\.?\d*$"
"/data/datasets/datagov/data/data/datagovdata/veterans-affairs-geographic-distribution-of-expenditures-fy08-by-congressional-d.csv"," Medical Care ","numbers","^(\d|,)*\.?\d*$"
"/data/datasets/datagov/data/data/datagovdata/veterans-affairs-geographic-distribution-of-expenditures-fy08-by-congressional-d.csv","Veteran Population","numbers","^(\d|,)*\.?\d*$"
"/data/datasets/datagov/data/data/datagovdata/veterans-affairs-geographic-distribution-of-expenditures-fy08-by-congressional-d.csv"," Education & Vocational Rehabilitation/ Employment ","numbers","^(\d|,)*\.?\d*$"
"/data/datasets/datagov/data/data/datagovdata/veterans-affairs-geographic-distribution-of-expenditures-fy08-by-congressional-d.csv"," Compensation & Pensions ","numbers","^(\d|,)*\.?\d*$"
"/data/datasets/datagov/data/data/datagovdata/veterans-affairs-geographic-distribution-of-expenditures-fy08-by-congressional-d.csv","Total Expenditure","numbers","^(\d|,)*\.?\d*$"
"/data/datasets/datagov/data/data/datagovdata/veterans-affairs-geographic-distribution-of-expenditures-fy08-by-congressional-d.csv"," Insurance & Indemnities ","numbers","^(\d|,)*\.?\d*$"
"/data/datasets/datagov/data/data/datagovdata/veterans-affairs-geographic-distribution-of-expenditures-fy08-by-congressional-d.csv","Congressional District","numbers","^(\d|,)*\.?\d*$"
"/data/datasets/datagov/data/data/datagovdata/veterans-affairs-geographic-distribution-of-expenditures-fy08-by-congressional-d.csv","Unique Patients","numbers","^(\d|,)*\.?\d*$"
"/data/datasets/datagov/data/data/datagovdata/veterans-affairs-geographic-distribution-of-expenditures-fy08-by-congressional-d.csv"," Loan Guaranty ","numbers","^(\d|,)*\.?\d*$"
"/data/datasets/datagov/data/data/datagovdata/veterans-affairs-geographic-distribution-of-expenditures-fy08-by-congressional-d.csv","State","uri",".*?$(?<!\.aspx)"
