"file_name","column_name","label","regex"
"/data/datasets/datagov/data/data/datagovdata/ct-dcf-town-boundaries.csv","KEY","numbers","^\d*$"
"/data/datasets/datagov/data/data/datagovdata/ct-dcf-town-boundaries.csv","COUNTY","uri",".*?$(?<!\.aspx)"
"/data/datasets/datagov/data/data/datagovdata/ct-dcf-town-boundaries.csv","MCD","numbers","^\d*$"
"/data/datasets/datagov/data/data/datagovdata/ct-dcf-town-boundaries.csv","NAME","uri",".*?$(?<!\.aspx)"
"/data/datasets/datagov/data/data/datagovdata/ct-dcf-town-boundaries.csv","TOWN","uri",".*?$(?<!\.aspx)"
"/data/datasets/datagov/data/data/datagovdata/ct-dcf-town-boundaries.csv","the_geom","strings","[^""\r\n]*"
"/data/datasets/datagov/data/data/datagovdata/ct-dcf-town-boundaries.csv","DCF_REGION","uri",".*?$(?<!\.aspx)"
"/data/datasets/datagov/data/data/datagovdata/ct-dcf-town-boundaries.csv","DCF_OFFICE","uri",".*?$(?<!\.aspx)"
