"file_name","column_name","label","regex"
"/data/datasets/datagov/data/data/datagovdata/public-determinations-of-the-nys-commission-on-judicial-conduct-beginning-1977.csv","Name - Last, First","uri",".*?$(?<!\.aspx)"
"/data/datasets/datagov/data/data/datagovdata/public-determinations-of-the-nys-commission-on-judicial-conduct-beginning-1977.csv","Year of Determination","numbers","^\d*$"
"/data/datasets/datagov/data/data/datagovdata/public-determinations-of-the-nys-commission-on-judicial-conduct-beginning-1977.csv","Judicial Title","uri",".*?$(?<!\.aspx)"
"/data/datasets/datagov/data/data/datagovdata/public-determinations-of-the-nys-commission-on-judicial-conduct-beginning-1977.csv","Court","uri",".*?$(?<!\.aspx)"
"/data/datasets/datagov/data/data/datagovdata/public-determinations-of-the-nys-commission-on-judicial-conduct-beginning-1977.csv","County","uri",".*?$(?<!\.aspx)"
"/data/datasets/datagov/data/data/datagovdata/public-determinations-of-the-nys-commission-on-judicial-conduct-beginning-1977.csv","Court of Appeals Review","uri",".*?$(?<!\.aspx)"
"/data/datasets/datagov/data/data/datagovdata/public-determinations-of-the-nys-commission-on-judicial-conduct-beginning-1977.csv","Link","uri",".*?$(?<!\.aspx)"
"/data/datasets/datagov/data/data/datagovdata/public-determinations-of-the-nys-commission-on-judicial-conduct-beginning-1977.csv","Determination","uri",".*?$(?<!\.aspx)"
