"file_name","column_name","label","regex"
"/data/datasets/datagov/data/data/datagovdata/total-king-county-housing-2000-2010-89cc9.csv","Percent Change","numbers","^[-+]?\d+(\.\d+)?|[-+]?\.\d+?$"
"/data/datasets/datagov/data/data/datagovdata/total-king-county-housing-2000-2010-89cc9.csv","Occupancy","uri",".*?$(?<!\.aspx)"
"/data/datasets/datagov/data/data/datagovdata/total-king-county-housing-2000-2010-89cc9.csv","Population 2010","numbers","^[-+]?\d+(\.\d+)?|[-+]?\.\d+?$"
"/data/datasets/datagov/data/data/datagovdata/total-king-county-housing-2000-2010-89cc9.csv","Population 2000","numbers","^[-+]?\d+(\.\d+)?|[-+]?\.\d+?$"
"/data/datasets/datagov/data/data/datagovdata/total-king-county-housing-2000-2010-89cc9.csv","Change","numbers","^[-+]?\d+(\.\d+)?|[-+]?\.\d+?$"
