"file_name","column_name","label","regex"
"/data/datasets/datagov/data/data/datagovdata/nndss-table-ii-babesiosis-to-campylobacteriosis.csv","Location 1","uri","^[^\\\/\?\*\""\'\>\<\:\|]*$"
"/data/datasets/datagov/data/data/datagovdata/nndss-table-ii-babesiosis-to-campylobacteriosis.csv","Babesiosis, Previous 52 weeks Med, flag","numbers","^(\d|,)*\.?\d*$"
"/data/datasets/datagov/data/data/datagovdata/nndss-table-ii-babesiosis-to-campylobacteriosis.csv","MMWR Year","numbers","^(\d|,)*\.?\d*$"
"/data/datasets/datagov/data/data/datagovdata/nndss-table-ii-babesiosis-to-campylobacteriosis.csv","Campylobacteriosis, Cum 2014, flag","uri","^[^\\\/\?\*\""\'\>\<\:\|]*$"
"/data/datasets/datagov/data/data/datagovdata/nndss-table-ii-babesiosis-to-campylobacteriosis.csv","Babesiosis, Previous 52 weeks Max, flag","numbers","^(\d|,)*\.?\d*$"
"/data/datasets/datagov/data/data/datagovdata/nndss-table-ii-babesiosis-to-campylobacteriosis.csv","Campylobacteriosis, Previous 52 weeks Max, flag","numbers","^(\d|,)*\.?\d*$"
"/data/datasets/datagov/data/data/datagovdata/nndss-table-ii-babesiosis-to-campylobacteriosis.csv","Campylobacteriosis, Cum 2015","numbers","^(\d|,)*\.?\d*$"
"/data/datasets/datagov/data/data/datagovdata/nndss-table-ii-babesiosis-to-campylobacteriosis.csv","Babesiosis, Current week","numbers","^(\d|,)*\.?\d*$"
"/data/datasets/datagov/data/data/datagovdata/nndss-table-ii-babesiosis-to-campylobacteriosis.csv","Campylobacteriosis, Cum 2015, flag","uri","^[^\\\/\?\*\""\'\>\<\:\|]*$"
"/data/datasets/datagov/data/data/datagovdata/nndss-table-ii-babesiosis-to-campylobacteriosis.csv","Campylobacteriosis, Current week, flag","uri","^[^\\\/\?\*\""\'\>\<\:\|]*$"
"/data/datasets/datagov/data/data/datagovdata/nndss-table-ii-babesiosis-to-campylobacteriosis.csv","Campylobacteriosis, Previous 52 weeks Med","numbers","^(\d|,)*\.?\d*$"
"/data/datasets/datagov/data/data/datagovdata/nndss-table-ii-babesiosis-to-campylobacteriosis.csv","MMWR Week","numbers","^(\d|,)*\.?\d*$"
"/data/datasets/datagov/data/data/datagovdata/nndss-table-ii-babesiosis-to-campylobacteriosis.csv","Babesiosis, Cum 2014, flag","uri","^[^\\\/\?\*\""\'\>\<\:\|]*$"
"/data/datasets/datagov/data/data/datagovdata/nndss-table-ii-babesiosis-to-campylobacteriosis.csv","Babesiosis, Cum 2015","numbers","^(\d|,)*\.?\d*$"
"/data/datasets/datagov/data/data/datagovdata/nndss-table-ii-babesiosis-to-campylobacteriosis.csv","Campylobacteriosis, Cum 2014","numbers","^(\d|,)*\.?\d*$"
"/data/datasets/datagov/data/data/datagovdata/nndss-table-ii-babesiosis-to-campylobacteriosis.csv","Campylobacteriosis, Current week","numbers","^(\d|,)*\.?\d*$"
"/data/datasets/datagov/data/data/datagovdata/nndss-table-ii-babesiosis-to-campylobacteriosis.csv","Babesiosis, Current week, flag","uri","^[^\\\/\?\*\""\'\>\<\:\|]*$"
"/data/datasets/datagov/data/data/datagovdata/nndss-table-ii-babesiosis-to-campylobacteriosis.csv","Babesiosis, Previous 52 weeks Med","numbers","^(\d|,)*\.?\d*$"
"/data/datasets/datagov/data/data/datagovdata/nndss-table-ii-babesiosis-to-campylobacteriosis.csv","Babesiosis, Cum 2015, flag","uri","^[^\\\/\?\*\""\'\>\<\:\|]*$"
"/data/datasets/datagov/data/data/datagovdata/nndss-table-ii-babesiosis-to-campylobacteriosis.csv","Campylobacteriosis, Previous 52 weeks Max","numbers","^(\d|,)*\.?\d*$"
"/data/datasets/datagov/data/data/datagovdata/nndss-table-ii-babesiosis-to-campylobacteriosis.csv","Babesiosis, Cum 2014","numbers","^(\d|,)*\.?\d*$"
"/data/datasets/datagov/data/data/datagovdata/nndss-table-ii-babesiosis-to-campylobacteriosis.csv","Babesiosis, Previous 52 weeks Max","numbers","^(\d|,)*\.?\d*$"
"/data/datasets/datagov/data/data/datagovdata/nndss-table-ii-babesiosis-to-campylobacteriosis.csv","Campylobacteriosis, Previous 52 weeks Med, flag","numbers","^(\d|,)*\.?\d*$"
"/data/datasets/datagov/data/data/datagovdata/nndss-table-ii-babesiosis-to-campylobacteriosis.csv","Reporting Area","uri","^[^\\\/\?\*\""\'\>\<\:\|]*$"
