"file_name","column_name","label","regex"
"/data/datasets/datagov/data/data/datagovdata/missouri-alcohol-temporary-license-expirations-274a3.csv","Licensee Name","uri",".*?$(?<!\.aspx)"
"/data/datasets/datagov/data/data/datagovdata/missouri-alcohol-temporary-license-expirations-274a3.csv","DBA Name","uri",".*?$(?<!\.aspx)"
"/data/datasets/datagov/data/data/datagovdata/missouri-alcohol-temporary-license-expirations-274a3.csv","latlng","uri",".*?$(?<!\.aspx)"
"/data/datasets/datagov/data/data/datagovdata/missouri-alcohol-temporary-license-expirations-274a3.csv","City","uri",".*?$(?<!\.aspx)"
"/data/datasets/datagov/data/data/datagovdata/missouri-alcohol-temporary-license-expirations-274a3.csv","District","numbers","^\d*$"
"/data/datasets/datagov/data/data/datagovdata/missouri-alcohol-temporary-license-expirations-274a3.csv","County","numbers","^\d*$"
"/data/datasets/datagov/data/data/datagovdata/missouri-alcohol-temporary-license-expirations-274a3.csv","Mailing Address Line 2","uri",".*?$(?<!\.aspx)"
"/data/datasets/datagov/data/data/datagovdata/missouri-alcohol-temporary-license-expirations-274a3.csv","License Current Status","uri",".*?$(?<!\.aspx)"
"/data/datasets/datagov/data/data/datagovdata/missouri-alcohol-temporary-license-expirations-274a3.csv","Mailing Address","uri",".*?$(?<!\.aspx)"
"/data/datasets/datagov/data/data/datagovdata/missouri-alcohol-temporary-license-expirations-274a3.csv","Expiration Date","strings","[^""\r\n]*"
"/data/datasets/datagov/data/data/datagovdata/missouri-alcohol-temporary-license-expirations-274a3.csv","Sub District","numbers","^\d*$"
"/data/datasets/datagov/data/data/datagovdata/missouri-alcohol-temporary-license-expirations-274a3.csv","Business Type","uri",".*?$(?<!\.aspx)"
"/data/datasets/datagov/data/data/datagovdata/missouri-alcohol-temporary-license-expirations-274a3.csv","License Number","numbers","^\d*$"
"/data/datasets/datagov/data/data/datagovdata/missouri-alcohol-temporary-license-expirations-274a3.csv","Street Name","uri",".*?$(?<!\.aspx)"
"/data/datasets/datagov/data/data/datagovdata/missouri-alcohol-temporary-license-expirations-274a3.csv","Street Number","numbers","^\d*$"
"/data/datasets/datagov/data/data/datagovdata/missouri-alcohol-temporary-license-expirations-274a3.csv","License Type","uri",".*?$(?<!\.aspx)"
"/data/datasets/datagov/data/data/datagovdata/missouri-alcohol-temporary-license-expirations-274a3.csv","State","uri",".*?$(?<!\.aspx)"
"/data/datasets/datagov/data/data/datagovdata/missouri-alcohol-temporary-license-expirations-274a3.csv","Zip Code","numbers","^\d*$"
