"file_name","column_name","label","regex"
"/data/datasets/datagov/data/data/datagovdata/idph-std-illinois-by-county-by-race-ethnicity-gonorrhea.csv","Asian_Count","numbers","^(\d|,)*\.?\d*$"
"/data/datasets/datagov/data/data/datagovdata/idph-std-illinois-by-county-by-race-ethnicity-gonorrhea.csv","Total_Counts","numbers","^(\d|,)*\.?\d*$"
"/data/datasets/datagov/data/data/datagovdata/idph-std-illinois-by-county-by-race-ethnicity-gonorrhea.csv","CountyFIPS","numbers","^(\d|,)*\.?\d*$"
"/data/datasets/datagov/data/data/datagovdata/idph-std-illinois-by-county-by-race-ethnicity-gonorrhea.csv","AIAN_Count","numbers","^(\d|,)*\.?\d*$"
"/data/datasets/datagov/data/data/datagovdata/idph-std-illinois-by-county-by-race-ethnicity-gonorrhea.csv","Unk_Count","numbers","^(\d|,)*\.?\d*$"
"/data/datasets/datagov/data/data/datagovdata/idph-std-illinois-by-county-by-race-ethnicity-gonorrhea.csv","Year","numbers","^(\d|,)*\.?\d*$"
"/data/datasets/datagov/data/data/datagovdata/idph-std-illinois-by-county-by-race-ethnicity-gonorrhea.csv","NHPI_Count","numbers","^(\d|,)*\.?\d*$"
"/data/datasets/datagov/data/data/datagovdata/idph-std-illinois-by-county-by-race-ethnicity-gonorrhea.csv","MultiRace_Count","numbers","^(\d|,)*\.?\d*$"
"/data/datasets/datagov/data/data/datagovdata/idph-std-illinois-by-county-by-race-ethnicity-gonorrhea.csv","County/Jurisdiction","uri",".*?$(?<!\.aspx)"
"/data/datasets/datagov/data/data/datagovdata/idph-std-illinois-by-county-by-race-ethnicity-gonorrhea.csv","Black_Count","numbers","^(\d|,)*\.?\d*$"
"/data/datasets/datagov/data/data/datagovdata/idph-std-illinois-by-county-by-race-ethnicity-gonorrhea.csv","Hisp_Count","numbers","^(\d|,)*\.?\d*$"
"/data/datasets/datagov/data/data/datagovdata/idph-std-illinois-by-county-by-race-ethnicity-gonorrhea.csv","Sort","numbers","^(\d|,)*\.?\d*$"
"/data/datasets/datagov/data/data/datagovdata/idph-std-illinois-by-county-by-race-ethnicity-gonorrhea.csv","Other_Count","numbers","^(\d|,)*\.?\d*$"
"/data/datasets/datagov/data/data/datagovdata/idph-std-illinois-by-county-by-race-ethnicity-gonorrhea.csv","White_Count","numbers","^(\d|,)*\.?\d*$"
