"file_name","column_name","label","regex"
"/data/datasets/datagov/data/data/datagovdata/nyc-open-data-plan-dashboard-values-db633.csv","Agency","uri",".*?$(?<!\.aspx)"
"/data/datasets/datagov/data/data/datagovdata/nyc-open-data-plan-dashboard-values-db633.csv","Dataset description","strings","[^""\r\n]*"
"/data/datasets/datagov/data/data/datagovdata/nyc-open-data-plan-dashboard-values-db633.csv","Available","uri",".*?$(?<!\.aspx)"
"/data/datasets/datagov/data/data/datagovdata/nyc-open-data-plan-dashboard-values-db633.csv","Dataset","strings","[^""\r\n]*"
