"file_name","column_name","label","regex"
"/data/datasets/datagov/data/data/datagovdata/suffolk-county-budget-revenue-2013.csv","2013 Adopted","numbers","^\$?\d+(\.(\d{2}))?$"
"/data/datasets/datagov/data/data/datagovdata/suffolk-county-budget-revenue-2013.csv","2012 Adopted","numbers","^\$?\d+(\.(\d{2}))?$"
"/data/datasets/datagov/data/data/datagovdata/suffolk-county-budget-revenue-2013.csv","2012 Modified","numbers","^\$?\d+(\.(\d{2}))?$"
"/data/datasets/datagov/data/data/datagovdata/suffolk-county-budget-revenue-2013.csv","UNIT_CD","uri",".*?$(?<!\.aspx)"
"/data/datasets/datagov/data/data/datagovdata/suffolk-county-budget-revenue-2013.csv","RSRC_CD","uri",".*?$(?<!\.aspx)"
"/data/datasets/datagov/data/data/datagovdata/suffolk-county-budget-revenue-2013.csv","2013 Recommended","numbers","^\$?\d+(\.(\d{2}))?$"
"/data/datasets/datagov/data/data/datagovdata/suffolk-county-budget-revenue-2013.csv","FUND_CD","numbers","^\$?\d+(\.(\d{2}))?$"
"/data/datasets/datagov/data/data/datagovdata/suffolk-county-budget-revenue-2013.csv","2011 Actuals","numbers","^\$?\d+(\.(\d{2}))?$"
"/data/datasets/datagov/data/data/datagovdata/suffolk-county-budget-revenue-2013.csv","Grant","uri",".*?$(?<!\.aspx)"
"/data/datasets/datagov/data/data/datagovdata/suffolk-county-budget-revenue-2013.csv","DEPT_CD","uri",".*?$(?<!\.aspx)"
"/data/datasets/datagov/data/data/datagovdata/suffolk-county-budget-revenue-2013.csv","2010 Actuals","numbers","^\$?\d+(\.(\d{2}))?$"
"/data/datasets/datagov/data/data/datagovdata/suffolk-county-budget-revenue-2013.csv","2012 Estimated","numbers","^\$?\d+(\.(\d{2}))?$"
"/data/datasets/datagov/data/data/datagovdata/suffolk-county-budget-revenue-2013.csv","RSRC_NM","strings","[^""\r\n]*"
"/data/datasets/datagov/data/data/datagovdata/suffolk-county-budget-revenue-2013.csv","BFY","numbers","^\$?\d+(\.(\d{2}))?$"
"/data/datasets/datagov/data/data/datagovdata/suffolk-county-budget-revenue-2013.csv","MAND_CD","uri",".*?$(?<!\.aspx)"
"/data/datasets/datagov/data/data/datagovdata/suffolk-county-budget-revenue-2013.csv","2013 Requested","numbers","^\$?\d+(\.(\d{2}))?$"
