"file_name","column_name","label","regex"
"/data/datasets/datagov/data/data/datagovdata/disposition-of-discourtesy-allegations-2006-c2393.csv","Sunstantiated rate","numbers","^[-+]?\d+(\.\d+)?|[-+]?\.\d+?$"
"/data/datasets/datagov/data/data/datagovdata/disposition-of-discourtesy-allegations-2006-c2393.csv","Type of Abuse of Authority Allegation","strings","[^""\r\n]*"
"/data/datasets/datagov/data/data/datagovdata/disposition-of-discourtesy-allegations-2006-c2393.csv","Substantiated Number","numbers","^[-+]?\d+(\.\d+)?|[-+]?\.\d+?$"
"/data/datasets/datagov/data/data/datagovdata/disposition-of-discourtesy-allegations-2006-c2393.csv","Unsubstantiated number","numbers","^[-+]?\d+(\.\d+)?|[-+]?\.\d+?$"
"/data/datasets/datagov/data/data/datagovdata/disposition-of-discourtesy-allegations-2006-c2393.csv","Miscellaneous rate","numbers","^[-+]?\d+(\.\d+)?|[-+]?\.\d+?$"
"/data/datasets/datagov/data/data/datagovdata/disposition-of-discourtesy-allegations-2006-c2393.csv","Unfounded number","numbers","^[-+]?\d+(\.\d+)?|[-+]?\.\d+?$"
"/data/datasets/datagov/data/data/datagovdata/disposition-of-discourtesy-allegations-2006-c2393.csv","Miscellaneous","numbers","^[-+]?\d+(\.\d+)?|[-+]?\.\d+?$"
"/data/datasets/datagov/data/data/datagovdata/disposition-of-discourtesy-allegations-2006-c2393.csv","Exonerated rate","numbers","^[-+]?\d+(\.\d+)?|[-+]?\.\d+?$"
"/data/datasets/datagov/data/data/datagovdata/disposition-of-discourtesy-allegations-2006-c2393.csv","Exonerated number","numbers","^[-+]?\d+(\.\d+)?|[-+]?\.\d+?$"
"/data/datasets/datagov/data/data/datagovdata/disposition-of-discourtesy-allegations-2006-c2393.csv","Officer Unidentified number","numbers","^[-+]?\d+(\.\d+)?|[-+]?\.\d+?$"
"/data/datasets/datagov/data/data/datagovdata/disposition-of-discourtesy-allegations-2006-c2393.csv","Unsubstantiated rate","numbers","^[-+]?\d+(\.\d+)?|[-+]?\.\d+?$"
"/data/datasets/datagov/data/data/datagovdata/disposition-of-discourtesy-allegations-2006-c2393.csv","Officer Unidentified rate","numbers","^[-+]?\d+(\.\d+)?|[-+]?\.\d+?$"
"/data/datasets/datagov/data/data/datagovdata/disposition-of-discourtesy-allegations-2006-c2393.csv","Unfounded rate","numbers","^[-+]?\d+(\.\d+)?|[-+]?\.\d+?$"
