"file_name","column_name","label","regex"
"/data/datasets/datagov/data/data/datagovdata/string-config-1c28c.csv","Description","strings","[^""\r\n]*"
"/data/datasets/datagov/data/data/datagovdata/string-config-1c28c.csv","Value","strings","[^""\r\n]*"
"/data/datasets/datagov/data/data/datagovdata/string-config-1c28c.csv","Name","uri",".*?$(?<!\.aspx)"
