"file_name","column_name","label","regex"
"/data/datasets/datagov/data/data/datagovdata/tgr2006se_oter_cousubcu.csv","COUNTY","numbers","^\d*$"
"/data/datasets/datagov/data/data/datagovdata/tgr2006se_oter_cousubcu.csv","COUSUB","numbers","^\d*$"
"/data/datasets/datagov/data/data/datagovdata/tgr2006se_oter_cousubcu.csv","NAME","uri",".*?$(?<!\.aspx)"
"/data/datasets/datagov/data/data/datagovdata/tgr2006se_oter_cousubcu.csv","PLACEDC","uri",".*?$(?<!\.aspx)"
"/data/datasets/datagov/data/data/datagovdata/tgr2006se_oter_cousubcu.csv","GIST_ID","numbers","^\d*$"
"/data/datasets/datagov/data/data/datagovdata/tgr2006se_oter_cousubcu.csv","COUSUBCC","uri",".*?$(?<!\.aspx)"
"/data/datasets/datagov/data/data/datagovdata/tgr2006se_oter_cousubcu.csv","LSADC","numbers","^\d*$"
"/data/datasets/datagov/data/data/datagovdata/tgr2006se_oter_cousubcu.csv","ENTITY","uri",".*?$(?<!\.aspx)"
