"file_name","column_name","label","regex"
"/data/datasets/datagov/data/data/datagovdata/ksd248data514554638_schd_view.csv","GID","numbers","^(\d|,)*\.?\d*$"
"/data/datasets/datagov/data/data/datagovdata/ksd248data514554638_schd_view.csv","RGIS_CODE","numbers","^(\d|,)*\.?\d*$"
"/data/datasets/datagov/data/data/datagovdata/ksd248data514554638_schd_view.csv","P037035","numbers","^(\d|,)*\.?\d*$"
"/data/datasets/datagov/data/data/datagovdata/ksd248data514554638_schd_view.csv","SN35_D00_I","numbers","^(\d|,)*\.?\d*$"
"/data/datasets/datagov/data/data/datagovdata/ksd248data514554638_schd_view.csv","P037022_23","numbers","^(\d|,)*\.?\d*$"
"/data/datasets/datagov/data/data/datagovdata/ksd248data514554638_schd_view.csv","LSAD","uri",".*?$(?<!\.aspx)"
"/data/datasets/datagov/data/data/datagovdata/ksd248data514554638_schd_view.csv","STFID","numbers","^(\d|,)*\.?\d*$"
"/data/datasets/datagov/data/data/datagovdata/ksd248data514554638_schd_view.csv","P037024_27","numbers","^(\d|,)*\.?\d*$"
"/data/datasets/datagov/data/data/datagovdata/ksd248data514554638_schd_view.csv","NAME","uri",".*?$(?<!\.aspx)"
"/data/datasets/datagov/data/data/datagovdata/ksd248data514554638_schd_view.csv","SN35_D00_","numbers","^(\d|,)*\.?\d*$"
"/data/datasets/datagov/data/data/datagovdata/ksd248data514554638_schd_view.csv","P037028","numbers","^(\d|,)*\.?\d*$"
"/data/datasets/datagov/data/data/datagovdata/ksd248data514554638_schd_view.csv","P037019","numbers","^(\d|,)*\.?\d*$"
"/data/datasets/datagov/data/data/datagovdata/ksd248data514554638_schd_view.csv","AREA_NAME","uri",".*?$(?<!\.aspx)"
"/data/datasets/datagov/data/data/datagovdata/ksd248data514554638_schd_view.csv","AREA","numbers","^(\d|,)*\.?\d*$"
"/data/datasets/datagov/data/data/datagovdata/ksd248data514554638_schd_view.csv","P037020_21","numbers","^(\d|,)*\.?\d*$"
"/data/datasets/datagov/data/data/datagovdata/ksd248data514554638_schd_view.csv","P037031","numbers","^(\d|,)*\.?\d*$"
"/data/datasets/datagov/data/data/datagovdata/ksd248data514554638_schd_view.csv","P037033","numbers","^(\d|,)*\.?\d*$"
"/data/datasets/datagov/data/data/datagovdata/ksd248data514554638_schd_view.csv","STATE","numbers","^(\d|,)*\.?\d*$"
"/data/datasets/datagov/data/data/datagovdata/ksd248data514554638_schd_view.csv","P037034","numbers","^(\d|,)*\.?\d*$"
"/data/datasets/datagov/data/data/datagovdata/ksd248data514554638_schd_view.csv","P037029_30","numbers","^(\d|,)*\.?\d*$"
"/data/datasets/datagov/data/data/datagovdata/ksd248data514554638_schd_view.csv","P037032","numbers","^(\d|,)*\.?\d*$"
"/data/datasets/datagov/data/data/datagovdata/ksd248data514554638_schd_view.csv","SD_U","numbers","^(\d|,)*\.?\d*$"
"/data/datasets/datagov/data/data/datagovdata/ksd248data514554638_schd_view.csv","PERIMETER","numbers","^(\d|,)*\.?\d*$"
