"file_name","column_name","label","regex"
"/data/datasets/datagov/data/data/datagovdata/new-liquor-licenses-2b7cf.csv","Street Number","uri",".*?$(?<!\.aspx)"
"/data/datasets/datagov/data/data/datagovdata/new-liquor-licenses-2b7cf.csv","latlng","uri",".*?$(?<!\.aspx)"
"/data/datasets/datagov/data/data/datagovdata/new-liquor-licenses-2b7cf.csv","SubDistrict","numbers","^\d*$"
"/data/datasets/datagov/data/data/datagovdata/new-liquor-licenses-2b7cf.csv","Original Date","strings","[^""\r\n]*"
"/data/datasets/datagov/data/data/datagovdata/new-liquor-licenses-2b7cf.csv","District","numbers","^\d*$"
"/data/datasets/datagov/data/data/datagovdata/new-liquor-licenses-2b7cf.csv","County","numbers","^\d*$"
"/data/datasets/datagov/data/data/datagovdata/new-liquor-licenses-2b7cf.csv","BusinessType","uri",".*?$(?<!\.aspx)"
"/data/datasets/datagov/data/data/datagovdata/new-liquor-licenses-2b7cf.csv","DBAName","uri",".*?$(?<!\.aspx)"
"/data/datasets/datagov/data/data/datagovdata/new-liquor-licenses-2b7cf.csv","Licensee","uri",".*?$(?<!\.aspx)"
"/data/datasets/datagov/data/data/datagovdata/new-liquor-licenses-2b7cf.csv","License Type","uri",".*?$(?<!\.aspx)"
"/data/datasets/datagov/data/data/datagovdata/new-liquor-licenses-2b7cf.csv","License Number","numbers","^\d*$"
"/data/datasets/datagov/data/data/datagovdata/new-liquor-licenses-2b7cf.csv","City","uri",".*?$(?<!\.aspx)"
"/data/datasets/datagov/data/data/datagovdata/new-liquor-licenses-2b7cf.csv","Street","strings","[^""\r\n]*"
"/data/datasets/datagov/data/data/datagovdata/new-liquor-licenses-2b7cf.csv","Current Status","uri",".*?$(?<!\.aspx)"
"/data/datasets/datagov/data/data/datagovdata/new-liquor-licenses-2b7cf.csv","State","uri",".*?$(?<!\.aspx)"
"/data/datasets/datagov/data/data/datagovdata/new-liquor-licenses-2b7cf.csv","Zip Code","numbers","^\d*$"
