"file_name","column_name","label","regex"
"/data/datasets/datagov/data/data/datagovdata/puget-sound-juvenile-abundance-10302012-e33e1.csv","Occupied River Miles","numbers","^(\d|,)*\.?\d*$"
"/data/datasets/datagov/data/data/datagovdata/puget-sound-juvenile-abundance-10302012-e33e1.csv","Species","uri",".*?$(?<!\.aspx)"
"/data/datasets/datagov/data/data/datagovdata/puget-sound-juvenile-abundance-10302012-e33e1.csv","Population/Stock Number","numbers","^(\d|,)*\.?\d*$"
"/data/datasets/datagov/data/data/datagovdata/puget-sound-juvenile-abundance-10302012-e33e1.csv","Abundance ","numbers","^(\d|,)*\.?\d*$"
"/data/datasets/datagov/data/data/datagovdata/puget-sound-juvenile-abundance-10302012-e33e1.csv","Density","numbers","^(\d|,)*\.?\d*$"
"/data/datasets/datagov/data/data/datagovdata/puget-sound-juvenile-abundance-10302012-e33e1.csv","Migration Year","numbers","^(\d|,)*\.?\d*$"
