"file_name","column_name","label","regex"
"/data/datasets/datagov/data/data/datagovdata/organizational-reports-for-hawaii-noncandidate-committees-48ae6.csv","Address 2","uri",".*?$(?<!\.aspx)"
"/data/datasets/datagov/data/data/datagovdata/organizational-reports-for-hawaii-noncandidate-committees-48ae6.csv","Terminated","uri",".*?$(?<!\.aspx)"
"/data/datasets/datagov/data/data/datagovdata/organizational-reports-for-hawaii-noncandidate-committees-48ae6.csv","Address 1","strings","[^""\r\n]*"
"/data/datasets/datagov/data/data/datagovdata/organizational-reports-for-hawaii-noncandidate-committees-48ae6.csv","Chair Business Phone","uri",".*?$(?<!\.aspx)"
"/data/datasets/datagov/data/data/datagovdata/organizational-reports-for-hawaii-noncandidate-committees-48ae6.csv","Area, Scope, or Jurisdiction","strings","[^""\r\n]*"
"/data/datasets/datagov/data/data/datagovdata/organizational-reports-for-hawaii-noncandidate-committees-48ae6.csv","Noncandidate Committee Name","strings","[^""\r\n]*"
"/data/datasets/datagov/data/data/datagovdata/organizational-reports-for-hawaii-noncandidate-committees-48ae6.csv","Chair Occupation","strings","[^""\r\n]*"
"/data/datasets/datagov/data/data/datagovdata/organizational-reports-for-hawaii-noncandidate-committees-48ae6.csv","Chair Zip Code","address_or_phone","(\d{4,6})"
"/data/datasets/datagov/data/data/datagovdata/organizational-reports-for-hawaii-noncandidate-committees-48ae6.csv","City","uri",".*?$(?<!\.aspx)"
"/data/datasets/datagov/data/data/datagovdata/organizational-reports-for-hawaii-noncandidate-committees-48ae6.csv","Treasurer State","uri",".*?$(?<!\.aspx)"
"/data/datasets/datagov/data/data/datagovdata/organizational-reports-for-hawaii-noncandidate-committees-48ae6.csv","Single Candidate Name","uri",".*?$(?<!\.aspx)"
"/data/datasets/datagov/data/data/datagovdata/organizational-reports-for-hawaii-noncandidate-committees-48ae6.csv","State","uri",".*?$(?<!\.aspx)"
"/data/datasets/datagov/data/data/datagovdata/organizational-reports-for-hawaii-noncandidate-committees-48ae6.csv","NC Type","uri",".*?$(?<!\.aspx)"
"/data/datasets/datagov/data/data/datagovdata/organizational-reports-for-hawaii-noncandidate-committees-48ae6.csv","Chair City","uri",".*?$(?<!\.aspx)"
"/data/datasets/datagov/data/data/datagovdata/organizational-reports-for-hawaii-noncandidate-committees-48ae6.csv","Treasurer City","uri",".*?$(?<!\.aspx)"
"/data/datasets/datagov/data/data/datagovdata/organizational-reports-for-hawaii-noncandidate-committees-48ae6.csv","Chair Address 1","strings","[^""\r\n]*"
"/data/datasets/datagov/data/data/datagovdata/organizational-reports-for-hawaii-noncandidate-committees-48ae6.csv","Ballot Issue Description","strings","[^""\r\n]*"
"/data/datasets/datagov/data/data/datagovdata/organizational-reports-for-hawaii-noncandidate-committees-48ae6.csv","Reg No","uri",".*?$(?<!\.aspx)"
"/data/datasets/datagov/data/data/datagovdata/organizational-reports-for-hawaii-noncandidate-committees-48ae6.csv","Treasurer Name","uri",".*?$(?<!\.aspx)"
"/data/datasets/datagov/data/data/datagovdata/organizational-reports-for-hawaii-noncandidate-committees-48ae6.csv","Treasurer Zip Code","address_or_phone","(\d{4,6})"
"/data/datasets/datagov/data/data/datagovdata/organizational-reports-for-hawaii-noncandidate-committees-48ae6.csv","Treasurer Address 2","uri",".*?$(?<!\.aspx)"
"/data/datasets/datagov/data/data/datagovdata/organizational-reports-for-hawaii-noncandidate-committees-48ae6.csv","Chair Principal Place of Business","uri",".*?$(?<!\.aspx)"
"/data/datasets/datagov/data/data/datagovdata/organizational-reports-for-hawaii-noncandidate-committees-48ae6.csv","Treasurer Business Phone","uri",".*?$(?<!\.aspx)"
"/data/datasets/datagov/data/data/datagovdata/organizational-reports-for-hawaii-noncandidate-committees-48ae6.csv","Filing Date","strings","[^""\r\n]*"
"/data/datasets/datagov/data/data/datagovdata/organizational-reports-for-hawaii-noncandidate-committees-48ae6.csv","Zip Code","address_or_phone","(\d{4,6})"
"/data/datasets/datagov/data/data/datagovdata/organizational-reports-for-hawaii-noncandidate-committees-48ae6.csv","Political Party","uri",".*?$(?<!\.aspx)"
"/data/datasets/datagov/data/data/datagovdata/organizational-reports-for-hawaii-noncandidate-committees-48ae6.csv","Treasurer Address 1","strings","[^""\r\n]*"
"/data/datasets/datagov/data/data/datagovdata/organizational-reports-for-hawaii-noncandidate-committees-48ae6.csv","Treasurer Principal Place of Business","uri",".*?$(?<!\.aspx)"
"/data/datasets/datagov/data/data/datagovdata/organizational-reports-for-hawaii-noncandidate-committees-48ae6.csv","Chair State","uri",".*?$(?<!\.aspx)"
"/data/datasets/datagov/data/data/datagovdata/organizational-reports-for-hawaii-noncandidate-committees-48ae6.csv","Treasurer Occupation","strings","[^""\r\n]*"
"/data/datasets/datagov/data/data/datagovdata/organizational-reports-for-hawaii-noncandidate-committees-48ae6.csv","Chair Address 2","uri",".*?$(?<!\.aspx)"
"/data/datasets/datagov/data/data/datagovdata/organizational-reports-for-hawaii-noncandidate-committees-48ae6.csv","Chairperson Name","uri",".*?$(?<!\.aspx)"
