"file_name","column_name","label","regex"
"/data/datasets/datagov/data/data/datagovdata/bilingual-employee-asian-and-pacific-islander-api-language-semi-annual-dataset.csv","Unnamed: 2","uri",".*?$(?<!\.aspx)"
"/data/datasets/datagov/data/data/datagovdata/bilingual-employee-asian-and-pacific-islander-api-language-semi-annual-dataset.csv","API Semi-Annual Bilingual Employee Data (Nationally)","strings","[^""\r\n]*"
"/data/datasets/datagov/data/data/datagovdata/bilingual-employee-asian-and-pacific-islander-api-language-semi-annual-dataset.csv","Unnamed: 1","uri",".*?$(?<!\.aspx)"
"/data/datasets/datagov/data/data/datagovdata/bilingual-employee-asian-and-pacific-islander-api-language-semi-annual-dataset.csv","Unnamed: 4","uri",".*?$(?<!\.aspx)"
"/data/datasets/datagov/data/data/datagovdata/bilingual-employee-asian-and-pacific-islander-api-language-semi-annual-dataset.csv","Unnamed: 3","uri",".*?$(?<!\.aspx)"
"/data/datasets/datagov/data/data/datagovdata/bilingual-employee-asian-and-pacific-islander-api-language-semi-annual-dataset.csv","Unnamed: 5","uri",".*?$(?<!\.aspx)"
"/data/datasets/datagov/data/data/datagovdata/bilingual-employee-asian-and-pacific-islander-api-language-semi-annual-dataset.csv","Unnamed: 6","strings","[^""\r\n]*"
