"file_name","column_name","label","regex"
"/data/datasets/datagov/data/data/datagovdata/mnp1844shp.csv","PERIMETER","numbers","^(\d|,)*\.?\d*$"
"/data/datasets/datagov/data/data/datagovdata/mnp1844shp.csv","AREA","numbers","^(\d|,)*\.?\d*$"
"/data/datasets/datagov/data/data/datagovdata/mnp1844shp.csv","MES_NP1844","numbers","^(\d|,)*\.?\d*$"
"/data/datasets/datagov/data/data/datagovdata/mnp1844shp.csv","TYPE","uri",".*?$(?<!\.aspx)"
