"file_name","column_name","label","regex"
"/data/datasets/datagov/data/data/datagovdata/results-schedule-april-17-2012-special-elections-944fb.csv","Event","strings","[^""\r\n]*"
"/data/datasets/datagov/data/data/datagovdata/results-schedule-april-17-2012-special-elections-944fb.csv","Date","uri",".*?$(?<!\.aspx)"
"/data/datasets/datagov/data/data/datagovdata/results-schedule-april-17-2012-special-elections-944fb.csv","Time","strings","[^""\r\n]*"
