"file_name","column_name","label","regex"
"/data/datasets/datagov/data/data/datagovdata/2013-proposed-budget-attachment-a-0c64f.csv","BCL Code","uri",".*?$(?<!\.aspx)"
"/data/datasets/datagov/data/data/datagovdata/2013-proposed-budget-attachment-a-0c64f.csv","Department","uri",".*?$(?<!\.aspx)"
"/data/datasets/datagov/data/data/datagovdata/2013-proposed-budget-attachment-a-0c64f.csv","BCL Name","strings","[^""\r\n]*"
"/data/datasets/datagov/data/data/datagovdata/2013-proposed-budget-attachment-a-0c64f.csv","BCL Purpose","strings","[^""\r\n]*"
"/data/datasets/datagov/data/data/datagovdata/2013-proposed-budget-attachment-a-0c64f.csv","Fund","strings","[^""\r\n]*"
"/data/datasets/datagov/data/data/datagovdata/2013-proposed-budget-attachment-a-0c64f.csv","2013 Expenditure Allowance","numbers","^\d*$"
