"file_name","column_name","label","regex"
"/data/datasets/datagov/data/data/datagovdata/classified-employee-turnover-rates-0df62.csv","Year","numbers","(^([0-9]+[.]+[0-9]+)|(0)$)"
"/data/datasets/datagov/data/data/datagovdata/classified-employee-turnover-rates-0df62.csv","Overall Turnover Rate","numbers","(^([0-9]+[.]+[0-9]+)|(0)$)"
"/data/datasets/datagov/data/data/datagovdata/classified-employee-turnover-rates-0df62.csv","Voluntary Turnover Rate","numbers","(^([0-9]+[.]+[0-9]+)|(0)$)"
