"file_name","column_name","label","regex"
"/data/datasets/datagov/data/data/datagovdata/contracts-esd-malheur-fiscal-year-2014-93c3f.csv","ESD #","numbers","^\$?\d+(\.(\d{2}))?$"
"/data/datasets/datagov/data/data/datagovdata/contracts-esd-malheur-fiscal-year-2014-93c3f.csv","AWARD TITLE","uri",".*?$(?<!\.aspx)"
"/data/datasets/datagov/data/data/datagovdata/contracts-esd-malheur-fiscal-year-2014-93c3f.csv","TOTAL AWARD VALUE  ","numbers","^\$?\d+(\.(\d{2}))?$"
"/data/datasets/datagov/data/data/datagovdata/contracts-esd-malheur-fiscal-year-2014-93c3f.csv","AMENDMENT VALUE","numbers","^\$?\d+(\.(\d{2}))?$"
"/data/datasets/datagov/data/data/datagovdata/contracts-esd-malheur-fiscal-year-2014-93c3f.csv","ESD NAME","uri",".*?$(?<!\.aspx)"
"/data/datasets/datagov/data/data/datagovdata/contracts-esd-malheur-fiscal-year-2014-93c3f.csv","ORIGINAL STATE/AMENDMENT DATE/EXPIRATION DATE","strings","[^""\r\n]*"
"/data/datasets/datagov/data/data/datagovdata/contracts-esd-malheur-fiscal-year-2014-93c3f.csv","AWARD TYPE","uri",".*?$(?<!\.aspx)"
"/data/datasets/datagov/data/data/datagovdata/contracts-esd-malheur-fiscal-year-2014-93c3f.csv","ORIGINAL AWARD VALUE","numbers","^\$?\d+(\.(\d{2}))?$"
"/data/datasets/datagov/data/data/datagovdata/contracts-esd-malheur-fiscal-year-2014-93c3f.csv","CONTRACTOR INFORMATION","uri",".*?$(?<!\.aspx)"
