"file_name","column_name","label","regex"
"/data/datasets/datagov/data/data/datagovdata/oregon-public-meetings-cc87e.csv","Webinar/Webcast Link","strings","[^""\r\n]*"
"/data/datasets/datagov/data/data/datagovdata/oregon-public-meetings-cc87e.csv","City","uri",".*?$(?<!\.aspx)"
"/data/datasets/datagov/data/data/datagovdata/oregon-public-meetings-cc87e.csv","Calendar Link","strings","[^""\r\n]*"
"/data/datasets/datagov/data/data/datagovdata/oregon-public-meetings-cc87e.csv","State","uri",".*?$(?<!\.aspx)"
"/data/datasets/datagov/data/data/datagovdata/oregon-public-meetings-cc87e.csv","Web Link (optional)","strings","[^""\r\n]*"
"/data/datasets/datagov/data/data/datagovdata/oregon-public-meetings-cc87e.csv","Agency, Board, Commission, Branch","uri",".*?$(?<!\.aspx)"
"/data/datasets/datagov/data/data/datagovdata/oregon-public-meetings-cc87e.csv","Meeting Title","strings","[^""\r\n]*"
"/data/datasets/datagov/data/data/datagovdata/oregon-public-meetings-cc87e.csv","Owner","uri",".*?$(?<!\.aspx)"
"/data/datasets/datagov/data/data/datagovdata/oregon-public-meetings-cc87e.csv","Public Call-In Number","uri",".*?$(?<!\.aspx)"
"/data/datasets/datagov/data/data/datagovdata/oregon-public-meetings-cc87e.csv","Contact Email","email","^.+@[^\.].*\.[a-z]{2,}$"
"/data/datasets/datagov/data/data/datagovdata/oregon-public-meetings-cc87e.csv","Details","strings","[^""\r\n]*"
"/data/datasets/datagov/data/data/datagovdata/oregon-public-meetings-cc87e.csv","Agenda URL","strings","[^""\r\n]*"
"/data/datasets/datagov/data/data/datagovdata/oregon-public-meetings-cc87e.csv","Map Link","strings","[^""\r\n]*"
"/data/datasets/datagov/data/data/datagovdata/oregon-public-meetings-cc87e.csv","Map Location","strings","[^""\r\n]*"
"/data/datasets/datagov/data/data/datagovdata/oregon-public-meetings-cc87e.csv","Meeting Location","strings","[^""\r\n]*"
"/data/datasets/datagov/data/data/datagovdata/oregon-public-meetings-cc87e.csv","ADA Contact","uri",".*?$(?<!\.aspx)"
"/data/datasets/datagov/data/data/datagovdata/oregon-public-meetings-cc87e.csv","Short Description","strings","[^""\r\n]*"
"/data/datasets/datagov/data/data/datagovdata/oregon-public-meetings-cc87e.csv","Webinar/Webcast?","uri",".*?$(?<!\.aspx)"
"/data/datasets/datagov/data/data/datagovdata/oregon-public-meetings-cc87e.csv","ADA Contact Email","email","^.+@[^\.].*\.[a-z]{2,}$"
"/data/datasets/datagov/data/data/datagovdata/oregon-public-meetings-cc87e.csv","Weblink to Meeting Minutes/Summaries","strings","[^""\r\n]*"
"/data/datasets/datagov/data/data/datagovdata/oregon-public-meetings-cc87e.csv","Agenda Upload","uri",".*?$(?<!\.aspx)"
"/data/datasets/datagov/data/data/datagovdata/oregon-public-meetings-cc87e.csv","Start Date & Time","strings","[^""\r\n]*"
"/data/datasets/datagov/data/data/datagovdata/oregon-public-meetings-cc87e.csv","End Date & Time","strings","[^""\r\n]*"
"/data/datasets/datagov/data/data/datagovdata/oregon-public-meetings-cc87e.csv","Public Comment Accepted","strings","[^""\r\n]*"
"/data/datasets/datagov/data/data/datagovdata/oregon-public-meetings-cc87e.csv","Phone Number","strings","[^""\r\n]*"
"/data/datasets/datagov/data/data/datagovdata/oregon-public-meetings-cc87e.csv","Call-in Access Code","uri",".*?$(?<!\.aspx)"
"/data/datasets/datagov/data/data/datagovdata/oregon-public-meetings-cc87e.csv","ADA Contact Phone","uri",".*?$(?<!\.aspx)"
"/data/datasets/datagov/data/data/datagovdata/oregon-public-meetings-cc87e.csv","Agenda Download","uri",".*?$(?<!\.aspx)"
"/data/datasets/datagov/data/data/datagovdata/oregon-public-meetings-cc87e.csv","Contact Name","uri",".*?$(?<!\.aspx)"
