"file_name","column_name","label","regex"
"/data/datasets/datagov/data/data/datagovdata/proposed-fy15-budget-e04de.csv","Object Code Name","strings","[^""\r\n]*"
"/data/datasets/datagov/data/data/datagovdata/proposed-fy15-budget-e04de.csv","FY 2014 Budget","numbers","^(\+|-)?\d+$"
"/data/datasets/datagov/data/data/datagovdata/proposed-fy15-budget-e04de.csv","FY 2015 Current Services","numbers","^(\+|-)?\d+$"
"/data/datasets/datagov/data/data/datagovdata/proposed-fy15-budget-e04de.csv","FY 2015 Budget Issues","numbers","^(\+|-)?\d+$"
"/data/datasets/datagov/data/data/datagovdata/proposed-fy15-budget-e04de.csv","Department","uri",".*?$(?<!\.aspx)"
"/data/datasets/datagov/data/data/datagovdata/proposed-fy15-budget-e04de.csv","Fund","numbers","^(\+|-)?\d+$"
"/data/datasets/datagov/data/data/datagovdata/proposed-fy15-budget-e04de.csv","FY 2015 Proposed Budget","numbers","^(\+|-)?\d+$"
"/data/datasets/datagov/data/data/datagovdata/proposed-fy15-budget-e04de.csv","Division","uri",".*?$(?<!\.aspx)"
"/data/datasets/datagov/data/data/datagovdata/proposed-fy15-budget-e04de.csv","Department Name","uri",".*?$(?<!\.aspx)"
"/data/datasets/datagov/data/data/datagovdata/proposed-fy15-budget-e04de.csv","Division Name","strings","[^""\r\n]*"
"/data/datasets/datagov/data/data/datagovdata/proposed-fy15-budget-e04de.csv","Fund Name","uri",".*?$(?<!\.aspx)"
"/data/datasets/datagov/data/data/datagovdata/proposed-fy15-budget-e04de.csv","FY 2013 Actual","numbers","^(\+|-)?\d+$"
"/data/datasets/datagov/data/data/datagovdata/proposed-fy15-budget-e04de.csv","Object Code","numbers","^(\+|-)?\d+$"
"/data/datasets/datagov/data/data/datagovdata/proposed-fy15-budget-e04de.csv","FY 2012 Actual","numbers","^(\+|-)?\d+$"
