"file_name","column_name","label","regex"
"/data/datasets/datagov/data/data/datagovdata/sti-speciality-clinics-bed6c.csv","LOCATION","uri","^[^\\\/\?\*\""\'\>\<\:\|]*$"
"/data/datasets/datagov/data/data/datagovdata/sti-speciality-clinics-bed6c.csv","ADDRESS","uri","^[^\\\/\?\*\""\'\>\<\:\|]*$"
"/data/datasets/datagov/data/data/datagovdata/sti-speciality-clinics-bed6c.csv","PHONE","uri","^[^\\\/\?\*\""\'\>\<\:\|]*$"
"/data/datasets/datagov/data/data/datagovdata/sti-speciality-clinics-bed6c.csv","CITY","uri","^[^\\\/\?\*\""\'\>\<\:\|]*$"
"/data/datasets/datagov/data/data/datagovdata/sti-speciality-clinics-bed6c.csv","FAX","uri","^[^\\\/\?\*\""\'\>\<\:\|]*$"
"/data/datasets/datagov/data/data/datagovdata/sti-speciality-clinics-bed6c.csv","ZIP","numbers","^\d*$"
"/data/datasets/datagov/data/data/datagovdata/sti-speciality-clinics-bed6c.csv","SITE NAME","uri","^[^\\\/\?\*\""\'\>\<\:\|]*$"
"/data/datasets/datagov/data/data/datagovdata/sti-speciality-clinics-bed6c.csv","HOURS OF OPERATION","strings","[^""\r\n]*"
"/data/datasets/datagov/data/data/datagovdata/sti-speciality-clinics-bed6c.csv","STATE","uri","^[^\\\/\?\*\""\'\>\<\:\|]*$"
