"file_name","column_name","label","regex"
"/data/datasets/datagov/data/data/datagovdata/micro-market-recovery-program-addresses-0e20b.csv","Police District","numbers","^(\d|,)*\.?\d*$"
"/data/datasets/datagov/data/data/datagovdata/micro-market-recovery-program-addresses-0e20b.csv","Community Area","numbers","^(\d|,)*\.?\d*$"
"/data/datasets/datagov/data/data/datagovdata/micro-market-recovery-program-addresses-0e20b.csv","Census Tract","numbers","^(\d|,)*\.?\d*$"
"/data/datasets/datagov/data/data/datagovdata/micro-market-recovery-program-addresses-0e20b.csv","Ward","numbers","^(\d|,)*\.?\d*$"
"/data/datasets/datagov/data/data/datagovdata/micro-market-recovery-program-addresses-0e20b.csv","X Coord","numbers","^(\d|,)*\.?\d*$"
"/data/datasets/datagov/data/data/datagovdata/micro-market-recovery-program-addresses-0e20b.csv","TIF Zone","strings","[^""\r\n]*"
"/data/datasets/datagov/data/data/datagovdata/micro-market-recovery-program-addresses-0e20b.csv","Longitude","numbers","^(\d|,)*\.?\d*$"
"/data/datasets/datagov/data/data/datagovdata/micro-market-recovery-program-addresses-0e20b.csv","Address Grouping Key","numbers","^(\d|,)*\.?\d*$"
"/data/datasets/datagov/data/data/datagovdata/micro-market-recovery-program-addresses-0e20b.csv","Post Direction","uri",".*?$(?<!\.aspx)"
"/data/datasets/datagov/data/data/datagovdata/micro-market-recovery-program-addresses-0e20b.csv","Latitude","numbers","^(\d|,)*\.?\d*$"
"/data/datasets/datagov/data/data/datagovdata/micro-market-recovery-program-addresses-0e20b.csv","Y Coord","numbers","^(\d|,)*\.?\d*$"
"/data/datasets/datagov/data/data/datagovdata/micro-market-recovery-program-addresses-0e20b.csv","Location","uri",".*?$(?<!\.aspx)"
"/data/datasets/datagov/data/data/datagovdata/micro-market-recovery-program-addresses-0e20b.csv","Central Business District","uri",".*?$(?<!\.aspx)"
"/data/datasets/datagov/data/data/datagovdata/micro-market-recovery-program-addresses-0e20b.csv","Suffix","uri",".*?$(?<!\.aspx)"
"/data/datasets/datagov/data/data/datagovdata/micro-market-recovery-program-addresses-0e20b.csv","Fire District","uri",".*?$(?<!\.aspx)"
"/data/datasets/datagov/data/data/datagovdata/micro-market-recovery-program-addresses-0e20b.csv","Street Name","uri",".*?$(?<!\.aspx)"
"/data/datasets/datagov/data/data/datagovdata/micro-market-recovery-program-addresses-0e20b.csv","Address Key","numbers","^(\d|,)*\.?\d*$"
"/data/datasets/datagov/data/data/datagovdata/micro-market-recovery-program-addresses-0e20b.csv","Street Number","numbers","^(\d|,)*\.?\d*$"
"/data/datasets/datagov/data/data/datagovdata/micro-market-recovery-program-addresses-0e20b.csv","MMRP Zone","uri",".*?$(?<!\.aspx)"
"/data/datasets/datagov/data/data/datagovdata/micro-market-recovery-program-addresses-0e20b.csv","Pre-Direction","uri",".*?$(?<!\.aspx)"
"/data/datasets/datagov/data/data/datagovdata/micro-market-recovery-program-addresses-0e20b.csv","Zip Code","numbers","^(\d|,)*\.?\d*$"
