"file_name","column_name","label","regex"
"/data/datasets/datagov/data/data/datagovdata/PLSSIntersected_DALHART.csv","TWNSHPNO","numbers","(^([0-9]+[.]+[0-9]+)|(0)$)"
"/data/datasets/datagov/data/data/datagovdata/PLSSIntersected_DALHART.csv","SHAPE_Leng","numbers","(^([0-9]+[.]+[0-9]+)|(0)$)"
"/data/datasets/datagov/data/data/datagovdata/PLSSIntersected_DALHART.csv","TWNSHPLAB","uri",".*?$(?<!\.aspx)"
"/data/datasets/datagov/data/data/datagovdata/PLSSIntersected_DALHART.csv","SURVSUF","numbers","(^([0-9]+[.]+[0-9]+)|(0)$)"
"/data/datasets/datagov/data/data/datagovdata/PLSSIntersected_DALHART.csv","SECDIVID","uri",".*?$(?<!\.aspx)"
"/data/datasets/datagov/data/data/datagovdata/PLSSIntersected_DALHART.csv","TWNSHPDPCD","numbers","(^([0-9]+[.]+[0-9]+)|(0)$)"
"/data/datasets/datagov/data/data/datagovdata/PLSSIntersected_DALHART.csv","GOVLOT","uri",".*?$(?<!\.aspx)"
"/data/datasets/datagov/data/data/datagovdata/PLSSIntersected_DALHART.csv","PRINMER","uri",".*?$(?<!\.aspx)"
"/data/datasets/datagov/data/data/datagovdata/PLSSIntersected_DALHART.csv","FRSTDIVLAB","numbers","(^([0-9]+[.]+[0-9]+)|(0)$)"
"/data/datasets/datagov/data/data/datagovdata/PLSSIntersected_DALHART.csv","FRSTDIVID","uri",".*?$(?<!\.aspx)"
"/data/datasets/datagov/data/data/datagovdata/PLSSIntersected_DALHART.csv","SECDIVTEXT","uri",".*?$(?<!\.aspx)"
"/data/datasets/datagov/data/data/datagovdata/PLSSIntersected_DALHART.csv","RANGEFRAC","numbers","(^([0-9]+[.]+[0-9]+)|(0)$)"
"/data/datasets/datagov/data/data/datagovdata/PLSSIntersected_DALHART.csv","SECDIVSUF","numbers","(^([0-9]+[.]+[0-9]+)|(0)$)"
"/data/datasets/datagov/data/data/datagovdata/PLSSIntersected_DALHART.csv","SECDIVNOTE","numbers","(^([0-9]+[.]+[0-9]+)|(0)$)"
"/data/datasets/datagov/data/data/datagovdata/PLSSIntersected_DALHART.csv","SURVNO","numbers","(^([0-9]+[.]+[0-9]+)|(0)$)"
"/data/datasets/datagov/data/data/datagovdata/PLSSIntersected_DALHART.csv","FRSTDIVNO","numbers","(^([0-9]+[.]+[0-9]+)|(0)$)"
"/data/datasets/datagov/data/data/datagovdata/PLSSIntersected_DALHART.csv","RANGENO","numbers","(^([0-9]+[.]+[0-9]+)|(0)$)"
"/data/datasets/datagov/data/data/datagovdata/PLSSIntersected_DALHART.csv","SURVTYP","numbers","(^([0-9]+[.]+[0-9]+)|(0)$)"
"/data/datasets/datagov/data/data/datagovdata/PLSSIntersected_DALHART.csv","STATEABBR","uri",".*?$(?<!\.aspx)"
"/data/datasets/datagov/data/data/datagovdata/PLSSIntersected_DALHART.csv","QSEC","uri",".*?$(?<!\.aspx)"
"/data/datasets/datagov/data/data/datagovdata/PLSSIntersected_DALHART.csv","FRSTDIVTYP","uri",".*?$(?<!\.aspx)"
"/data/datasets/datagov/data/data/datagovdata/PLSSIntersected_DALHART.csv","SURVLAB","numbers","(^([0-9]+[.]+[0-9]+)|(0)$)"
"/data/datasets/datagov/data/data/datagovdata/PLSSIntersected_DALHART.csv","SURVTYPTEX","numbers","(^([0-9]+[.]+[0-9]+)|(0)$)"
"/data/datasets/datagov/data/data/datagovdata/PLSSIntersected_DALHART.csv","TWNSHPFRAC","numbers","(^([0-9]+[.]+[0-9]+)|(0)$)"
"/data/datasets/datagov/data/data/datagovdata/PLSSIntersected_DALHART.csv","FRSTDIVDUP","numbers","(^([0-9]+[.]+[0-9]+)|(0)$)"
"/data/datasets/datagov/data/data/datagovdata/PLSSIntersected_DALHART.csv","QQSEC","uri",".*?$(?<!\.aspx)"
"/data/datasets/datagov/data/data/datagovdata/PLSSIntersected_DALHART.csv","STEWARD","uri",".*?$(?<!\.aspx)"
"/data/datasets/datagov/data/data/datagovdata/PLSSIntersected_DALHART.csv","FRSTDIVTXT","uri",".*?$(?<!\.aspx)"
"/data/datasets/datagov/data/data/datagovdata/PLSSIntersected_DALHART.csv","SHAPE_Area","numbers","(^([0-9]+[.]+[0-9]+)|(0)$)"
"/data/datasets/datagov/data/data/datagovdata/PLSSIntersected_DALHART.csv","TWNSHPDIR","uri",".*?$(?<!\.aspx)"
"/data/datasets/datagov/data/data/datagovdata/PLSSIntersected_DALHART.csv","SECDIVLAB","uri",".*?$(?<!\.aspx)"
"/data/datasets/datagov/data/data/datagovdata/PLSSIntersected_DALHART.csv","PLSSID","uri",".*?$(?<!\.aspx)"
"/data/datasets/datagov/data/data/datagovdata/PLSSIntersected_DALHART.csv","PRINMERCD","numbers","(^([0-9]+[.]+[0-9]+)|(0)$)"
"/data/datasets/datagov/data/data/datagovdata/PLSSIntersected_DALHART.csv","SURVNOTE","numbers","(^([0-9]+[.]+[0-9]+)|(0)$)"
"/data/datasets/datagov/data/data/datagovdata/PLSSIntersected_DALHART.csv","RANGEDIR","uri",".*?$(?<!\.aspx)"
"/data/datasets/datagov/data/data/datagovdata/PLSSIntersected_DALHART.csv","SECDIVNO","uri",".*?$(?<!\.aspx)"
"/data/datasets/datagov/data/data/datagovdata/PLSSIntersected_DALHART.csv","SECDIVTYP","uri",".*?$(?<!\.aspx)"
"/data/datasets/datagov/data/data/datagovdata/PLSSIntersected_DALHART.csv","ACRES","numbers","(^([0-9]+[.]+[0-9]+)|(0)$)"
