"file_name","column_name","label","regex"
"/data/datasets/datagov/data/data/datagovdata/urban-farms-7e834.csv","LONGITUDE","numbers","^-?\d*(\.\d+)?$"
"/data/datasets/datagov/data/data/datagovdata/urban-farms-7e834.csv","LOCATION","uri",".*?$(?<!\.aspx)"
"/data/datasets/datagov/data/data/datagovdata/urban-farms-7e834.csv","LATITUDE","numbers","^-?\d*(\.\d+)?$"
"/data/datasets/datagov/data/data/datagovdata/urban-farms-7e834.csv","ADDRESS","uri",".*?$(?<!\.aspx)"
