"file_name","column_name","label","regex"
"/data/datasets/datagov/data/data/datagovdata/facilities-managment-closed-cells-as-of-aug-5-2011-e5199.csv","IRON","numbers","^[-+]?\d+(\.\d+)?|[-+]?\.\d+?$"
"/data/datasets/datagov/data/data/datagovdata/facilities-managment-closed-cells-as-of-aug-5-2011-e5199.csv","ENGINERING","numbers","^[-+]?\d+(\.\d+)?|[-+]?\.\d+?$"
"/data/datasets/datagov/data/data/datagovdata/facilities-managment-closed-cells-as-of-aug-5-2011-e5199.csv","PLUMBING","numbers","^[-+]?\d+(\.\d+)?|[-+]?\.\d+?$"
"/data/datasets/datagov/data/data/datagovdata/facilities-managment-closed-cells-as-of-aug-5-2011-e5199.csv","CARPENTRY","numbers","^[-+]?\d+(\.\d+)?|[-+]?\.\d+?$"
"/data/datasets/datagov/data/data/datagovdata/facilities-managment-closed-cells-as-of-aug-5-2011-e5199.csv","TIN","numbers","^[-+]?\d+(\.\d+)?|[-+]?\.\d+?$"
"/data/datasets/datagov/data/data/datagovdata/facilities-managment-closed-cells-as-of-aug-5-2011-e5199.csv","TOTAL CELLS","numbers","^[-+]?\d+(\.\d+)?|[-+]?\.\d+?$"
"/data/datasets/datagov/data/data/datagovdata/facilities-managment-closed-cells-as-of-aug-5-2011-e5199.csv","OPEN CELLS","numbers","^[-+]?\d+(\.\d+)?|[-+]?\.\d+?$"
"/data/datasets/datagov/data/data/datagovdata/facilities-managment-closed-cells-as-of-aug-5-2011-e5199.csv","DIVISION","uri",".*?$(?<!\.aspx)"
"/data/datasets/datagov/data/data/datagovdata/facilities-managment-closed-cells-as-of-aug-5-2011-e5199.csv","ELECTRICAL","numbers","^[-+]?\d+(\.\d+)?|[-+]?\.\d+?$"
"/data/datasets/datagov/data/data/datagovdata/facilities-managment-closed-cells-as-of-aug-5-2011-e5199.csv","GLAZ","numbers","^[-+]?\d+(\.\d+)?|[-+]?\.\d+?$"
"/data/datasets/datagov/data/data/datagovdata/facilities-managment-closed-cells-as-of-aug-5-2011-e5199.csv","BRICK","numbers","^[-+]?\d+(\.\d+)?|[-+]?\.\d+?$"
"/data/datasets/datagov/data/data/datagovdata/facilities-managment-closed-cells-as-of-aug-5-2011-e5199.csv","MISC","numbers","^[-+]?\d+(\.\d+)?|[-+]?\.\d+?$"
"/data/datasets/datagov/data/data/datagovdata/facilities-managment-closed-cells-as-of-aug-5-2011-e5199.csv","ELEC TECH","numbers","^[-+]?\d+(\.\d+)?|[-+]?\.\d+?$"
