"file_name","column_name","label","regex"
"/data/datasets/datagov/data/data/datagovdata/table-19-hazardous-waste-generated.csv","Calendar Year","numbers","^\d*$"
"/data/datasets/datagov/data/data/datagovdata/table-19-hazardous-waste-generated.csv","#","numbers","^\d*$"
"/data/datasets/datagov/data/data/datagovdata/table-19-hazardous-waste-generated.csv","Hazardous Waste Generated (Tons)","numbers","^\d*$"
