"file_name","column_name","label","regex"
"/data/datasets/datagov/data/data/datagovdata/great-plains-trail-salt-plains-loop-9c5a4.csv","category","strings","[^""\r\n]*"
"/data/datasets/datagov/data/data/datagovdata/great-plains-trail-salt-plains-loop-9c5a4.csv","phone","uri",".*?$(?<!\.aspx)"
"/data/datasets/datagov/data/data/datagovdata/great-plains-trail-salt-plains-loop-9c5a4.csv","name","uri",".*?$(?<!\.aspx)"
"/data/datasets/datagov/data/data/datagovdata/great-plains-trail-salt-plains-loop-9c5a4.csv","website","uri",".*?$(?<!\.aspx)"
"/data/datasets/datagov/data/data/datagovdata/great-plains-trail-salt-plains-loop-9c5a4.csv","address","strings","[^""\r\n]*"
"/data/datasets/datagov/data/data/datagovdata/great-plains-trail-salt-plains-loop-9c5a4.csv","city","uri",".*?$(?<!\.aspx)"
"/data/datasets/datagov/data/data/datagovdata/great-plains-trail-salt-plains-loop-9c5a4.csv","phone2","uri",".*?$(?<!\.aspx)"
