"file_name","column_name","label","regex"
"/data/datasets/datagov/data/data/datagovdata/duplicate-human-waste-3e1e7.csv","CaseID","numbers","^\d*$"
"/data/datasets/datagov/data/data/datagovdata/duplicate-human-waste-3e1e7.csv","Address","uri",".*?$(?<!\.aspx)"
"/data/datasets/datagov/data/data/datagovdata/duplicate-human-waste-3e1e7.csv","Source","uri",".*?$(?<!\.aspx)"
"/data/datasets/datagov/data/data/datagovdata/duplicate-human-waste-3e1e7.csv","Closed","strings","[^""\r\n]*"
"/data/datasets/datagov/data/data/datagovdata/duplicate-human-waste-3e1e7.csv","Responsible Agency","uri",".*?$(?<!\.aspx)"
"/data/datasets/datagov/data/data/datagovdata/duplicate-human-waste-3e1e7.csv","Opened","strings","[^""\r\n]*"
"/data/datasets/datagov/data/data/datagovdata/duplicate-human-waste-3e1e7.csv","Request Details","uri",".*?$(?<!\.aspx)"
"/data/datasets/datagov/data/data/datagovdata/duplicate-human-waste-3e1e7.csv","Request Type","uri",".*?$(?<!\.aspx)"
"/data/datasets/datagov/data/data/datagovdata/duplicate-human-waste-3e1e7.csv","Status","uri",".*?$(?<!\.aspx)"
"/data/datasets/datagov/data/data/datagovdata/duplicate-human-waste-3e1e7.csv","Supervisor District","numbers","^\d*$"
"/data/datasets/datagov/data/data/datagovdata/duplicate-human-waste-3e1e7.csv","Category","uri",".*?$(?<!\.aspx)"
"/data/datasets/datagov/data/data/datagovdata/duplicate-human-waste-3e1e7.csv","Point","uri",".*?$(?<!\.aspx)"
"/data/datasets/datagov/data/data/datagovdata/duplicate-human-waste-3e1e7.csv","Updated","strings","[^""\r\n]*"
"/data/datasets/datagov/data/data/datagovdata/duplicate-human-waste-3e1e7.csv","Neighborhood","strings","[^""\r\n]*"
