"file_name","column_name","label","regex"
"/data/datasets/datagov/data/data/datagovdata/drainage-flood-control-rating-1986-present.csv","Row_ID","uri",".*?$(?<!\.aspx)"
"/data/datasets/datagov/data/data/datagovdata/drainage-flood-control-rating-1986-present.csv","Poor","numbers","^\d*$"
"/data/datasets/datagov/data/data/datagovdata/drainage-flood-control-rating-1986-present.csv","Year","numbers","^\d*$"
"/data/datasets/datagov/data/data/datagovdata/drainage-flood-control-rating-1986-present.csv","Good","numbers","^\d*$"
"/data/datasets/datagov/data/data/datagovdata/drainage-flood-control-rating-1986-present.csv","Fair","numbers","^\d*$"
"/data/datasets/datagov/data/data/datagovdata/drainage-flood-control-rating-1986-present.csv","Total_VeryGood_Good_Fair","numbers","^\d*$"
"/data/datasets/datagov/data/data/datagovdata/drainage-flood-control-rating-1986-present.csv","Very_good","numbers","^\d*$"
"/data/datasets/datagov/data/data/datagovdata/drainage-flood-control-rating-1986-present.csv","Date","strings","[^""\r\n]*"
"/data/datasets/datagov/data/data/datagovdata/drainage-flood-control-rating-1986-present.csv","Very_poor","numbers","^\d*$"
"/data/datasets/datagov/data/data/datagovdata/drainage-flood-control-rating-1986-present.csv","Parish","uri",".*?$(?<!\.aspx)"
