"file_name","column_name","label","regex"
"/data/datasets/datagov/data/data/datagovdata/funding-by-source-all-12212012-9873f.csv","State","numbers","^\$?\d+(\.(\d{2}))?$"
"/data/datasets/datagov/data/data/datagovdata/funding-by-source-all-12212012-9873f.csv","Year","numbers","^\$?\d+(\.(\d{2}))?$"
"/data/datasets/datagov/data/data/datagovdata/funding-by-source-all-12212012-9873f.csv","Federal","numbers","^\$?\d+(\.(\d{2}))?$"
"/data/datasets/datagov/data/data/datagovdata/funding-by-source-all-12212012-9873f.csv","Region","uri",".*?$(?<!\.aspx)"
"/data/datasets/datagov/data/data/datagovdata/funding-by-source-all-12212012-9873f.csv","Total","numbers","^\$?\d+(\.(\d{2}))?$"
"/data/datasets/datagov/data/data/datagovdata/funding-by-source-all-12212012-9873f.csv","Local Match","numbers","^\$?\d+(\.(\d{2}))?$"
