"file_name","column_name","label","regex"
"/data/datasets/datagov/data/data/datagovdata/adolescent-obesity-bf059.csv","Historical Data","numbers","(^([0-9]+[.]+[0-9]+)|(0)$)"
"/data/datasets/datagov/data/data/datagovdata/adolescent-obesity-bf059.csv","Target","numbers","(^([0-9]+[.]+[0-9]+)|(0)$)"
"/data/datasets/datagov/data/data/datagovdata/adolescent-obesity-bf059.csv","Years","numbers","(^([0-9]+[.]+[0-9]+)|(0)$)"
