"file_name","column_name","label","regex"
"/data/datasets/datagov/data/data/datagovdata/tgr2006se_sanj_cbsacu.csv","CBSA","numbers","^\d$"
"/data/datasets/datagov/data/data/datagovdata/tgr2006se_sanj_cbsacu.csv","LSADC","uri",".*?$(?<!\.aspx)"
"/data/datasets/datagov/data/data/datagovdata/tgr2006se_sanj_cbsacu.csv","NAME","uri",".*?$(?<!\.aspx)"
"/data/datasets/datagov/data/data/datagovdata/tgr2006se_sanj_cbsacu.csv","ENTITY","numbers","^\d$"
"/data/datasets/datagov/data/data/datagovdata/tgr2006se_sanj_cbsacu.csv","GIST_ID","numbers","^\d$"
"/data/datasets/datagov/data/data/datagovdata/tgr2006se_sanj_cbsacu.csv","FIPSSTCO","numbers","^\d$"
"/data/datasets/datagov/data/data/datagovdata/tgr2006se_sanj_cbsacu.csv","METROMICRO","uri",".*?$(?<!\.aspx)"
