"file_name","column_name","label","regex"
"/data/datasets/datagov/data/data/datagovdata/energy-star-certified-roof-products.csv","Model Number","strings","[^""\r\n]*"
"/data/datasets/datagov/data/data/datagovdata/energy-star-certified-roof-products.csv","Date Qualified","strings","[^""\r\n]*"
"/data/datasets/datagov/data/data/datagovdata/energy-star-certified-roof-products.csv","Roof Cleaned Prior to 3rd Year Test","uri",".*?$(?<!\.aspx)"
"/data/datasets/datagov/data/data/datagovdata/energy-star-certified-roof-products.csv","ENERGY STAR Partner","uri",".*?$(?<!\.aspx)"
"/data/datasets/datagov/data/data/datagovdata/energy-star-certified-roof-products.csv","Markets","uri",".*?$(?<!\.aspx)"
"/data/datasets/datagov/data/data/datagovdata/energy-star-certified-roof-products.csv","Warranty Period (yrs)","uri",".*?$(?<!\.aspx)"
"/data/datasets/datagov/data/data/datagovdata/energy-star-certified-roof-products.csv","Model Name","strings","[^""\r\n]*"
"/data/datasets/datagov/data/data/datagovdata/energy-star-certified-roof-products.csv","Date Available On Market","strings","[^""\r\n]*"
"/data/datasets/datagov/data/data/datagovdata/energy-star-certified-roof-products.csv","Additional Model Information","strings","[^""\r\n]*"
"/data/datasets/datagov/data/data/datagovdata/energy-star-certified-roof-products.csv","ENERGY STAR Unique ID","numbers","^(\d|,)*\.?\d*$"
"/data/datasets/datagov/data/data/datagovdata/energy-star-certified-roof-products.csv","Product Type","uri",".*?$(?<!\.aspx)"
"/data/datasets/datagov/data/data/datagovdata/energy-star-certified-roof-products.csv","CB Model Identifier","strings","[^""\r\n]*"
"/data/datasets/datagov/data/data/datagovdata/energy-star-certified-roof-products.csv","Steep Slope?","uri",".*?$(?<!\.aspx)"
"/data/datasets/datagov/data/data/datagovdata/energy-star-certified-roof-products.csv","Solar Reflectance after 3 years","numbers","^(\d|,)*\.?\d*$"
"/data/datasets/datagov/data/data/datagovdata/energy-star-certified-roof-products.csv","Low Slope?","uri",".*?$(?<!\.aspx)"
"/data/datasets/datagov/data/data/datagovdata/energy-star-certified-roof-products.csv","Brand Name","uri",".*?$(?<!\.aspx)"
"/data/datasets/datagov/data/data/datagovdata/energy-star-certified-roof-products.csv","Initial Emissivity","numbers","^(\d|,)*\.?\d*$"
"/data/datasets/datagov/data/data/datagovdata/energy-star-certified-roof-products.csv","Initial Solar Reflectance","numbers","^(\d|,)*\.?\d*$"
