"file_name","column_name","label","regex"
"/data/datasets/datagov/data/data/datagovdata/tl_2010_35021_areawater.csv","HYDROID","numbers","^-?\d*(\.\d+)?$"
"/data/datasets/datagov/data/data/datagovdata/tl_2010_35021_areawater.csv","ALAND","numbers","^-?\d*(\.\d+)?$"
"/data/datasets/datagov/data/data/datagovdata/tl_2010_35021_areawater.csv","FULLNAME","uri",".*?$(?<!\.aspx)"
"/data/datasets/datagov/data/data/datagovdata/tl_2010_35021_areawater.csv","MTFCC","uri",".*?$(?<!\.aspx)"
"/data/datasets/datagov/data/data/datagovdata/tl_2010_35021_areawater.csv","AWATER","numbers","^-?\d*(\.\d+)?$"
"/data/datasets/datagov/data/data/datagovdata/tl_2010_35021_areawater.csv","INTPTLON","numbers","^-?\d*(\.\d+)?$"
"/data/datasets/datagov/data/data/datagovdata/tl_2010_35021_areawater.csv","INTPTLAT","numbers","^-?\d*(\.\d+)?$"
"/data/datasets/datagov/data/data/datagovdata/tl_2010_35021_areawater.csv","COUNTYFP","numbers","^-?\d*(\.\d+)?$"
"/data/datasets/datagov/data/data/datagovdata/tl_2010_35021_areawater.csv","STATEFP","numbers","^-?\d*(\.\d+)?$"
