"file_name","column_name","label","regex"
"/data/datasets/mitdwh/Ctx_object_attributes.csv","Oat Min","numbers","^(\d|,)*\.?\d*$"
"/data/datasets/mitdwh/Ctx_object_attributes.csv","Oat Object","uri",".*?$(?<!\.aspx)"
"/data/datasets/mitdwh/Ctx_object_attributes.csv","Oat Datatype","uri",".*?$(?<!\.aspx)"
"/data/datasets/mitdwh/Ctx_object_attributes.csv","Oat Description","strings","[^""\r\n]*"
"/data/datasets/mitdwh/Ctx_object_attributes.csv","Oat Attribute","uri",".*?$(?<!\.aspx)"
"/data/datasets/mitdwh/Ctx_object_attributes.csv","Oat Required","uri",".*?$(?<!\.aspx)"
"/data/datasets/mitdwh/Ctx_object_attributes.csv","Oat Default","strings","[^""\r\n]*"
"/data/datasets/mitdwh/Ctx_object_attributes.csv","Oat Max","numbers","^(\d|,)*\.?\d*$"
"/data/datasets/mitdwh/Ctx_object_attributes.csv","Oat Class","uri",".*?$(?<!\.aspx)"
"/data/datasets/mitdwh/Ctx_object_attributes.csv","Oat Max Length","numbers","^(\d|,)*\.?\d*$"
"/data/datasets/mitdwh/Ctx_object_attributes.csv","Oat Static","uri",".*?$(?<!\.aspx)"
