"file_name","column_name","label","regex"
"/data/datasets/datagov/data/data/datagovdata/tax-12-2012-liquor-collections-and-permits-9ee3a.csv","SECOND DISTRICT","numbers","^(\d|,)*\.?\d*$"
"/data/datasets/datagov/data/data/datagovdata/tax-12-2012-liquor-collections-and-permits-9ee3a.csv","2012-2013","numbers","^(\d|,)*\.?\d*$"
"/data/datasets/datagov/data/data/datagovdata/tax-12-2012-liquor-collections-and-permits-9ee3a.csv","2011-2012","numbers","^(\d|,)*\.?\d*$"
"/data/datasets/datagov/data/data/datagovdata/tax-12-2012-liquor-collections-and-permits-9ee3a.csv","FOURTH DISTRICT","numbers","^(\d|,)*\.?\d*$"
"/data/datasets/datagov/data/data/datagovdata/tax-12-2012-liquor-collections-and-permits-9ee3a.csv","FIRST DISTRICT","numbers","^(\d|,)*\.?\d*$"
"/data/datasets/datagov/data/data/datagovdata/tax-12-2012-liquor-collections-and-permits-9ee3a.csv","Amount of Tax","uri",".*?$(?<!\.aspx)"
"/data/datasets/datagov/data/data/datagovdata/tax-12-2012-liquor-collections-and-permits-9ee3a.csv","Dec 2011","numbers","^(\d|,)*\.?\d*$"
"/data/datasets/datagov/data/data/datagovdata/tax-12-2012-liquor-collections-and-permits-9ee3a.csv","THIRD DISTRICT","numbers","^(\d|,)*\.?\d*$"
"/data/datasets/datagov/data/data/datagovdata/tax-12-2012-liquor-collections-and-permits-9ee3a.csv","Dec  2012","numbers","^(\d|,)*\.?\d*$"
