"file_name","column_name","label","regex"
"/data/datasets/datagov/data/data/datagovdata/school-progress-report-multi-year-2007-2011-13f40.csv","2008-09 PROGRESS REPORT GRADE","uri",".*?$(?<!\.aspx)"
"/data/datasets/datagov/data/data/datagovdata/school-progress-report-multi-year-2007-2011-13f40.csv","PROGRESS REPORT TYPE","uri",".*?$(?<!\.aspx)"
"/data/datasets/datagov/data/data/datagovdata/school-progress-report-multi-year-2007-2011-13f40.csv","SCHOOL NAME","strings","[^""\r\n]*"
"/data/datasets/datagov/data/data/datagovdata/school-progress-report-multi-year-2007-2011-13f40.csv","2007-08 PROGRESS REPORT GRADE","uri",".*?$(?<!\.aspx)"
"/data/datasets/datagov/data/data/datagovdata/school-progress-report-multi-year-2007-2011-13f40.csv","BN","uri",".*?$(?<!\.aspx)"
"/data/datasets/datagov/data/data/datagovdata/school-progress-report-multi-year-2007-2011-13f40.csv","2006-07 PROGRESS REPORT GRADE","uri",".*?$(?<!\.aspx)"
"/data/datasets/datagov/data/data/datagovdata/school-progress-report-multi-year-2007-2011-13f40.csv","2009-10 PROGRESS REPORT GRADE","uri",".*?$(?<!\.aspx)"
"/data/datasets/datagov/data/data/datagovdata/school-progress-report-multi-year-2007-2011-13f40.csv","2010-11 PROGRESS REPORT GRADE","uri",".*?$(?<!\.aspx)"
