"file_name","column_name","label","regex"
"/data/datasets/datagov/data/data/datagovdata/real-property-tax-credit-circuit-breaker-beginning-tax-year-1992.csv","Place of Residence","uri",".*?$(?<!\.aspx)"
"/data/datasets/datagov/data/data/datagovdata/real-property-tax-credit-circuit-breaker-beginning-tax-year-1992.csv","County","uri",".*?$(?<!\.aspx)"
"/data/datasets/datagov/data/data/datagovdata/real-property-tax-credit-circuit-breaker-beginning-tax-year-1992.csv","Notes","strings","[^""\r\n]*"
"/data/datasets/datagov/data/data/datagovdata/real-property-tax-credit-circuit-breaker-beginning-tax-year-1992.csv"," Amount of Credits ($000) ","numbers","^\d$"
"/data/datasets/datagov/data/data/datagovdata/real-property-tax-credit-circuit-breaker-beginning-tax-year-1992.csv","Tax Year","numbers","^\d$"
"/data/datasets/datagov/data/data/datagovdata/real-property-tax-credit-circuit-breaker-beginning-tax-year-1992.csv","Item Sort Order","numbers","^\d$"
"/data/datasets/datagov/data/data/datagovdata/real-property-tax-credit-circuit-breaker-beginning-tax-year-1992.csv"," Number of Credits ","numbers","^\d$"
"/data/datasets/datagov/data/data/datagovdata/real-property-tax-credit-circuit-breaker-beginning-tax-year-1992.csv"," Average Credit ","numbers","^\d$"
"/data/datasets/datagov/data/data/datagovdata/real-property-tax-credit-circuit-breaker-beginning-tax-year-1992.csv","Age Sort Order","numbers","^\d$"
"/data/datasets/datagov/data/data/datagovdata/real-property-tax-credit-circuit-breaker-beginning-tax-year-1992.csv","Place of Residence Sort Order","numbers","^\d$"
"/data/datasets/datagov/data/data/datagovdata/real-property-tax-credit-circuit-breaker-beginning-tax-year-1992.csv","Item","strings","[^""\r\n]*"
"/data/datasets/datagov/data/data/datagovdata/real-property-tax-credit-circuit-breaker-beginning-tax-year-1992.csv","Houshold Gross Income Sort Order","numbers","^\d$"
"/data/datasets/datagov/data/data/datagovdata/real-property-tax-credit-circuit-breaker-beginning-tax-year-1992.csv","Credit Type","uri",".*?$(?<!\.aspx)"
