"file_name","column_name","label","regex"
"/data/datasets/datagov/data/data/datagovdata/purchase-card-pcard-fiscal-year-2014.csv","Cardholder First Initial","uri",".*?$(?<!\.aspx)"
"/data/datasets/datagov/data/data/datagovdata/purchase-card-pcard-fiscal-year-2014.csv","Description","strings","[^""\r\n]*"
"/data/datasets/datagov/data/data/datagovdata/purchase-card-pcard-fiscal-year-2014.csv","Amount","numbers","^-?\d*(\.\d+)?$"
"/data/datasets/datagov/data/data/datagovdata/purchase-card-pcard-fiscal-year-2014.csv","Cardholder Last Name","uri",".*?$(?<!\.aspx)"
"/data/datasets/datagov/data/data/datagovdata/purchase-card-pcard-fiscal-year-2014.csv","Transaction Date","strings","[^""\r\n]*"
"/data/datasets/datagov/data/data/datagovdata/purchase-card-pcard-fiscal-year-2014.csv","Agency Name","uri",".*?$(?<!\.aspx)"
"/data/datasets/datagov/data/data/datagovdata/purchase-card-pcard-fiscal-year-2014.csv","Posted Date","strings","[^""\r\n]*"
"/data/datasets/datagov/data/data/datagovdata/purchase-card-pcard-fiscal-year-2014.csv","Agency Number","numbers","^-?\d*(\.\d+)?$"
"/data/datasets/datagov/data/data/datagovdata/purchase-card-pcard-fiscal-year-2014.csv","Merchant Category Code (MCC)","strings","[^""\r\n]*"
"/data/datasets/datagov/data/data/datagovdata/purchase-card-pcard-fiscal-year-2014.csv","Vendor","strings","[^""\r\n]*"
"/data/datasets/datagov/data/data/datagovdata/purchase-card-pcard-fiscal-year-2014.csv","Year-Month","numbers","^-?\d*(\.\d+)?$"
