"file_name","column_name","label","regex"
"/data/datasets/datagov/data/data/datagovdata/competitiveness-metrics-for-washingtons-economy-2bbe9.csv","2009 Score","numbers","^(\d|,)*\.?\d*$"
"/data/datasets/datagov/data/data/datagovdata/competitiveness-metrics-for-washingtons-economy-2bbe9.csv","Metric","strings","[^""\r\n]*"
"/data/datasets/datagov/data/data/datagovdata/competitiveness-metrics-for-washingtons-economy-2bbe9.csv","2009 Rank","numbers","^(\d|,)*\.?\d*$"
"/data/datasets/datagov/data/data/datagovdata/competitiveness-metrics-for-washingtons-economy-2bbe9.csv","2010 Rank","numbers","^(\d|,)*\.?\d*$"
"/data/datasets/datagov/data/data/datagovdata/competitiveness-metrics-for-washingtons-economy-2bbe9.csv","White Paper Subjects related to","strings","[^""\r\n]*"
"/data/datasets/datagov/data/data/datagovdata/competitiveness-metrics-for-washingtons-economy-2bbe9.csv","2013 Score","numbers","^(\d|,)*\.?\d*$"
"/data/datasets/datagov/data/data/datagovdata/competitiveness-metrics-for-washingtons-economy-2bbe9.csv","Change from initial rank","numbers","^(\d|,)*\.?\d*$"
"/data/datasets/datagov/data/data/datagovdata/competitiveness-metrics-for-washingtons-economy-2bbe9.csv","2013 Rank","numbers","^(\d|,)*\.?\d*$"
"/data/datasets/datagov/data/data/datagovdata/competitiveness-metrics-for-washingtons-economy-2bbe9.csv","2007 Rank","numbers","^(\d|,)*\.?\d*$"
"/data/datasets/datagov/data/data/datagovdata/competitiveness-metrics-for-washingtons-economy-2bbe9.csv","Study","uri",".*?$(?<!\.aspx)"
"/data/datasets/datagov/data/data/datagovdata/competitiveness-metrics-for-washingtons-economy-2bbe9.csv","2007 Score","uri",".*?$(?<!\.aspx)"
"/data/datasets/datagov/data/data/datagovdata/competitiveness-metrics-for-washingtons-economy-2bbe9.csv","Gain in rank","numbers","^(\d|,)*\.?\d*$"
"/data/datasets/datagov/data/data/datagovdata/competitiveness-metrics-for-washingtons-economy-2bbe9.csv","2010-2011","numbers","^(\d|,)*\.?\d*$"
"/data/datasets/datagov/data/data/datagovdata/competitiveness-metrics-for-washingtons-economy-2bbe9.csv","Change in rank from last report (two years ago to one year ago)","numbers","^(\d|,)*\.?\d*$"
"/data/datasets/datagov/data/data/datagovdata/competitiveness-metrics-for-washingtons-economy-2bbe9.csv","Change in rank from last report (four years ago to three years ago)","numbers","^(\d|,)*\.?\d*$"
"/data/datasets/datagov/data/data/datagovdata/competitiveness-metrics-for-washingtons-economy-2bbe9.csv","Second latest rank","numbers","^(\d|,)*\.?\d*$"
"/data/datasets/datagov/data/data/datagovdata/competitiveness-metrics-for-washingtons-economy-2bbe9.csv","Top third","numbers","^(\d|,)*\.?\d*$"
"/data/datasets/datagov/data/data/datagovdata/competitiveness-metrics-for-washingtons-economy-2bbe9.csv","average absolute change in overall rankings 2009-2010 and 2010-2011","uri",".*?$(?<!\.aspx)"
"/data/datasets/datagov/data/data/datagovdata/competitiveness-metrics-for-washingtons-economy-2bbe9.csv","average absolute change in overall rankings 2010-2011 and 2011-2012","uri",".*?$(?<!\.aspx)"
"/data/datasets/datagov/data/data/datagovdata/competitiveness-metrics-for-washingtons-economy-2bbe9.csv","2008 Rank","numbers","^(\d|,)*\.?\d*$"
"/data/datasets/datagov/data/data/datagovdata/competitiveness-metrics-for-washingtons-economy-2bbe9.csv","2008 Score","uri",".*?$(?<!\.aspx)"
"/data/datasets/datagov/data/data/datagovdata/competitiveness-metrics-for-washingtons-economy-2bbe9.csv","2009-2010","uri",".*?$(?<!\.aspx)"
"/data/datasets/datagov/data/data/datagovdata/competitiveness-metrics-for-washingtons-economy-2bbe9.csv","Previous rank","numbers","^(\d|,)*\.?\d*$"
"/data/datasets/datagov/data/data/datagovdata/competitiveness-metrics-for-washingtons-economy-2bbe9.csv","Two year change in rank","numbers","^(\d|,)*\.?\d*$"
"/data/datasets/datagov/data/data/datagovdata/competitiveness-metrics-for-washingtons-economy-2bbe9.csv","Years ranked","numbers","^(\d|,)*\.?\d*$"
"/data/datasets/datagov/data/data/datagovdata/competitiveness-metrics-for-washingtons-economy-2bbe9.csv","Latest rank","numbers","^(\d|,)*\.?\d*$"
"/data/datasets/datagov/data/data/datagovdata/competitiveness-metrics-for-washingtons-economy-2bbe9.csv","Std Dev","numbers","^(\d|,)*\.?\d*$"
"/data/datasets/datagov/data/data/datagovdata/competitiveness-metrics-for-washingtons-economy-2bbe9.csv","Change from previous rank","numbers","^(\d|,)*\.?\d*$"
"/data/datasets/datagov/data/data/datagovdata/competitiveness-metrics-for-washingtons-economy-2bbe9.csv","Metric Area (our categorization)","strings","[^""\r\n]*"
"/data/datasets/datagov/data/data/datagovdata/competitiveness-metrics-for-washingtons-economy-2bbe9.csv","Bottom third","numbers","^(\d|,)*\.?\d*$"
"/data/datasets/datagov/data/data/datagovdata/competitiveness-metrics-for-washingtons-economy-2bbe9.csv","Tier","numbers","^(\d|,)*\.?\d*$"
"/data/datasets/datagov/data/data/datagovdata/competitiveness-metrics-for-washingtons-economy-2bbe9.csv","Middle third","numbers","^(\d|,)*\.?\d*$"
"/data/datasets/datagov/data/data/datagovdata/competitiveness-metrics-for-washingtons-economy-2bbe9.csv","Change in rank from last report","numbers","^(\d|,)*\.?\d*$"
"/data/datasets/datagov/data/data/datagovdata/competitiveness-metrics-for-washingtons-economy-2bbe9.csv","Change in rank from last report (three years ago to two years ago)","numbers","^(\d|,)*\.?\d*$"
"/data/datasets/datagov/data/data/datagovdata/competitiveness-metrics-for-washingtons-economy-2bbe9.csv","Loss in rank","numbers","^(\d|,)*\.?\d*$"
"/data/datasets/datagov/data/data/datagovdata/competitiveness-metrics-for-washingtons-economy-2bbe9.csv","2011-2012","uri",".*?$(?<!\.aspx)"
"/data/datasets/datagov/data/data/datagovdata/competitiveness-metrics-for-washingtons-economy-2bbe9.csv","Variance","strings","[^""\r\n]*"
"/data/datasets/datagov/data/data/datagovdata/competitiveness-metrics-for-washingtons-economy-2bbe9.csv","Four year change in rank","numbers","^(\d|,)*\.?\d*$"
"/data/datasets/datagov/data/data/datagovdata/competitiveness-metrics-for-washingtons-economy-2bbe9.csv","2014 Rank","numbers","^(\d|,)*\.?\d*$"
"/data/datasets/datagov/data/data/datagovdata/competitiveness-metrics-for-washingtons-economy-2bbe9.csv","Most Recent Rank (current metrics)","numbers","^(\d|,)*\.?\d*$"
"/data/datasets/datagov/data/data/datagovdata/competitiveness-metrics-for-washingtons-economy-2bbe9.csv","Change in rank","numbers","^(\d|,)*\.?\d*$"
"/data/datasets/datagov/data/data/datagovdata/competitiveness-metrics-for-washingtons-economy-2bbe9.csv","Initial rank","numbers","^(\d|,)*\.?\d*$"
"/data/datasets/datagov/data/data/datagovdata/competitiveness-metrics-for-washingtons-economy-2bbe9.csv","2012 Score","numbers","^(\d|,)*\.?\d*$"
"/data/datasets/datagov/data/data/datagovdata/competitiveness-metrics-for-washingtons-economy-2bbe9.csv","2011 Score","numbers","^(\d|,)*\.?\d*$"
"/data/datasets/datagov/data/data/datagovdata/competitiveness-metrics-for-washingtons-economy-2bbe9.csv","2011 Rank","numbers","^(\d|,)*\.?\d*$"
"/data/datasets/datagov/data/data/datagovdata/competitiveness-metrics-for-washingtons-economy-2bbe9.csv","2012 Rank","numbers","^(\d|,)*\.?\d*$"
"/data/datasets/datagov/data/data/datagovdata/competitiveness-metrics-for-washingtons-economy-2bbe9.csv","2010 Score","uri",".*?$(?<!\.aspx)"
"/data/datasets/datagov/data/data/datagovdata/competitiveness-metrics-for-washingtons-economy-2bbe9.csv","Change compared to average rank (all years)","numbers","^(\d|,)*\.?\d*$"
