"file_name","column_name","label","regex"
"/data/datasets/datagov/data/data/datagovdata/web-analytics-lacity-org-january-2015.csv","Page Title","strings","[^""\r\n]*"
"/data/datasets/datagov/data/data/datagovdata/web-analytics-lacity-org-january-2015.csv","Pageviews","numbers","^\d*$"
"/data/datasets/datagov/data/data/datagovdata/web-analytics-lacity-org-january-2015.csv","Unique Pageviews","numbers","^\d*$"
"/data/datasets/datagov/data/data/datagovdata/web-analytics-lacity-org-january-2015.csv","Bounce Rate","uri",".*?$(?<!\.aspx)"
"/data/datasets/datagov/data/data/datagovdata/web-analytics-lacity-org-january-2015.csv","Entrances","numbers","^\d*$"
"/data/datasets/datagov/data/data/datagovdata/web-analytics-lacity-org-january-2015.csv","Avg. Time on Page","numbers","^\d*$"
"/data/datasets/datagov/data/data/datagovdata/web-analytics-lacity-org-january-2015.csv","% Exit","uri",".*?$(?<!\.aspx)"
