"file_name","column_name","label","regex"
"/data/datasets/datagov/data/data/datagovdata/cdc-pramstat-data-for-2005-3fc2c.csv","LocationDesc","uri",".*?$(?<!\.aspx)"
"/data/datasets/datagov/data/data/datagovdata/cdc-pramstat-data-for-2005-3fc2c.csv","Break_Out_Category","strings","[^""\r\n]*"
"/data/datasets/datagov/data/data/datagovdata/cdc-pramstat-data-for-2005-3fc2c.csv","Break_Out","strings","[^""\r\n]*"
"/data/datasets/datagov/data/data/datagovdata/cdc-pramstat-data-for-2005-3fc2c.csv","ResponseId","uri",".*?$(?<!\.aspx)"
"/data/datasets/datagov/data/data/datagovdata/cdc-pramstat-data-for-2005-3fc2c.csv","Class","strings","[^""\r\n]*"
"/data/datasets/datagov/data/data/datagovdata/cdc-pramstat-data-for-2005-3fc2c.csv","Response","strings","[^""\r\n]*"
"/data/datasets/datagov/data/data/datagovdata/cdc-pramstat-data-for-2005-3fc2c.csv","Question","strings","[^""\r\n]*"
"/data/datasets/datagov/data/data/datagovdata/cdc-pramstat-data-for-2005-3fc2c.csv","Topic","uri",".*?$(?<!\.aspx)"
"/data/datasets/datagov/data/data/datagovdata/cdc-pramstat-data-for-2005-3fc2c.csv","BreakOutCategoryid","uri",".*?$(?<!\.aspx)"
"/data/datasets/datagov/data/data/datagovdata/cdc-pramstat-data-for-2005-3fc2c.csv","Data_Value","numbers","^(\d|,)*\.?\d*$"
"/data/datasets/datagov/data/data/datagovdata/cdc-pramstat-data-for-2005-3fc2c.csv","TopicId","uri",".*?$(?<!\.aspx)"
"/data/datasets/datagov/data/data/datagovdata/cdc-pramstat-data-for-2005-3fc2c.csv","Data_Value_Footnote_Symbol","strings","[^""\r\n]*"
"/data/datasets/datagov/data/data/datagovdata/cdc-pramstat-data-for-2005-3fc2c.csv","Data_Value_Footnote","uri",".*?$(?<!\.aspx)"
"/data/datasets/datagov/data/data/datagovdata/cdc-pramstat-data-for-2005-3fc2c.csv","DataSource","uri",".*?$(?<!\.aspx)"
"/data/datasets/datagov/data/data/datagovdata/cdc-pramstat-data-for-2005-3fc2c.csv","Data_Value_Unit","uri",".*?$(?<!\.aspx)"
"/data/datasets/datagov/data/data/datagovdata/cdc-pramstat-data-for-2005-3fc2c.csv","High_Confidence_Limit","numbers","^(\d|,)*\.?\d*$"
"/data/datasets/datagov/data/data/datagovdata/cdc-pramstat-data-for-2005-3fc2c.csv","Low_Confidence_Limit","numbers","^(\d|,)*\.?\d*$"
"/data/datasets/datagov/data/data/datagovdata/cdc-pramstat-data-for-2005-3fc2c.csv","BreakOutId","uri",".*?$(?<!\.aspx)"
"/data/datasets/datagov/data/data/datagovdata/cdc-pramstat-data-for-2005-3fc2c.csv","LocationAbbr","uri",".*?$(?<!\.aspx)"
"/data/datasets/datagov/data/data/datagovdata/cdc-pramstat-data-for-2005-3fc2c.csv","Year","numbers","^(\d|,)*\.?\d*$"
"/data/datasets/datagov/data/data/datagovdata/cdc-pramstat-data-for-2005-3fc2c.csv","Data_Value_Type","uri",".*?$(?<!\.aspx)"
"/data/datasets/datagov/data/data/datagovdata/cdc-pramstat-data-for-2005-3fc2c.csv","Sample_Size","numbers","^(\d|,)*\.?\d*$"
"/data/datasets/datagov/data/data/datagovdata/cdc-pramstat-data-for-2005-3fc2c.csv","ClassId","uri",".*?$(?<!\.aspx)"
"/data/datasets/datagov/data/data/datagovdata/cdc-pramstat-data-for-2005-3fc2c.csv","QuestionId","uri",".*?$(?<!\.aspx)"
"/data/datasets/datagov/data/data/datagovdata/cdc-pramstat-data-for-2005-3fc2c.csv","LocationId","numbers","^(\d|,)*\.?\d*$"
"/data/datasets/datagov/data/data/datagovdata/cdc-pramstat-data-for-2005-3fc2c.csv","Geolocation","uri",".*?$(?<!\.aspx)"
