"file_name","column_name","label","regex"
"/data/datasets/datagov/data/data/datagovdata/prequalified-firms-cb0fa.csv","Prequalified Vendor Master Trade Code","numbers","^\d*$"
"/data/datasets/datagov/data/data/datagovdata/prequalified-firms-cb0fa.csv","Prequalified Vendor Minority Business Indicator","uri",".*?$(?<!\.aspx)"
"/data/datasets/datagov/data/data/datagovdata/prequalified-firms-cb0fa.csv","Prequalified Vendor Phone Number","uri",".*?$(?<!\.aspx)"
"/data/datasets/datagov/data/data/datagovdata/prequalified-firms-cb0fa.csv","Prequalified Vendor Address","uri",".*?$(?<!\.aspx)"
"/data/datasets/datagov/data/data/datagovdata/prequalified-firms-cb0fa.csv","Prequalified Vendor Over Million Dollar Revenue Indicator","uri",".*?$(?<!\.aspx)"
"/data/datasets/datagov/data/data/datagovdata/prequalified-firms-cb0fa.csv","Prequalified Vendor Women Business Indicator","uri",".*?$(?<!\.aspx)"
"/data/datasets/datagov/data/data/datagovdata/prequalified-firms-cb0fa.csv","Prequalified Vendor Contact Person","uri",".*?$(?<!\.aspx)"
"/data/datasets/datagov/data/data/datagovdata/prequalified-firms-cb0fa.csv","Prequalified Vendor Trade Description","strings","[^""\r\n]*"
"/data/datasets/datagov/data/data/datagovdata/prequalified-firms-cb0fa.csv","Prequalified Vendor City Name","uri",".*?$(?<!\.aspx)"
"/data/datasets/datagov/data/data/datagovdata/prequalified-firms-cb0fa.csv","Prequalified Vendor Fax Number","uri",".*?$(?<!\.aspx)"
"/data/datasets/datagov/data/data/datagovdata/prequalified-firms-cb0fa.csv","Prequalified Vendor State Code","uri",".*?$(?<!\.aspx)"
"/data/datasets/datagov/data/data/datagovdata/prequalified-firms-cb0fa.csv","Prequalified Vendor Date","strings","[^""\r\n]*"
"/data/datasets/datagov/data/data/datagovdata/prequalified-firms-cb0fa.csv","Prequalified Vendor Local Business Indicator","uri",".*?$(?<!\.aspx)"
"/data/datasets/datagov/data/data/datagovdata/prequalified-firms-cb0fa.csv","Prequalified Vendor Zip Code","numbers","^\d*$"
"/data/datasets/datagov/data/data/datagovdata/prequalified-firms-cb0fa.csv","Prequalified Vendor Name","uri",".*?$(?<!\.aspx)"
