"file_name","column_name","label","regex"
"/data/datasets/datagov/data/data/datagovdata/idhs-fy11-vr-outcomes-by-county-4af7a.csv","Number of Persons with Disabilities Successfully Employed","numbers","^\d*$"
"/data/datasets/datagov/data/data/datagovdata/idhs-fy11-vr-outcomes-by-county-4af7a.csv","County","uri",".*?$(?<!\.aspx)"
