"file_name","column_name","label","regex"
"/data/datasets/datagov/data/data/datagovdata/dbedt-hawaii-state-agencies-electricity-consumption-and-cost-fy05-fy10-fbdac.csv","Electricity Consumed","numbers","^\d*$"
"/data/datasets/datagov/data/data/datagovdata/dbedt-hawaii-state-agencies-electricity-consumption-and-cost-fy05-fy10-fbdac.csv","Cost of Electricity","numbers","^\d*$"
"/data/datasets/datagov/data/data/datagovdata/dbedt-hawaii-state-agencies-electricity-consumption-and-cost-fy05-fy10-fbdac.csv","X Values","uri",".*?$(?<!\.aspx)"
