"file_name","column_name","label","regex"
"/data/datasets/datagov/data/data/datagovdata/brooklyn-public-library-catalog-f85b8.csv","TITLE","strings","[^""\r\n]*"
"/data/datasets/datagov/data/data/datagovdata/brooklyn-public-library-catalog-f85b8.csv","CALL #(BIBLIO)","uri",".*?$(?<!\.aspx)"
"/data/datasets/datagov/data/data/datagovdata/brooklyn-public-library-catalog-f85b8.csv","STANDARD #","strings","[^""\r\n]*"
"/data/datasets/datagov/data/data/datagovdata/brooklyn-public-library-catalog-f85b8.csv","AUTHOR","uri",".*?$(?<!\.aspx)"
"/data/datasets/datagov/data/data/datagovdata/brooklyn-public-library-catalog-f85b8.csv","EDITION","strings","[^""\r\n]*"
"/data/datasets/datagov/data/data/datagovdata/brooklyn-public-library-catalog-f85b8.csv","PUB INFO","strings","[^""\r\n]*"
