"file_name","column_name","label","regex"
"/data/datasets/datagov/data/data/datagovdata/neighborhood-health-clinics-historical.csv","LOCATION","uri","^[^\\\/\?\*\""\'\>\<\:\|]*$"
"/data/datasets/datagov/data/data/datagovdata/neighborhood-health-clinics-historical.csv","ADDRESS","uri","^[^\\\/\?\*\""\'\>\<\:\|]*$"
"/data/datasets/datagov/data/data/datagovdata/neighborhood-health-clinics-historical.csv","CITY","uri","^[^\\\/\?\*\""\'\>\<\:\|]*$"
"/data/datasets/datagov/data/data/datagovdata/neighborhood-health-clinics-historical.csv","SERVICES","uri","^[^\\\/\?\*\""\'\>\<\:\|]*$"
"/data/datasets/datagov/data/data/datagovdata/neighborhood-health-clinics-historical.csv","ZIP","numbers","^\d*$"
"/data/datasets/datagov/data/data/datagovdata/neighborhood-health-clinics-historical.csv","PHONE","address_or_phone","^[2-9]\d{2}-\d{3}-\d{4}$"
"/data/datasets/datagov/data/data/datagovdata/neighborhood-health-clinics-historical.csv","WEBSITE","uri","^[^\\\/\?\*\""\'\>\<\:\|]*$"
"/data/datasets/datagov/data/data/datagovdata/neighborhood-health-clinics-historical.csv","SITE NAME","uri","^[^\\\/\?\*\""\'\>\<\:\|]*$"
"/data/datasets/datagov/data/data/datagovdata/neighborhood-health-clinics-historical.csv","HOURS OF OPERATION","strings","[^""\r\n]*"
"/data/datasets/datagov/data/data/datagovdata/neighborhood-health-clinics-historical.csv","STATE","uri","^[^\\\/\?\*\""\'\>\<\:\|]*$"
