"file_name","column_name","label","regex"
"/data/datasets/datagov/data/data/datagovdata/food-establishment-inspection-data-d4465.csv","Business_ID","uri",".*?$(?<!\.aspx)"
"/data/datasets/datagov/data/data/datagovdata/food-establishment-inspection-data-d4465.csv","Name","strings","[^""\r\n]*"
"/data/datasets/datagov/data/data/datagovdata/food-establishment-inspection-data-d4465.csv","Latitude","numbers","^\d*$"
"/data/datasets/datagov/data/data/datagovdata/food-establishment-inspection-data-d4465.csv","Address","uri",".*?$(?<!\.aspx)"
"/data/datasets/datagov/data/data/datagovdata/food-establishment-inspection-data-d4465.csv","Violation Description","uri",".*?$(?<!\.aspx)"
"/data/datasets/datagov/data/data/datagovdata/food-establishment-inspection-data-d4465.csv","Phone","uri",".*?$(?<!\.aspx)"
"/data/datasets/datagov/data/data/datagovdata/food-establishment-inspection-data-d4465.csv","Violation Type","uri",".*?$(?<!\.aspx)"
"/data/datasets/datagov/data/data/datagovdata/food-establishment-inspection-data-d4465.csv","Inspection_Serial_Num","uri",".*?$(?<!\.aspx)"
"/data/datasets/datagov/data/data/datagovdata/food-establishment-inspection-data-d4465.csv","Longitude","numbers","^\d*$"
"/data/datasets/datagov/data/data/datagovdata/food-establishment-inspection-data-d4465.csv","Violation_Record_ID","uri",".*?$(?<!\.aspx)"
"/data/datasets/datagov/data/data/datagovdata/food-establishment-inspection-data-d4465.csv","Inspection Date","strings","[^""\r\n]*"
"/data/datasets/datagov/data/data/datagovdata/food-establishment-inspection-data-d4465.csv","Inspection Score","numbers","^\d*$"
"/data/datasets/datagov/data/data/datagovdata/food-establishment-inspection-data-d4465.csv","Description","strings","[^""\r\n]*"
"/data/datasets/datagov/data/data/datagovdata/food-establishment-inspection-data-d4465.csv","Violation Points","numbers","^\d*$"
"/data/datasets/datagov/data/data/datagovdata/food-establishment-inspection-data-d4465.csv","Inspection Business Name","strings","[^""\r\n]*"
"/data/datasets/datagov/data/data/datagovdata/food-establishment-inspection-data-d4465.csv","City","uri",".*?$(?<!\.aspx)"
"/data/datasets/datagov/data/data/datagovdata/food-establishment-inspection-data-d4465.csv","Inspection Closed Business","uri",".*?$(?<!\.aspx)"
"/data/datasets/datagov/data/data/datagovdata/food-establishment-inspection-data-d4465.csv","Inspection Type","strings","[^""\r\n]*"
"/data/datasets/datagov/data/data/datagovdata/food-establishment-inspection-data-d4465.csv","Program Identifier","strings","[^""\r\n]*"
"/data/datasets/datagov/data/data/datagovdata/food-establishment-inspection-data-d4465.csv","Inspection Result","uri",".*?$(?<!\.aspx)"
"/data/datasets/datagov/data/data/datagovdata/food-establishment-inspection-data-d4465.csv","Zip Code","numbers","^\d*$"
