"file_name","column_name","label","regex"
"/data/datasets/datagov/data/data/datagovdata/fhv-bases-a4e2d.csv","Base Phone","uri",".*?$(?<!\.aspx)"
"/data/datasets/datagov/data/data/datagovdata/fhv-bases-a4e2d.csv","Latitude","numbers","^(\d|,)*\.?\d*$"
"/data/datasets/datagov/data/data/datagovdata/fhv-bases-a4e2d.csv","Zip","numbers","^(\d|,)*\.?\d*$"
"/data/datasets/datagov/data/data/datagovdata/fhv-bases-a4e2d.csv","Street","uri",".*?$(?<!\.aspx)"
"/data/datasets/datagov/data/data/datagovdata/fhv-bases-a4e2d.csv","Longitude","numbers","^(\d|,)*\.?\d*$"
"/data/datasets/datagov/data/data/datagovdata/fhv-bases-a4e2d.csv","Base Name","strings","[^""\r\n]*"
"/data/datasets/datagov/data/data/datagovdata/fhv-bases-a4e2d.csv","Base Type","strings","[^""\r\n]*"
"/data/datasets/datagov/data/data/datagovdata/fhv-bases-a4e2d.csv","Street Number","uri",".*?$(?<!\.aspx)"
"/data/datasets/datagov/data/data/datagovdata/fhv-bases-a4e2d.csv","Base License","uri",".*?$(?<!\.aspx)"
"/data/datasets/datagov/data/data/datagovdata/fhv-bases-a4e2d.csv","Location","uri",".*?$(?<!\.aspx)"
"/data/datasets/datagov/data/data/datagovdata/fhv-bases-a4e2d.csv","City","uri",".*?$(?<!\.aspx)"
"/data/datasets/datagov/data/data/datagovdata/fhv-bases-a4e2d.csv","Wheelchair Accessible Vehicles","numbers","^(\d|,)*\.?\d*$"
"/data/datasets/datagov/data/data/datagovdata/fhv-bases-a4e2d.csv","Street Hail Livery Endorsement","uri",".*?$(?<!\.aspx)"
"/data/datasets/datagov/data/data/datagovdata/fhv-bases-a4e2d.csv","State","uri",".*?$(?<!\.aspx)"
