"file_name","column_name","label","regex"
"/data/datasets/datagov/data/data/datagovdata/k00263data913352003_cnty_view.csv","GID","numbers","^(\d|,)*\.?\d*$"
"/data/datasets/datagov/data/data/datagovdata/k00263data913352003_cnty_view.csv","RGIS_CODE","numbers","^(\d|,)*\.?\d*$"
"/data/datasets/datagov/data/data/datagovdata/k00263data913352003_cnty_view.csv","P043007","numbers","^(\d|,)*\.?\d*$"
"/data/datasets/datagov/data/data/datagovdata/k00263data913352003_cnty_view.csv","CTY_UC","uri",".*?$(?<!\.aspx)"
"/data/datasets/datagov/data/data/datagovdata/k00263data913352003_cnty_view.csv","P043025","numbers","^(\d|,)*\.?\d*$"
"/data/datasets/datagov/data/data/datagovdata/k00263data913352003_cnty_view.csv","FIPS","numbers","^(\d|,)*\.?\d*$"
"/data/datasets/datagov/data/data/datagovdata/k00263data913352003_cnty_view.csv","COUNTY","uri",".*?$(?<!\.aspx)"
"/data/datasets/datagov/data/data/datagovdata/k00263data913352003_cnty_view.csv","STFID","numbers","^(\d|,)*\.?\d*$"
"/data/datasets/datagov/data/data/datagovdata/k00263data913352003_cnty_view.csv","P043005","numbers","^(\d|,)*\.?\d*$"
"/data/datasets/datagov/data/data/datagovdata/k00263data913352003_cnty_view.csv","P043002","numbers","^(\d|,)*\.?\d*$"
"/data/datasets/datagov/data/data/datagovdata/k00263data913352003_cnty_view.csv","TGR_","numbers","^(\d|,)*\.?\d*$"
"/data/datasets/datagov/data/data/datagovdata/k00263data913352003_cnty_view.csv","P043008","numbers","^(\d|,)*\.?\d*$"
"/data/datasets/datagov/data/data/datagovdata/k00263data913352003_cnty_view.csv","P043004","numbers","^(\d|,)*\.?\d*$"
"/data/datasets/datagov/data/data/datagovdata/k00263data913352003_cnty_view.csv","AREA_NAME","uri",".*?$(?<!\.aspx)"
"/data/datasets/datagov/data/data/datagovdata/k00263data913352003_cnty_view.csv","AREA","numbers","^(\d|,)*\.?\d*$"
"/data/datasets/datagov/data/data/datagovdata/k00263data913352003_cnty_view.csv","P043003","numbers","^(\d|,)*\.?\d*$"
"/data/datasets/datagov/data/data/datagovdata/k00263data913352003_cnty_view.csv","P043006","numbers","^(\d|,)*\.?\d*$"
"/data/datasets/datagov/data/data/datagovdata/k00263data913352003_cnty_view.csv","FIPSTC_NO","numbers","^(\d|,)*\.?\d*$"
"/data/datasets/datagov/data/data/datagovdata/k00263data913352003_cnty_view.csv","P043024","numbers","^(\d|,)*\.?\d*$"
"/data/datasets/datagov/data/data/datagovdata/k00263data913352003_cnty_view.csv","TGR_ID","numbers","^(\d|,)*\.?\d*$"
"/data/datasets/datagov/data/data/datagovdata/k00263data913352003_cnty_view.csv","PERIMETER","numbers","^(\d|,)*\.?\d*$"
"/data/datasets/datagov/data/data/datagovdata/k00263data913352003_cnty_view.csv","FIPS_NO","numbers","^(\d|,)*\.?\d*$"
