"file_name","column_name","label","regex"
"/data/datasets/mitdwh/Tables.csv","Last Load Date","strings","[^""\r\n]*"
"/data/datasets/mitdwh/Tables.csv","Description","strings","[^""\r\n]*"
"/data/datasets/mitdwh/Tables.csv","Source System","uri",".*?$(?<!\.aspx)"
"/data/datasets/mitdwh/Tables.csv","Provider Name","uri",".*?$(?<!\.aspx)"
"/data/datasets/mitdwh/Tables.csv","Table Key","numbers","^(\d|,)*\d*$"
"/data/datasets/mitdwh/Tables.csv","Sensitivity","uri",".*?$(?<!\.aspx)"
"/data/datasets/mitdwh/Tables.csv","Sensivitity Desc","strings","[^""\r\n]*"
"/data/datasets/mitdwh/Tables.csv","Table Name","uri",".*?$(?<!\.aspx)"
"/data/datasets/mitdwh/Tables.csv","Business Contact Email","email","^.+@[^\.].*\.[a-z]{2,}$"
