"file_name","column_name","label","regex"
"/data/datasets/datagov/data/data/datagovdata/bay-area-bike-share-pilot-stations.csv","Lat","numbers","^\d*$"
"/data/datasets/datagov/data/data/datagovdata/bay-area-bike-share-pilot-stations.csv","the_geom","uri",".*?$(?<!\.aspx)"
"/data/datasets/datagov/data/data/datagovdata/bay-area-bike-share-pilot-stations.csv","Long","numbers","^\d*$"
"/data/datasets/datagov/data/data/datagovdata/bay-area-bike-share-pilot-stations.csv","Location_N","uri",".*?$(?<!\.aspx)"
"/data/datasets/datagov/data/data/datagovdata/bay-area-bike-share-pilot-stations.csv","Station_Lo","uri",".*?$(?<!\.aspx)"
"/data/datasets/datagov/data/data/datagovdata/bay-area-bike-share-pilot-stations.csv","Site_ID","uri",".*?$(?<!\.aspx)"
"/data/datasets/datagov/data/data/datagovdata/bay-area-bike-share-pilot-stations.csv","Station_ID","numbers","^\d*$"
"/data/datasets/datagov/data/data/datagovdata/bay-area-bike-share-pilot-stations.csv","Phase_IA","numbers","^\d*$"
