"file_name","column_name","label","regex"
"/data/datasets/datagov/data/data/datagovdata/2014-elections-governor-receipts-and-disbursements-dd7fd.csv","Total Disbursements","numbers","^\$?\d+(\.(\d{2}))?$"
"/data/datasets/datagov/data/data/datagovdata/2014-elections-governor-receipts-and-disbursements-dd7fd.csv","Won","uri",".*?$(?<!\.aspx)"
"/data/datasets/datagov/data/data/datagovdata/2014-elections-governor-receipts-and-disbursements-dd7fd.csv","Candidate Name","uri",".*?$(?<!\.aspx)"
"/data/datasets/datagov/data/data/datagovdata/2014-elections-governor-receipts-and-disbursements-dd7fd.csv","Party","uri",".*?$(?<!\.aspx)"
"/data/datasets/datagov/data/data/datagovdata/2014-elections-governor-receipts-and-disbursements-dd7fd.csv","Status","uri",".*?$(?<!\.aspx)"
"/data/datasets/datagov/data/data/datagovdata/2014-elections-governor-receipts-and-disbursements-dd7fd.csv","Votes","numbers","^\$?\d+(\.(\d{2}))?$"
"/data/datasets/datagov/data/data/datagovdata/2014-elections-governor-receipts-and-disbursements-dd7fd.csv","Total Receipts","numbers","^\$?\d+(\.(\d{2}))?$"
"/data/datasets/datagov/data/data/datagovdata/2014-elections-governor-receipts-and-disbursements-dd7fd.csv","Primary Only","uri",".*?$(?<!\.aspx)"
"/data/datasets/datagov/data/data/datagovdata/2014-elections-governor-receipts-and-disbursements-dd7fd.csv","Cost Per Vote","numbers","^\$?\d+(\.(\d{2}))?$"
