"file_name","column_name","label","regex"
"/data/datasets/datagov/data/data/datagovdata/ccc-organizations-2011-cced7.csv","Location 1","uri","^[^\\\/\?\*\""\'\>\<\:\|]*$"
"/data/datasets/datagov/data/data/datagovdata/ccc-organizations-2011-cced7.csv","Description","strings","[^""\r\n]*"
"/data/datasets/datagov/data/data/datagovdata/ccc-organizations-2011-cced7.csv","Book_Number","numbers","^\d*$"
"/data/datasets/datagov/data/data/datagovdata/ccc-organizations-2011-cced7.csv","ZipCode","numbers","^\d*$"
"/data/datasets/datagov/data/data/datagovdata/ccc-organizations-2011-cced7.csv","Fax","address_or_phone","^[2-9]\d{2}-\d{3}-\d{4}$"
"/data/datasets/datagov/data/data/datagovdata/ccc-organizations-2011-cced7.csv","Website","uri","^[^\\\/\?\*\""\'\>\<\:\|]*$"
"/data/datasets/datagov/data/data/datagovdata/ccc-organizations-2011-cced7.csv","City","uri","^[^\\\/\?\*\""\'\>\<\:\|]*$"
"/data/datasets/datagov/data/data/datagovdata/ccc-organizations-2011-cced7.csv","Telephone","uri","^[^\\\/\?\*\""\'\>\<\:\|]*$"
"/data/datasets/datagov/data/data/datagovdata/ccc-organizations-2011-cced7.csv","StreetAddress","uri","^[^\\\/\?\*\""\'\>\<\:\|]*$"
"/data/datasets/datagov/data/data/datagovdata/ccc-organizations-2011-cced7.csv","OrganizationName","strings","[^""\r\n]*"
