"file_name","column_name","label","regex"
"/data/datasets/datagov/data/data/datagovdata/leased-state-buildings.csv","LEASEID","numbers","^(\d|,)*\.?\d*$"
"/data/datasets/datagov/data/data/datagovdata/leased-state-buildings.csv","JACom","uri",".*?$(?<!\.aspx)"
"/data/datasets/datagov/data/data/datagovdata/leased-state-buildings.csv","EL2","uri",".*?$(?<!\.aspx)"
"/data/datasets/datagov/data/data/datagovdata/leased-state-buildings.csv","HE2","uri",".*?$(?<!\.aspx)"
"/data/datasets/datagov/data/data/datagovdata/leased-state-buildings.csv","RRLes","uri",".*?$(?<!\.aspx)"
"/data/datasets/datagov/data/data/datagovdata/leased-state-buildings.csv","HW","uri",".*?$(?<!\.aspx)"
"/data/datasets/datagov/data/data/datagovdata/leased-state-buildings.csv","SE","uri",".*?$(?<!\.aspx)"
"/data/datasets/datagov/data/data/datagovdata/leased-state-buildings.csv","PA","uri",".*?$(?<!\.aspx)"
"/data/datasets/datagov/data/data/datagovdata/leased-state-buildings.csv","EXPIRATION_DATE","strings","[^""\r\n]*"
"/data/datasets/datagov/data/data/datagovdata/leased-state-buildings.csv","TENANT_AGENCY","uri",".*?$(?<!\.aspx)"
"/data/datasets/datagov/data/data/datagovdata/leased-state-buildings.csv","TAX_ESCALATION","uri",".*?$(?<!\.aspx)"
"/data/datasets/datagov/data/data/datagovdata/leased-state-buildings.csv","JALes","uri",".*?$(?<!\.aspx)"
"/data/datasets/datagov/data/data/datagovdata/leased-state-buildings.csv","TYPE_OF_SPACE","uri",".*?$(?<!\.aspx)"
"/data/datasets/datagov/data/data/datagovdata/leased-state-buildings.csv","HE","uri",".*?$(?<!\.aspx)"
"/data/datasets/datagov/data/data/datagovdata/leased-state-buildings.csv","EV","uri",".*?$(?<!\.aspx)"
"/data/datasets/datagov/data/data/datagovdata/leased-state-buildings.csv","RRCom","uri",".*?$(?<!\.aspx)"
"/data/datasets/datagov/data/data/datagovdata/leased-state-buildings.csv","NO_PKG_SPACES","numbers","^(\d|,)*\.?\d*$"
"/data/datasets/datagov/data/data/datagovdata/leased-state-buildings.csv","EL","uri",".*?$(?<!\.aspx)"
"/data/datasets/datagov/data/data/datagovdata/leased-state-buildings.csv","SN","uri",".*?$(?<!\.aspx)"
"/data/datasets/datagov/data/data/datagovdata/leased-state-buildings.csv","BMLes","uri",".*?$(?<!\.aspx)"
"/data/datasets/datagov/data/data/datagovdata/leased-state-buildings.csv","ANNUAL_RENT","numbers","^(\d|,)*\.?\d*$"
"/data/datasets/datagov/data/data/datagovdata/leased-state-buildings.csv","AC2","uri",".*?$(?<!\.aspx)"
"/data/datasets/datagov/data/data/datagovdata/leased-state-buildings.csv","HW2","uri",".*?$(?<!\.aspx)"
"/data/datasets/datagov/data/data/datagovdata/leased-state-buildings.csv","USABLE_AREA","numbers","^(\d|,)*\.?\d*$"
"/data/datasets/datagov/data/data/datagovdata/leased-state-buildings.csv","Location 1","strings","[^""\r\n]*"
"/data/datasets/datagov/data/data/datagovdata/leased-state-buildings.csv","PURCHASE_OPTION","uri",".*?$(?<!\.aspx)"
"/data/datasets/datagov/data/data/datagovdata/leased-state-buildings.csv","AC","uri",".*?$(?<!\.aspx)"
"/data/datasets/datagov/data/data/datagovdata/leased-state-buildings.csv","BMCom","uri",".*?$(?<!\.aspx)"
"/data/datasets/datagov/data/data/datagovdata/leased-state-buildings.csv","LESSOR_NAME","uri",".*?$(?<!\.aspx)"
"/data/datasets/datagov/data/data/datagovdata/leased-state-buildings.csv","MUNICIPALITY","uri",".*?$(?<!\.aspx)"
"/data/datasets/datagov/data/data/datagovdata/leased-state-buildings.csv","LI","uri",".*?$(?<!\.aspx)"
