"file_name","column_name","label","regex"
"/data/datasets/datagov/data/data/datagovdata/missouri-child-support-offices-7b622.csv","Contact","uri","^[^\\\/\?\*\""\'\>\<\:\|]*$"
"/data/datasets/datagov/data/data/datagovdata/missouri-child-support-offices-7b622.csv","Office","uri","^[^\\\/\?\*\""\'\>\<\:\|]*$"
"/data/datasets/datagov/data/data/datagovdata/missouri-child-support-offices-7b622.csv","Location 1","uri","^[^\\\/\?\*\""\'\>\<\:\|]*$"
"/data/datasets/datagov/data/data/datagovdata/missouri-child-support-offices-7b622.csv","Area","uri","^[^\\\/\?\*\""\'\>\<\:\|]*$"
"/data/datasets/datagov/data/data/datagovdata/missouri-child-support-offices-7b622.csv","Phone","uri","^[^\\\/\?\*\""\'\>\<\:\|]*$"
