"file_name","column_name","label","regex"
"/data/datasets/datagov/data/data/datagovdata/graduation-outcomes-school-level-classes-of-2005-2011-ethnicity-c4bba.csv","Total Grads Pct of cohort","uri",".*?$(?<!\.aspx)"
"/data/datasets/datagov/data/data/datagovdata/graduation-outcomes-school-level-classes-of-2005-2011-ethnicity-c4bba.csv","Total Regents Pct of grads","uri",".*?$(?<!\.aspx)"
"/data/datasets/datagov/data/data/datagovdata/graduation-outcomes-school-level-classes-of-2005-2011-ethnicity-c4bba.csv","School Name","strings","[^""\r\n]*"
"/data/datasets/datagov/data/data/datagovdata/graduation-outcomes-school-level-classes-of-2005-2011-ethnicity-c4bba.csv","Dropped Out Num","uri",".*?$(?<!\.aspx)"
"/data/datasets/datagov/data/data/datagovdata/graduation-outcomes-school-level-classes-of-2005-2011-ethnicity-c4bba.csv","Local Num","uri",".*?$(?<!\.aspx)"
"/data/datasets/datagov/data/data/datagovdata/graduation-outcomes-school-level-classes-of-2005-2011-ethnicity-c4bba.csv","Cohort Year","numbers","^\d*$"
"/data/datasets/datagov/data/data/datagovdata/graduation-outcomes-school-level-classes-of-2005-2011-ethnicity-c4bba.csv","DBN","numbers","^\d*$"
"/data/datasets/datagov/data/data/datagovdata/graduation-outcomes-school-level-classes-of-2005-2011-ethnicity-c4bba.csv","Dropped Out Pct of cohort","uri",".*?$(?<!\.aspx)"
"/data/datasets/datagov/data/data/datagovdata/graduation-outcomes-school-level-classes-of-2005-2011-ethnicity-c4bba.csv","Total Cohort Num","numbers","^\d*$"
"/data/datasets/datagov/data/data/datagovdata/graduation-outcomes-school-level-classes-of-2005-2011-ethnicity-c4bba.csv","Local Pct of cohort","uri",".*?$(?<!\.aspx)"
"/data/datasets/datagov/data/data/datagovdata/graduation-outcomes-school-level-classes-of-2005-2011-ethnicity-c4bba.csv","Total Regents Num","uri",".*?$(?<!\.aspx)"
"/data/datasets/datagov/data/data/datagovdata/graduation-outcomes-school-level-classes-of-2005-2011-ethnicity-c4bba.csv","Advanced Regents Num","uri",".*?$(?<!\.aspx)"
"/data/datasets/datagov/data/data/datagovdata/graduation-outcomes-school-level-classes-of-2005-2011-ethnicity-c4bba.csv","Total Regents Pct of cohort","uri",".*?$(?<!\.aspx)"
"/data/datasets/datagov/data/data/datagovdata/graduation-outcomes-school-level-classes-of-2005-2011-ethnicity-c4bba.csv","Regents w/o Advanced Num","uri",".*?$(?<!\.aspx)"
"/data/datasets/datagov/data/data/datagovdata/graduation-outcomes-school-level-classes-of-2005-2011-ethnicity-c4bba.csv","Advanced Regents Pct of cohort","uri",".*?$(?<!\.aspx)"
"/data/datasets/datagov/data/data/datagovdata/graduation-outcomes-school-level-classes-of-2005-2011-ethnicity-c4bba.csv","Regents w/o Advanced Pct of cohort","uri",".*?$(?<!\.aspx)"
"/data/datasets/datagov/data/data/datagovdata/graduation-outcomes-school-level-classes-of-2005-2011-ethnicity-c4bba.csv","Still Enrolled Num","uri",".*?$(?<!\.aspx)"
"/data/datasets/datagov/data/data/datagovdata/graduation-outcomes-school-level-classes-of-2005-2011-ethnicity-c4bba.csv","Total Grads Num","uri",".*?$(?<!\.aspx)"
"/data/datasets/datagov/data/data/datagovdata/graduation-outcomes-school-level-classes-of-2005-2011-ethnicity-c4bba.csv","Advanced Regents Pct of grads","uri",".*?$(?<!\.aspx)"
"/data/datasets/datagov/data/data/datagovdata/graduation-outcomes-school-level-classes-of-2005-2011-ethnicity-c4bba.csv","Cohort Category","uri",".*?$(?<!\.aspx)"
"/data/datasets/datagov/data/data/datagovdata/graduation-outcomes-school-level-classes-of-2005-2011-ethnicity-c4bba.csv","Local Pct of grads","uri",".*?$(?<!\.aspx)"
"/data/datasets/datagov/data/data/datagovdata/graduation-outcomes-school-level-classes-of-2005-2011-ethnicity-c4bba.csv","Regents w/o Advanced Pct of grads","uri",".*?$(?<!\.aspx)"
"/data/datasets/datagov/data/data/datagovdata/graduation-outcomes-school-level-classes-of-2005-2011-ethnicity-c4bba.csv","Still Enrolled Pct of cohort","uri",".*?$(?<!\.aspx)"
"/data/datasets/datagov/data/data/datagovdata/graduation-outcomes-school-level-classes-of-2005-2011-ethnicity-c4bba.csv","Demographic","uri",".*?$(?<!\.aspx)"
