"file_name","column_name","label","regex"
"/data/datasets/datagov/data/data/datagovdata/tax-delinquency-rate-72e0f.csv","Historical Data","numbers","(^([0-9]+[.]+[0-9]+)|(0)$)"
"/data/datasets/datagov/data/data/datagovdata/tax-delinquency-rate-72e0f.csv","Target","numbers","(^([0-9]+[.]+[0-9]+)|(0)$)"
"/data/datasets/datagov/data/data/datagovdata/tax-delinquency-rate-72e0f.csv","Years","numbers","(^([0-9]+[.]+[0-9]+)|(0)$)"
