"file_name","column_name","label","regex"
"/data/datasets/datagov/data/data/datagovdata/tgr2006se_sand_placeec.csv","FIPSCC","uri",".*?$(?<!\.aspx)"
"/data/datasets/datagov/data/data/datagovdata/tgr2006se_sand_placeec.csv","COUNTY","numbers","^\d$"
"/data/datasets/datagov/data/data/datagovdata/tgr2006se_sand_placeec.csv","PLACE","numbers","^\d$"
"/data/datasets/datagov/data/data/datagovdata/tgr2006se_sand_placeec.csv","NAME","uri",".*?$(?<!\.aspx)"
"/data/datasets/datagov/data/data/datagovdata/tgr2006se_sand_placeec.csv","GIST_ID","numbers","^\d$"
"/data/datasets/datagov/data/data/datagovdata/tgr2006se_sand_placeec.csv","LSADC","numbers","^\d$"
"/data/datasets/datagov/data/data/datagovdata/tgr2006se_sand_placeec.csv","ENTITY","uri",".*?$(?<!\.aspx)"
"/data/datasets/datagov/data/data/datagovdata/tgr2006se_sand_placeec.csv","PLACEDC","numbers","^\d$"
