"file_name","column_name","label","regex"
"/data/datasets/datagov/data/data/datagovdata/maryland-per-capita-personal-income-current-dollars-2006-2011-1b220.csv","Date created","strings","[^""\r\n]*"
"/data/datasets/datagov/data/data/datagovdata/maryland-per-capita-personal-income-current-dollars-2006-2011-1b220.csv","Carroll County","numbers","^\d*$"
"/data/datasets/datagov/data/data/datagovdata/maryland-per-capita-personal-income-current-dollars-2006-2011-1b220.csv","Garrett County","numbers","^\d*$"
"/data/datasets/datagov/data/data/datagovdata/maryland-per-capita-personal-income-current-dollars-2006-2011-1b220.csv","Cecil County","numbers","^\d*$"
"/data/datasets/datagov/data/data/datagovdata/maryland-per-capita-personal-income-current-dollars-2006-2011-1b220.csv","Kent County","numbers","^\d*$"
"/data/datasets/datagov/data/data/datagovdata/maryland-per-capita-personal-income-current-dollars-2006-2011-1b220.csv","MARYLAND","numbers","^\d*$"
"/data/datasets/datagov/data/data/datagovdata/maryland-per-capita-personal-income-current-dollars-2006-2011-1b220.csv","St. Mary's County","numbers","^\d*$"
"/data/datasets/datagov/data/data/datagovdata/maryland-per-capita-personal-income-current-dollars-2006-2011-1b220.csv","Washington County","numbers","^\d*$"
"/data/datasets/datagov/data/data/datagovdata/maryland-per-capita-personal-income-current-dollars-2006-2011-1b220.csv","Anne Arundel County","numbers","^\d*$"
"/data/datasets/datagov/data/data/datagovdata/maryland-per-capita-personal-income-current-dollars-2006-2011-1b220.csv","Baltimore City","numbers","^\d*$"
"/data/datasets/datagov/data/data/datagovdata/maryland-per-capita-personal-income-current-dollars-2006-2011-1b220.csv","Caroline County","numbers","^\d*$"
"/data/datasets/datagov/data/data/datagovdata/maryland-per-capita-personal-income-current-dollars-2006-2011-1b220.csv","Prince George's County","numbers","^\d*$"
"/data/datasets/datagov/data/data/datagovdata/maryland-per-capita-personal-income-current-dollars-2006-2011-1b220.csv","Calvert County","numbers","^\d*$"
"/data/datasets/datagov/data/data/datagovdata/maryland-per-capita-personal-income-current-dollars-2006-2011-1b220.csv","Somerset County","numbers","^\d*$"
"/data/datasets/datagov/data/data/datagovdata/maryland-per-capita-personal-income-current-dollars-2006-2011-1b220.csv","Allegany County","numbers","^\d*$"
"/data/datasets/datagov/data/data/datagovdata/maryland-per-capita-personal-income-current-dollars-2006-2011-1b220.csv","Montgomery County","numbers","^\d*$"
"/data/datasets/datagov/data/data/datagovdata/maryland-per-capita-personal-income-current-dollars-2006-2011-1b220.csv","Dorchester County","numbers","^\d*$"
"/data/datasets/datagov/data/data/datagovdata/maryland-per-capita-personal-income-current-dollars-2006-2011-1b220.csv","Queen Anne's County","numbers","^\d*$"
"/data/datasets/datagov/data/data/datagovdata/maryland-per-capita-personal-income-current-dollars-2006-2011-1b220.csv","Frederick County","numbers","^\d*$"
"/data/datasets/datagov/data/data/datagovdata/maryland-per-capita-personal-income-current-dollars-2006-2011-1b220.csv","Talbot County","numbers","^\d*$"
"/data/datasets/datagov/data/data/datagovdata/maryland-per-capita-personal-income-current-dollars-2006-2011-1b220.csv","Wicomico County","numbers","^\d*$"
"/data/datasets/datagov/data/data/datagovdata/maryland-per-capita-personal-income-current-dollars-2006-2011-1b220.csv","Harford County","numbers","^\d*$"
"/data/datasets/datagov/data/data/datagovdata/maryland-per-capita-personal-income-current-dollars-2006-2011-1b220.csv","Worcester County","numbers","^\d*$"
"/data/datasets/datagov/data/data/datagovdata/maryland-per-capita-personal-income-current-dollars-2006-2011-1b220.csv","Charles County","numbers","^\d*$"
"/data/datasets/datagov/data/data/datagovdata/maryland-per-capita-personal-income-current-dollars-2006-2011-1b220.csv","Year","numbers","^\d*$"
"/data/datasets/datagov/data/data/datagovdata/maryland-per-capita-personal-income-current-dollars-2006-2011-1b220.csv","Howard County","numbers","^\d*$"
"/data/datasets/datagov/data/data/datagovdata/maryland-per-capita-personal-income-current-dollars-2006-2011-1b220.csv","Baltimore County","numbers","^\d*$"
