"file_name","column_name","label","regex"
"/data/datasets/datagov/data/data/datagovdata/manufactured-home-and-manufactured-home-park-salesperson-license-holders-d6f89.csv","LICTYPE","uri",".*?$(?<!\.aspx)"
"/data/datasets/datagov/data/data/datagovdata/manufactured-home-and-manufactured-home-park-salesperson-license-holders-d6f89.csv","LOTCITY","uri",".*?$(?<!\.aspx)"
"/data/datasets/datagov/data/data/datagovdata/manufactured-home-and-manufactured-home-park-salesperson-license-holders-d6f89.csv","LOTSTATE","uri",".*?$(?<!\.aspx)"
"/data/datasets/datagov/data/data/datagovdata/manufactured-home-and-manufactured-home-park-salesperson-license-holders-d6f89.csv","SALESMAN","uri",".*?$(?<!\.aspx)"
"/data/datasets/datagov/data/data/datagovdata/manufactured-home-and-manufactured-home-park-salesperson-license-holders-d6f89.csv","BUSNAME","uri",".*?$(?<!\.aspx)"
"/data/datasets/datagov/data/data/datagovdata/manufactured-home-and-manufactured-home-park-salesperson-license-holders-d6f89.csv","LOTADDR","strings","[^""\r\n]*"
"/data/datasets/datagov/data/data/datagovdata/manufactured-home-and-manufactured-home-park-salesperson-license-holders-d6f89.csv","LICYR","numbers","^(\d|,)*\.?\d*$"
