"file_name","column_name","label","regex"
"/data/datasets/datagov/data/data/datagovdata/fee-charges-1c562.csv","LifeCycle","uri",".*?$(?<!\.aspx)"
"/data/datasets/datagov/data/data/datagovdata/fee-charges-1c562.csv","StreetName","uri",".*?$(?<!\.aspx)"
"/data/datasets/datagov/data/data/datagovdata/fee-charges-1c562.csv","Boro","uri",".*?$(?<!\.aspx)"
"/data/datasets/datagov/data/data/datagovdata/fee-charges-1c562.csv","DoFAccountType","numbers","^\d*$"
"/data/datasets/datagov/data/data/datagovdata/fee-charges-1c562.csv","DoFTransferDate","strings","[^""\r\n]*"
"/data/datasets/datagov/data/data/datagovdata/fee-charges-1c562.csv","HouseNumber","uri",".*?$(?<!\.aspx)"
"/data/datasets/datagov/data/data/datagovdata/fee-charges-1c562.csv","FeeSourceID","numbers","^\d*$"
"/data/datasets/datagov/data/data/datagovdata/fee-charges-1c562.csv","FeeTypeID","numbers","^\d*$"
"/data/datasets/datagov/data/data/datagovdata/fee-charges-1c562.csv","Lot","numbers","^\d*$"
"/data/datasets/datagov/data/data/datagovdata/fee-charges-1c562.csv","FeeType","uri",".*?$(?<!\.aspx)"
"/data/datasets/datagov/data/data/datagovdata/fee-charges-1c562.csv","FeeSourceType","uri",".*?$(?<!\.aspx)"
"/data/datasets/datagov/data/data/datagovdata/fee-charges-1c562.csv","BoroID","numbers","^\d*$"
"/data/datasets/datagov/data/data/datagovdata/fee-charges-1c562.csv","Zip","numbers","^\d*$"
"/data/datasets/datagov/data/data/datagovdata/fee-charges-1c562.csv","BuildingID","numbers","^\d*$"
"/data/datasets/datagov/data/data/datagovdata/fee-charges-1c562.csv","Block","numbers","^\d*$"
"/data/datasets/datagov/data/data/datagovdata/fee-charges-1c562.csv","FeeIssuedDate","strings","[^""\r\n]*"
"/data/datasets/datagov/data/data/datagovdata/fee-charges-1c562.csv","FeeAmount","numbers","^\d*$"
"/data/datasets/datagov/data/data/datagovdata/fee-charges-1c562.csv","FeeSourceTypeID","numbers","^\d*$"
"/data/datasets/datagov/data/data/datagovdata/fee-charges-1c562.csv","FeeID","numbers","^\d*$"
