"file_name","column_name","label","regex"
"/data/datasets/datagov/data/data/datagovdata/sfy-14-medicaid-expenditures.csv","June2014","uri",".*?$(?<!\.aspx)"
"/data/datasets/datagov/data/data/datagovdata/sfy-14-medicaid-expenditures.csv","October2013","uri",".*?$(?<!\.aspx)"
"/data/datasets/datagov/data/data/datagovdata/sfy-14-medicaid-expenditures.csv","November2013","uri",".*?$(?<!\.aspx)"
"/data/datasets/datagov/data/data/datagovdata/sfy-14-medicaid-expenditures.csv","December2013","uri",".*?$(?<!\.aspx)"
"/data/datasets/datagov/data/data/datagovdata/sfy-14-medicaid-expenditures.csv","February2014","uri",".*?$(?<!\.aspx)"
"/data/datasets/datagov/data/data/datagovdata/sfy-14-medicaid-expenditures.csv","PROVIDER  CODE","strings","[^""\r\n]*"
"/data/datasets/datagov/data/data/datagovdata/sfy-14-medicaid-expenditures.csv","March2014","uri",".*?$(?<!\.aspx)"
"/data/datasets/datagov/data/data/datagovdata/sfy-14-medicaid-expenditures.csv","July2013","uri",".*?$(?<!\.aspx)"
"/data/datasets/datagov/data/data/datagovdata/sfy-14-medicaid-expenditures.csv","April2014","uri",".*?$(?<!\.aspx)"
"/data/datasets/datagov/data/data/datagovdata/sfy-14-medicaid-expenditures.csv","September2013","uri",".*?$(?<!\.aspx)"
"/data/datasets/datagov/data/data/datagovdata/sfy-14-medicaid-expenditures.csv","May2014","uri",".*?$(?<!\.aspx)"
"/data/datasets/datagov/data/data/datagovdata/sfy-14-medicaid-expenditures.csv","August2013","uri",".*?$(?<!\.aspx)"
"/data/datasets/datagov/data/data/datagovdata/sfy-14-medicaid-expenditures.csv","YTD TOTAL MEDICAL EXPENDITURES","uri",".*?$(?<!\.aspx)"
"/data/datasets/datagov/data/data/datagovdata/sfy-14-medicaid-expenditures.csv","January2014","uri",".*?$(?<!\.aspx)"
