"file_name","column_name","label","regex"
"/data/datasets/datagov/data/data/datagovdata/2013-program-enrollment-data-1e16a.csv","EthnicityCd","uri",".*?$(?<!\.aspx)"
"/data/datasets/datagov/data/data/datagovdata/2013-program-enrollment-data-1e16a.csv","County","uri",".*?$(?<!\.aspx)"
"/data/datasets/datagov/data/data/datagovdata/2013-program-enrollment-data-1e16a.csv","EnrollmentHighLevelGroupDesc","strings","[^""\r\n]*"
"/data/datasets/datagov/data/data/datagovdata/2013-program-enrollment-data-1e16a.csv","NewRaceCd","uri",".*?$(?<!\.aspx)"
"/data/datasets/datagov/data/data/datagovdata/2013-program-enrollment-data-1e16a.csv","UndocInd","numbers","^(\d|,)*\.?\d*$"
"/data/datasets/datagov/data/data/datagovdata/2013-program-enrollment-data-1e16a.csv","EnrollmentDetailRptGroupDesc","strings","[^""\r\n]*"
"/data/datasets/datagov/data/data/datagovdata/2013-program-enrollment-data-1e16a.csv","GenderCd","numbers","^(\d|,)*\.?\d*$"
"/data/datasets/datagov/data/data/datagovdata/2013-program-enrollment-data-1e16a.csv","Category","uri",".*?$(?<!\.aspx)"
"/data/datasets/datagov/data/data/datagovdata/2013-program-enrollment-data-1e16a.csv","CookZip","numbers","^(\d|,)*\.?\d*$"
"/data/datasets/datagov/data/data/datagovdata/2013-program-enrollment-data-1e16a.csv","HIPAARecipients","numbers","^(\d|,)*\.?\d*$"
