"file_name","column_name","label","regex"
"/data/datasets/datagov/data/data/datagovdata/watchable-wildlife-sites.csv","Location","uri",".*?$(?<!\.aspx)"
"/data/datasets/datagov/data/data/datagovdata/watchable-wildlife-sites.csv","Latitude","numbers","^(\d|,)*\.?\d*$"
"/data/datasets/datagov/data/data/datagovdata/watchable-wildlife-sites.csv","Site Name","strings","[^""\r\n]*"
"/data/datasets/datagov/data/data/datagovdata/watchable-wildlife-sites.csv","Region","strings","[^""\r\n]*"
"/data/datasets/datagov/data/data/datagovdata/watchable-wildlife-sites.csv","Longitude","numbers","^(\d|,)*\.?\d*$"
"/data/datasets/datagov/data/data/datagovdata/watchable-wildlife-sites.csv","Owner","uri",".*?$(?<!\.aspx)"
"/data/datasets/datagov/data/data/datagovdata/watchable-wildlife-sites.csv","Property Manager","uri",".*?$(?<!\.aspx)"
"/data/datasets/datagov/data/data/datagovdata/watchable-wildlife-sites.csv","Ownership, Full Name","uri",".*?$(?<!\.aspx)"
"/data/datasets/datagov/data/data/datagovdata/watchable-wildlife-sites.csv","Site Number","numbers","^(\d|,)*\.?\d*$"
"/data/datasets/datagov/data/data/datagovdata/watchable-wildlife-sites.csv","DEC Brochure Site Number","uri",".*?$(?<!\.aspx)"
