"file_name","column_name","label","regex"
"/data/datasets/datagov/data/data/datagovdata/tlf515shp.csv","BLOCK","address_or_phone","(\d{4,6})"
"/data/datasets/datagov/data/data/datagovdata/tlf515shp.csv","PERIMETER","numbers","^(\d|,)*\.?\d*$"
"/data/datasets/datagov/data/data/datagovdata/tlf515shp.csv","AREA","uri",".*?$(?<!\.aspx)"
"/data/datasets/datagov/data/data/datagovdata/tlf515shp.csv","TLF05015_","numbers","^(\d|,)*\.?\d*$"
"/data/datasets/datagov/data/data/datagovdata/tlf515shp.csv","TLF05015_I","numbers","^(\d|,)*\.?\d*$"
