"file_name","column_name","label","regex"
"/data/datasets/datagov/data/data/datagovdata/directory-of-judges-9-19-11-07684.csv","SECTION","strings","[^""\r\n]*"
"/data/datasets/datagov/data/data/datagovdata/directory-of-judges-9-19-11-07684.csv","PHONE#","numbers","^[-+]?\d+(\.\d+)?|[-+]?\.\d+?$"
"/data/datasets/datagov/data/data/datagovdata/directory-of-judges-9-19-11-07684.csv","TYPE","uri",".*?$(?<!\.aspx)"
"/data/datasets/datagov/data/data/datagovdata/directory-of-judges-9-19-11-07684.csv","DIVISION","uri",".*?$(?<!\.aspx)"
"/data/datasets/datagov/data/data/datagovdata/directory-of-judges-9-19-11-07684.csv","FIRST","uri",".*?$(?<!\.aspx)"
"/data/datasets/datagov/data/data/datagovdata/directory-of-judges-9-19-11-07684.csv","LAST","uri",".*?$(?<!\.aspx)"
"/data/datasets/datagov/data/data/datagovdata/directory-of-judges-9-19-11-07684.csv","AREA","numbers","^[-+]?\d+(\.\d+)?|[-+]?\.\d+?$"
"/data/datasets/datagov/data/data/datagovdata/directory-of-judges-9-19-11-07684.csv","ST","uri",".*?$(?<!\.aspx)"
