"file_name","column_name","label","regex"
"/data/datasets/datagov/data/data/datagovdata/utilization-and-costs-of-health-services-for-medicare-beneficiaries-washington-state-2007--de27d.csv","# Hospice Users (with a covered stay)","numbers","^\$?\d+(\.(\d{2}))?$"
"/data/datasets/datagov/data/data/datagovdata/utilization-and-costs-of-health-services-for-medicare-beneficiaries-washington-state-2007--de27d.csv","IP Covered Stays Per 1000 Beneficiaries","numbers","^\$?\d+(\.(\d{2}))?$"
"/data/datasets/datagov/data/data/datagovdata/utilization-and-costs-of-health-services-for-medicare-beneficiaries-washington-state-2007--de27d.csv","Hospice Actual Costs as % of Total Actual Costs","numbers","^\$?\d+(\.(\d{2}))?$"
"/data/datasets/datagov/data/data/datagovdata/utilization-and-costs-of-health-services-for-medicare-beneficiaries-washington-state-2007--de27d.csv","Part B Drugs Per User Actual Costs","numbers","^\$?\d+(\.(\d{2}))?$"
"/data/datasets/datagov/data/data/datagovdata/utilization-and-costs-of-health-services-for-medicare-beneficiaries-washington-state-2007--de27d.csv","(To sort by county and year)","numbers","^\$?\d+(\.(\d{2}))?$"
"/data/datasets/datagov/data/data/datagovdata/utilization-and-costs-of-health-services-for-medicare-beneficiaries-washington-state-2007--de27d.csv","DME Per User Standardized Costs","numbers","^\$?\d+(\.(\d{2}))?$"
"/data/datasets/datagov/data/data/datagovdata/utilization-and-costs-of-health-services-for-medicare-beneficiaries-washington-state-2007--de27d.csv","PAC: LTCH Standardized Costs as % of Total Standardized Costs","uri",".*?$(?<!\.aspx)"
"/data/datasets/datagov/data/data/datagovdata/utilization-and-costs-of-health-services-for-medicare-beneficiaries-washington-state-2007--de27d.csv","Part B Drugs Standardized Costs","numbers","^\$?\d+(\.(\d{2}))?$"
"/data/datasets/datagov/data/data/datagovdata/utilization-and-costs-of-health-services-for-medicare-beneficiaries-washington-state-2007--de27d.csv","% of Beneficiaries Using FQHC/RHC","numbers","^\$?\d+(\.(\d{2}))?$"
"/data/datasets/datagov/data/data/datagovdata/utilization-and-costs-of-health-services-for-medicare-beneficiaries-washington-state-2007--de27d.csv","Ambulance Per Capita Standardized Costs","numbers","^\$?\d+(\.(\d{2}))?$"
"/data/datasets/datagov/data/data/datagovdata/utilization-and-costs-of-health-services-for-medicare-beneficiaries-washington-state-2007--de27d.csv","PAC: IRF Covered Days Per 1000 Beneficiaries","numbers","^\$?\d+(\.(\d{2}))?$"
"/data/datasets/datagov/data/data/datagovdata/utilization-and-costs-of-health-services-for-medicare-beneficiaries-washington-state-2007--de27d.csv","Ambulance Per User Actual Costs","numbers","^\$?\d+(\.(\d{2}))?$"
"/data/datasets/datagov/data/data/datagovdata/utilization-and-costs-of-health-services-for-medicare-beneficiaries-washington-state-2007--de27d.csv","FQHC/RHC Actual Costs as % of Total Actual Costs","numbers","^\$?\d+(\.(\d{2}))?$"
"/data/datasets/datagov/data/data/datagovdata/utilization-and-costs-of-health-services-for-medicare-beneficiaries-washington-state-2007--de27d.csv","Hospice Actual Costs","numbers","^\$?\d+(\.(\d{2}))?$"
"/data/datasets/datagov/data/data/datagovdata/utilization-and-costs-of-health-services-for-medicare-beneficiaries-washington-state-2007--de27d.csv","FQHC/RHC Standardized Costs as % of Total Standardized Costs","uri",".*?$(?<!\.aspx)"
"/data/datasets/datagov/data/data/datagovdata/utilization-and-costs-of-health-services-for-medicare-beneficiaries-washington-state-2007--de27d.csv","IP Covered Days Per 1000 Beneficiaries","numbers","^\$?\d+(\.(\d{2}))?$"
"/data/datasets/datagov/data/data/datagovdata/utilization-and-costs-of-health-services-for-medicare-beneficiaries-washington-state-2007--de27d.csv","PAC: IRF Per User Standardized Costs","numbers","^\$?\d+(\.(\d{2}))?$"
"/data/datasets/datagov/data/data/datagovdata/utilization-and-costs-of-health-services-for-medicare-beneficiaries-washington-state-2007--de27d.csv","# Part B Drugs Users","numbers","^\$?\d+(\.(\d{2}))?$"
"/data/datasets/datagov/data/data/datagovdata/utilization-and-costs-of-health-services-for-medicare-beneficiaries-washington-state-2007--de27d.csv","Imaging Standardized Costs","numbers","^\$?\d+(\.(\d{2}))?$"
"/data/datasets/datagov/data/data/datagovdata/utilization-and-costs-of-health-services-for-medicare-beneficiaries-washington-state-2007--de27d.csv","DME Per Capita Standardized Costs","numbers","^\$?\d+(\.(\d{2}))?$"
"/data/datasets/datagov/data/data/datagovdata/utilization-and-costs-of-health-services-for-medicare-beneficiaries-washington-state-2007--de27d.csv","PAC: HH Visits Per 1000 Beneficiaries","numbers","^\$?\d+(\.(\d{2}))?$"
"/data/datasets/datagov/data/data/datagovdata/utilization-and-costs-of-health-services-for-medicare-beneficiaries-washington-state-2007--de27d.csv","Outpatient Dialysis Facility Standardized Costs","numbers","^\$?\d+(\.(\d{2}))?$"
"/data/datasets/datagov/data/data/datagovdata/utilization-and-costs-of-health-services-for-medicare-beneficiaries-washington-state-2007--de27d.csv","OP Actual Costs as % of Total Actual Costs","numbers","^\$?\d+(\.(\d{2}))?$"
"/data/datasets/datagov/data/data/datagovdata/utilization-and-costs-of-health-services-for-medicare-beneficiaries-washington-state-2007--de27d.csv","PAC: SNF Actual Costs as % of Total Actual Costs","numbers","^\$?\d+(\.(\d{2}))?$"
"/data/datasets/datagov/data/data/datagovdata/utilization-and-costs-of-health-services-for-medicare-beneficiaries-washington-state-2007--de27d.csv","Procedures Per User Standardized Costs","numbers","^\$?\d+(\.(\d{2}))?$"
"/data/datasets/datagov/data/data/datagovdata/utilization-and-costs-of-health-services-for-medicare-beneficiaries-washington-state-2007--de27d.csv","Procedures Standardized Costs","numbers","^\$?\d+(\.(\d{2}))?$"
"/data/datasets/datagov/data/data/datagovdata/utilization-and-costs-of-health-services-for-medicare-beneficiaries-washington-state-2007--de27d.csv","OP Per Capita Actual Costs","numbers","^\$?\d+(\.(\d{2}))?$"
"/data/datasets/datagov/data/data/datagovdata/utilization-and-costs-of-health-services-for-medicare-beneficiaries-washington-state-2007--de27d.csv","Procedures Actual Costs","numbers","^\$?\d+(\.(\d{2}))?$"
"/data/datasets/datagov/data/data/datagovdata/utilization-and-costs-of-health-services-for-medicare-beneficiaries-washington-state-2007--de27d.csv","OP Visits Per 1000 Beneficiaries","numbers","^\$?\d+(\.(\d{2}))?$"
"/data/datasets/datagov/data/data/datagovdata/utilization-and-costs-of-health-services-for-medicare-beneficiaries-washington-state-2007--de27d.csv","Outpatient Dialysis Facility Actual Costs as % of Total Actual Costs","uri",".*?$(?<!\.aspx)"
"/data/datasets/datagov/data/data/datagovdata/utilization-and-costs-of-health-services-for-medicare-beneficiaries-washington-state-2007--de27d.csv","Number of Acute Hospital Readmissions","numbers","^\$?\d+(\.(\d{2}))?$"
"/data/datasets/datagov/data/data/datagovdata/utilization-and-costs-of-health-services-for-medicare-beneficiaries-washington-state-2007--de27d.csv","Total Standardized Costs","numbers","^\$?\d+(\.(\d{2}))?$"
"/data/datasets/datagov/data/data/datagovdata/utilization-and-costs-of-health-services-for-medicare-beneficiaries-washington-state-2007--de27d.csv","DME Actual Costs as % of Total Actual Costs","numbers","^\$?\d+(\.(\d{2}))?$"
"/data/datasets/datagov/data/data/datagovdata/utilization-and-costs-of-health-services-for-medicare-beneficiaries-washington-state-2007--de27d.csv","EM Actual Costs as % of Total Actual Costs","numbers","^\$?\d+(\.(\d{2}))?$"
"/data/datasets/datagov/data/data/datagovdata/utilization-and-costs-of-health-services-for-medicare-beneficiaries-washington-state-2007--de27d.csv","IP Per Capita Actual Costs","numbers","^\$?\d+(\.(\d{2}))?$"
"/data/datasets/datagov/data/data/datagovdata/utilization-and-costs-of-health-services-for-medicare-beneficiaries-washington-state-2007--de27d.csv","PAC: SNF Actual Costs","numbers","^\$?\d+(\.(\d{2}))?$"
"/data/datasets/datagov/data/data/datagovdata/utilization-and-costs-of-health-services-for-medicare-beneficiaries-washington-state-2007--de27d.csv","Standardized Risk-Adjusted Per Capita Costs","numbers","^\$?\d+(\.(\d{2}))?$"
"/data/datasets/datagov/data/data/datagovdata/utilization-and-costs-of-health-services-for-medicare-beneficiaries-washington-state-2007--de27d.csv","Ambulance Per User Standardized Costs","numbers","^\$?\d+(\.(\d{2}))?$"
"/data/datasets/datagov/data/data/datagovdata/utilization-and-costs-of-health-services-for-medicare-beneficiaries-washington-state-2007--de27d.csv","ASC Per User Actual Costs","numbers","^\$?\d+(\.(\d{2}))?$"
"/data/datasets/datagov/data/data/datagovdata/utilization-and-costs-of-health-services-for-medicare-beneficiaries-washington-state-2007--de27d.csv","Hospice Per User Standardized Costs","numbers","^\$?\d+(\.(\d{2}))?$"
"/data/datasets/datagov/data/data/datagovdata/utilization-and-costs-of-health-services-for-medicare-beneficiaries-washington-state-2007--de27d.csv","PAC: SNF Per User Standardized Costs","numbers","^\$?\d+(\.(\d{2}))?$"
"/data/datasets/datagov/data/data/datagovdata/utilization-and-costs-of-health-services-for-medicare-beneficiaries-washington-state-2007--de27d.csv","PAC: HH Per User Standardized Costs","numbers","^\$?\d+(\.(\d{2}))?$"
"/data/datasets/datagov/data/data/datagovdata/utilization-and-costs-of-health-services-for-medicare-beneficiaries-washington-state-2007--de27d.csv","DME Standardized Costs","numbers","^\$?\d+(\.(\d{2}))?$"
"/data/datasets/datagov/data/data/datagovdata/utilization-and-costs-of-health-services-for-medicare-beneficiaries-washington-state-2007--de27d.csv","# FQHC/RHC Users","numbers","^\$?\d+(\.(\d{2}))?$"
"/data/datasets/datagov/data/data/datagovdata/utilization-and-costs-of-health-services-for-medicare-beneficiaries-washington-state-2007--de27d.csv","OP Per Capita Standardized Costs","numbers","^\$?\d+(\.(\d{2}))?$"
"/data/datasets/datagov/data/data/datagovdata/utilization-and-costs-of-health-services-for-medicare-beneficiaries-washington-state-2007--de27d.csv","PAC: HH Standardized Costs as % of Total Standardized Costs","numbers","^\$?\d+(\.(\d{2}))?$"
"/data/datasets/datagov/data/data/datagovdata/utilization-and-costs-of-health-services-for-medicare-beneficiaries-washington-state-2007--de27d.csv","# PAC: SNF Users (with a covered stay)","numbers","^\$?\d+(\.(\d{2}))?$"
"/data/datasets/datagov/data/data/datagovdata/utilization-and-costs-of-health-services-for-medicare-beneficiaries-washington-state-2007--de27d.csv","Imaging Actual Costs","numbers","^\$?\d+(\.(\d{2}))?$"
"/data/datasets/datagov/data/data/datagovdata/utilization-and-costs-of-health-services-for-medicare-beneficiaries-washington-state-2007--de27d.csv","PAC: IRF Actual Costs","numbers","^\$?\d+(\.(\d{2}))?$"
"/data/datasets/datagov/data/data/datagovdata/utilization-and-costs-of-health-services-for-medicare-beneficiaries-washington-state-2007--de27d.csv","Procedures Events Per 1000 Beneficiaries","numbers","^\$?\d+(\.(\d{2}))?$"
"/data/datasets/datagov/data/data/datagovdata/utilization-and-costs-of-health-services-for-medicare-beneficiaries-washington-state-2007--de27d.csv","Hospice Per User Actual Costs","numbers","^\$?\d+(\.(\d{2}))?$"
"/data/datasets/datagov/data/data/datagovdata/utilization-and-costs-of-health-services-for-medicare-beneficiaries-washington-state-2007--de27d.csv","Emergency Department Visits","numbers","^\$?\d+(\.(\d{2}))?$"
"/data/datasets/datagov/data/data/datagovdata/utilization-and-costs-of-health-services-for-medicare-beneficiaries-washington-state-2007--de27d.csv","Part B Drugs Actual Costs","numbers","^\$?\d+(\.(\d{2}))?$"
"/data/datasets/datagov/data/data/datagovdata/utilization-and-costs-of-health-services-for-medicare-beneficiaries-washington-state-2007--de27d.csv","OP Per User Standardized Costs","numbers","^\$?\d+(\.(\d{2}))?$"
"/data/datasets/datagov/data/data/datagovdata/utilization-and-costs-of-health-services-for-medicare-beneficiaries-washington-state-2007--de27d.csv","Actual Per Capita Costs","numbers","^\$?\d+(\.(\d{2}))?$"
"/data/datasets/datagov/data/data/datagovdata/utilization-and-costs-of-health-services-for-medicare-beneficiaries-washington-state-2007--de27d.csv","Emergency Department Visits per 1,000 Beneficiaries","numbers","^\$?\d+(\.(\d{2}))?$"
"/data/datasets/datagov/data/data/datagovdata/utilization-and-costs-of-health-services-for-medicare-beneficiaries-washington-state-2007--de27d.csv","IP Actual Costs","numbers","^\$?\d+(\.(\d{2}))?$"
"/data/datasets/datagov/data/data/datagovdata/utilization-and-costs-of-health-services-for-medicare-beneficiaries-washington-state-2007--de27d.csv","EM Actual Costs","numbers","^\$?\d+(\.(\d{2}))?$"
"/data/datasets/datagov/data/data/datagovdata/utilization-and-costs-of-health-services-for-medicare-beneficiaries-washington-state-2007--de27d.csv","PAC: HH Episodes Per 1000 Beneficiaries","numbers","^\$?\d+(\.(\d{2}))?$"
"/data/datasets/datagov/data/data/datagovdata/utilization-and-costs-of-health-services-for-medicare-beneficiaries-washington-state-2007--de27d.csv","% of Beneficiaries Using Imaging","numbers","^\$?\d+(\.(\d{2}))?$"
"/data/datasets/datagov/data/data/datagovdata/utilization-and-costs-of-health-services-for-medicare-beneficiaries-washington-state-2007--de27d.csv","% of Beneficiaries Using DME","numbers","^\$?\d+(\.(\d{2}))?$"
"/data/datasets/datagov/data/data/datagovdata/utilization-and-costs-of-health-services-for-medicare-beneficiaries-washington-state-2007--de27d.csv","PAC: SNF Per User Actual Costs","numbers","^\$?\d+(\.(\d{2}))?$"
"/data/datasets/datagov/data/data/datagovdata/utilization-and-costs-of-health-services-for-medicare-beneficiaries-washington-state-2007--de27d.csv","ASC Standardized Costs as % of Total Standardized Costs","numbers","^\$?\d+(\.(\d{2}))?$"
"/data/datasets/datagov/data/data/datagovdata/utilization-and-costs-of-health-services-for-medicare-beneficiaries-washington-state-2007--de27d.csv","Hospice Covered Stays Per 1000 Beneficiaries","numbers","^\$?\d+(\.(\d{2}))?$"
"/data/datasets/datagov/data/data/datagovdata/utilization-and-costs-of-health-services-for-medicare-beneficiaries-washington-state-2007--de27d.csv","DME Standardized Costs as % of Total Standardized Costs","numbers","^\$?\d+(\.(\d{2}))?$"
"/data/datasets/datagov/data/data/datagovdata/utilization-and-costs-of-health-services-for-medicare-beneficiaries-washington-state-2007--de27d.csv","ASC Events Per 1000 Beneficiaries","numbers","^\$?\d+(\.(\d{2}))?$"
"/data/datasets/datagov/data/data/datagovdata/utilization-and-costs-of-health-services-for-medicare-beneficiaries-washington-state-2007--de27d.csv","Ambulance Actual Costs","numbers","^\$?\d+(\.(\d{2}))?$"
"/data/datasets/datagov/data/data/datagovdata/utilization-and-costs-of-health-services-for-medicare-beneficiaries-washington-state-2007--de27d.csv","% of Beneficiaries Using Tests","numbers","^\$?\d+(\.(\d{2}))?$"
"/data/datasets/datagov/data/data/datagovdata/utilization-and-costs-of-health-services-for-medicare-beneficiaries-washington-state-2007--de27d.csv","PAC: SNF Standardized Costs","numbers","^\$?\d+(\.(\d{2}))?$"
"/data/datasets/datagov/data/data/datagovdata/utilization-and-costs-of-health-services-for-medicare-beneficiaries-washington-state-2007--de27d.csv","FQHC/RHC Standardized Costs","numbers","^\$?\d+(\.(\d{2}))?$"
"/data/datasets/datagov/data/data/datagovdata/utilization-and-costs-of-health-services-for-medicare-beneficiaries-washington-state-2007--de27d.csv","Outpatient Dialysis Facility Per Capita Standardized Costs","numbers","^\$?\d+(\.(\d{2}))?$"
"/data/datasets/datagov/data/data/datagovdata/utilization-and-costs-of-health-services-for-medicare-beneficiaries-washington-state-2007--de27d.csv","Tests Actual Costs as % of Total Actual Costs","numbers","^\$?\d+(\.(\d{2}))?$"
"/data/datasets/datagov/data/data/datagovdata/utilization-and-costs-of-health-services-for-medicare-beneficiaries-washington-state-2007--de27d.csv","PAC: IRF Standardized Costs as % of Total Standardized Costs","uri",".*?$(?<!\.aspx)"
"/data/datasets/datagov/data/data/datagovdata/utilization-and-costs-of-health-services-for-medicare-beneficiaries-washington-state-2007--de27d.csv","Ambulance Per Capita Actual Costs","numbers","^\$?\d+(\.(\d{2}))?$"
"/data/datasets/datagov/data/data/datagovdata/utilization-and-costs-of-health-services-for-medicare-beneficiaries-washington-state-2007--de27d.csv","ASC Standardized Costs","numbers","^\$?\d+(\.(\d{2}))?$"
"/data/datasets/datagov/data/data/datagovdata/utilization-and-costs-of-health-services-for-medicare-beneficiaries-washington-state-2007--de27d.csv","IP Per Capita Standardized Costs","numbers","^\$?\d+(\.(\d{2}))?$"
"/data/datasets/datagov/data/data/datagovdata/utilization-and-costs-of-health-services-for-medicare-beneficiaries-washington-state-2007--de27d.csv","County","uri",".*?$(?<!\.aspx)"
"/data/datasets/datagov/data/data/datagovdata/utilization-and-costs-of-health-services-for-medicare-beneficiaries-washington-state-2007--de27d.csv","Imaging Actual Costs as % of Total Actual Costs","numbers","^\$?\d+(\.(\d{2}))?$"
"/data/datasets/datagov/data/data/datagovdata/utilization-and-costs-of-health-services-for-medicare-beneficiaries-washington-state-2007--de27d.csv","FQHC/RHC Per Capita Actual Costs","numbers","^\$?\d+(\.(\d{2}))?$"
"/data/datasets/datagov/data/data/datagovdata/utilization-and-costs-of-health-services-for-medicare-beneficiaries-washington-state-2007--de27d.csv","% of Beneficiaries Using Procedures","numbers","^\$?\d+(\.(\d{2}))?$"
"/data/datasets/datagov/data/data/datagovdata/utilization-and-costs-of-health-services-for-medicare-beneficiaries-washington-state-2007--de27d.csv","Tests Standardized Costs","numbers","^\$?\d+(\.(\d{2}))?$"
"/data/datasets/datagov/data/data/datagovdata/utilization-and-costs-of-health-services-for-medicare-beneficiaries-washington-state-2007--de27d.csv","DME Per User Actual Costs","numbers","^\$?\d+(\.(\d{2}))?$"
"/data/datasets/datagov/data/data/datagovdata/utilization-and-costs-of-health-services-for-medicare-beneficiaries-washington-state-2007--de27d.csv","PAC: SNF Per Capita Standardized Costs","numbers","^\$?\d+(\.(\d{2}))?$"
"/data/datasets/datagov/data/data/datagovdata/utilization-and-costs-of-health-services-for-medicare-beneficiaries-washington-state-2007--de27d.csv","% of Beneficiaries Using EM","numbers","^\$?\d+(\.(\d{2}))?$"
"/data/datasets/datagov/data/data/datagovdata/utilization-and-costs-of-health-services-for-medicare-beneficiaries-washington-state-2007--de27d.csv","DME Actual Costs","numbers","^\$?\d+(\.(\d{2}))?$"
"/data/datasets/datagov/data/data/datagovdata/utilization-and-costs-of-health-services-for-medicare-beneficiaries-washington-state-2007--de27d.csv","Ambulance Standardized Costs","numbers","^\$?\d+(\.(\d{2}))?$"
"/data/datasets/datagov/data/data/datagovdata/utilization-and-costs-of-health-services-for-medicare-beneficiaries-washington-state-2007--de27d.csv","FQHC/RHC Actual Costs","numbers","^\$?\d+(\.(\d{2}))?$"
"/data/datasets/datagov/data/data/datagovdata/utilization-and-costs-of-health-services-for-medicare-beneficiaries-washington-state-2007--de27d.csv","Ambulance Standardized Costs as % of Total Standardized Costs","numbers","^\$?\d+(\.(\d{2}))?$"
"/data/datasets/datagov/data/data/datagovdata/utilization-and-costs-of-health-services-for-medicare-beneficiaries-washington-state-2007--de27d.csv","PAC: SNF Covered Stays Per 1000 Beneficiaries","numbers","^\$?\d+(\.(\d{2}))?$"
"/data/datasets/datagov/data/data/datagovdata/utilization-and-costs-of-health-services-for-medicare-beneficiaries-washington-state-2007--de27d.csv","Imaging Per User Actual Costs","numbers","^\$?\d+(\.(\d{2}))?$"
"/data/datasets/datagov/data/data/datagovdata/utilization-and-costs-of-health-services-for-medicare-beneficiaries-washington-state-2007--de27d.csv","PAC: LTCH Per Capita Actual Costs","uri",".*?$(?<!\.aspx)"
"/data/datasets/datagov/data/data/datagovdata/utilization-and-costs-of-health-services-for-medicare-beneficiaries-washington-state-2007--de27d.csv","OP Actual Costs","numbers","^\$?\d+(\.(\d{2}))?$"
"/data/datasets/datagov/data/data/datagovdata/utilization-and-costs-of-health-services-for-medicare-beneficiaries-washington-state-2007--de27d.csv","Outpatient Dialysis Facility Per User Standardized Costs","numbers","^\$?\d+(\.(\d{2}))?$"
"/data/datasets/datagov/data/data/datagovdata/utilization-and-costs-of-health-services-for-medicare-beneficiaries-washington-state-2007--de27d.csv","% of Beneficiaries Using PAC: SNF","numbers","^\$?\d+(\.(\d{2}))?$"
"/data/datasets/datagov/data/data/datagovdata/utilization-and-costs-of-health-services-for-medicare-beneficiaries-washington-state-2007--de27d.csv","% of Beneficiaries Using PAC: HH","numbers","^\$?\d+(\.(\d{2}))?$"
"/data/datasets/datagov/data/data/datagovdata/utilization-and-costs-of-health-services-for-medicare-beneficiaries-washington-state-2007--de27d.csv","FQHC/RHC Per Capita Standardized Costs","numbers","^\$?\d+(\.(\d{2}))?$"
"/data/datasets/datagov/data/data/datagovdata/utilization-and-costs-of-health-services-for-medicare-beneficiaries-washington-state-2007--de27d.csv","# ASC Users","numbers","^\$?\d+(\.(\d{2}))?$"
"/data/datasets/datagov/data/data/datagovdata/utilization-and-costs-of-health-services-for-medicare-beneficiaries-washington-state-2007--de27d.csv","Hospice Per Capita Standardized Costs","numbers","^\$?\d+(\.(\d{2}))?$"
"/data/datasets/datagov/data/data/datagovdata/utilization-and-costs-of-health-services-for-medicare-beneficiaries-washington-state-2007--de27d.csv","IP Standardized Costs","numbers","^\$?\d+(\.(\d{2}))?$"
"/data/datasets/datagov/data/data/datagovdata/utilization-and-costs-of-health-services-for-medicare-beneficiaries-washington-state-2007--de27d.csv","# Outpatient Dialysis Facility Users","numbers","^\$?\d+(\.(\d{2}))?$"
"/data/datasets/datagov/data/data/datagovdata/utilization-and-costs-of-health-services-for-medicare-beneficiaries-washington-state-2007--de27d.csv","Imaging Per Capita Actual Costs","numbers","^\$?\d+(\.(\d{2}))?$"
"/data/datasets/datagov/data/data/datagovdata/utilization-and-costs-of-health-services-for-medicare-beneficiaries-washington-state-2007--de27d.csv","PAC: IRF Per User Actual Costs","numbers","^\$?\d+(\.(\d{2}))?$"
"/data/datasets/datagov/data/data/datagovdata/utilization-and-costs-of-health-services-for-medicare-beneficiaries-washington-state-2007--de27d.csv","% of Beneficiaries Using PAC: LTCH","numbers","^\$?\d+(\.(\d{2}))?$"
"/data/datasets/datagov/data/data/datagovdata/utilization-and-costs-of-health-services-for-medicare-beneficiaries-washington-state-2007--de27d.csv","EM Standardized Costs","numbers","^\$?\d+(\.(\d{2}))?$"
"/data/datasets/datagov/data/data/datagovdata/utilization-and-costs-of-health-services-for-medicare-beneficiaries-washington-state-2007--de27d.csv","IP Actual Costs as % of Total Actual Costs","numbers","^\$?\d+(\.(\d{2}))?$"
"/data/datasets/datagov/data/data/datagovdata/utilization-and-costs-of-health-services-for-medicare-beneficiaries-washington-state-2007--de27d.csv","PAC: LTCH Per User Standardized Costs","uri",".*?$(?<!\.aspx)"
"/data/datasets/datagov/data/data/datagovdata/utilization-and-costs-of-health-services-for-medicare-beneficiaries-washington-state-2007--de27d.csv","FQHC/RHC Per User Standardized Costs","numbers","^\$?\d+(\.(\d{2}))?$"
"/data/datasets/datagov/data/data/datagovdata/utilization-and-costs-of-health-services-for-medicare-beneficiaries-washington-state-2007--de27d.csv","Imaging Events Per 1000 Beneficiaries","numbers","^\$?\d+(\.(\d{2}))?$"
"/data/datasets/datagov/data/data/datagovdata/utilization-and-costs-of-health-services-for-medicare-beneficiaries-washington-state-2007--de27d.csv","PAC: SNF Covered Days Per 1000 Beneficiaries","numbers","^\$?\d+(\.(\d{2}))?$"
"/data/datasets/datagov/data/data/datagovdata/utilization-and-costs-of-health-services-for-medicare-beneficiaries-washington-state-2007--de27d.csv","PAC: HH Actual Costs","numbers","^\$?\d+(\.(\d{2}))?$"
"/data/datasets/datagov/data/data/datagovdata/utilization-and-costs-of-health-services-for-medicare-beneficiaries-washington-state-2007--de27d.csv","PAC: SNF Per Capita Actual Costs","numbers","^\$?\d+(\.(\d{2}))?$"
"/data/datasets/datagov/data/data/datagovdata/utilization-and-costs-of-health-services-for-medicare-beneficiaries-washington-state-2007--de27d.csv","# PAC: IRF Users (with a covered stay)","numbers","^\$?\d+(\.(\d{2}))?$"
"/data/datasets/datagov/data/data/datagovdata/utilization-and-costs-of-health-services-for-medicare-beneficiaries-washington-state-2007--de27d.csv","Tests Actual Costs","numbers","^\$?\d+(\.(\d{2}))?$"
"/data/datasets/datagov/data/data/datagovdata/utilization-and-costs-of-health-services-for-medicare-beneficiaries-washington-state-2007--de27d.csv","PAC: LTCH Standardized Costs","uri",".*?$(?<!\.aspx)"
"/data/datasets/datagov/data/data/datagovdata/utilization-and-costs-of-health-services-for-medicare-beneficiaries-washington-state-2007--de27d.csv","PAC: LTCH Per User Actual Costs","uri",".*?$(?<!\.aspx)"
"/data/datasets/datagov/data/data/datagovdata/utilization-and-costs-of-health-services-for-medicare-beneficiaries-washington-state-2007--de27d.csv","PAC: LTCH Actual Costs as % of Total Actual Costs","uri",".*?$(?<!\.aspx)"
"/data/datasets/datagov/data/data/datagovdata/utilization-and-costs-of-health-services-for-medicare-beneficiaries-washington-state-2007--de27d.csv","Tests Per User Standardized Costs","numbers","^\$?\d+(\.(\d{2}))?$"
"/data/datasets/datagov/data/data/datagovdata/utilization-and-costs-of-health-services-for-medicare-beneficiaries-washington-state-2007--de27d.csv","Hospice Standardized Costs as % of Total Standardized Costs","numbers","^\$?\d+(\.(\d{2}))?$"
"/data/datasets/datagov/data/data/datagovdata/utilization-and-costs-of-health-services-for-medicare-beneficiaries-washington-state-2007--de27d.csv","EM Per Capita Actual Costs","numbers","^\$?\d+(\.(\d{2}))?$"
"/data/datasets/datagov/data/data/datagovdata/utilization-and-costs-of-health-services-for-medicare-beneficiaries-washington-state-2007--de27d.csv","DME Per Capita Actual Costs","numbers","^\$?\d+(\.(\d{2}))?$"
"/data/datasets/datagov/data/data/datagovdata/utilization-and-costs-of-health-services-for-medicare-beneficiaries-washington-state-2007--de27d.csv","Total Actual Costs","numbers","^\$?\d+(\.(\d{2}))?$"
"/data/datasets/datagov/data/data/datagovdata/utilization-and-costs-of-health-services-for-medicare-beneficiaries-washington-state-2007--de27d.csv","PAC: HH Actual Costs as % of Total Actual Costs","numbers","^\$?\d+(\.(\d{2}))?$"
"/data/datasets/datagov/data/data/datagovdata/utilization-and-costs-of-health-services-for-medicare-beneficiaries-washington-state-2007--de27d.csv","IP Standardized Costs as % of Total Standardized Costs","numbers","^\$?\d+(\.(\d{2}))?$"
"/data/datasets/datagov/data/data/datagovdata/utilization-and-costs-of-health-services-for-medicare-beneficiaries-washington-state-2007--de27d.csv","Hospice Covered Days Per 1000 Beneficiaries","numbers","^\$?\d+(\.(\d{2}))?$"
"/data/datasets/datagov/data/data/datagovdata/utilization-and-costs-of-health-services-for-medicare-beneficiaries-washington-state-2007--de27d.csv","IP Per User Standardized Costs","numbers","^\$?\d+(\.(\d{2}))?$"
"/data/datasets/datagov/data/data/datagovdata/utilization-and-costs-of-health-services-for-medicare-beneficiaries-washington-state-2007--de27d.csv","PAC: HH Per Capita Actual Costs","numbers","^\$?\d+(\.(\d{2}))?$"
"/data/datasets/datagov/data/data/datagovdata/utilization-and-costs-of-health-services-for-medicare-beneficiaries-washington-state-2007--de27d.csv","Part B Drugs Per Capita Standardized Costs","numbers","^\$?\d+(\.(\d{2}))?$"
"/data/datasets/datagov/data/data/datagovdata/utilization-and-costs-of-health-services-for-medicare-beneficiaries-washington-state-2007--de27d.csv","Hospice Standardized Costs","numbers","^\$?\d+(\.(\d{2}))?$"
"/data/datasets/datagov/data/data/datagovdata/utilization-and-costs-of-health-services-for-medicare-beneficiaries-washington-state-2007--de27d.csv","Hospice Per Capita Actual Costs","numbers","^\$?\d+(\.(\d{2}))?$"
"/data/datasets/datagov/data/data/datagovdata/utilization-and-costs-of-health-services-for-medicare-beneficiaries-washington-state-2007--de27d.csv","# PAC: LTCH Users (with a covered stay)","numbers","^\$?\d+(\.(\d{2}))?$"
"/data/datasets/datagov/data/data/datagovdata/utilization-and-costs-of-health-services-for-medicare-beneficiaries-washington-state-2007--de27d.csv","PAC: IRF Per Capita Standardized Costs","numbers","^\$?\d+(\.(\d{2}))?$"
"/data/datasets/datagov/data/data/datagovdata/utilization-and-costs-of-health-services-for-medicare-beneficiaries-washington-state-2007--de27d.csv","EM Events Per 1000 Beneficiaries","numbers","^\$?\d+(\.(\d{2}))?$"
"/data/datasets/datagov/data/data/datagovdata/utilization-and-costs-of-health-services-for-medicare-beneficiaries-washington-state-2007--de27d.csv","OP Standardized Costs as % of Total Standardized Costs","numbers","^\$?\d+(\.(\d{2}))?$"
"/data/datasets/datagov/data/data/datagovdata/utilization-and-costs-of-health-services-for-medicare-beneficiaries-washington-state-2007--de27d.csv","Part B Drugs Per User Standardized Costs","numbers","^\$?\d+(\.(\d{2}))?$"
"/data/datasets/datagov/data/data/datagovdata/utilization-and-costs-of-health-services-for-medicare-beneficiaries-washington-state-2007--de27d.csv","Standardized Per Capita Costs","numbers","^\$?\d+(\.(\d{2}))?$"
"/data/datasets/datagov/data/data/datagovdata/utilization-and-costs-of-health-services-for-medicare-beneficiaries-washington-state-2007--de27d.csv","Tests Events Per 1000 Beneficiaries","numbers","^\$?\d+(\.(\d{2}))?$"
"/data/datasets/datagov/data/data/datagovdata/utilization-and-costs-of-health-services-for-medicare-beneficiaries-washington-state-2007--de27d.csv","ASC Per Capita Actual Costs","numbers","^\$?\d+(\.(\d{2}))?$"
"/data/datasets/datagov/data/data/datagovdata/utilization-and-costs-of-health-services-for-medicare-beneficiaries-washington-state-2007--de27d.csv","# Ambulance Users","numbers","^\$?\d+(\.(\d{2}))?$"
"/data/datasets/datagov/data/data/datagovdata/utilization-and-costs-of-health-services-for-medicare-beneficiaries-washington-state-2007--de27d.csv","Tests Per Capita Standardized Costs","numbers","^\$?\d+(\.(\d{2}))?$"
"/data/datasets/datagov/data/data/datagovdata/utilization-and-costs-of-health-services-for-medicare-beneficiaries-washington-state-2007--de27d.csv","PAC: HH Standardized Costs","numbers","^\$?\d+(\.(\d{2}))?$"
"/data/datasets/datagov/data/data/datagovdata/utilization-and-costs-of-health-services-for-medicare-beneficiaries-washington-state-2007--de27d.csv","IP Per User Actual Costs","numbers","^\$?\d+(\.(\d{2}))?$"
"/data/datasets/datagov/data/data/datagovdata/utilization-and-costs-of-health-services-for-medicare-beneficiaries-washington-state-2007--de27d.csv","Hospital Readmission Rate","numbers","^\$?\d+(\.(\d{2}))?$"
"/data/datasets/datagov/data/data/datagovdata/utilization-and-costs-of-health-services-for-medicare-beneficiaries-washington-state-2007--de27d.csv","Tests Standardized Costs as % of Total Standardized Costs","numbers","^\$?\d+(\.(\d{2}))?$"
"/data/datasets/datagov/data/data/datagovdata/utilization-and-costs-of-health-services-for-medicare-beneficiaries-washington-state-2007--de27d.csv","Part B Drugs Standardized Costs as % of Total Standardized Costs","numbers","^\$?\d+(\.(\d{2}))?$"
"/data/datasets/datagov/data/data/datagovdata/utilization-and-costs-of-health-services-for-medicare-beneficiaries-washington-state-2007--de27d.csv","PAC: LTCH Actual Costs","uri",".*?$(?<!\.aspx)"
"/data/datasets/datagov/data/data/datagovdata/utilization-and-costs-of-health-services-for-medicare-beneficiaries-washington-state-2007--de27d.csv","PAC: IRF Actual Costs as % of Total Actual Costs","uri",".*?$(?<!\.aspx)"
"/data/datasets/datagov/data/data/datagovdata/utilization-and-costs-of-health-services-for-medicare-beneficiaries-washington-state-2007--de27d.csv","FQHC/RHC Per User Actual Costs","numbers","^\$?\d+(\.(\d{2}))?$"
"/data/datasets/datagov/data/data/datagovdata/utilization-and-costs-of-health-services-for-medicare-beneficiaries-washington-state-2007--de27d.csv","PAC: SNF Standardized Costs as % of Total Standardized Costs","numbers","^\$?\d+(\.(\d{2}))?$"
"/data/datasets/datagov/data/data/datagovdata/utilization-and-costs-of-health-services-for-medicare-beneficiaries-washington-state-2007--de27d.csv","Imaging Per Capita Standardized Costs","numbers","^\$?\d+(\.(\d{2}))?$"
"/data/datasets/datagov/data/data/datagovdata/utilization-and-costs-of-health-services-for-medicare-beneficiaries-washington-state-2007--de27d.csv","OP Per User Actual Costs","numbers","^\$?\d+(\.(\d{2}))?$"
"/data/datasets/datagov/data/data/datagovdata/utilization-and-costs-of-health-services-for-medicare-beneficiaries-washington-state-2007--de27d.csv","% of Beneficiaries Using OP","numbers","^\$?\d+(\.(\d{2}))?$"
"/data/datasets/datagov/data/data/datagovdata/utilization-and-costs-of-health-services-for-medicare-beneficiaries-washington-state-2007--de27d.csv","DME Events Per 1000 Beneficiaries","numbers","^\$?\d+(\.(\d{2}))?$"
"/data/datasets/datagov/data/data/datagovdata/utilization-and-costs-of-health-services-for-medicare-beneficiaries-washington-state-2007--de27d.csv","# OP Users","numbers","^\$?\d+(\.(\d{2}))?$"
"/data/datasets/datagov/data/data/datagovdata/utilization-and-costs-of-health-services-for-medicare-beneficiaries-washington-state-2007--de27d.csv","Imaging Standardized Costs as % of Total Standardized Costs","numbers","^\$?\d+(\.(\d{2}))?$"
"/data/datasets/datagov/data/data/datagovdata/utilization-and-costs-of-health-services-for-medicare-beneficiaries-washington-state-2007--de27d.csv","PAC: LTCH Per Capita Standardized Costs","uri",".*?$(?<!\.aspx)"
"/data/datasets/datagov/data/data/datagovdata/utilization-and-costs-of-health-services-for-medicare-beneficiaries-washington-state-2007--de27d.csv","EM Standardized Costs as % of Total Standardized Costs","numbers","^\$?\d+(\.(\d{2}))?$"
"/data/datasets/datagov/data/data/datagovdata/utilization-and-costs-of-health-services-for-medicare-beneficiaries-washington-state-2007--de27d.csv","ASC Per User Standardized Costs","numbers","^\$?\d+(\.(\d{2}))?$"
"/data/datasets/datagov/data/data/datagovdata/utilization-and-costs-of-health-services-for-medicare-beneficiaries-washington-state-2007--de27d.csv","(To sort by year and county)","numbers","^\$?\d+(\.(\d{2}))?$"
"/data/datasets/datagov/data/data/datagovdata/utilization-and-costs-of-health-services-for-medicare-beneficiaries-washington-state-2007--de27d.csv","Outpatient Dialysis Facility Per User Actual Costs","numbers","^\$?\d+(\.(\d{2}))?$"
"/data/datasets/datagov/data/data/datagovdata/utilization-and-costs-of-health-services-for-medicare-beneficiaries-washington-state-2007--de27d.csv","Outpatient Dialysis Facility Per Capita Actual Costs","numbers","^\$?\d+(\.(\d{2}))?$"
"/data/datasets/datagov/data/data/datagovdata/utilization-and-costs-of-health-services-for-medicare-beneficiaries-washington-state-2007--de27d.csv","OP Standardized Costs","numbers","^\$?\d+(\.(\d{2}))?$"
"/data/datasets/datagov/data/data/datagovdata/utilization-and-costs-of-health-services-for-medicare-beneficiaries-washington-state-2007--de27d.csv","Tests Per Capita Actual Costs","numbers","^\$?\d+(\.(\d{2}))?$"
"/data/datasets/datagov/data/data/datagovdata/utilization-and-costs-of-health-services-for-medicare-beneficiaries-washington-state-2007--de27d.csv","PAC: LTCH Covered Stays Per 1000 Beneficiaries","numbers","^\$?\d+(\.(\d{2}))?$"
"/data/datasets/datagov/data/data/datagovdata/utilization-and-costs-of-health-services-for-medicare-beneficiaries-washington-state-2007--de27d.csv","IP Users (with a covered stay)","numbers","^\$?\d+(\.(\d{2}))?$"
"/data/datasets/datagov/data/data/datagovdata/utilization-and-costs-of-health-services-for-medicare-beneficiaries-washington-state-2007--de27d.csv","% of Beneficiaries Using PAC: IRF","uri",".*?$(?<!\.aspx)"
"/data/datasets/datagov/data/data/datagovdata/utilization-and-costs-of-health-services-for-medicare-beneficiaries-washington-state-2007--de27d.csv","% of Beneficiaries Using Outpatient Dialysis Facility","uri",".*?$(?<!\.aspx)"
"/data/datasets/datagov/data/data/datagovdata/utilization-and-costs-of-health-services-for-medicare-beneficiaries-washington-state-2007--de27d.csv","# Tests Users","numbers","^\$?\d+(\.(\d{2}))?$"
"/data/datasets/datagov/data/data/datagovdata/utilization-and-costs-of-health-services-for-medicare-beneficiaries-washington-state-2007--de27d.csv","Procedures Actual Costs as % of Total Actual Costs","numbers","^\$?\d+(\.(\d{2}))?$"
"/data/datasets/datagov/data/data/datagovdata/utilization-and-costs-of-health-services-for-medicare-beneficiaries-washington-state-2007--de27d.csv","PAC: LTCH Covered Days Per 1000 Beneficiaries","numbers","^\$?\d+(\.(\d{2}))?$"
"/data/datasets/datagov/data/data/datagovdata/utilization-and-costs-of-health-services-for-medicare-beneficiaries-washington-state-2007--de27d.csv","# PAC: HH Users","numbers","^\$?\d+(\.(\d{2}))?$"
"/data/datasets/datagov/data/data/datagovdata/utilization-and-costs-of-health-services-for-medicare-beneficiaries-washington-state-2007--de27d.csv","Procedures Standardized Costs as % of Total Standardized Costs","numbers","^\$?\d+(\.(\d{2}))?$"
"/data/datasets/datagov/data/data/datagovdata/utilization-and-costs-of-health-services-for-medicare-beneficiaries-washington-state-2007--de27d.csv","Procedures Per User Actual Costs","numbers","^\$?\d+(\.(\d{2}))?$"
"/data/datasets/datagov/data/data/datagovdata/utilization-and-costs-of-health-services-for-medicare-beneficiaries-washington-state-2007--de27d.csv","Part B Drugs Actual Costs as % of Total Actual Costs","numbers","^\$?\d+(\.(\d{2}))?$"
"/data/datasets/datagov/data/data/datagovdata/utilization-and-costs-of-health-services-for-medicare-beneficiaries-washington-state-2007--de27d.csv","PAC: IRF Per Capita Actual Costs","numbers","^\$?\d+(\.(\d{2}))?$"
"/data/datasets/datagov/data/data/datagovdata/utilization-and-costs-of-health-services-for-medicare-beneficiaries-washington-state-2007--de27d.csv","# Procedures Users","numbers","^\$?\d+(\.(\d{2}))?$"
"/data/datasets/datagov/data/data/datagovdata/utilization-and-costs-of-health-services-for-medicare-beneficiaries-washington-state-2007--de27d.csv","ASC Per Capita Standardized Costs","numbers","^\$?\d+(\.(\d{2}))?$"
"/data/datasets/datagov/data/data/datagovdata/utilization-and-costs-of-health-services-for-medicare-beneficiaries-washington-state-2007--de27d.csv","PAC: IRF Standardized Costs","numbers","^\$?\d+(\.(\d{2}))?$"
"/data/datasets/datagov/data/data/datagovdata/utilization-and-costs-of-health-services-for-medicare-beneficiaries-washington-state-2007--de27d.csv","FQHC/RHC Visits Per 1000 Beneficiaries","numbers","^\$?\d+(\.(\d{2}))?$"
"/data/datasets/datagov/data/data/datagovdata/utilization-and-costs-of-health-services-for-medicare-beneficiaries-washington-state-2007--de27d.csv","Total Standardized Risk-Adjusted Costs","numbers","^\$?\d+(\.(\d{2}))?$"
"/data/datasets/datagov/data/data/datagovdata/utilization-and-costs-of-health-services-for-medicare-beneficiaries-washington-state-2007--de27d.csv","Tests Per User Actual Costs","numbers","^\$?\d+(\.(\d{2}))?$"
"/data/datasets/datagov/data/data/datagovdata/utilization-and-costs-of-health-services-for-medicare-beneficiaries-washington-state-2007--de27d.csv","Part B Drugs Per Capita Actual Costs","numbers","^\$?\d+(\.(\d{2}))?$"
"/data/datasets/datagov/data/data/datagovdata/utilization-and-costs-of-health-services-for-medicare-beneficiaries-washington-state-2007--de27d.csv","% of Beneficiaries Using ASC","numbers","^\$?\d+(\.(\d{2}))?$"
"/data/datasets/datagov/data/data/datagovdata/utilization-and-costs-of-health-services-for-medicare-beneficiaries-washington-state-2007--de27d.csv","PAC: IRF Covered Stays Per 1000 Beneficiaries","numbers","^\$?\d+(\.(\d{2}))?$"
"/data/datasets/datagov/data/data/datagovdata/utilization-and-costs-of-health-services-for-medicare-beneficiaries-washington-state-2007--de27d.csv","# DME Users","numbers","^\$?\d+(\.(\d{2}))?$"
"/data/datasets/datagov/data/data/datagovdata/utilization-and-costs-of-health-services-for-medicare-beneficiaries-washington-state-2007--de27d.csv","Imaging Per User Standardized Costs","numbers","^\$?\d+(\.(\d{2}))?$"
"/data/datasets/datagov/data/data/datagovdata/utilization-and-costs-of-health-services-for-medicare-beneficiaries-washington-state-2007--de27d.csv","% of Beneficiaries Using Ambulance","numbers","^\$?\d+(\.(\d{2}))?$"
"/data/datasets/datagov/data/data/datagovdata/utilization-and-costs-of-health-services-for-medicare-beneficiaries-washington-state-2007--de27d.csv","Ambulance Actual Costs as % of Total Actual Costs","numbers","^\$?\d+(\.(\d{2}))?$"
"/data/datasets/datagov/data/data/datagovdata/utilization-and-costs-of-health-services-for-medicare-beneficiaries-washington-state-2007--de27d.csv","ASC Actual Costs","numbers","^\$?\d+(\.(\d{2}))?$"
"/data/datasets/datagov/data/data/datagovdata/utilization-and-costs-of-health-services-for-medicare-beneficiaries-washington-state-2007--de27d.csv","EM Per Capita Standardized Costs","numbers","^\$?\d+(\.(\d{2}))?$"
"/data/datasets/datagov/data/data/datagovdata/utilization-and-costs-of-health-services-for-medicare-beneficiaries-washington-state-2007--de27d.csv","ASC Actual Costs as % of Total Actual Costs","numbers","^\$?\d+(\.(\d{2}))?$"
"/data/datasets/datagov/data/data/datagovdata/utilization-and-costs-of-health-services-for-medicare-beneficiaries-washington-state-2007--de27d.csv","% of Beneficiaries Using Part B Drugs","numbers","^\$?\d+(\.(\d{2}))?$"
"/data/datasets/datagov/data/data/datagovdata/utilization-and-costs-of-health-services-for-medicare-beneficiaries-washington-state-2007--de27d.csv","EM Per User Standardized Costs","numbers","^\$?\d+(\.(\d{2}))?$"
"/data/datasets/datagov/data/data/datagovdata/utilization-and-costs-of-health-services-for-medicare-beneficiaries-washington-state-2007--de27d.csv","Procedures Per Capita Actual Costs","numbers","^\$?\d+(\.(\d{2}))?$"
"/data/datasets/datagov/data/data/datagovdata/utilization-and-costs-of-health-services-for-medicare-beneficiaries-washington-state-2007--de27d.csv","Year","numbers","^\$?\d+(\.(\d{2}))?$"
"/data/datasets/datagov/data/data/datagovdata/utilization-and-costs-of-health-services-for-medicare-beneficiaries-washington-state-2007--de27d.csv","Outpatient Dialysis Facility Events Per 1000 Beneficiaries","numbers","^\$?\d+(\.(\d{2}))?$"
"/data/datasets/datagov/data/data/datagovdata/utilization-and-costs-of-health-services-for-medicare-beneficiaries-washington-state-2007--de27d.csv","PAC: HH Per Capita Standardized Costs","numbers","^\$?\d+(\.(\d{2}))?$"
"/data/datasets/datagov/data/data/datagovdata/utilization-and-costs-of-health-services-for-medicare-beneficiaries-washington-state-2007--de27d.csv","% of Beneficiaries Using IP","numbers","^\$?\d+(\.(\d{2}))?$"
"/data/datasets/datagov/data/data/datagovdata/utilization-and-costs-of-health-services-for-medicare-beneficiaries-washington-state-2007--de27d.csv","Procedures Per Capita Standardized Costs","numbers","^\$?\d+(\.(\d{2}))?$"
"/data/datasets/datagov/data/data/datagovdata/utilization-and-costs-of-health-services-for-medicare-beneficiaries-washington-state-2007--de27d.csv","Outpatient Dialysis Facility Actual Costs","numbers","^\$?\d+(\.(\d{2}))?$"
"/data/datasets/datagov/data/data/datagovdata/utilization-and-costs-of-health-services-for-medicare-beneficiaries-washington-state-2007--de27d.csv","# Imaging Users","numbers","^\$?\d+(\.(\d{2}))?$"
"/data/datasets/datagov/data/data/datagovdata/utilization-and-costs-of-health-services-for-medicare-beneficiaries-washington-state-2007--de27d.csv","EM Per User Actual Costs","numbers","^\$?\d+(\.(\d{2}))?$"
"/data/datasets/datagov/data/data/datagovdata/utilization-and-costs-of-health-services-for-medicare-beneficiaries-washington-state-2007--de27d.csv","# EM Users","numbers","^\$?\d+(\.(\d{2}))?$"
"/data/datasets/datagov/data/data/datagovdata/utilization-and-costs-of-health-services-for-medicare-beneficiaries-washington-state-2007--de27d.csv","Outpatient Dialysis Facility Standardized Costs as % of Total Standardized Costs","uri",".*?$(?<!\.aspx)"
"/data/datasets/datagov/data/data/datagovdata/utilization-and-costs-of-health-services-for-medicare-beneficiaries-washington-state-2007--de27d.csv","PAC: HH Per User Actual Costs","numbers","^\$?\d+(\.(\d{2}))?$"
"/data/datasets/datagov/data/data/datagovdata/utilization-and-costs-of-health-services-for-medicare-beneficiaries-washington-state-2007--de27d.csv","% of Beneficiaries Using Hospice","numbers","^\$?\d+(\.(\d{2}))?$"
