"file_name","column_name","label","regex"
"/data/datasets/datagov/data/data/datagovdata/lobbyist-data-expenditures-large.csv","CLIENT_ID","numbers","^\d*$"
"/data/datasets/datagov/data/data/datagovdata/lobbyist-data-expenditures-large.csv","LOBBYIST_LAST_NAME","uri",".*?$(?<!\.aspx)"
"/data/datasets/datagov/data/data/datagovdata/lobbyist-data-expenditures-large.csv","LOBBYIST_ID","numbers","^\d*$"
"/data/datasets/datagov/data/data/datagovdata/lobbyist-data-expenditures-large.csv","AMOUNT","numbers","^\d*$"
"/data/datasets/datagov/data/data/datagovdata/lobbyist-data-expenditures-large.csv","EXPENDITURE_DATE","strings","[^""\r\n]*"
"/data/datasets/datagov/data/data/datagovdata/lobbyist-data-expenditures-large.csv","CREATED_DATE","strings","[^""\r\n]*"
"/data/datasets/datagov/data/data/datagovdata/lobbyist-data-expenditures-large.csv","LOBBYIST_FIRST_NAME","uri",".*?$(?<!\.aspx)"
"/data/datasets/datagov/data/data/datagovdata/lobbyist-data-expenditures-large.csv","PURPOSE","strings","[^""\r\n]*"
"/data/datasets/datagov/data/data/datagovdata/lobbyist-data-expenditures-large.csv","PERIOD_END","strings","[^""\r\n]*"
"/data/datasets/datagov/data/data/datagovdata/lobbyist-data-expenditures-large.csv","PERIOD_START","strings","[^""\r\n]*"
"/data/datasets/datagov/data/data/datagovdata/lobbyist-data-expenditures-large.csv","RECIPIENT","strings","[^""\r\n]*"
"/data/datasets/datagov/data/data/datagovdata/lobbyist-data-expenditures-large.csv","CLIENT_NAME","strings","[^""\r\n]*"
"/data/datasets/datagov/data/data/datagovdata/lobbyist-data-expenditures-large.csv","ACTION","strings","[^""\r\n]*"
"/data/datasets/datagov/data/data/datagovdata/lobbyist-data-expenditures-large.csv","EXPENDITURE_ID","numbers","^\d*$"
"/data/datasets/datagov/data/data/datagovdata/lobbyist-data-expenditures-large.csv","LOBBYIST_MIDDLE_INITIAL","uri",".*?$(?<!\.aspx)"
