"file_name","column_name","label","regex"
"/data/datasets/datagov/data/data/datagovdata/licensee-excise-tax-reported.csv","BusinessName","uri",".*?$(?<!\.aspx)"
"/data/datasets/datagov/data/data/datagovdata/licensee-excise-tax-reported.csv","LicenseType","uri",".*?$(?<!\.aspx)"
"/data/datasets/datagov/data/data/datagovdata/licensee-excise-tax-reported.csv","LicenseNum","numbers","^(\d|,)*\.?\d*$"
"/data/datasets/datagov/data/data/datagovdata/licensee-excise-tax-reported.csv","Category","uri",".*?$(?<!\.aspx)"
"/data/datasets/datagov/data/data/datagovdata/licensee-excise-tax-reported.csv","ReportingPeriod","strings","[^""\r\n]*"
"/data/datasets/datagov/data/data/datagovdata/licensee-excise-tax-reported.csv","Gallons","numbers","^(\d|,)*\.?\d*$"
"/data/datasets/datagov/data/data/datagovdata/licensee-excise-tax-reported.csv","State","uri",".*?$(?<!\.aspx)"
