"file_name","column_name","label","regex"
"/data/datasets/datagov/data/data/datagovdata/tif-funding-sources-and-uses-by-tif-fiscal-year-and-type-a3f3c.csv","TIF Number","uri",".*?$(?<!\.aspx)"
"/data/datasets/datagov/data/data/datagovdata/tif-funding-sources-and-uses-by-tif-fiscal-year-and-type-a3f3c.csv","Activity","uri",".*?$(?<!\.aspx)"
"/data/datasets/datagov/data/data/datagovdata/tif-funding-sources-and-uses-by-tif-fiscal-year-and-type-a3f3c.csv","Fiscal Year","numbers","^\d*$"
"/data/datasets/datagov/data/data/datagovdata/tif-funding-sources-and-uses-by-tif-fiscal-year-and-type-a3f3c.csv","Type","uri",".*?$(?<!\.aspx)"
"/data/datasets/datagov/data/data/datagovdata/tif-funding-sources-and-uses-by-tif-fiscal-year-and-type-a3f3c.csv","TIF District","strings","[^""\r\n]*"
"/data/datasets/datagov/data/data/datagovdata/tif-funding-sources-and-uses-by-tif-fiscal-year-and-type-a3f3c.csv","Amount","uri",".*?$(?<!\.aspx)"
