"file_name","column_name","label","regex"
"/data/datasets/datagov/data/data/datagovdata/tgr2006se_quay_sduni00.csv","LSADC","uri",".*?$(?<!\.aspx)"
"/data/datasets/datagov/data/data/datagovdata/tgr2006se_quay_sduni00.csv","COUNTY","numbers","^\d$"
"/data/datasets/datagov/data/data/datagovdata/tgr2006se_quay_sduni00.csv","NAME","uri",".*?$(?<!\.aspx)"
"/data/datasets/datagov/data/data/datagovdata/tgr2006se_quay_sduni00.csv","ENTITY","numbers","^\d$"
"/data/datasets/datagov/data/data/datagovdata/tgr2006se_quay_sduni00.csv","GIST_ID","numbers","^\d$"
"/data/datasets/datagov/data/data/datagovdata/tgr2006se_quay_sduni00.csv","UNIFIED","numbers","^\d$"
