"file_name","column_name","label","regex"
"/data/datasets/datagov/data/data/datagovdata/fy2016-budget-stormwater.csv","ORIGINAL_APPROP","numbers","^\d*$"
"/data/datasets/datagov/data/data/datagovdata/fy2016-budget-stormwater.csv","FID","numbers","^\d*$"
"/data/datasets/datagov/data/data/datagovdata/fy2016-budget-stormwater.csv","ACCOUNT_DESCRIPTION","strings","[^""\r\n]*"
"/data/datasets/datagov/data/data/datagovdata/fy2016-budget-stormwater.csv","ACCOUNT","uri",".*?$(?<!\.aspx)"
"/data/datasets/datagov/data/data/datagovdata/fy2016-budget-stormwater.csv","TYPE","uri",".*?$(?<!\.aspx)"
