"file_name","column_name","label","regex"
"/data/datasets/datagov/data/data/datagovdata/fire-stations-ec63b.csv","Location 1","uri","^[^\\\/\?\*\""\'\>\<\:\|]*$"
"/data/datasets/datagov/data/data/datagovdata/fire-stations-ec63b.csv","zipCode","numbers","^\d*$"
"/data/datasets/datagov/data/data/datagovdata/fire-stations-ec63b.csv","policeDistrict","uri","^[^\\\/\?\*\""\'\>\<\:\|]*$"
"/data/datasets/datagov/data/data/datagovdata/fire-stations-ec63b.csv","name","uri","^[^\\\/\?\*\""\'\>\<\:\|]*$"
"/data/datasets/datagov/data/data/datagovdata/fire-stations-ec63b.csv","councilDistrict","numbers","^\d*$"
"/data/datasets/datagov/data/data/datagovdata/fire-stations-ec63b.csv","neighborhood","strings","[^""\r\n]*"
