"file_name","column_name","label","regex"
"/data/datasets/datagov/data/data/datagovdata/ides-illinois-industry-projections-2008-2018-79b91.csv","IndustryTitle","strings","[^""\r\n]*"
"/data/datasets/datagov/data/data/datagovdata/ides-illinois-industry-projections-2008-2018-79b91.csv","BaseYearEmployment2008","uri",".*?$(?<!\.aspx)"
"/data/datasets/datagov/data/data/datagovdata/ides-illinois-industry-projections-2008-2018-79b91.csv","ProjectedYearEmployment2018","uri",".*?$(?<!\.aspx)"
"/data/datasets/datagov/data/data/datagovdata/ides-illinois-industry-projections-2008-2018-79b91.csv","IndustryCode","numbers","^\d*$"
"/data/datasets/datagov/data/data/datagovdata/ides-illinois-industry-projections-2008-2018-79b91.csv","Region","uri",".*?$(?<!\.aspx)"
"/data/datasets/datagov/data/data/datagovdata/ides-illinois-industry-projections-2008-2018-79b91.csv","AnnualCompoundGrowthRate","uri",".*?$(?<!\.aspx)"
"/data/datasets/datagov/data/data/datagovdata/ides-illinois-industry-projections-2008-2018-79b91.csv","EmploymentChange","uri",".*?$(?<!\.aspx)"
