"file_name","column_name","label","regex"
"/data/datasets/datagov/data/data/datagovdata/building-and-safety-permit-information.csv","Block","uri",".*?$(?<!\.aspx)"
"/data/datasets/datagov/data/data/datagovdata/building-and-safety-permit-information.csv","Unit Range End","uri",".*?$(?<!\.aspx)"
"/data/datasets/datagov/data/data/datagovdata/building-and-safety-permit-information.csv","Principal Last Name","uri",".*?$(?<!\.aspx)"
"/data/datasets/datagov/data/data/datagovdata/building-and-safety-permit-information.csv","Applicant Business Name","uri",".*?$(?<!\.aspx)"
"/data/datasets/datagov/data/data/datagovdata/building-and-safety-permit-information.csv","Applicant Address 2","uri",".*?$(?<!\.aspx)"
"/data/datasets/datagov/data/data/datagovdata/building-and-safety-permit-information.csv","Status","uri",".*?$(?<!\.aspx)"
"/data/datasets/datagov/data/data/datagovdata/building-and-safety-permit-information.csv","License Type","uri",".*?$(?<!\.aspx)"
"/data/datasets/datagov/data/data/datagovdata/building-and-safety-permit-information.csv","Applicant First Name","uri",".*?$(?<!\.aspx)"
"/data/datasets/datagov/data/data/datagovdata/building-and-safety-permit-information.csv","Contractor City","uri",".*?$(?<!\.aspx)"
"/data/datasets/datagov/data/data/datagovdata/building-and-safety-permit-information.csv","Zip Code","numbers","^(\d|,)*\.?\d*$"
"/data/datasets/datagov/data/data/datagovdata/building-and-safety-permit-information.csv","PCIS Permit #","uri",".*?$(?<!\.aspx)"
"/data/datasets/datagov/data/data/datagovdata/building-and-safety-permit-information.csv","Address Fraction End","numbers","^(\d|,)*\.?\d*$"
"/data/datasets/datagov/data/data/datagovdata/building-and-safety-permit-information.csv","Principal Middle Name","uri",".*?$(?<!\.aspx)"
"/data/datasets/datagov/data/data/datagovdata/building-and-safety-permit-information.csv","Suffix Direction","uri",".*?$(?<!\.aspx)"
"/data/datasets/datagov/data/data/datagovdata/building-and-safety-permit-information.csv","Contractor's Business Name","uri",".*?$(?<!\.aspx)"
"/data/datasets/datagov/data/data/datagovdata/building-and-safety-permit-information.csv","Issue Date","strings","[^""\r\n]*"
"/data/datasets/datagov/data/data/datagovdata/building-and-safety-permit-information.csv","Address Start","numbers","^(\d|,)*\.?\d*$"
"/data/datasets/datagov/data/data/datagovdata/building-and-safety-permit-information.csv","Permit Sub-Type","uri",".*?$(?<!\.aspx)"
"/data/datasets/datagov/data/data/datagovdata/building-and-safety-permit-information.csv","Status Date","strings","[^""\r\n]*"
"/data/datasets/datagov/data/data/datagovdata/building-and-safety-permit-information.csv","Permit Category","uri",".*?$(?<!\.aspx)"
"/data/datasets/datagov/data/data/datagovdata/building-and-safety-permit-information.csv","Contractor State","uri",".*?$(?<!\.aspx)"
"/data/datasets/datagov/data/data/datagovdata/building-and-safety-permit-information.csv","Tract","uri",".*?$(?<!\.aspx)"
"/data/datasets/datagov/data/data/datagovdata/building-and-safety-permit-information.csv","Street Suffix","uri",".*?$(?<!\.aspx)"
"/data/datasets/datagov/data/data/datagovdata/building-and-safety-permit-information.csv","Project Number","numbers","^(\d|,)*\.?\d*$"
"/data/datasets/datagov/data/data/datagovdata/building-and-safety-permit-information.csv","Lot","strings","[^""\r\n]*"
"/data/datasets/datagov/data/data/datagovdata/building-and-safety-permit-information.csv","Floor Area-L.A. Building Code Definition","numbers","^(\d|,)*\.?\d*$"
"/data/datasets/datagov/data/data/datagovdata/building-and-safety-permit-information.csv","Principal First Name","uri",".*?$(?<!\.aspx)"
"/data/datasets/datagov/data/data/datagovdata/building-and-safety-permit-information.csv","Address End","numbers","^(\d|,)*\.?\d*$"
"/data/datasets/datagov/data/data/datagovdata/building-and-safety-permit-information.csv","Event Code","uri",".*?$(?<!\.aspx)"
"/data/datasets/datagov/data/data/datagovdata/building-and-safety-permit-information.csv","Occupancy","uri",".*?$(?<!\.aspx)"
"/data/datasets/datagov/data/data/datagovdata/building-and-safety-permit-information.csv","Unit Range Start","uri",".*?$(?<!\.aspx)"
"/data/datasets/datagov/data/data/datagovdata/building-and-safety-permit-information.csv","Permit Type","strings","[^""\r\n]*"
"/data/datasets/datagov/data/data/datagovdata/building-and-safety-permit-information.csv","License Expiration Date","strings","[^""\r\n]*"
"/data/datasets/datagov/data/data/datagovdata/building-and-safety-permit-information.csv","Contractor Address","uri",".*?$(?<!\.aspx)"
"/data/datasets/datagov/data/data/datagovdata/building-and-safety-permit-information.csv","Applicant Address 3","uri",".*?$(?<!\.aspx)"
"/data/datasets/datagov/data/data/datagovdata/building-and-safety-permit-information.csv","Assessor Book","numbers","^(\d|,)*\.?\d*$"
"/data/datasets/datagov/data/data/datagovdata/building-and-safety-permit-information.csv","Applicant Last Name","uri",".*?$(?<!\.aspx)"
"/data/datasets/datagov/data/data/datagovdata/building-and-safety-permit-information.csv","Assessor Parcel","strings","[^""\r\n]*"
"/data/datasets/datagov/data/data/datagovdata/building-and-safety-permit-information.csv","Street Direction","uri",".*?$(?<!\.aspx)"
"/data/datasets/datagov/data/data/datagovdata/building-and-safety-permit-information.csv","Initiating Office","uri",".*?$(?<!\.aspx)"
"/data/datasets/datagov/data/data/datagovdata/building-and-safety-permit-information.csv","Assessor Page","numbers","^(\d|,)*\.?\d*$"
"/data/datasets/datagov/data/data/datagovdata/building-and-safety-permit-information.csv","Latitude/Longitude","uri",".*?$(?<!\.aspx)"
"/data/datasets/datagov/data/data/datagovdata/building-and-safety-permit-information.csv","Valuation","numbers","^(\d|,)*\.?\d*$"
"/data/datasets/datagov/data/data/datagovdata/building-and-safety-permit-information.csv","License #","numbers","^(\d|,)*\.?\d*$"
"/data/datasets/datagov/data/data/datagovdata/building-and-safety-permit-information.csv","# of Residential Dwelling Units","numbers","^(\d|,)*\.?\d*$"
"/data/datasets/datagov/data/data/datagovdata/building-and-safety-permit-information.csv","Floor Area-L.A. Zoning Code Definition","numbers","^(\d|,)*\.?\d*$"
"/data/datasets/datagov/data/data/datagovdata/building-and-safety-permit-information.csv","Reference # (Old Permit #)","uri",".*?$(?<!\.aspx)"
"/data/datasets/datagov/data/data/datagovdata/building-and-safety-permit-information.csv","Street Name","uri",".*?$(?<!\.aspx)"
"/data/datasets/datagov/data/data/datagovdata/building-and-safety-permit-information.csv","Applicant Address 1","strings","[^""\r\n]*"
"/data/datasets/datagov/data/data/datagovdata/building-and-safety-permit-information.csv","# of Stories","numbers","^(\d|,)*\.?\d*$"
"/data/datasets/datagov/data/data/datagovdata/building-and-safety-permit-information.csv","Zone","uri",".*?$(?<!\.aspx)"
"/data/datasets/datagov/data/data/datagovdata/building-and-safety-permit-information.csv","Census Tract","numbers","^(\d|,)*\.?\d*$"
"/data/datasets/datagov/data/data/datagovdata/building-and-safety-permit-information.csv","Work Description","strings","[^""\r\n]*"
"/data/datasets/datagov/data/data/datagovdata/building-and-safety-permit-information.csv","Address Fraction Start","numbers","^(\d|,)*\.?\d*$"
