"file_name","column_name","label","regex"
"/data/datasets/datagov/data/data/datagovdata/boundaries-industrial-corridors-current.csv","MILES","numbers","^(\d|,)*\.?\d*$"
"/data/datasets/datagov/data/data/datagovdata/boundaries-industrial-corridors-current.csv","NAME","strings","[^""\r\n]*"
"/data/datasets/datagov/data/data/datagovdata/boundaries-industrial-corridors-current.csv","REGION_NUM","numbers","^(\d|,)*\.?\d*$"
"/data/datasets/datagov/data/data/datagovdata/boundaries-industrial-corridors-current.csv","SHAPE_LEN","numbers","^(\d|,)*\.?\d*$"
"/data/datasets/datagov/data/data/datagovdata/boundaries-industrial-corridors-current.csv","SHAPE_AREA","numbers","^(\d|,)*\.?\d*$"
"/data/datasets/datagov/data/data/datagovdata/boundaries-industrial-corridors-current.csv","OBJECTID","numbers","^(\d|,)*\.?\d*$"
"/data/datasets/datagov/data/data/datagovdata/boundaries-industrial-corridors-current.csv","ACRES","numbers","^(\d|,)*\.?\d*$"
"/data/datasets/datagov/data/data/datagovdata/boundaries-industrial-corridors-current.csv","REGION","uri",".*?$(?<!\.aspx)"
"/data/datasets/datagov/data/data/datagovdata/boundaries-industrial-corridors-current.csv","the_geom","strings","[^""\r\n]*"
"/data/datasets/datagov/data/data/datagovdata/boundaries-industrial-corridors-current.csv","NO","numbers","^(\d|,)*\.?\d*$"
"/data/datasets/datagov/data/data/datagovdata/boundaries-industrial-corridors-current.csv","HUD_QUALIF","numbers","^(\d|,)*\.?\d*$"
