"file_name","column_name","label","regex"
"/data/datasets/datagov/data/data/datagovdata/energy-star-certified-commercial-refrigerators-and-freezers.csv","Depth (in.)","numbers","^(\d|,)*\.?\d*$"
"/data/datasets/datagov/data/data/datagovdata/energy-star-certified-commercial-refrigerators-and-freezers.csv","ENERGY STAR Partner","uri",".*?$(?<!\.aspx)"
"/data/datasets/datagov/data/data/datagovdata/energy-star-certified-commercial-refrigerators-and-freezers.csv","Markets","uri",".*?$(?<!\.aspx)"
"/data/datasets/datagov/data/data/datagovdata/energy-star-certified-commercial-refrigerators-and-freezers.csv","Brand Name","uri",".*?$(?<!\.aspx)"
"/data/datasets/datagov/data/data/datagovdata/energy-star-certified-commercial-refrigerators-and-freezers.csv","Date Available On Market","strings","[^""\r\n]*"
"/data/datasets/datagov/data/data/datagovdata/energy-star-certified-commercial-refrigerators-and-freezers.csv","Width (in.)","numbers","^(\d|,)*\.?\d*$"
"/data/datasets/datagov/data/data/datagovdata/energy-star-certified-commercial-refrigerators-and-freezers.csv","Number of Doors","numbers","^(\d|,)*\.?\d*$"
"/data/datasets/datagov/data/data/datagovdata/energy-star-certified-commercial-refrigerators-and-freezers.csv","Energy Use (Daily Energy Consumption) (kWh/day)","numbers","^(\d|,)*\.?\d*$"
"/data/datasets/datagov/data/data/datagovdata/energy-star-certified-commercial-refrigerators-and-freezers.csv","Model Number","strings","[^""\r\n]*"
"/data/datasets/datagov/data/data/datagovdata/energy-star-certified-commercial-refrigerators-and-freezers.csv","Number of Glass Doors","numbers","^(\d|,)*\.?\d*$"
"/data/datasets/datagov/data/data/datagovdata/energy-star-certified-commercial-refrigerators-and-freezers.csv","Mixed Door Cabinet: Glass Door Volume (cu. ft.)","numbers","^(\d|,)*\.?\d*$"
"/data/datasets/datagov/data/data/datagovdata/energy-star-certified-commercial-refrigerators-and-freezers.csv","Type","uri",".*?$(?<!\.aspx)"
"/data/datasets/datagov/data/data/datagovdata/energy-star-certified-commercial-refrigerators-and-freezers.csv","Additional Model Information","strings","[^""\r\n]*"
"/data/datasets/datagov/data/data/datagovdata/energy-star-certified-commercial-refrigerators-and-freezers.csv","ENERGY STAR Unique ID","numbers","^(\d|,)*\.?\d*$"
"/data/datasets/datagov/data/data/datagovdata/energy-star-certified-commercial-refrigerators-and-freezers.csv","Product Description","uri",".*?$(?<!\.aspx)"
"/data/datasets/datagov/data/data/datagovdata/energy-star-certified-commercial-refrigerators-and-freezers.csv","CB Model Identifier","strings","[^""\r\n]*"
"/data/datasets/datagov/data/data/datagovdata/energy-star-certified-commercial-refrigerators-and-freezers.csv","Defrost Type","uri",".*?$(?<!\.aspx)"
"/data/datasets/datagov/data/data/datagovdata/energy-star-certified-commercial-refrigerators-and-freezers.csv","Number of Solid Doors","numbers","^(\d|,)*\.?\d*$"
"/data/datasets/datagov/data/data/datagovdata/energy-star-certified-commercial-refrigerators-and-freezers.csv","Mixed Door Cabinet: Solid Door Volume (cu. ft.)","numbers","^(\d|,)*\.?\d*$"
"/data/datasets/datagov/data/data/datagovdata/energy-star-certified-commercial-refrigerators-and-freezers.csv","Height (in.)","numbers","^(\d|,)*\.?\d*$"
"/data/datasets/datagov/data/data/datagovdata/energy-star-certified-commercial-refrigerators-and-freezers.csv","Configuration (Vertical/Chest)","uri",".*?$(?<!\.aspx)"
"/data/datasets/datagov/data/data/datagovdata/energy-star-certified-commercial-refrigerators-and-freezers.csv","Date Qualified","strings","[^""\r\n]*"
"/data/datasets/datagov/data/data/datagovdata/energy-star-certified-commercial-refrigerators-and-freezers.csv","Door Opening Orientation (Hinged/Sliding)","uri",".*?$(?<!\.aspx)"
"/data/datasets/datagov/data/data/datagovdata/energy-star-certified-commercial-refrigerators-and-freezers.csv","Model Name","strings","[^""\r\n]*"
"/data/datasets/datagov/data/data/datagovdata/energy-star-certified-commercial-refrigerators-and-freezers.csv","Volume (cu. ft.)","numbers","^(\d|,)*\.?\d*$"
"/data/datasets/datagov/data/data/datagovdata/energy-star-certified-commercial-refrigerators-and-freezers.csv","Refrigerant Type","uri",".*?$(?<!\.aspx)"
