"file_name","column_name","label","regex"
"/data/datasets/datagov/data/data/datagovdata/dpd-eca-liqzones-46e62.csv","LEN","numbers","^(\d|,)*\.?\d*$"
"/data/datasets/datagov/data/data/datagovdata/dpd-eca-liqzones-46e62.csv","Shape_Area","numbers","^(\d|,)*\.?\d*$"
"/data/datasets/datagov/data/data/datagovdata/dpd-eca-liqzones-46e62.csv","OBJECTID","numbers","^(\d|,)*\.?\d*$"
"/data/datasets/datagov/data/data/datagovdata/dpd-eca-liqzones-46e62.csv","COLOR","numbers","^(\d|,)*\.?\d*$"
"/data/datasets/datagov/data/data/datagovdata/dpd-eca-liqzones-46e62.csv","Shape_Length","numbers","^(\d|,)*\.?\d*$"
"/data/datasets/datagov/data/data/datagovdata/dpd-eca-liqzones-46e62.csv","AREA","numbers","^(\d|,)*\.?\d*$"
"/data/datasets/datagov/data/data/datagovdata/dpd-eca-liqzones-46e62.csv","Shape","uri",".*?$(?<!\.aspx)"
