"file_name","column_name","label","regex"
"/data/datasets/datagov/data/data/datagovdata/campaign-contributions-received-by-hawaii-state-and-county-candidates-from-november-8-2006-bc367.csv","Address 2","uri",".*?$(?<!\.aspx)"
"/data/datasets/datagov/data/data/datagovdata/campaign-contributions-received-by-hawaii-state-and-county-candidates-from-november-8-2006-bc367.csv","Non-Monetary Description","strings","[^""\r\n]*"
"/data/datasets/datagov/data/data/datagovdata/campaign-contributions-received-by-hawaii-state-and-county-candidates-from-november-8-2006-bc367.csv","City","uri",".*?$(?<!\.aspx)"
"/data/datasets/datagov/data/data/datagovdata/campaign-contributions-received-by-hawaii-state-and-county-candidates-from-november-8-2006-bc367.csv","Contributor Name","uri",".*?$(?<!\.aspx)"
"/data/datasets/datagov/data/data/datagovdata/campaign-contributions-received-by-hawaii-state-and-county-candidates-from-november-8-2006-bc367.csv","Contributor Type","uri",".*?$(?<!\.aspx)"
"/data/datasets/datagov/data/data/datagovdata/campaign-contributions-received-by-hawaii-state-and-county-candidates-from-november-8-2006-bc367.csv","Date","strings","[^""\r\n]*"
"/data/datasets/datagov/data/data/datagovdata/campaign-contributions-received-by-hawaii-state-and-county-candidates-from-november-8-2006-bc367.csv","State","uri",".*?$(?<!\.aspx)"
"/data/datasets/datagov/data/data/datagovdata/campaign-contributions-received-by-hawaii-state-and-county-candidates-from-november-8-2006-bc367.csv","Non-Monetary Category","strings","[^""\r\n]*"
"/data/datasets/datagov/data/data/datagovdata/campaign-contributions-received-by-hawaii-state-and-county-candidates-from-november-8-2006-bc367.csv","Range","strings","[^""\r\n]*"
"/data/datasets/datagov/data/data/datagovdata/campaign-contributions-received-by-hawaii-state-and-county-candidates-from-november-8-2006-bc367.csv","Non-Monetary (Yes or No)","uri",".*?$(?<!\.aspx)"
"/data/datasets/datagov/data/data/datagovdata/campaign-contributions-received-by-hawaii-state-and-county-candidates-from-november-8-2006-bc367.csv","Address 1","uri",".*?$(?<!\.aspx)"
"/data/datasets/datagov/data/data/datagovdata/campaign-contributions-received-by-hawaii-state-and-county-candidates-from-november-8-2006-bc367.csv","Reg No","uri",".*?$(?<!\.aspx)"
"/data/datasets/datagov/data/data/datagovdata/campaign-contributions-received-by-hawaii-state-and-county-candidates-from-november-8-2006-bc367.csv","County","uri",".*?$(?<!\.aspx)"
"/data/datasets/datagov/data/data/datagovdata/campaign-contributions-received-by-hawaii-state-and-county-candidates-from-november-8-2006-bc367.csv","InOutState","uri",".*?$(?<!\.aspx)"
"/data/datasets/datagov/data/data/datagovdata/campaign-contributions-received-by-hawaii-state-and-county-candidates-from-november-8-2006-bc367.csv","Office","uri",".*?$(?<!\.aspx)"
"/data/datasets/datagov/data/data/datagovdata/campaign-contributions-received-by-hawaii-state-and-county-candidates-from-november-8-2006-bc367.csv","Zip Code","address_or_phone","(\d{4,6})"
"/data/datasets/datagov/data/data/datagovdata/campaign-contributions-received-by-hawaii-state-and-county-candidates-from-november-8-2006-bc367.csv","Employer","uri",".*?$(?<!\.aspx)"
"/data/datasets/datagov/data/data/datagovdata/campaign-contributions-received-by-hawaii-state-and-county-candidates-from-november-8-2006-bc367.csv","Aggregate","numbers","^[-+]?\d+(\.\d+)?|[-+]?\.\d+?$"
"/data/datasets/datagov/data/data/datagovdata/campaign-contributions-received-by-hawaii-state-and-county-candidates-from-november-8-2006-bc367.csv","Amount","numbers","^[-+]?\d+(\.\d+)?|[-+]?\.\d+?$"
"/data/datasets/datagov/data/data/datagovdata/campaign-contributions-received-by-hawaii-state-and-county-candidates-from-november-8-2006-bc367.csv","District","uri",".*?$(?<!\.aspx)"
"/data/datasets/datagov/data/data/datagovdata/campaign-contributions-received-by-hawaii-state-and-county-candidates-from-november-8-2006-bc367.csv","Candidate Name","uri",".*?$(?<!\.aspx)"
"/data/datasets/datagov/data/data/datagovdata/campaign-contributions-received-by-hawaii-state-and-county-candidates-from-november-8-2006-bc367.csv","Party","uri",".*?$(?<!\.aspx)"
"/data/datasets/datagov/data/data/datagovdata/campaign-contributions-received-by-hawaii-state-and-county-candidates-from-november-8-2006-bc367.csv","Election Period","numbers","^[-+]?\d+(\.\d+)?|[-+]?\.\d+?$"
"/data/datasets/datagov/data/data/datagovdata/campaign-contributions-received-by-hawaii-state-and-county-candidates-from-november-8-2006-bc367.csv","Mapping Location","uri",".*?$(?<!\.aspx)"
"/data/datasets/datagov/data/data/datagovdata/campaign-contributions-received-by-hawaii-state-and-county-candidates-from-november-8-2006-bc367.csv","Occupation","strings","[^""\r\n]*"
