"file_name","column_name","label","regex"
"/data/datasets/datagov/data/data/datagovdata/hatchery-standards-cb16a.csv","2010","numbers","^\d*$"
"/data/datasets/datagov/data/data/datagovdata/hatchery-standards-cb16a.csv","Species","uri",".*?$(?<!\.aspx)"
"/data/datasets/datagov/data/data/datagovdata/hatchery-standards-cb16a.csv","2012","numbers","^\d*$"
"/data/datasets/datagov/data/data/datagovdata/hatchery-standards-cb16a.csv","Region","uri",".*?$(?<!\.aspx)"
