"file_name","column_name","label","regex"
"/data/datasets/datagov/data/data/datagovdata/state-historic-sites.csv","Location","uri",".*?$(?<!\.aspx)"
"/data/datasets/datagov/data/data/datagovdata/state-historic-sites.csv","Latitude","numbers","^(\d|,)*\.?\d*$"
"/data/datasets/datagov/data/data/datagovdata/state-historic-sites.csv","Longitude","numbers","^(\d|,)*\.?\d*$"
"/data/datasets/datagov/data/data/datagovdata/state-historic-sites.csv","Region","numbers","^(\d|,)*\.?\d*$"
"/data/datasets/datagov/data/data/datagovdata/state-historic-sites.csv","Name","uri",".*?$(?<!\.aspx)"
"/data/datasets/datagov/data/data/datagovdata/state-historic-sites.csv","County","strings","[^""\r\n]*"
"/data/datasets/datagov/data/data/datagovdata/state-historic-sites.csv","Category","uri",".*?$(?<!\.aspx)"
"/data/datasets/datagov/data/data/datagovdata/state-historic-sites.csv","Facility URL","uri",".*?$(?<!\.aspx)"
