"file_name","column_name","label","regex"
"/data/datasets/datagov/data/data/datagovdata/idph-std-illinois-by-county-rank.csv","Early_Syphilis_Count","numbers","^\d*$"
"/data/datasets/datagov/data/data/datagovdata/idph-std-illinois-by-county-rank.csv","Gonorrhea_Rate","numbers","^\d*$"
"/data/datasets/datagov/data/data/datagovdata/idph-std-illinois-by-county-rank.csv","COUNTY","uri",".*?$(?<!\.aspx)"
"/data/datasets/datagov/data/data/datagovdata/idph-std-illinois-by-county-rank.csv","Early_Syphilis_Rate","numbers","^\d*$"
"/data/datasets/datagov/data/data/datagovdata/idph-std-illinois-by-county-rank.csv","CountyFIPS","numbers","^\d*$"
"/data/datasets/datagov/data/data/datagovdata/idph-std-illinois-by-county-rank.csv","Year","numbers","^\d*$"
"/data/datasets/datagov/data/data/datagovdata/idph-std-illinois-by-county-rank.csv","Gonorrhea_RankByCount","numbers","^\d*$"
"/data/datasets/datagov/data/data/datagovdata/idph-std-illinois-by-county-rank.csv","Chlamydia_RankByRate","numbers","^\d*$"
"/data/datasets/datagov/data/data/datagovdata/idph-std-illinois-by-county-rank.csv","Chlamydia_Rate","numbers","^\d*$"
"/data/datasets/datagov/data/data/datagovdata/idph-std-illinois-by-county-rank.csv","Chlamydia_RankByCount","numbers","^\d*$"
"/data/datasets/datagov/data/data/datagovdata/idph-std-illinois-by-county-rank.csv","Gonorrhea_Count","numbers","^\d*$"
"/data/datasets/datagov/data/data/datagovdata/idph-std-illinois-by-county-rank.csv","Early_Syphilis_RankByCount","numbers","^\d*$"
"/data/datasets/datagov/data/data/datagovdata/idph-std-illinois-by-county-rank.csv","Sort","numbers","^\d*$"
"/data/datasets/datagov/data/data/datagovdata/idph-std-illinois-by-county-rank.csv","Chlamydia_Count","numbers","^\d*$"
"/data/datasets/datagov/data/data/datagovdata/idph-std-illinois-by-county-rank.csv","Gonorrhea_RankByRate","numbers","^\d*$"
"/data/datasets/datagov/data/data/datagovdata/idph-std-illinois-by-county-rank.csv","Early_Syphilis_RankByRate","numbers","^\d*$"
