"file_name","column_name","label","regex"
"/data/datasets/datagov/data/data/datagovdata/los-angeles-international-airport-ground-vehicle-traffic-volume-cb231.csv","ReportingMonth","strings","[^""\r\n]*"
"/data/datasets/datagov/data/data/datagovdata/los-angeles-international-airport-ground-vehicle-traffic-volume-cb231.csv","EntryExit","uri",".*?$(?<!\.aspx)"
"/data/datasets/datagov/data/data/datagovdata/los-angeles-international-airport-ground-vehicle-traffic-volume-cb231.csv","TOTAL VEHICLES","numbers","^\d*$"
"/data/datasets/datagov/data/data/datagovdata/los-angeles-international-airport-ground-vehicle-traffic-volume-cb231.csv","UpperLower","uri",".*?$(?<!\.aspx)"
