"file_name","column_name","label","regex"
"/data/datasets/datagov/data/data/datagovdata/subcontracting-directory-for-small-businesses-60178.csv","Product or Service Code","uri",".*?$(?<!\.aspx)"
"/data/datasets/datagov/data/data/datagovdata/subcontracting-directory-for-small-businesses-60178.csv","Street","uri",".*?$(?<!\.aspx)"
"/data/datasets/datagov/data/data/datagovdata/subcontracting-directory-for-small-businesses-60178.csv","Contractor Name","uri",".*?$(?<!\.aspx)"
"/data/datasets/datagov/data/data/datagovdata/subcontracting-directory-for-small-businesses-60178.csv","NAICS Code","numbers","^(\d|,)*\.?\d*$"
"/data/datasets/datagov/data/data/datagovdata/subcontracting-directory-for-small-businesses-60178.csv","Vendor City","uri",".*?$(?<!\.aspx)"
"/data/datasets/datagov/data/data/datagovdata/subcontracting-directory-for-small-businesses-60178.csv","Product or Service Description","strings","[^""\r\n]*"
"/data/datasets/datagov/data/data/datagovdata/subcontracting-directory-for-small-businesses-60178.csv","PIID","uri",".*?$(?<!\.aspx)"
"/data/datasets/datagov/data/data/datagovdata/subcontracting-directory-for-small-businesses-60178.csv","NAICS Description","uri",".*?$(?<!\.aspx)"
"/data/datasets/datagov/data/data/datagovdata/subcontracting-directory-for-small-businesses-60178.csv","Effective Date","strings","[^""\r\n]*"
"/data/datasets/datagov/data/data/datagovdata/subcontracting-directory-for-small-businesses-60178.csv","Zip","numbers","^(\d|,)*\.?\d*$"
"/data/datasets/datagov/data/data/datagovdata/subcontracting-directory-for-small-businesses-60178.csv","Est. Ultimate Completion Date","strings","[^""\r\n]*"
"/data/datasets/datagov/data/data/datagovdata/subcontracting-directory-for-small-businesses-60178.csv","Date Signed","strings","[^""\r\n]*"
"/data/datasets/datagov/data/data/datagovdata/subcontracting-directory-for-small-businesses-60178.csv","Vendor Phone Number","numbers","^(\d|,)*\.?\d*$"
"/data/datasets/datagov/data/data/datagovdata/subcontracting-directory-for-small-businesses-60178.csv","Vendor State","uri",".*?$(?<!\.aspx)"
"/data/datasets/datagov/data/data/datagovdata/subcontracting-directory-for-small-businesses-60178.csv","Principal Place of Performance City ","uri",".*?$(?<!\.aspx)"
"/data/datasets/datagov/data/data/datagovdata/subcontracting-directory-for-small-businesses-60178.csv","Principal Place of Performance State Code","uri",".*?$(?<!\.aspx)"
"/data/datasets/datagov/data/data/datagovdata/subcontracting-directory-for-small-businesses-60178.csv","Place of Performance Zip Code","numbers","^(\d|,)*\.?\d*$"
