"file_name","column_name","label","regex"
"/data/datasets/datagov/data/data/datagovdata/generational-breakdown-fy2012-629a5.csv","Agency","uri",".*?$(?<!\.aspx)"
"/data/datasets/datagov/data/data/datagovdata/generational-breakdown-fy2012-629a5.csv","Late Bloomer","numbers","^\d*$"
"/data/datasets/datagov/data/data/datagovdata/generational-breakdown-fy2012-629a5.csv","Gen X","numbers","^\d*$"
"/data/datasets/datagov/data/data/datagovdata/generational-breakdown-fy2012-629a5.csv","Gen Y","numbers","^\d*$"
"/data/datasets/datagov/data/data/datagovdata/generational-breakdown-fy2012-629a5.csv","Co","numbers","^\d*$"
"/data/datasets/datagov/data/data/datagovdata/generational-breakdown-fy2012-629a5.csv","Traditional","numbers","^\d*$"
"/data/datasets/datagov/data/data/datagovdata/generational-breakdown-fy2012-629a5.csv","Total Number","numbers","^\d*$"
"/data/datasets/datagov/data/data/datagovdata/generational-breakdown-fy2012-629a5.csv","Early Bloomer","numbers","^\d*$"
