"file_name","column_name","label","regex"
"/data/datasets/datagov/data/data/datagovdata/state-of-oklahoma-payroll-calendar-year-2015.csv","Report Date","uri",".*?$(?<!\.aspx)"
"/data/datasets/datagov/data/data/datagovdata/state-of-oklahoma-payroll-calendar-year-2015.csv","Amount","numbers","^\d*$"
"/data/datasets/datagov/data/data/datagovdata/state-of-oklahoma-payroll-calendar-year-2015.csv","First Name","uri",".*?$(?<!\.aspx)"
"/data/datasets/datagov/data/data/datagovdata/state-of-oklahoma-payroll-calendar-year-2015.csv","Hours","numbers","^\d*$"
"/data/datasets/datagov/data/data/datagovdata/state-of-oklahoma-payroll-calendar-year-2015.csv","Agency Name","uri",".*?$(?<!\.aspx)"
"/data/datasets/datagov/data/data/datagovdata/state-of-oklahoma-payroll-calendar-year-2015.csv","Account Description","uri",".*?$(?<!\.aspx)"
"/data/datasets/datagov/data/data/datagovdata/state-of-oklahoma-payroll-calendar-year-2015.csv","Check Date","uri",".*?$(?<!\.aspx)"
"/data/datasets/datagov/data/data/datagovdata/state-of-oklahoma-payroll-calendar-year-2015.csv","Account","numbers","^\d*$"
"/data/datasets/datagov/data/data/datagovdata/state-of-oklahoma-payroll-calendar-year-2015.csv","Middle Initial","uri",".*?$(?<!\.aspx)"
"/data/datasets/datagov/data/data/datagovdata/state-of-oklahoma-payroll-calendar-year-2015.csv","Agency  Number","numbers","^\d*$"
"/data/datasets/datagov/data/data/datagovdata/state-of-oklahoma-payroll-calendar-year-2015.csv","Update Date","uri",".*?$(?<!\.aspx)"
"/data/datasets/datagov/data/data/datagovdata/state-of-oklahoma-payroll-calendar-year-2015.csv","Last Name","uri",".*?$(?<!\.aspx)"
