"file_name","column_name","label","regex"
"/data/datasets/datagov/data/data/datagovdata/bureau-of-sanitation-unscheduled-absences-by-day-of-week-for-refuse-truck-drivers-da1b6.csv","Average Unscheduled Absences by Day of Week for Refuse Truck Drivers ","numbers","^\d*$"
"/data/datasets/datagov/data/data/datagovdata/bureau-of-sanitation-unscheduled-absences-by-day-of-week-for-refuse-truck-drivers-da1b6.csv","Day of the Week","uri",".*?$(?<!\.aspx)"
"/data/datasets/datagov/data/data/datagovdata/bureau-of-sanitation-unscheduled-absences-by-day-of-week-for-refuse-truck-drivers-da1b6.csv","Unscheduled Absences (Yearly Total)","numbers","^\d*$"
