"file_name","column_name","label","regex"
"/data/datasets/datagov/data/data/datagovdata/anne-arundel-county-crime-rate-by-type-e5923.csv","ROBBERY","numbers","^(\d|,)*\.?\d*$"
"/data/datasets/datagov/data/data/datagovdata/anne-arundel-county-crime-rate-by-type-e5923.csv","VIOLENT CRIME RATE","numbers","^(\d|,)*\.?\d*$"
"/data/datasets/datagov/data/data/datagovdata/anne-arundel-county-crime-rate-by-type-e5923.csv","POPULATION","numbers","^(\d|,)*\.?\d*$"
"/data/datasets/datagov/data/data/datagovdata/anne-arundel-county-crime-rate-by-type-e5923.csv","M/V THEFT","numbers","^(\d|,)*\.?\d*$"
"/data/datasets/datagov/data/data/datagovdata/anne-arundel-county-crime-rate-by-type-e5923.csv","PROPERTY CRIME RATE","numbers","^(\d|,)*\.?\d*$"
"/data/datasets/datagov/data/data/datagovdata/anne-arundel-county-crime-rate-by-type-e5923.csv","YEAR","numbers","^(\d|,)*\.?\d*$"
"/data/datasets/datagov/data/data/datagovdata/anne-arundel-county-crime-rate-by-type-e5923.csv","PROPERTY CRIME RATE PERCENT CHANGE","uri",".*?$(?<!\.aspx)"
"/data/datasets/datagov/data/data/datagovdata/anne-arundel-county-crime-rate-by-type-e5923.csv","MURDER","numbers","^(\d|,)*\.?\d*$"
"/data/datasets/datagov/data/data/datagovdata/anne-arundel-county-crime-rate-by-type-e5923.csv","LARCENY THEFT","numbers","^(\d|,)*\.?\d*$"
"/data/datasets/datagov/data/data/datagovdata/anne-arundel-county-crime-rate-by-type-e5923.csv","AGG. ASSAULT","numbers","^(\d|,)*\.?\d*$"
"/data/datasets/datagov/data/data/datagovdata/anne-arundel-county-crime-rate-by-type-e5923.csv","TOTAL CRIME RATE PERCENT CHANGE","uri",".*?$(?<!\.aspx)"
"/data/datasets/datagov/data/data/datagovdata/anne-arundel-county-crime-rate-by-type-e5923.csv","B & E","numbers","^(\d|,)*\.?\d*$"
"/data/datasets/datagov/data/data/datagovdata/anne-arundel-county-crime-rate-by-type-e5923.csv","TOTAL CRIME RATE","numbers","^(\d|,)*\.?\d*$"
"/data/datasets/datagov/data/data/datagovdata/anne-arundel-county-crime-rate-by-type-e5923.csv","RAPE","numbers","^(\d|,)*\.?\d*$"
"/data/datasets/datagov/data/data/datagovdata/anne-arundel-county-crime-rate-by-type-e5923.csv","VIOLENT CRIME RATE PERCENT CHANGE","uri",".*?$(?<!\.aspx)"
