"file_name","column_name","label","regex"
"/data/datasets/datagov/data/data/datagovdata/nrel-rsf-measured-data-2011-92294.csv","Total Plug Loads (kW)","numbers","^-?\d*(\.\d+)?$"
"/data/datasets/datagov/data/data/datagovdata/nrel-rsf-measured-data-2011-92294.csv","Total Data Center (kW)","numbers","^-?\d*(\.\d+)?$"
"/data/datasets/datagov/data/data/datagovdata/nrel-rsf-measured-data-2011-92294.csv","Building Net (kW)","numbers","^-?\d*(\.\d+)?$"
"/data/datasets/datagov/data/data/datagovdata/nrel-rsf-measured-data-2011-92294.csv","Total Mechanical (kW)","numbers","^-?\d*(\.\d+)?$"
"/data/datasets/datagov/data/data/datagovdata/nrel-rsf-measured-data-2011-92294.csv","Total Cooling (kW)","numbers","^-?\d*(\.\d+)?$"
"/data/datasets/datagov/data/data/datagovdata/nrel-rsf-measured-data-2011-92294.csv","Unnamed: 11","strings","[^""\r\n]*"
"/data/datasets/datagov/data/data/datagovdata/nrel-rsf-measured-data-2011-92294.csv","PV (kW)","numbers","^-?\d*(\.\d+)?$"
"/data/datasets/datagov/data/data/datagovdata/nrel-rsf-measured-data-2011-92294.csv","Day of Week","uri",".*?$(?<!\.aspx)"
"/data/datasets/datagov/data/data/datagovdata/nrel-rsf-measured-data-2011-92294.csv","Total Heating (kW)","numbers","^-?\d*(\.\d+)?$"
"/data/datasets/datagov/data/data/datagovdata/nrel-rsf-measured-data-2011-92294.csv","Total Building (kW)","numbers","^-?\d*(\.\d+)?$"
"/data/datasets/datagov/data/data/datagovdata/nrel-rsf-measured-data-2011-92294.csv","Date and Time","strings","[^""\r\n]*"
"/data/datasets/datagov/data/data/datagovdata/nrel-rsf-measured-data-2011-92294.csv","Total Lighting (kW)","numbers","^-?\d*(\.\d+)?$"
