"file_name","column_name","label","regex"
"/data/datasets/datagov/data/data/datagovdata/air-quality-federal-standards.csv","Historical Data","uri",".*?$(?<!\.aspx)"
"/data/datasets/datagov/data/data/datagovdata/air-quality-federal-standards.csv","Target","uri",".*?$(?<!\.aspx)"
"/data/datasets/datagov/data/data/datagovdata/air-quality-federal-standards.csv","Years","numbers","^\d*$"
