"file_name","column_name","label","regex"
"/data/datasets/datagov/data/data/datagovdata/k00313data287000316_cnty_view.csv","GID","numbers","^(\d|,)*\.?\d*$"
"/data/datasets/datagov/data/data/datagovdata/k00313data287000316_cnty_view.csv","RGIS_CODE","numbers","^(\d|,)*\.?\d*$"
"/data/datasets/datagov/data/data/datagovdata/k00313data287000316_cnty_view.csv","P050139","numbers","^(\d|,)*\.?\d*$"
"/data/datasets/datagov/data/data/datagovdata/k00313data287000316_cnty_view.csv","P050147","numbers","^(\d|,)*\.?\d*$"
"/data/datasets/datagov/data/data/datagovdata/k00313data287000316_cnty_view.csv","CTY_UC","uri",".*?$(?<!\.aspx)"
"/data/datasets/datagov/data/data/datagovdata/k00313data287000316_cnty_view.csv","FIPS","numbers","^(\d|,)*\.?\d*$"
"/data/datasets/datagov/data/data/datagovdata/k00313data287000316_cnty_view.csv","P050142","numbers","^(\d|,)*\.?\d*$"
"/data/datasets/datagov/data/data/datagovdata/k00313data287000316_cnty_view.csv","P050145","numbers","^(\d|,)*\.?\d*$"
"/data/datasets/datagov/data/data/datagovdata/k00313data287000316_cnty_view.csv","COUNTY","uri",".*?$(?<!\.aspx)"
"/data/datasets/datagov/data/data/datagovdata/k00313data287000316_cnty_view.csv","STFID","numbers","^(\d|,)*\.?\d*$"
"/data/datasets/datagov/data/data/datagovdata/k00313data287000316_cnty_view.csv","P050146","numbers","^(\d|,)*\.?\d*$"
"/data/datasets/datagov/data/data/datagovdata/k00313data287000316_cnty_view.csv","P050150","numbers","^(\d|,)*\.?\d*$"
"/data/datasets/datagov/data/data/datagovdata/k00313data287000316_cnty_view.csv","P050149","numbers","^(\d|,)*\.?\d*$"
"/data/datasets/datagov/data/data/datagovdata/k00313data287000316_cnty_view.csv","P050148","numbers","^(\d|,)*\.?\d*$"
"/data/datasets/datagov/data/data/datagovdata/k00313data287000316_cnty_view.csv","TGR_","numbers","^(\d|,)*\.?\d*$"
"/data/datasets/datagov/data/data/datagovdata/k00313data287000316_cnty_view.csv","P050138","numbers","^(\d|,)*\.?\d*$"
"/data/datasets/datagov/data/data/datagovdata/k00313data287000316_cnty_view.csv","AREA_NAME","uri",".*?$(?<!\.aspx)"
"/data/datasets/datagov/data/data/datagovdata/k00313data287000316_cnty_view.csv","P050151","numbers","^(\d|,)*\.?\d*$"
"/data/datasets/datagov/data/data/datagovdata/k00313data287000316_cnty_view.csv","AREA","numbers","^(\d|,)*\.?\d*$"
"/data/datasets/datagov/data/data/datagovdata/k00313data287000316_cnty_view.csv","P050144","numbers","^(\d|,)*\.?\d*$"
"/data/datasets/datagov/data/data/datagovdata/k00313data287000316_cnty_view.csv","P050141","numbers","^(\d|,)*\.?\d*$"
"/data/datasets/datagov/data/data/datagovdata/k00313data287000316_cnty_view.csv","P050001","numbers","^(\d|,)*\.?\d*$"
"/data/datasets/datagov/data/data/datagovdata/k00313data287000316_cnty_view.csv","FIPSTC_NO","numbers","^(\d|,)*\.?\d*$"
"/data/datasets/datagov/data/data/datagovdata/k00313data287000316_cnty_view.csv","P050140","numbers","^(\d|,)*\.?\d*$"
"/data/datasets/datagov/data/data/datagovdata/k00313data287000316_cnty_view.csv","TGR_ID","numbers","^(\d|,)*\.?\d*$"
"/data/datasets/datagov/data/data/datagovdata/k00313data287000316_cnty_view.csv","P050143","numbers","^(\d|,)*\.?\d*$"
"/data/datasets/datagov/data/data/datagovdata/k00313data287000316_cnty_view.csv","PERIMETER","numbers","^(\d|,)*\.?\d*$"
"/data/datasets/datagov/data/data/datagovdata/k00313data287000316_cnty_view.csv","FIPS_NO","numbers","^(\d|,)*\.?\d*$"
