"file_name","column_name","label","regex"
"/data/datasets/datagov/data/data/datagovdata/2014-elections-top-10-expenditures-3c600.csv","Won","uri",".*?$(?<!\.aspx)"
"/data/datasets/datagov/data/data/datagovdata/2014-elections-top-10-expenditures-3c600.csv","Office","uri",".*?$(?<!\.aspx)"
"/data/datasets/datagov/data/data/datagovdata/2014-elections-top-10-expenditures-3c600.csv","Expenditures","numbers","^\$?\d+(\.(\d{2}))?$"
"/data/datasets/datagov/data/data/datagovdata/2014-elections-top-10-expenditures-3c600.csv","Status","uri",".*?$(?<!\.aspx)"
"/data/datasets/datagov/data/data/datagovdata/2014-elections-top-10-expenditures-3c600.csv","Candidate Name","uri",".*?$(?<!\.aspx)"
