"file_name","column_name","label","regex"
"/data/datasets/datagov/data/data/datagovdata/2015-king-county-diabetes-screenings-1d73d.csv","Room","strings","[^""\r\n]*"
"/data/datasets/datagov/data/data/datagovdata/2015-king-county-diabetes-screenings-1d73d.csv","Start time","strings","[^""\r\n]*"
"/data/datasets/datagov/data/data/datagovdata/2015-king-county-diabetes-screenings-1d73d.csv","URL","strings","[^""\r\n]*"
"/data/datasets/datagov/data/data/datagovdata/2015-king-county-diabetes-screenings-1d73d.csv","End time","strings","[^""\r\n]*"
"/data/datasets/datagov/data/data/datagovdata/2015-king-county-diabetes-screenings-1d73d.csv","Location","uri","^[^\\\/\?\*\""\'\>\<\:\|]*$"
"/data/datasets/datagov/data/data/datagovdata/2015-king-county-diabetes-screenings-1d73d.csv","Workplace","strings","[^""\r\n]*"
