"file_name","column_name","label","regex"
"/data/datasets/datagov/data/data/datagovdata/snow-ice-routes-0c665.csv","ROUTEMILES","numbers","^(\d|,)*\.?\d*$"
"/data/datasets/datagov/data/data/datagovdata/snow-ice-routes-0c665.csv","SI_SHOP","uri",".*?$(?<!\.aspx)"
"/data/datasets/datagov/data/data/datagovdata/snow-ice-routes-0c665.csv","ROUTE_NAME","strings","[^""\r\n]*"
"/data/datasets/datagov/data/data/datagovdata/snow-ice-routes-0c665.csv","SI_LOS","numbers","^(\d|,)*\.?\d*$"
"/data/datasets/datagov/data/data/datagovdata/snow-ice-routes-0c665.csv","SI_ROUTE","numbers","^(\d|,)*\.?\d*$"
"/data/datasets/datagov/data/data/datagovdata/snow-ice-routes-0c665.csv","GEO_AREA","strings","[^""\r\n]*"
