"file_name","column_name","label","regex"
"/data/datasets/datagov/data/data/datagovdata/time-walk-bike-to-work-2001-2011.csv","n_time_mode","numbers","^(\d|,)*\.?\d*$"
"/data/datasets/datagov/data/data/datagovdata/time-walk-bike-to-work-2001-2011.csv","ind_id","numbers","^(\d|,)*\.?\d*$"
"/data/datasets/datagov/data/data/datagovdata/time-walk-bike-to-work-2001-2011.csv","percent_rse","numbers","^(\d|,)*\.?\d*$"
"/data/datasets/datagov/data/data/datagovdata/time-walk-bike-to-work-2001-2011.csv","CA_RR","numbers","^(\d|,)*\.?\d*$"
"/data/datasets/datagov/data/data/datagovdata/time-walk-bike-to-work-2001-2011.csv","percent_se","numbers","^(\d|,)*\.?\d*$"
"/data/datasets/datagov/data/data/datagovdata/time-walk-bike-to-work-2001-2011.csv","version","strings","[^""\r\n]*"
"/data/datasets/datagov/data/data/datagovdata/time-walk-bike-to-work-2001-2011.csv","percent","numbers","^(\d|,)*\.?\d*$"
"/data/datasets/datagov/data/data/datagovdata/time-walk-bike-to-work-2001-2011.csv","ind_definition","strings","[^""\r\n]*"
"/data/datasets/datagov/data/data/datagovdata/time-walk-bike-to-work-2001-2011.csv","race_eth_code","numbers","^(\d|,)*\.?\d*$"
"/data/datasets/datagov/data/data/datagovdata/time-walk-bike-to-work-2001-2011.csv","geotype","uri",".*?$(?<!\.aspx)"
"/data/datasets/datagov/data/data/datagovdata/time-walk-bike-to-work-2001-2011.csv","modetwk","uri",".*?$(?<!\.aspx)"
"/data/datasets/datagov/data/data/datagovdata/time-walk-bike-to-work-2001-2011.csv","CA_decile","numbers","^(\d|,)*\.?\d*$"
"/data/datasets/datagov/data/data/datagovdata/time-walk-bike-to-work-2001-2011.csv","county_name","uri",".*?$(?<!\.aspx)"
"/data/datasets/datagov/data/data/datagovdata/time-walk-bike-to-work-2001-2011.csv","race_eth_name","uri",".*?$(?<!\.aspx)"
"/data/datasets/datagov/data/data/datagovdata/time-walk-bike-to-work-2001-2011.csv","region_name","strings","[^""\r\n]*"
"/data/datasets/datagov/data/data/datagovdata/time-walk-bike-to-work-2001-2011.csv","geotypevalue","numbers","^(\d|,)*\.?\d*$"
"/data/datasets/datagov/data/data/datagovdata/time-walk-bike-to-work-2001-2011.csv","reportyear","numbers","^(\d|,)*\.?\d*$"
"/data/datasets/datagov/data/data/datagovdata/time-walk-bike-to-work-2001-2011.csv","region_code","numbers","^(\d|,)*\.?\d*$"
"/data/datasets/datagov/data/data/datagovdata/time-walk-bike-to-work-2001-2011.csv","UL95CI_percent","numbers","^(\d|,)*\.?\d*$"
"/data/datasets/datagov/data/data/datagovdata/time-walk-bike-to-work-2001-2011.csv","county_fips","numbers","^(\d|,)*\.?\d*$"
"/data/datasets/datagov/data/data/datagovdata/time-walk-bike-to-work-2001-2011.csv","LL95CI_percent","numbers","^(\d|,)*\.?\d*$"
"/data/datasets/datagov/data/data/datagovdata/time-walk-bike-to-work-2001-2011.csv","geoname","uri",".*?$(?<!\.aspx)"
"/data/datasets/datagov/data/data/datagovdata/time-walk-bike-to-work-2001-2011.csv","n_total","numbers","^(\d|,)*\.?\d*$"
