"file_name","column_name","label","regex"
"/data/datasets/datagov/data/data/datagovdata/foia-request-log-chicago-treasurers-office-8c63a.csv","DUE DATE","strings","[^""\r\n]*"
"/data/datasets/datagov/data/data/datagovdata/foia-request-log-chicago-treasurers-office-8c63a.csv","DESCRIPTION OF REQUEST","strings","[^""\r\n]*"
"/data/datasets/datagov/data/data/datagovdata/foia-request-log-chicago-treasurers-office-8c63a.csv","REQUESTOR NAME","uri",".*?$(?<!\.aspx)"
"/data/datasets/datagov/data/data/datagovdata/foia-request-log-chicago-treasurers-office-8c63a.csv","DATE RECEIVED","strings","[^""\r\n]*"
"/data/datasets/datagov/data/data/datagovdata/foia-request-log-chicago-treasurers-office-8c63a.csv","ORGANIZATION","uri",".*?$(?<!\.aspx)"
