"file_name","column_name","label","regex"
"/data/datasets/datagov/data/data/datagovdata/esrd-qip-anemia-payment-year-2015.csv","Alternate CCN 2","numbers","^\d*$"
"/data/datasets/datagov/data/data/datagovdata/esrd-qip-anemia-payment-year-2015.csv","Hemoglobin gt 12 g/dL Performance Rate","numbers","^\d*$"
"/data/datasets/datagov/data/data/datagovdata/esrd-qip-anemia-payment-year-2015.csv","Hemoglobin gt 12 g/dL Measure Score","numbers","^\d*$"
"/data/datasets/datagov/data/data/datagovdata/esrd-qip-anemia-payment-year-2015.csv","National Avg Hemoglobin gt 12 g/dL Measure Score","numbers","^\d*$"
"/data/datasets/datagov/data/data/datagovdata/esrd-qip-anemia-payment-year-2015.csv","CMS Certification Number","numbers","^\d*$"
"/data/datasets/datagov/data/data/datagovdata/esrd-qip-anemia-payment-year-2015.csv","City","uri",".*?$(?<!\.aspx)"
"/data/datasets/datagov/data/data/datagovdata/esrd-qip-anemia-payment-year-2015.csv","Network","numbers","^\d*$"
"/data/datasets/datagov/data/data/datagovdata/esrd-qip-anemia-payment-year-2015.csv","Alternate CCN 1","numbers","^\d*$"
"/data/datasets/datagov/data/data/datagovdata/esrd-qip-anemia-payment-year-2015.csv","Address 2","strings","[^""\r\n]*"
"/data/datasets/datagov/data/data/datagovdata/esrd-qip-anemia-payment-year-2015.csv","Facility Name","uri",".*?$(?<!\.aspx)"
"/data/datasets/datagov/data/data/datagovdata/esrd-qip-anemia-payment-year-2015.csv","Address 1","uri",".*?$(?<!\.aspx)"
"/data/datasets/datagov/data/data/datagovdata/esrd-qip-anemia-payment-year-2015.csv","State","uri",".*?$(?<!\.aspx)"
"/data/datasets/datagov/data/data/datagovdata/esrd-qip-anemia-payment-year-2015.csv","Zip Code","numbers","^\d*$"
