"file_name","column_name","label","regex"
"/data/datasets/datagov/data/data/datagovdata/statewide-leed-certified-buildings-54340.csv","Silver","numbers","^\d*$"
"/data/datasets/datagov/data/data/datagovdata/statewide-leed-certified-buildings-54340.csv","Year Certified","numbers","^\d*$"
"/data/datasets/datagov/data/data/datagovdata/statewide-leed-certified-buildings-54340.csv","Certified","numbers","^\d*$"
"/data/datasets/datagov/data/data/datagovdata/statewide-leed-certified-buildings-54340.csv","Platinum","numbers","^\d*$"
"/data/datasets/datagov/data/data/datagovdata/statewide-leed-certified-buildings-54340.csv","Gold","numbers","^\d*$"
