"file_name","column_name","label","regex"
"/data/datasets/datagov/data/data/datagovdata/gnis_nm_watfeat09.csv","SOURCE_LON","address_or_phone","(\d{4,6})"
"/data/datasets/datagov/data/data/datagovdata/gnis_nm_watfeat09.csv","MAP_NAME","uri",".*?$(?<!\.aspx)"
"/data/datasets/datagov/data/data/datagovdata/gnis_nm_watfeat09.csv","OID_","numbers","^\d*$"
"/data/datasets/datagov/data/data/datagovdata/gnis_nm_watfeat09.csv","PRIMARY__1","numbers","^\d*$"
"/data/datasets/datagov/data/data/datagovdata/gnis_nm_watfeat09.csv","PRIMARY_LA","address_or_phone","(\d{4,6})"
"/data/datasets/datagov/data/data/datagovdata/gnis_nm_watfeat09.csv","LATITUDE","numbers","^\d*$"
"/data/datasets/datagov/data/data/datagovdata/gnis_nm_watfeat09.csv","STATE_NUME","numbers","^\d*$"
"/data/datasets/datagov/data/data/datagovdata/gnis_nm_watfeat09.csv","FEATURE__2","strings","[^""\r\n]*"
"/data/datasets/datagov/data/data/datagovdata/gnis_nm_watfeat09.csv","FEATURE_CL","uri",".*?$(?<!\.aspx)"
"/data/datasets/datagov/data/data/datagovdata/gnis_nm_watfeat09.csv","FEATURE_ID","numbers","^\d*$"
"/data/datasets/datagov/data/data/datagovdata/gnis_nm_watfeat09.csv","SOURCE_LAT","address_or_phone","(\d{4,6})"
"/data/datasets/datagov/data/data/datagovdata/gnis_nm_watfeat09.csv","FEATURE__1","numbers","^\d*$"
"/data/datasets/datagov/data/data/datagovdata/gnis_nm_watfeat09.csv","PRIMARY__2","numbers","^\d*$"
"/data/datasets/datagov/data/data/datagovdata/gnis_nm_watfeat09.csv","SOURCE_L_2","numbers","^\d*$"
"/data/datasets/datagov/data/data/datagovdata/gnis_nm_watfeat09.csv","ELEVATION","numbers","^\d*$"
"/data/datasets/datagov/data/data/datagovdata/gnis_nm_watfeat09.csv","LONGITUDE","numbers","^\d*$"
"/data/datasets/datagov/data/data/datagovdata/gnis_nm_watfeat09.csv","STATE_ALPH","uri",".*?$(?<!\.aspx)"
"/data/datasets/datagov/data/data/datagovdata/gnis_nm_watfeat09.csv","PRIMARY_LO","address_or_phone","(\d{4,6})"
"/data/datasets/datagov/data/data/datagovdata/gnis_nm_watfeat09.csv","FEATURE_NA","strings","[^""\r\n]*"
"/data/datasets/datagov/data/data/datagovdata/gnis_nm_watfeat09.csv","SOURCE_L_1","numbers","^\d*$"
"/data/datasets/datagov/data/data/datagovdata/gnis_nm_watfeat09.csv","COUNTY_NAM","uri",".*?$(?<!\.aspx)"
"/data/datasets/datagov/data/data/datagovdata/gnis_nm_watfeat09.csv","COUNTY_NUM","numbers","^\d*$"
