"file_name","column_name","label","regex"
"/data/datasets/datagov/data/data/datagovdata/building-code-scofflaw-list-cfe18.csv","CIRCUIT COURT CASE NUMBER","uri",".*?$(?<!\.aspx)"
"/data/datasets/datagov/data/data/datagovdata/building-code-scofflaw-list-cfe18.csv","LATITUDE","numbers","^(\d|,)*\.?\d*$"
"/data/datasets/datagov/data/data/datagovdata/building-code-scofflaw-list-cfe18.csv","ADDRESS","uri",".*?$(?<!\.aspx)"
"/data/datasets/datagov/data/data/datagovdata/building-code-scofflaw-list-cfe18.csv","TERTIARY ADDRESS","uri",".*?$(?<!\.aspx)"
"/data/datasets/datagov/data/data/datagovdata/building-code-scofflaw-list-cfe18.csv","COMMUNITY AREA","uri",".*?$(?<!\.aspx)"
"/data/datasets/datagov/data/data/datagovdata/building-code-scofflaw-list-cfe18.csv","CENSUS BLOCKS","numbers","^(\d|,)*\.?\d*$"
"/data/datasets/datagov/data/data/datagovdata/building-code-scofflaw-list-cfe18.csv","Y_COORDINDATE","numbers","^(\d|,)*\.?\d*$"
"/data/datasets/datagov/data/data/datagovdata/building-code-scofflaw-list-cfe18.csv","STREET BLOCK ID","numbers","^(\d|,)*\.?\d*$"
"/data/datasets/datagov/data/data/datagovdata/building-code-scofflaw-list-cfe18.csv","VIOLATION","strings","[^""\r\n]*"
"/data/datasets/datagov/data/data/datagovdata/building-code-scofflaw-list-cfe18.csv","CENSUS TRACTS","numbers","^(\d|,)*\.?\d*$"
"/data/datasets/datagov/data/data/datagovdata/building-code-scofflaw-list-cfe18.csv","SECONDARY ADDRESS","uri",".*?$(?<!\.aspx)"
"/data/datasets/datagov/data/data/datagovdata/building-code-scofflaw-list-cfe18.csv","LOCATION","uri",".*?$(?<!\.aspx)"
"/data/datasets/datagov/data/data/datagovdata/building-code-scofflaw-list-cfe18.csv","LONGITUDE","numbers","^(\d|,)*\.?\d*$"
"/data/datasets/datagov/data/data/datagovdata/building-code-scofflaw-list-cfe18.csv","COMMUNITY AREA NUMBER","numbers","^(\d|,)*\.?\d*$"
"/data/datasets/datagov/data/data/datagovdata/building-code-scofflaw-list-cfe18.csv","X_COORDINATE","numbers","^(\d|,)*\.?\d*$"
"/data/datasets/datagov/data/data/datagovdata/building-code-scofflaw-list-cfe18.csv","WARD","numbers","^(\d|,)*\.?\d*$"
"/data/datasets/datagov/data/data/datagovdata/building-code-scofflaw-list-cfe18.csv","RESPONDENT","strings","[^""\r\n]*"
