"file_name","column_name","label","regex"
"/data/datasets/datagov/data/data/datagovdata/foia-request-log-animal-care-and-control-34f03.csv","INITIAL DUE DATE","strings","[^""\r\n]*"
"/data/datasets/datagov/data/data/datagovdata/foia-request-log-animal-care-and-control-34f03.csv","DESCRIPTION OF REQUEST","uri",".*?$(?<!\.aspx)"
"/data/datasets/datagov/data/data/datagovdata/foia-request-log-animal-care-and-control-34f03.csv","REQUESTOR NAME","uri",".*?$(?<!\.aspx)"
"/data/datasets/datagov/data/data/datagovdata/foia-request-log-animal-care-and-control-34f03.csv","DATE SENT/RECEIVED","strings","[^""\r\n]*"
"/data/datasets/datagov/data/data/datagovdata/foia-request-log-animal-care-and-control-34f03.csv","ORGANIZATION","uri",".*?$(?<!\.aspx)"
