"file_name","column_name","label","regex"
"/data/datasets/datagov/data/data/datagovdata/great-plains-trail-gloss-mountain-loop-dad92.csv","name","strings","[^""\r\n]*"
"/data/datasets/datagov/data/data/datagovdata/great-plains-trail-gloss-mountain-loop-dad92.csv","category","strings","[^""\r\n]*"
"/data/datasets/datagov/data/data/datagovdata/great-plains-trail-gloss-mountain-loop-dad92.csv","phone","uri",".*?$(?<!\.aspx)"
"/data/datasets/datagov/data/data/datagovdata/great-plains-trail-gloss-mountain-loop-dad92.csv","website","uri",".*?$(?<!\.aspx)"
"/data/datasets/datagov/data/data/datagovdata/great-plains-trail-gloss-mountain-loop-dad92.csv","address","strings","[^""\r\n]*"
"/data/datasets/datagov/data/data/datagovdata/great-plains-trail-gloss-mountain-loop-dad92.csv","city","uri",".*?$(?<!\.aspx)"
"/data/datasets/datagov/data/data/datagovdata/great-plains-trail-gloss-mountain-loop-dad92.csv","phone2","uri",".*?$(?<!\.aspx)"
