"file_name","column_name","label","regex"
"/data/datasets/datagov/data/data/datagovdata/admissions-to-maryland-state-supported-alcohol-and-drug-abuse-treatment-programs-by-p-2008-1bf73.csv","2011 (SFY)","numbers","^\d*$"
"/data/datasets/datagov/data/data/datagovdata/admissions-to-maryland-state-supported-alcohol-and-drug-abuse-treatment-programs-by-p-2008-1bf73.csv","Patient Residence","uri",".*?$(?<!\.aspx)"
"/data/datasets/datagov/data/data/datagovdata/admissions-to-maryland-state-supported-alcohol-and-drug-abuse-treatment-programs-by-p-2008-1bf73.csv","2010 (SFY)","numbers","^\d*$"
"/data/datasets/datagov/data/data/datagovdata/admissions-to-maryland-state-supported-alcohol-and-drug-abuse-treatment-programs-by-p-2008-1bf73.csv","2012 (SFY)","numbers","^\d*$"
"/data/datasets/datagov/data/data/datagovdata/admissions-to-maryland-state-supported-alcohol-and-drug-abuse-treatment-programs-by-p-2008-1bf73.csv","2009 (SFY)","numbers","^\d*$"
"/data/datasets/datagov/data/data/datagovdata/admissions-to-maryland-state-supported-alcohol-and-drug-abuse-treatment-programs-by-p-2008-1bf73.csv","2008 (SFY)","numbers","^\d*$"
