"file_name","column_name","label","regex"
"/data/datasets/datagov/data/data/datagovdata/slideshow-content-1e54a.csv","Title","uri",".*?$(?<!\.aspx)"
"/data/datasets/datagov/data/data/datagovdata/slideshow-content-1e54a.csv","Image","uri",".*?$(?<!\.aspx)"
"/data/datasets/datagov/data/data/datagovdata/slideshow-content-1e54a.csv","Text","strings","[^""\r\n]*"
