"file_name","column_name","label","regex"
"/data/datasets/datagov/data/data/datagovdata/middle-columbia-juvenile-abundance-10302012-abe7a.csv","Occupied River Miles","numbers","^(\d|,)*\.?\d*$"
"/data/datasets/datagov/data/data/datagovdata/middle-columbia-juvenile-abundance-10302012-abe7a.csv","Species","uri",".*?$(?<!\.aspx)"
"/data/datasets/datagov/data/data/datagovdata/middle-columbia-juvenile-abundance-10302012-abe7a.csv","Population/Stock Number","numbers","^(\d|,)*\.?\d*$"
"/data/datasets/datagov/data/data/datagovdata/middle-columbia-juvenile-abundance-10302012-abe7a.csv","Abundance ","numbers","^(\d|,)*\.?\d*$"
"/data/datasets/datagov/data/data/datagovdata/middle-columbia-juvenile-abundance-10302012-abe7a.csv","Density","numbers","^(\d|,)*\.?\d*$"
"/data/datasets/datagov/data/data/datagovdata/middle-columbia-juvenile-abundance-10302012-abe7a.csv","Migration Year","numbers","^(\d|,)*\.?\d*$"
