"file_name","column_name","label","regex"
"/data/datasets/datagov/data/data/datagovdata/percentage-of-adults-who-report-driving-after-drinking-too-much-in-the-past-30-days-2012-r-b08f1.csv","Location","uri","^[^\\\/\?\*\""\'\>\<\:\|]*$"
"/data/datasets/datagov/data/data/datagovdata/percentage-of-adults-who-report-driving-after-drinking-too-much-in-the-past-30-days-2012-r-b08f1.csv","Prevalence","numbers","^(\d|,)*\.?\d*$"
"/data/datasets/datagov/data/data/datagovdata/percentage-of-adults-who-report-driving-after-drinking-too-much-in-the-past-30-days-2012-r-b08f1.csv","State","uri","^[^\\\/\?\*\""\'\>\<\:\|]*$"
