"file_name","column_name","label","regex"
"/data/datasets/datagov/data/data/datagovdata/cta-performance-unscheduled-days-off-fb992.csv","Days Lost 2011","numbers","^(\d|,)*\.?\d*$"
"/data/datasets/datagov/data/data/datagovdata/cta-performance-unscheduled-days-off-fb992.csv","Mode","uri",".*?$(?<!\.aspx)"
"/data/datasets/datagov/data/data/datagovdata/cta-performance-unscheduled-days-off-fb992.csv","Days Lost Per Capita 2010","numbers","^(\d|,)*\.?\d*$"
"/data/datasets/datagov/data/data/datagovdata/cta-performance-unscheduled-days-off-fb992.csv","Days Lost in 2010","numbers","^(\d|,)*\.?\d*$"
"/data/datasets/datagov/data/data/datagovdata/cta-performance-unscheduled-days-off-fb992.csv","Days Lost Per Capita 2011","numbers","^(\d|,)*\.?\d*$"
