"file_name","column_name","label","regex"
"/data/datasets/datagov/data/data/datagovdata/maryland-oeds-2012-548ef.csv","Padonia","numbers","^\d*$"
"/data/datasets/datagov/data/data/datagovdata/maryland-oeds-2012-548ef.csv","Southern Maryland","numbers","^\d*$"
"/data/datasets/datagov/data/data/datagovdata/maryland-oeds-2012-548ef.csv","Essex","numbers","^\d*$"
"/data/datasets/datagov/data/data/datagovdata/maryland-oeds-2012-548ef.csv","State-wide Max","numbers","^\d*$"
"/data/datasets/datagov/data/data/datagovdata/maryland-oeds-2012-548ef.csv","Date","strings","[^""\r\n]*"
"/data/datasets/datagov/data/data/datagovdata/maryland-oeds-2012-548ef.csv","Aldino","numbers","^\d*$"
"/data/datasets/datagov/data/data/datagovdata/maryland-oeds-2012-548ef.csv","Beltsville (CASTNET)","numbers","^\d*$"
"/data/datasets/datagov/data/data/datagovdata/maryland-oeds-2012-548ef.csv","Fair Hill","numbers","^\d*$"
"/data/datasets/datagov/data/data/datagovdata/maryland-oeds-2012-548ef.csv","Millington","numbers","^\d*$"
"/data/datasets/datagov/data/data/datagovdata/maryland-oeds-2012-548ef.csv","Edgewood","numbers","^\d*$"
"/data/datasets/datagov/data/data/datagovdata/maryland-oeds-2012-548ef.csv","Horn Point","numbers","^\d*$"
"/data/datasets/datagov/data/data/datagovdata/maryland-oeds-2012-548ef.csv","Frederick Airport","numbers","^\d*$"
"/data/datasets/datagov/data/data/datagovdata/maryland-oeds-2012-548ef.csv","Hagerstown","numbers","^\d*$"
"/data/datasets/datagov/data/data/datagovdata/maryland-oeds-2012-548ef.csv","Calvert","numbers","^\d*$"
"/data/datasets/datagov/data/data/datagovdata/maryland-oeds-2012-548ef.csv","HU-Beltsville","numbers","^\d*$"
"/data/datasets/datagov/data/data/datagovdata/maryland-oeds-2012-548ef.csv","Blackwater NWR (CASTNET)","numbers","^\d*$"
"/data/datasets/datagov/data/data/datagovdata/maryland-oeds-2012-548ef.csv","PG Equestrian Center","numbers","^\d*$"
"/data/datasets/datagov/data/data/datagovdata/maryland-oeds-2012-548ef.csv","Davidsonville","numbers","^\d*$"
"/data/datasets/datagov/data/data/datagovdata/maryland-oeds-2012-548ef.csv","Piney Run","numbers","^\d*$"
"/data/datasets/datagov/data/data/datagovdata/maryland-oeds-2012-548ef.csv","Rockville","numbers","^\d*$"
"/data/datasets/datagov/data/data/datagovdata/maryland-oeds-2012-548ef.csv","South Carroll","numbers","^\d*$"
"/data/datasets/datagov/data/data/datagovdata/maryland-oeds-2012-548ef.csv","Furley","numbers","^\d*$"
