"file_name","column_name","label","regex"
"/data/datasets/datagov/data/data/datagovdata/dob-license-fees-9ce69.csv","Reissue","numbers","^(\d|,)*\.?\d*$"
"/data/datasets/datagov/data/data/datagovdata/dob-license-fees-9ce69.csv","Plate & Seal Renewal","uri",".*?$(?<!\.aspx)"
"/data/datasets/datagov/data/data/datagovdata/dob-license-fees-9ce69.csv","License Type","strings","[^""\r\n]*"
"/data/datasets/datagov/data/data/datagovdata/dob-license-fees-9ce69.csv","Certificate","uri",".*?$(?<!\.aspx)"
"/data/datasets/datagov/data/data/datagovdata/dob-license-fees-9ce69.csv","Original Seal","numbers","^(\d|,)*\.?\d*$"
"/data/datasets/datagov/data/data/datagovdata/dob-license-fees-9ce69.csv","Original Plate","numbers","^(\d|,)*\.?\d*$"
"/data/datasets/datagov/data/data/datagovdata/dob-license-fees-9ce69.csv","Replacement Plate","numbers","^(\d|,)*\.?\d*$"
"/data/datasets/datagov/data/data/datagovdata/dob-license-fees-9ce69.csv","Original","numbers","^(\d|,)*\.?\d*$"
"/data/datasets/datagov/data/data/datagovdata/dob-license-fees-9ce69.csv","Replacement Seal","numbers","^(\d|,)*\.?\d*$"
"/data/datasets/datagov/data/data/datagovdata/dob-license-fees-9ce69.csv","License Term","uri",".*?$(?<!\.aspx)"
"/data/datasets/datagov/data/data/datagovdata/dob-license-fees-9ce69.csv","Renewal","numbers","^(\d|,)*\.?\d*$"
"/data/datasets/datagov/data/data/datagovdata/dob-license-fees-9ce69.csv","Late Fee","uri",".*?$(?<!\.aspx)"
