"file_name","column_name","label","regex"
"/data/datasets/datagov/data/data/datagovdata/cultural-institutions-by-block-and-lot-00a88.csv","Organization Name","strings","[^""\r\n]*"
"/data/datasets/datagov/data/data/datagovdata/cultural-institutions-by-block-and-lot-00a88.csv","Preferred Address Line 1","uri",".*?$(?<!\.aspx)"
"/data/datasets/datagov/data/data/datagovdata/cultural-institutions-by-block-and-lot-00a88.csv","Constituency Code","uri",".*?$(?<!\.aspx)"
"/data/datasets/datagov/data/data/datagovdata/cultural-institutions-by-block-and-lot-00a88.csv","Preferred Block-Lot Number","uri",".*?$(?<!\.aspx)"
"/data/datasets/datagov/data/data/datagovdata/cultural-institutions-by-block-and-lot-00a88.csv","Constituent Specific Attributes R-Secondary Type Description","uri",".*?$(?<!\.aspx)"
