"file_name","column_name","label","regex"
"/data/datasets/datagov/data/data/datagovdata/hhs-accelerator-past-procurements-d7794.csv","Agency","uri",".*?$(?<!\.aspx)"
"/data/datasets/datagov/data/data/datagovdata/hhs-accelerator-past-procurements-d7794.csv","EPIN","numbers","^[-+]?\d+(\.\d+)?|[-+]?\.\d+?$"
"/data/datasets/datagov/data/data/datagovdata/hhs-accelerator-past-procurements-d7794.csv","Procurement Title","strings","[^""\r\n]*"
"/data/datasets/datagov/data/data/datagovdata/hhs-accelerator-past-procurements-d7794.csv","Procurement Description","strings","[^""\r\n]*"
"/data/datasets/datagov/data/data/datagovdata/hhs-accelerator-past-procurements-d7794.csv","Service Name","strings","[^""\r\n]*"
