"file_name","column_name","label","regex"
"/data/datasets/datagov/data/data/datagovdata/rsbs-mom-part-2-of-2-new-york-state-residential-statewide-baseline-study-survey-of-multifa.csv","Efficiency Decisions - Board","uri",".*?$(?<!\.aspx)"
"/data/datasets/datagov/data/data/datagovdata/rsbs-mom-part-2-of-2-new-york-state-residential-statewide-baseline-study-survey-of-multifa.csv","Preferred Promotion - Utility Account Manager","uri",".*?$(?<!\.aspx)"
"/data/datasets/datagov/data/data/datagovdata/rsbs-mom-part-2-of-2-new-york-state-residential-statewide-baseline-study-survey-of-multifa.csv","Energy Efficient Equipment Policy","uri",".*?$(?<!\.aspx)"
"/data/datasets/datagov/data/data/datagovdata/rsbs-mom-part-2-of-2-new-york-state-residential-statewide-baseline-study-survey-of-multifa.csv","Majority Style of Clothes Washers","uri",".*?$(?<!\.aspx)"
"/data/datasets/datagov/data/data/datagovdata/rsbs-mom-part-2-of-2-new-york-state-residential-statewide-baseline-study-survey-of-multifa.csv","Sources for Energy Information - Utilities","uri",".*?$(?<!\.aspx)"
"/data/datasets/datagov/data/data/datagovdata/rsbs-mom-part-2-of-2-new-york-state-residential-statewide-baseline-study-survey-of-multifa.csv","Sources for Energy Information - Suppliers","uri",".*?$(?<!\.aspx)"
"/data/datasets/datagov/data/data/datagovdata/rsbs-mom-part-2-of-2-new-york-state-residential-statewide-baseline-study-survey-of-multifa.csv","Construction Type","uri",".*?$(?<!\.aspx)"
"/data/datasets/datagov/data/data/datagovdata/rsbs-mom-part-2-of-2-new-york-state-residential-statewide-baseline-study-survey-of-multifa.csv","Sources for Real Estate Information - Web Search","uri",".*?$(?<!\.aspx)"
"/data/datasets/datagov/data/data/datagovdata/rsbs-mom-part-2-of-2-new-york-state-residential-statewide-baseline-study-survey-of-multifa.csv","Efficiency Program Past 5 Years - Thermostats","uri",".*?$(?<!\.aspx)"
"/data/datasets/datagov/data/data/datagovdata/rsbs-mom-part-2-of-2-new-york-state-residential-statewide-baseline-study-survey-of-multifa.csv","Awareness - Other","uri",".*?$(?<!\.aspx)"
"/data/datasets/datagov/data/data/datagovdata/rsbs-mom-part-2-of-2-new-york-state-residential-statewide-baseline-study-survey-of-multifa.csv","Importance - Societal Pressure","uri",".*?$(?<!\.aspx)"
"/data/datasets/datagov/data/data/datagovdata/rsbs-mom-part-2-of-2-new-york-state-residential-statewide-baseline-study-survey-of-multifa.csv","Efficiency Program Past 5 Years - Natural Gas Conversion","uri",".*?$(?<!\.aspx)"
"/data/datasets/datagov/data/data/datagovdata/rsbs-mom-part-2-of-2-new-york-state-residential-statewide-baseline-study-survey-of-multifa.csv","Efficiency Program Past 5 Years - HVAC","uri",".*?$(?<!\.aspx)"
"/data/datasets/datagov/data/data/datagovdata/rsbs-mom-part-2-of-2-new-york-state-residential-statewide-baseline-study-survey-of-multifa.csv","Efficiency Improvement Needed - Windows","uri",".*?$(?<!\.aspx)"
"/data/datasets/datagov/data/data/datagovdata/rsbs-mom-part-2-of-2-new-york-state-residential-statewide-baseline-study-survey-of-multifa.csv","Importance - Compatabile","uri",".*?$(?<!\.aspx)"
"/data/datasets/datagov/data/data/datagovdata/rsbs-mom-part-2-of-2-new-york-state-residential-statewide-baseline-study-survey-of-multifa.csv","Efficiency Decisions - Other","uri",".*?$(?<!\.aspx)"
"/data/datasets/datagov/data/data/datagovdata/rsbs-mom-part-2-of-2-new-york-state-residential-statewide-baseline-study-survey-of-multifa.csv","Non Improvement - Other Priorities","uri",".*?$(?<!\.aspx)"
"/data/datasets/datagov/data/data/datagovdata/rsbs-mom-part-2-of-2-new-york-state-residential-statewide-baseline-study-survey-of-multifa.csv","Awareness - Unknown","uri",".*?$(?<!\.aspx)"
"/data/datasets/datagov/data/data/datagovdata/rsbs-mom-part-2-of-2-new-york-state-residential-statewide-baseline-study-survey-of-multifa.csv","Efficiency Program Past 5 Years - Water Heating","uri",".*?$(?<!\.aspx)"
"/data/datasets/datagov/data/data/datagovdata/rsbs-mom-part-2-of-2-new-york-state-residential-statewide-baseline-study-survey-of-multifa.csv","Efficiency Program Past 5 Years - Appliances","uri",".*?$(?<!\.aspx)"
"/data/datasets/datagov/data/data/datagovdata/rsbs-mom-part-2-of-2-new-york-state-residential-statewide-baseline-study-survey-of-multifa.csv","Sources for Real Estate Information - Word of Mouth","uri",".*?$(?<!\.aspx)"
"/data/datasets/datagov/data/data/datagovdata/rsbs-mom-part-2-of-2-new-york-state-residential-statewide-baseline-study-survey-of-multifa.csv","Unit Efficiency Improvement - Doors","uri",".*?$(?<!\.aspx)"
"/data/datasets/datagov/data/data/datagovdata/rsbs-mom-part-2-of-2-new-york-state-residential-statewide-baseline-study-survey-of-multifa.csv","Non Improvement - In Process","uri",".*?$(?<!\.aspx)"
"/data/datasets/datagov/data/data/datagovdata/rsbs-mom-part-2-of-2-new-york-state-residential-statewide-baseline-study-survey-of-multifa.csv","Building Efficiency - Zero Net Energy","uri",".*?$(?<!\.aspx)"
"/data/datasets/datagov/data/data/datagovdata/rsbs-mom-part-2-of-2-new-york-state-residential-statewide-baseline-study-survey-of-multifa.csv","Unit Efficiency Improvement - Heating","uri",".*?$(?<!\.aspx)"
"/data/datasets/datagov/data/data/datagovdata/rsbs-mom-part-2-of-2-new-york-state-residential-statewide-baseline-study-survey-of-multifa.csv","Importance - Supplier Recommendation","uri",".*?$(?<!\.aspx)"
"/data/datasets/datagov/data/data/datagovdata/rsbs-mom-part-2-of-2-new-york-state-residential-statewide-baseline-study-survey-of-multifa.csv","Efficiency Improvement Needed - Doors","uri",".*?$(?<!\.aspx)"
"/data/datasets/datagov/data/data/datagovdata/rsbs-mom-part-2-of-2-new-york-state-residential-statewide-baseline-study-survey-of-multifa.csv","Efficiency Decisions - Managing Agent","uri",".*?$(?<!\.aspx)"
"/data/datasets/datagov/data/data/datagovdata/rsbs-mom-part-2-of-2-new-york-state-residential-statewide-baseline-study-survey-of-multifa.csv","Sources for Energy Information - Word of Mouth","uri",".*?$(?<!\.aspx)"
"/data/datasets/datagov/data/data/datagovdata/rsbs-mom-part-2-of-2-new-york-state-residential-statewide-baseline-study-survey-of-multifa.csv","Efficiency Program Past 5 Years - Other","uri",".*?$(?<!\.aspx)"
"/data/datasets/datagov/data/data/datagovdata/rsbs-mom-part-2-of-2-new-york-state-residential-statewide-baseline-study-survey-of-multifa.csv","Efficiency Improvement Needed - Other","uri",".*?$(?<!\.aspx)"
"/data/datasets/datagov/data/data/datagovdata/rsbs-mom-part-2-of-2-new-york-state-residential-statewide-baseline-study-survey-of-multifa.csv","Sources for Real Estate Information - Industry Publications","uri",".*?$(?<!\.aspx)"
"/data/datasets/datagov/data/data/datagovdata/rsbs-mom-part-2-of-2-new-york-state-residential-statewide-baseline-study-survey-of-multifa.csv","Common Area Efficiency Improvement - Cooling","uri",".*?$(?<!\.aspx)"
"/data/datasets/datagov/data/data/datagovdata/rsbs-mom-part-2-of-2-new-york-state-residential-statewide-baseline-study-survey-of-multifa.csv","Sources for Real Estate Information - Professional Organizations","uri",".*?$(?<!\.aspx)"
"/data/datasets/datagov/data/data/datagovdata/rsbs-mom-part-2-of-2-new-york-state-residential-statewide-baseline-study-survey-of-multifa.csv","Preferred Promotion - Personal Explanation","uri",".*?$(?<!\.aspx)"
"/data/datasets/datagov/data/data/datagovdata/rsbs-mom-part-2-of-2-new-york-state-residential-statewide-baseline-study-survey-of-multifa.csv","Efficiency Decisions - Property/Leasing Manager/Associate","uri",".*?$(?<!\.aspx)"
"/data/datasets/datagov/data/data/datagovdata/rsbs-mom-part-2-of-2-new-york-state-residential-statewide-baseline-study-survey-of-multifa.csv","Importance - Payback Period","uri",".*?$(?<!\.aspx)"
"/data/datasets/datagov/data/data/datagovdata/rsbs-mom-part-2-of-2-new-york-state-residential-statewide-baseline-study-survey-of-multifa.csv","Efficiency Program Past 5 Years - Multifamily Performance","uri",".*?$(?<!\.aspx)"
"/data/datasets/datagov/data/data/datagovdata/rsbs-mom-part-2-of-2-new-york-state-residential-statewide-baseline-study-survey-of-multifa.csv","Building Efficiency - LEED","uri",".*?$(?<!\.aspx)"
"/data/datasets/datagov/data/data/datagovdata/rsbs-mom-part-2-of-2-new-york-state-residential-statewide-baseline-study-survey-of-multifa.csv","Non Improvement - No Support from Upper Management","uri",".*?$(?<!\.aspx)"
"/data/datasets/datagov/data/data/datagovdata/rsbs-mom-part-2-of-2-new-york-state-residential-statewide-baseline-study-survey-of-multifa.csv","Preferred Promotion - Apartment Association","uri",".*?$(?<!\.aspx)"
"/data/datasets/datagov/data/data/datagovdata/rsbs-mom-part-2-of-2-new-york-state-residential-statewide-baseline-study-survey-of-multifa.csv","Importance - Peer Recommendation","uri",".*?$(?<!\.aspx)"
"/data/datasets/datagov/data/data/datagovdata/rsbs-mom-part-2-of-2-new-york-state-residential-statewide-baseline-study-survey-of-multifa.csv","Non Improvement - Intrusive","uri",".*?$(?<!\.aspx)"
"/data/datasets/datagov/data/data/datagovdata/rsbs-mom-part-2-of-2-new-york-state-residential-statewide-baseline-study-survey-of-multifa.csv","Unit Efficiency Improvement - Lighting","uri",".*?$(?<!\.aspx)"
"/data/datasets/datagov/data/data/datagovdata/rsbs-mom-part-2-of-2-new-york-state-residential-statewide-baseline-study-survey-of-multifa.csv","Awareness - Weatherization","uri",".*?$(?<!\.aspx)"
"/data/datasets/datagov/data/data/datagovdata/rsbs-mom-part-2-of-2-new-york-state-residential-statewide-baseline-study-survey-of-multifa.csv","Importance - Raising Price","uri",".*?$(?<!\.aspx)"
"/data/datasets/datagov/data/data/datagovdata/rsbs-mom-part-2-of-2-new-york-state-residential-statewide-baseline-study-survey-of-multifa.csv","Majority Energy Star Clothes Washers","uri",".*?$(?<!\.aspx)"
"/data/datasets/datagov/data/data/datagovdata/rsbs-mom-part-2-of-2-new-york-state-residential-statewide-baseline-study-survey-of-multifa.csv","Efficiency Decisions - Senior Property Manager","uri",".*?$(?<!\.aspx)"
"/data/datasets/datagov/data/data/datagovdata/rsbs-mom-part-2-of-2-new-york-state-residential-statewide-baseline-study-survey-of-multifa.csv","Common Area Laundry","uri",".*?$(?<!\.aspx)"
"/data/datasets/datagov/data/data/datagovdata/rsbs-mom-part-2-of-2-new-york-state-residential-statewide-baseline-study-survey-of-multifa.csv","Number of Individual Fax Machines","numbers","^\d$"
"/data/datasets/datagov/data/data/datagovdata/rsbs-mom-part-2-of-2-new-york-state-residential-statewide-baseline-study-survey-of-multifa.csv","Non Improvement - Tenant Responsibility","uri",".*?$(?<!\.aspx)"
"/data/datasets/datagov/data/data/datagovdata/rsbs-mom-part-2-of-2-new-york-state-residential-statewide-baseline-study-survey-of-multifa.csv","Awareness - Lighting","uri",".*?$(?<!\.aspx)"
"/data/datasets/datagov/data/data/datagovdata/rsbs-mom-part-2-of-2-new-york-state-residential-statewide-baseline-study-survey-of-multifa.csv","Climate Zone","numbers","^\d$"
"/data/datasets/datagov/data/data/datagovdata/rsbs-mom-part-2-of-2-new-york-state-residential-statewide-baseline-study-survey-of-multifa.csv","Common Area Efficiency Improvement - Heating","uri",".*?$(?<!\.aspx)"
"/data/datasets/datagov/data/data/datagovdata/rsbs-mom-part-2-of-2-new-york-state-residential-statewide-baseline-study-survey-of-multifa.csv","Efficiency Improvement Needed - Cooling","uri",".*?$(?<!\.aspx)"
"/data/datasets/datagov/data/data/datagovdata/rsbs-mom-part-2-of-2-new-york-state-residential-statewide-baseline-study-survey-of-multifa.csv","Awareness - Water Conservation","uri",".*?$(?<!\.aspx)"
"/data/datasets/datagov/data/data/datagovdata/rsbs-mom-part-2-of-2-new-york-state-residential-statewide-baseline-study-survey-of-multifa.csv","Number of Individual Printers","uri",".*?$(?<!\.aspx)"
"/data/datasets/datagov/data/data/datagovdata/rsbs-mom-part-2-of-2-new-york-state-residential-statewide-baseline-study-survey-of-multifa.csv","Non Improvement - No Rebate","uri",".*?$(?<!\.aspx)"
"/data/datasets/datagov/data/data/datagovdata/rsbs-mom-part-2-of-2-new-york-state-residential-statewide-baseline-study-survey-of-multifa.csv","Awareness - Energy Audit","uri",".*?$(?<!\.aspx)"
"/data/datasets/datagov/data/data/datagovdata/rsbs-mom-part-2-of-2-new-york-state-residential-statewide-baseline-study-survey-of-multifa.csv","Sources for Energy Information - Tradeshows","uri",".*?$(?<!\.aspx)"
"/data/datasets/datagov/data/data/datagovdata/rsbs-mom-part-2-of-2-new-york-state-residential-statewide-baseline-study-survey-of-multifa.csv","Gas Utility","uri",".*?$(?<!\.aspx)"
"/data/datasets/datagov/data/data/datagovdata/rsbs-mom-part-2-of-2-new-york-state-residential-statewide-baseline-study-survey-of-multifa.csv","Familiarity with Energy Star","uri",".*?$(?<!\.aspx)"
"/data/datasets/datagov/data/data/datagovdata/rsbs-mom-part-2-of-2-new-york-state-residential-statewide-baseline-study-survey-of-multifa.csv","Non Improvement - Initial Cost","uri",".*?$(?<!\.aspx)"
"/data/datasets/datagov/data/data/datagovdata/rsbs-mom-part-2-of-2-new-york-state-residential-statewide-baseline-study-survey-of-multifa.csv","Preferred Promotion - Property Owner","uri",".*?$(?<!\.aspx)"
"/data/datasets/datagov/data/data/datagovdata/rsbs-mom-part-2-of-2-new-york-state-residential-statewide-baseline-study-survey-of-multifa.csv","County","uri",".*?$(?<!\.aspx)"
"/data/datasets/datagov/data/data/datagovdata/rsbs-mom-part-2-of-2-new-york-state-residential-statewide-baseline-study-survey-of-multifa.csv","Unique Case ID","numbers","^\d$"
"/data/datasets/datagov/data/data/datagovdata/rsbs-mom-part-2-of-2-new-york-state-residential-statewide-baseline-study-survey-of-multifa.csv","Number of Clothes Washers in Common Area Laundry","uri",".*?$(?<!\.aspx)"
"/data/datasets/datagov/data/data/datagovdata/rsbs-mom-part-2-of-2-new-york-state-residential-statewide-baseline-study-survey-of-multifa.csv","Unit Efficiency Improvement - Other","uri",".*?$(?<!\.aspx)"
"/data/datasets/datagov/data/data/datagovdata/rsbs-mom-part-2-of-2-new-york-state-residential-statewide-baseline-study-survey-of-multifa.csv","Non Improvement - Recent Ownership","uri",".*?$(?<!\.aspx)"
"/data/datasets/datagov/data/data/datagovdata/rsbs-mom-part-2-of-2-new-york-state-residential-statewide-baseline-study-survey-of-multifa.csv","Sources for Energy Information - National Fuel","uri",".*?$(?<!\.aspx)"
"/data/datasets/datagov/data/data/datagovdata/rsbs-mom-part-2-of-2-new-york-state-residential-statewide-baseline-study-survey-of-multifa.csv","Awareness - Natural Gas Conversion","uri",".*?$(?<!\.aspx)"
"/data/datasets/datagov/data/data/datagovdata/rsbs-mom-part-2-of-2-new-york-state-residential-statewide-baseline-study-survey-of-multifa.csv","Efficiency Improvement Needed - Water Heating","uri",".*?$(?<!\.aspx)"
"/data/datasets/datagov/data/data/datagovdata/rsbs-mom-part-2-of-2-new-york-state-residential-statewide-baseline-study-survey-of-multifa.csv","Efficiency Program Past 5 Years - Lighting","uri",".*?$(?<!\.aspx)"
"/data/datasets/datagov/data/data/datagovdata/rsbs-mom-part-2-of-2-new-york-state-residential-statewide-baseline-study-survey-of-multifa.csv","Awareness - Appliances","uri",".*?$(?<!\.aspx)"
"/data/datasets/datagov/data/data/datagovdata/rsbs-mom-part-2-of-2-new-york-state-residential-statewide-baseline-study-survey-of-multifa.csv","Preferred Promotion - Direct Mail from Utility","uri",".*?$(?<!\.aspx)"
"/data/datasets/datagov/data/data/datagovdata/rsbs-mom-part-2-of-2-new-york-state-residential-statewide-baseline-study-survey-of-multifa.csv","Importance - Tenant Dissatisfaction","uri",".*?$(?<!\.aspx)"
"/data/datasets/datagov/data/data/datagovdata/rsbs-mom-part-2-of-2-new-york-state-residential-statewide-baseline-study-survey-of-multifa.csv","Sources for Energy Information - Other","uri",".*?$(?<!\.aspx)"
"/data/datasets/datagov/data/data/datagovdata/rsbs-mom-part-2-of-2-new-york-state-residential-statewide-baseline-study-survey-of-multifa.csv","Efficiency Program Past 5 Years - Energy Star Homes","uri",".*?$(?<!\.aspx)"
"/data/datasets/datagov/data/data/datagovdata/rsbs-mom-part-2-of-2-new-york-state-residential-statewide-baseline-study-survey-of-multifa.csv","Non Improvement - Incompatible","uri",".*?$(?<!\.aspx)"
"/data/datasets/datagov/data/data/datagovdata/rsbs-mom-part-2-of-2-new-york-state-residential-statewide-baseline-study-survey-of-multifa.csv","Common Area Efficiency Improvement - Appliances","uri",".*?$(?<!\.aspx)"
"/data/datasets/datagov/data/data/datagovdata/rsbs-mom-part-2-of-2-new-york-state-residential-statewide-baseline-study-survey-of-multifa.csv","Preferred Promotion - Subway Ad","uri",".*?$(?<!\.aspx)"
"/data/datasets/datagov/data/data/datagovdata/rsbs-mom-part-2-of-2-new-york-state-residential-statewide-baseline-study-survey-of-multifa.csv","Majority Clothes Dryers Fuel Type","uri",".*?$(?<!\.aspx)"
"/data/datasets/datagov/data/data/datagovdata/rsbs-mom-part-2-of-2-new-york-state-residential-statewide-baseline-study-survey-of-multifa.csv","Importance - Operating Cost","uri",".*?$(?<!\.aspx)"
"/data/datasets/datagov/data/data/datagovdata/rsbs-mom-part-2-of-2-new-york-state-residential-statewide-baseline-study-survey-of-multifa.csv","Efficiency Improvement Needed - Water Conservation","uri",".*?$(?<!\.aspx)"
"/data/datasets/datagov/data/data/datagovdata/rsbs-mom-part-2-of-2-new-york-state-residential-statewide-baseline-study-survey-of-multifa.csv","Number of Individual Scanners","numbers","^\d$"
"/data/datasets/datagov/data/data/datagovdata/rsbs-mom-part-2-of-2-new-york-state-residential-statewide-baseline-study-survey-of-multifa.csv","Importance - Rebate","uri",".*?$(?<!\.aspx)"
"/data/datasets/datagov/data/data/datagovdata/rsbs-mom-part-2-of-2-new-york-state-residential-statewide-baseline-study-survey-of-multifa.csv","Preferred Promotion - Phone","uri",".*?$(?<!\.aspx)"
"/data/datasets/datagov/data/data/datagovdata/rsbs-mom-part-2-of-2-new-york-state-residential-statewide-baseline-study-survey-of-multifa.csv","Other Office Equipment","numbers","^\d$"
"/data/datasets/datagov/data/data/datagovdata/rsbs-mom-part-2-of-2-new-york-state-residential-statewide-baseline-study-survey-of-multifa.csv","Unit Efficiency Improvement - Insulation","uri",".*?$(?<!\.aspx)"
"/data/datasets/datagov/data/data/datagovdata/rsbs-mom-part-2-of-2-new-york-state-residential-statewide-baseline-study-survey-of-multifa.csv","Awareness of Efficiency Programs","uri",".*?$(?<!\.aspx)"
"/data/datasets/datagov/data/data/datagovdata/rsbs-mom-part-2-of-2-new-york-state-residential-statewide-baseline-study-survey-of-multifa.csv","Preferred Promotion - Email ","uri",".*?$(?<!\.aspx)"
"/data/datasets/datagov/data/data/datagovdata/rsbs-mom-part-2-of-2-new-york-state-residential-statewide-baseline-study-survey-of-multifa.csv","Region","uri",".*?$(?<!\.aspx)"
"/data/datasets/datagov/data/data/datagovdata/rsbs-mom-part-2-of-2-new-york-state-residential-statewide-baseline-study-survey-of-multifa.csv","Efficiency Improvement Needed - Appliances","uri",".*?$(?<!\.aspx)"
"/data/datasets/datagov/data/data/datagovdata/rsbs-mom-part-2-of-2-new-york-state-residential-statewide-baseline-study-survey-of-multifa.csv","Awareness - Water Heating","uri",".*?$(?<!\.aspx)"
"/data/datasets/datagov/data/data/datagovdata/rsbs-mom-part-2-of-2-new-york-state-residential-statewide-baseline-study-survey-of-multifa.csv","Importance - Initial Cost","uri",".*?$(?<!\.aspx)"
"/data/datasets/datagov/data/data/datagovdata/rsbs-mom-part-2-of-2-new-york-state-residential-statewide-baseline-study-survey-of-multifa.csv","Efficiency Decisions - Corporate","uri",".*?$(?<!\.aspx)"
"/data/datasets/datagov/data/data/datagovdata/rsbs-mom-part-2-of-2-new-york-state-residential-statewide-baseline-study-survey-of-multifa.csv","Efficiency Program Past 5 Years - Weatherization","uri",".*?$(?<!\.aspx)"
"/data/datasets/datagov/data/data/datagovdata/rsbs-mom-part-2-of-2-new-york-state-residential-statewide-baseline-study-survey-of-multifa.csv","Average Age of Clothes Washers","uri",".*?$(?<!\.aspx)"
"/data/datasets/datagov/data/data/datagovdata/rsbs-mom-part-2-of-2-new-york-state-residential-statewide-baseline-study-survey-of-multifa.csv","Efficiency Decisions - Purchasing Manager","uri",".*?$(?<!\.aspx)"
"/data/datasets/datagov/data/data/datagovdata/rsbs-mom-part-2-of-2-new-york-state-residential-statewide-baseline-study-survey-of-multifa.csv","Sources for Energy Information - New York City","uri",".*?$(?<!\.aspx)"
"/data/datasets/datagov/data/data/datagovdata/rsbs-mom-part-2-of-2-new-york-state-residential-statewide-baseline-study-survey-of-multifa.csv","Sources for Real Estate Information - Government Regulations","uri",".*?$(?<!\.aspx)"
"/data/datasets/datagov/data/data/datagovdata/rsbs-mom-part-2-of-2-new-york-state-residential-statewide-baseline-study-survey-of-multifa.csv","Electric Utility","uri",".*?$(?<!\.aspx)"
"/data/datasets/datagov/data/data/datagovdata/rsbs-mom-part-2-of-2-new-york-state-residential-statewide-baseline-study-survey-of-multifa.csv","Year of Latest Efficiency Improvement","uri",".*?$(?<!\.aspx)"
"/data/datasets/datagov/data/data/datagovdata/rsbs-mom-part-2-of-2-new-york-state-residential-statewide-baseline-study-survey-of-multifa.csv","Sources for Energy Information - New York State","uri",".*?$(?<!\.aspx)"
"/data/datasets/datagov/data/data/datagovdata/rsbs-mom-part-2-of-2-new-york-state-residential-statewide-baseline-study-survey-of-multifa.csv","Common Area Efficiency Improvement - Water Heating","uri",".*?$(?<!\.aspx)"
"/data/datasets/datagov/data/data/datagovdata/rsbs-mom-part-2-of-2-new-york-state-residential-statewide-baseline-study-survey-of-multifa.csv","Non Improvement - Not Needed","uri",".*?$(?<!\.aspx)"
"/data/datasets/datagov/data/data/datagovdata/rsbs-mom-part-2-of-2-new-york-state-residential-statewide-baseline-study-survey-of-multifa.csv","Preferred Promotion - Billboard Ad","uri",".*?$(?<!\.aspx)"
"/data/datasets/datagov/data/data/datagovdata/rsbs-mom-part-2-of-2-new-york-state-residential-statewide-baseline-study-survey-of-multifa.csv","Building Efficiency - Energy Star","uri",".*?$(?<!\.aspx)"
"/data/datasets/datagov/data/data/datagovdata/rsbs-mom-part-2-of-2-new-york-state-residential-statewide-baseline-study-survey-of-multifa.csv","Awareness - Multifamily Performance","uri",".*?$(?<!\.aspx)"
"/data/datasets/datagov/data/data/datagovdata/rsbs-mom-part-2-of-2-new-york-state-residential-statewide-baseline-study-survey-of-multifa.csv","Awareness - Energy Star Homes","uri",".*?$(?<!\.aspx)"
"/data/datasets/datagov/data/data/datagovdata/rsbs-mom-part-2-of-2-new-york-state-residential-statewide-baseline-study-survey-of-multifa.csv","Efficiency Decisions - President/Vice President","uri",".*?$(?<!\.aspx)"
"/data/datasets/datagov/data/data/datagovdata/rsbs-mom-part-2-of-2-new-york-state-residential-statewide-baseline-study-survey-of-multifa.csv","Common Area Efficiency Improvement - Windows","uri",".*?$(?<!\.aspx)"
"/data/datasets/datagov/data/data/datagovdata/rsbs-mom-part-2-of-2-new-york-state-residential-statewide-baseline-study-survey-of-multifa.csv","Common Area Efficiency Improvement - Water Conservation","uri",".*?$(?<!\.aspx)"
"/data/datasets/datagov/data/data/datagovdata/rsbs-mom-part-2-of-2-new-york-state-residential-statewide-baseline-study-survey-of-multifa.csv","Number of Tablets","uri",".*?$(?<!\.aspx)"
"/data/datasets/datagov/data/data/datagovdata/rsbs-mom-part-2-of-2-new-york-state-residential-statewide-baseline-study-survey-of-multifa.csv","Sources for Energy Information - LEED","uri",".*?$(?<!\.aspx)"
"/data/datasets/datagov/data/data/datagovdata/rsbs-mom-part-2-of-2-new-york-state-residential-statewide-baseline-study-survey-of-multifa.csv","Number of Clothes Dryers in Common Area Laundry","uri",".*?$(?<!\.aspx)"
"/data/datasets/datagov/data/data/datagovdata/rsbs-mom-part-2-of-2-new-york-state-residential-statewide-baseline-study-survey-of-multifa.csv","Unit Efficiency Improvement - Water Heating","uri",".*?$(?<!\.aspx)"
"/data/datasets/datagov/data/data/datagovdata/rsbs-mom-part-2-of-2-new-york-state-residential-statewide-baseline-study-survey-of-multifa.csv","Efficiency Decisions - Maintenance Supervisor","uri",".*?$(?<!\.aspx)"
"/data/datasets/datagov/data/data/datagovdata/rsbs-mom-part-2-of-2-new-york-state-residential-statewide-baseline-study-survey-of-multifa.csv","Efficiency Decisions - Owner","uri",".*?$(?<!\.aspx)"
"/data/datasets/datagov/data/data/datagovdata/rsbs-mom-part-2-of-2-new-york-state-residential-statewide-baseline-study-survey-of-multifa.csv","Common Area Efficiency Improvement - Doors","uri",".*?$(?<!\.aspx)"
"/data/datasets/datagov/data/data/datagovdata/rsbs-mom-part-2-of-2-new-york-state-residential-statewide-baseline-study-survey-of-multifa.csv","Solar for Water or Space Heating","uri",".*?$(?<!\.aspx)"
"/data/datasets/datagov/data/data/datagovdata/rsbs-mom-part-2-of-2-new-york-state-residential-statewide-baseline-study-survey-of-multifa.csv","Number of Desktops","uri",".*?$(?<!\.aspx)"
"/data/datasets/datagov/data/data/datagovdata/rsbs-mom-part-2-of-2-new-york-state-residential-statewide-baseline-study-survey-of-multifa.csv","Average Age of Clothes Dryers","uri",".*?$(?<!\.aspx)"
"/data/datasets/datagov/data/data/datagovdata/rsbs-mom-part-2-of-2-new-york-state-residential-statewide-baseline-study-survey-of-multifa.csv","Importance - Efficiency","uri",".*?$(?<!\.aspx)"
"/data/datasets/datagov/data/data/datagovdata/rsbs-mom-part-2-of-2-new-york-state-residential-statewide-baseline-study-survey-of-multifa.csv","Awareness - HVAC","uri",".*?$(?<!\.aspx)"
"/data/datasets/datagov/data/data/datagovdata/rsbs-mom-part-2-of-2-new-york-state-residential-statewide-baseline-study-survey-of-multifa.csv","Number of Individual Copiers","numbers","^\d$"
"/data/datasets/datagov/data/data/datagovdata/rsbs-mom-part-2-of-2-new-york-state-residential-statewide-baseline-study-survey-of-multifa.csv","Unit Efficiency Improvement - Water Conservation","uri",".*?$(?<!\.aspx)"
"/data/datasets/datagov/data/data/datagovdata/rsbs-mom-part-2-of-2-new-york-state-residential-statewide-baseline-study-survey-of-multifa.csv","Efficiency Improvement Needed - Insulation","uri",".*?$(?<!\.aspx)"
"/data/datasets/datagov/data/data/datagovdata/rsbs-mom-part-2-of-2-new-york-state-residential-statewide-baseline-study-survey-of-multifa.csv","Ownership of Laundry Machines","uri",".*?$(?<!\.aspx)"
"/data/datasets/datagov/data/data/datagovdata/rsbs-mom-part-2-of-2-new-york-state-residential-statewide-baseline-study-survey-of-multifa.csv","Efficiency Program Past 5 Years - Energy Audit","uri",".*?$(?<!\.aspx)"
"/data/datasets/datagov/data/data/datagovdata/rsbs-mom-part-2-of-2-new-york-state-residential-statewide-baseline-study-survey-of-multifa.csv","Efficiency Improvement Needed - None","uri",".*?$(?<!\.aspx)"
"/data/datasets/datagov/data/data/datagovdata/rsbs-mom-part-2-of-2-new-york-state-residential-statewide-baseline-study-survey-of-multifa.csv","Number of All-in-One Printers","numbers","^\d$"
"/data/datasets/datagov/data/data/datagovdata/rsbs-mom-part-2-of-2-new-york-state-residential-statewide-baseline-study-survey-of-multifa.csv","Sources for Energy Information - General Web Search","uri",".*?$(?<!\.aspx)"
"/data/datasets/datagov/data/data/datagovdata/rsbs-mom-part-2-of-2-new-york-state-residential-statewide-baseline-study-survey-of-multifa.csv","Efficiency Improvement Needed - Heating","uri",".*?$(?<!\.aspx)"
"/data/datasets/datagov/data/data/datagovdata/rsbs-mom-part-2-of-2-new-york-state-residential-statewide-baseline-study-survey-of-multifa.csv","Efficiency Improvement Needed - Lighting","uri",".*?$(?<!\.aspx)"
"/data/datasets/datagov/data/data/datagovdata/rsbs-mom-part-2-of-2-new-york-state-residential-statewide-baseline-study-survey-of-multifa.csv","Number of CRT Computer Monitors","uri",".*?$(?<!\.aspx)"
"/data/datasets/datagov/data/data/datagovdata/rsbs-mom-part-2-of-2-new-york-state-residential-statewide-baseline-study-survey-of-multifa.csv","Sources for Real Estate Information - None","uri",".*?$(?<!\.aspx)"
"/data/datasets/datagov/data/data/datagovdata/rsbs-mom-part-2-of-2-new-york-state-residential-statewide-baseline-study-survey-of-multifa.csv","Non Improvement - Other","uri",".*?$(?<!\.aspx)"
"/data/datasets/datagov/data/data/datagovdata/rsbs-mom-part-2-of-2-new-york-state-residential-statewide-baseline-study-survey-of-multifa.csv","Unit Efficiency Improvement - Cooling","uri",".*?$(?<!\.aspx)"
"/data/datasets/datagov/data/data/datagovdata/rsbs-mom-part-2-of-2-new-york-state-residential-statewide-baseline-study-survey-of-multifa.csv","Common Area Efficiency Improvement - None","uri",".*?$(?<!\.aspx)"
"/data/datasets/datagov/data/data/datagovdata/rsbs-mom-part-2-of-2-new-york-state-residential-statewide-baseline-study-survey-of-multifa.csv","Efficiency Program Past 5 Years - Water Conservation","uri",".*?$(?<!\.aspx)"
"/data/datasets/datagov/data/data/datagovdata/rsbs-mom-part-2-of-2-new-york-state-residential-statewide-baseline-study-survey-of-multifa.csv","Sources for Real Estate Information - Tradeshows","uri",".*?$(?<!\.aspx)"
"/data/datasets/datagov/data/data/datagovdata/rsbs-mom-part-2-of-2-new-york-state-residential-statewide-baseline-study-survey-of-multifa.csv","Sources for Energy Information - Consultants/Contractors","uri",".*?$(?<!\.aspx)"
"/data/datasets/datagov/data/data/datagovdata/rsbs-mom-part-2-of-2-new-york-state-residential-statewide-baseline-study-survey-of-multifa.csv","Common Area Efficiency Improvement - Other","uri",".*?$(?<!\.aspx)"
"/data/datasets/datagov/data/data/datagovdata/rsbs-mom-part-2-of-2-new-york-state-residential-statewide-baseline-study-survey-of-multifa.csv","Preferred Promotion - Website","uri",".*?$(?<!\.aspx)"
"/data/datasets/datagov/data/data/datagovdata/rsbs-mom-part-2-of-2-new-york-state-residential-statewide-baseline-study-survey-of-multifa.csv","Unit Efficiency Improvement - Windows","uri",".*?$(?<!\.aspx)"
"/data/datasets/datagov/data/data/datagovdata/rsbs-mom-part-2-of-2-new-york-state-residential-statewide-baseline-study-survey-of-multifa.csv","Building Efficiency - None","uri",".*?$(?<!\.aspx)"
"/data/datasets/datagov/data/data/datagovdata/rsbs-mom-part-2-of-2-new-york-state-residential-statewide-baseline-study-survey-of-multifa.csv","Participated in Efficiency Program Past 5 Years","uri",".*?$(?<!\.aspx)"
"/data/datasets/datagov/data/data/datagovdata/rsbs-mom-part-2-of-2-new-york-state-residential-statewide-baseline-study-survey-of-multifa.csv","Number of LED/LCD Computer Monitors","uri",".*?$(?<!\.aspx)"
"/data/datasets/datagov/data/data/datagovdata/rsbs-mom-part-2-of-2-new-york-state-residential-statewide-baseline-study-survey-of-multifa.csv","Researched Energy Information","uri",".*?$(?<!\.aspx)"
"/data/datasets/datagov/data/data/datagovdata/rsbs-mom-part-2-of-2-new-york-state-residential-statewide-baseline-study-survey-of-multifa.csv","Alternative Electricity Sources","uri",".*?$(?<!\.aspx)"
"/data/datasets/datagov/data/data/datagovdata/rsbs-mom-part-2-of-2-new-york-state-residential-statewide-baseline-study-survey-of-multifa.csv","Preferred Promotion - Other","uri",".*?$(?<!\.aspx)"
"/data/datasets/datagov/data/data/datagovdata/rsbs-mom-part-2-of-2-new-york-state-residential-statewide-baseline-study-survey-of-multifa.csv","Unit Efficiency Improvement - None","uri",".*?$(?<!\.aspx)"
"/data/datasets/datagov/data/data/datagovdata/rsbs-mom-part-2-of-2-new-york-state-residential-statewide-baseline-study-survey-of-multifa.csv","Importance - Equipment Value","uri",".*?$(?<!\.aspx)"
"/data/datasets/datagov/data/data/datagovdata/rsbs-mom-part-2-of-2-new-york-state-residential-statewide-baseline-study-survey-of-multifa.csv","Unit Efficiency Improvement - Appliances","uri",".*?$(?<!\.aspx)"
"/data/datasets/datagov/data/data/datagovdata/rsbs-mom-part-2-of-2-new-york-state-residential-statewide-baseline-study-survey-of-multifa.csv","Number of Laptops","uri",".*?$(?<!\.aspx)"
"/data/datasets/datagov/data/data/datagovdata/rsbs-mom-part-2-of-2-new-york-state-residential-statewide-baseline-study-survey-of-multifa.csv","Non Improvement - Long Payback","uri",".*?$(?<!\.aspx)"
"/data/datasets/datagov/data/data/datagovdata/rsbs-mom-part-2-of-2-new-york-state-residential-statewide-baseline-study-survey-of-multifa.csv","Tenant Laundry Payment","uri",".*?$(?<!\.aspx)"
"/data/datasets/datagov/data/data/datagovdata/rsbs-mom-part-2-of-2-new-york-state-residential-statewide-baseline-study-survey-of-multifa.csv","Common Area Efficiency Improvement - Lighting","uri",".*?$(?<!\.aspx)"
"/data/datasets/datagov/data/data/datagovdata/rsbs-mom-part-2-of-2-new-york-state-residential-statewide-baseline-study-survey-of-multifa.csv","Common Area Efficiency Improvement - Insulation","uri",".*?$(?<!\.aspx)"
"/data/datasets/datagov/data/data/datagovdata/rsbs-mom-part-2-of-2-new-york-state-residential-statewide-baseline-study-survey-of-multifa.csv","Awareness - Thermostats","uri",".*?$(?<!\.aspx)"
"/data/datasets/datagov/data/data/datagovdata/rsbs-mom-part-2-of-2-new-york-state-residential-statewide-baseline-study-survey-of-multifa.csv","Preferred Promotion - Independent Contractor","uri",".*?$(?<!\.aspx)"
"/data/datasets/datagov/data/data/datagovdata/rsbs-mom-part-2-of-2-new-york-state-residential-statewide-baseline-study-survey-of-multifa.csv","Efficiency Decisions - District/Regional Manager","uri",".*?$(?<!\.aspx)"
"/data/datasets/datagov/data/data/datagovdata/rsbs-mom-part-2-of-2-new-york-state-residential-statewide-baseline-study-survey-of-multifa.csv","Preferred Promotion - Utility Bill Insert","uri",".*?$(?<!\.aspx)"
"/data/datasets/datagov/data/data/datagovdata/rsbs-mom-part-2-of-2-new-york-state-residential-statewide-baseline-study-survey-of-multifa.csv","Efficiency Decisions - Tenants","uri",".*?$(?<!\.aspx)"
