"file_name","column_name","label","regex"
"/data/datasets/datagov/data/data/datagovdata/animal-control-summary-of-animal-gender-by-species-2010-a1f58.csv","FEMALE","numbers","^\d*$"
"/data/datasets/datagov/data/data/datagovdata/animal-control-summary-of-animal-gender-by-species-2010-a1f58.csv","FEMALE SPAYED","numbers","^\d*$"
"/data/datasets/datagov/data/data/datagovdata/animal-control-summary-of-animal-gender-by-species-2010-a1f58.csv","Type","uri",".*?$(?<!\.aspx)"
"/data/datasets/datagov/data/data/datagovdata/animal-control-summary-of-animal-gender-by-species-2010-a1f58.csv","UNKNOWN","numbers","^\d*$"
"/data/datasets/datagov/data/data/datagovdata/animal-control-summary-of-animal-gender-by-species-2010-a1f58.csv","Year","numbers","^\d*$"
"/data/datasets/datagov/data/data/datagovdata/animal-control-summary-of-animal-gender-by-species-2010-a1f58.csv","MALE CAST","numbers","^\d*$"
"/data/datasets/datagov/data/data/datagovdata/animal-control-summary-of-animal-gender-by-species-2010-a1f58.csv","Totals","numbers","^\d*$"
"/data/datasets/datagov/data/data/datagovdata/animal-control-summary-of-animal-gender-by-species-2010-a1f58.csv","FEMALE UNK","numbers","^\d*$"
"/data/datasets/datagov/data/data/datagovdata/animal-control-summary-of-animal-gender-by-species-2010-a1f58.csv","FEMALE LIT","numbers","^\d*$"
"/data/datasets/datagov/data/data/datagovdata/animal-control-summary-of-animal-gender-by-species-2010-a1f58.csv","MALE","numbers","^\d*$"
"/data/datasets/datagov/data/data/datagovdata/animal-control-summary-of-animal-gender-by-species-2010-a1f58.csv","MALE UNKN","numbers","^\d*$"
