"file_name","column_name","label","regex"
"/data/datasets/datagov/data/data/datagovdata/maryland-new-multi-family-housing-units-authorized-for-construction-2000-2011-7deca.csv","Date created","strings","[^""\r\n]*"
"/data/datasets/datagov/data/data/datagovdata/maryland-new-multi-family-housing-units-authorized-for-construction-2000-2011-7deca.csv","Carroll County","numbers","^-?\d*(\.\d+)?$"
"/data/datasets/datagov/data/data/datagovdata/maryland-new-multi-family-housing-units-authorized-for-construction-2000-2011-7deca.csv","Garrett County","numbers","^-?\d*(\.\d+)?$"
"/data/datasets/datagov/data/data/datagovdata/maryland-new-multi-family-housing-units-authorized-for-construction-2000-2011-7deca.csv","Cecil County","numbers","^-?\d*(\.\d+)?$"
"/data/datasets/datagov/data/data/datagovdata/maryland-new-multi-family-housing-units-authorized-for-construction-2000-2011-7deca.csv","Kent County","numbers","^-?\d*(\.\d+)?$"
"/data/datasets/datagov/data/data/datagovdata/maryland-new-multi-family-housing-units-authorized-for-construction-2000-2011-7deca.csv","MARYLAND","numbers","^-?\d*(\.\d+)?$"
"/data/datasets/datagov/data/data/datagovdata/maryland-new-multi-family-housing-units-authorized-for-construction-2000-2011-7deca.csv","St. Mary's County","numbers","^-?\d*(\.\d+)?$"
"/data/datasets/datagov/data/data/datagovdata/maryland-new-multi-family-housing-units-authorized-for-construction-2000-2011-7deca.csv","Washington County","numbers","^-?\d*(\.\d+)?$"
"/data/datasets/datagov/data/data/datagovdata/maryland-new-multi-family-housing-units-authorized-for-construction-2000-2011-7deca.csv","Anne Arundel County","numbers","^-?\d*(\.\d+)?$"
"/data/datasets/datagov/data/data/datagovdata/maryland-new-multi-family-housing-units-authorized-for-construction-2000-2011-7deca.csv","Baltimore City","numbers","^-?\d*(\.\d+)?$"
"/data/datasets/datagov/data/data/datagovdata/maryland-new-multi-family-housing-units-authorized-for-construction-2000-2011-7deca.csv","Caroline County","numbers","^-?\d*(\.\d+)?$"
"/data/datasets/datagov/data/data/datagovdata/maryland-new-multi-family-housing-units-authorized-for-construction-2000-2011-7deca.csv","Prince George's County","numbers","^-?\d*(\.\d+)?$"
"/data/datasets/datagov/data/data/datagovdata/maryland-new-multi-family-housing-units-authorized-for-construction-2000-2011-7deca.csv","Calvert County","numbers","^-?\d*(\.\d+)?$"
"/data/datasets/datagov/data/data/datagovdata/maryland-new-multi-family-housing-units-authorized-for-construction-2000-2011-7deca.csv","Somerset County","numbers","^-?\d*(\.\d+)?$"
"/data/datasets/datagov/data/data/datagovdata/maryland-new-multi-family-housing-units-authorized-for-construction-2000-2011-7deca.csv","Allegany County","numbers","^-?\d*(\.\d+)?$"
"/data/datasets/datagov/data/data/datagovdata/maryland-new-multi-family-housing-units-authorized-for-construction-2000-2011-7deca.csv","Montgomery County","numbers","^-?\d*(\.\d+)?$"
"/data/datasets/datagov/data/data/datagovdata/maryland-new-multi-family-housing-units-authorized-for-construction-2000-2011-7deca.csv","Dorchester County","numbers","^-?\d*(\.\d+)?$"
"/data/datasets/datagov/data/data/datagovdata/maryland-new-multi-family-housing-units-authorized-for-construction-2000-2011-7deca.csv","Queen Anne's County","numbers","^-?\d*(\.\d+)?$"
"/data/datasets/datagov/data/data/datagovdata/maryland-new-multi-family-housing-units-authorized-for-construction-2000-2011-7deca.csv","Frederick County","numbers","^-?\d*(\.\d+)?$"
"/data/datasets/datagov/data/data/datagovdata/maryland-new-multi-family-housing-units-authorized-for-construction-2000-2011-7deca.csv","Talbot County","numbers","^-?\d*(\.\d+)?$"
"/data/datasets/datagov/data/data/datagovdata/maryland-new-multi-family-housing-units-authorized-for-construction-2000-2011-7deca.csv","Wicomico County","numbers","^-?\d*(\.\d+)?$"
"/data/datasets/datagov/data/data/datagovdata/maryland-new-multi-family-housing-units-authorized-for-construction-2000-2011-7deca.csv","Harford County","numbers","^-?\d*(\.\d+)?$"
"/data/datasets/datagov/data/data/datagovdata/maryland-new-multi-family-housing-units-authorized-for-construction-2000-2011-7deca.csv","Worcester County","numbers","^-?\d*(\.\d+)?$"
"/data/datasets/datagov/data/data/datagovdata/maryland-new-multi-family-housing-units-authorized-for-construction-2000-2011-7deca.csv","Charles County","numbers","^-?\d*(\.\d+)?$"
"/data/datasets/datagov/data/data/datagovdata/maryland-new-multi-family-housing-units-authorized-for-construction-2000-2011-7deca.csv","Year","numbers","^-?\d*(\.\d+)?$"
"/data/datasets/datagov/data/data/datagovdata/maryland-new-multi-family-housing-units-authorized-for-construction-2000-2011-7deca.csv","Howard County","numbers","^-?\d*(\.\d+)?$"
"/data/datasets/datagov/data/data/datagovdata/maryland-new-multi-family-housing-units-authorized-for-construction-2000-2011-7deca.csv","Baltimore County","numbers","^-?\d*(\.\d+)?$"
