"file_name","column_name","label","regex"
"/data/datasets/datagov/data/data/datagovdata/dbedt-hawaii-annual-electricity-consumption-96efd.csv","Hawaii County Annual Electricity Consumption (GWhs)","numbers","^\d*$"
"/data/datasets/datagov/data/data/datagovdata/dbedt-hawaii-annual-electricity-consumption-96efd.csv","Maui County Annual Electricity Consumption (GWhs)","numbers","^\d*$"
"/data/datasets/datagov/data/data/datagovdata/dbedt-hawaii-annual-electricity-consumption-96efd.csv","Year","numbers","^\d*$"
"/data/datasets/datagov/data/data/datagovdata/dbedt-hawaii-annual-electricity-consumption-96efd.csv","Kauai County Annual Electricity Consumption (GWhs)","numbers","^\d*$"
"/data/datasets/datagov/data/data/datagovdata/dbedt-hawaii-annual-electricity-consumption-96efd.csv","City and County of Honolulu Annual Electricity Consumption (GWhs)","numbers","^\d*$"
"/data/datasets/datagov/data/data/datagovdata/dbedt-hawaii-annual-electricity-consumption-96efd.csv","Total","numbers","^\d*$"
