"file_name","column_name","label","regex"
"/data/datasets/datagov/data/data/datagovdata/public-health-statistics-diabetes-hospitalizations-in-chicago-2000-2011.csv","Crude Rate 2010","numbers","^(\d|,)*\.?\d*$"
"/data/datasets/datagov/data/data/datagovdata/public-health-statistics-diabetes-hospitalizations-in-chicago-2000-2011.csv","Hospitalizations 2000","numbers","^(\d|,)*\.?\d*$"
"/data/datasets/datagov/data/data/datagovdata/public-health-statistics-diabetes-hospitalizations-in-chicago-2000-2011.csv","Adjusted Rate 2009 Lower CI","numbers","^(\d|,)*\.?\d*$"
"/data/datasets/datagov/data/data/datagovdata/public-health-statistics-diabetes-hospitalizations-in-chicago-2000-2011.csv","Crude Rate 2002 Lower CI","numbers","^(\d|,)*\.?\d*$"
"/data/datasets/datagov/data/data/datagovdata/public-health-statistics-diabetes-hospitalizations-in-chicago-2000-2011.csv","Adjusted Rate 2007","numbers","^(\d|,)*\.?\d*$"
"/data/datasets/datagov/data/data/datagovdata/public-health-statistics-diabetes-hospitalizations-in-chicago-2000-2011.csv","Adjusted Rate 2006 Lower CI","numbers","^(\d|,)*\.?\d*$"
"/data/datasets/datagov/data/data/datagovdata/public-health-statistics-diabetes-hospitalizations-in-chicago-2000-2011.csv","Adjusted Rate 2009","numbers","^(\d|,)*\.?\d*$"
"/data/datasets/datagov/data/data/datagovdata/public-health-statistics-diabetes-hospitalizations-in-chicago-2000-2011.csv","Hospitalizations 2011","numbers","^(\d|,)*\.?\d*$"
"/data/datasets/datagov/data/data/datagovdata/public-health-statistics-diabetes-hospitalizations-in-chicago-2000-2011.csv","Adjusted Rate 2009 Upper CI","numbers","^(\d|,)*\.?\d*$"
"/data/datasets/datagov/data/data/datagovdata/public-health-statistics-diabetes-hospitalizations-in-chicago-2000-2011.csv","Crude Rate 2004 Lower CI","numbers","^(\d|,)*\.?\d*$"
"/data/datasets/datagov/data/data/datagovdata/public-health-statistics-diabetes-hospitalizations-in-chicago-2000-2011.csv","Adjusted Rate 2004 Upper CI","numbers","^(\d|,)*\.?\d*$"
"/data/datasets/datagov/data/data/datagovdata/public-health-statistics-diabetes-hospitalizations-in-chicago-2000-2011.csv","Adjusted Rate 2000 Lower CI","numbers","^(\d|,)*\.?\d*$"
"/data/datasets/datagov/data/data/datagovdata/public-health-statistics-diabetes-hospitalizations-in-chicago-2000-2011.csv","Adjusted Rate 2011 Lower CI","numbers","^(\d|,)*\.?\d*$"
"/data/datasets/datagov/data/data/datagovdata/public-health-statistics-diabetes-hospitalizations-in-chicago-2000-2011.csv","Adjusted Rate 2004","numbers","^(\d|,)*\.?\d*$"
"/data/datasets/datagov/data/data/datagovdata/public-health-statistics-diabetes-hospitalizations-in-chicago-2000-2011.csv","Adjusted Rate 2006 Upper CI","numbers","^(\d|,)*\.?\d*$"
"/data/datasets/datagov/data/data/datagovdata/public-health-statistics-diabetes-hospitalizations-in-chicago-2000-2011.csv","Crude Rate 2000","numbers","^(\d|,)*\.?\d*$"
"/data/datasets/datagov/data/data/datagovdata/public-health-statistics-diabetes-hospitalizations-in-chicago-2000-2011.csv","Adjusted Rate 2007 Upper CI","numbers","^(\d|,)*\.?\d*$"
"/data/datasets/datagov/data/data/datagovdata/public-health-statistics-diabetes-hospitalizations-in-chicago-2000-2011.csv","Adjusted Rate 2005 Lower CI","numbers","^(\d|,)*\.?\d*$"
"/data/datasets/datagov/data/data/datagovdata/public-health-statistics-diabetes-hospitalizations-in-chicago-2000-2011.csv","Hospitalizations 2006","numbers","^(\d|,)*\.?\d*$"
"/data/datasets/datagov/data/data/datagovdata/public-health-statistics-diabetes-hospitalizations-in-chicago-2000-2011.csv","Crude Rate 2006 Upper CI","numbers","^(\d|,)*\.?\d*$"
"/data/datasets/datagov/data/data/datagovdata/public-health-statistics-diabetes-hospitalizations-in-chicago-2000-2011.csv","Adjusted Rate 2004 Lower CI","numbers","^(\d|,)*\.?\d*$"
"/data/datasets/datagov/data/data/datagovdata/public-health-statistics-diabetes-hospitalizations-in-chicago-2000-2011.csv","Crude Rate 2004 Upper CI","numbers","^(\d|,)*\.?\d*$"
"/data/datasets/datagov/data/data/datagovdata/public-health-statistics-diabetes-hospitalizations-in-chicago-2000-2011.csv","Adjusted Rate 2002 Lower CI","numbers","^(\d|,)*\.?\d*$"
"/data/datasets/datagov/data/data/datagovdata/public-health-statistics-diabetes-hospitalizations-in-chicago-2000-2011.csv","Crude Rate 2002 Upper CI","numbers","^(\d|,)*\.?\d*$"
"/data/datasets/datagov/data/data/datagovdata/public-health-statistics-diabetes-hospitalizations-in-chicago-2000-2011.csv","Adjusted Rate 2000","numbers","^(\d|,)*\.?\d*$"
"/data/datasets/datagov/data/data/datagovdata/public-health-statistics-diabetes-hospitalizations-in-chicago-2000-2011.csv","Crude Rate 2001 Upper CI","numbers","^(\d|,)*\.?\d*$"
"/data/datasets/datagov/data/data/datagovdata/public-health-statistics-diabetes-hospitalizations-in-chicago-2000-2011.csv","Crude Rate 2001","numbers","^(\d|,)*\.?\d*$"
"/data/datasets/datagov/data/data/datagovdata/public-health-statistics-diabetes-hospitalizations-in-chicago-2000-2011.csv","Hospitalizations 2001","numbers","^(\d|,)*\.?\d*$"
"/data/datasets/datagov/data/data/datagovdata/public-health-statistics-diabetes-hospitalizations-in-chicago-2000-2011.csv","Crude Rate 2009","numbers","^(\d|,)*\.?\d*$"
"/data/datasets/datagov/data/data/datagovdata/public-health-statistics-diabetes-hospitalizations-in-chicago-2000-2011.csv","Crude Rate 2007","numbers","^(\d|,)*\.?\d*$"
"/data/datasets/datagov/data/data/datagovdata/public-health-statistics-diabetes-hospitalizations-in-chicago-2000-2011.csv","Adjusted Rate 2011 Upper CI","numbers","^(\d|,)*\.?\d*$"
"/data/datasets/datagov/data/data/datagovdata/public-health-statistics-diabetes-hospitalizations-in-chicago-2000-2011.csv","Adjusted Rate 2001 Lower CI","numbers","^(\d|,)*\.?\d*$"
"/data/datasets/datagov/data/data/datagovdata/public-health-statistics-diabetes-hospitalizations-in-chicago-2000-2011.csv","Crude Rate 2006","numbers","^(\d|,)*\.?\d*$"
"/data/datasets/datagov/data/data/datagovdata/public-health-statistics-diabetes-hospitalizations-in-chicago-2000-2011.csv","Adjusted Rate 2008 Lower CI","numbers","^(\d|,)*\.?\d*$"
"/data/datasets/datagov/data/data/datagovdata/public-health-statistics-diabetes-hospitalizations-in-chicago-2000-2011.csv","Hospitalizations 2005","numbers","^(\d|,)*\.?\d*$"
"/data/datasets/datagov/data/data/datagovdata/public-health-statistics-diabetes-hospitalizations-in-chicago-2000-2011.csv","Crude Rate 2006 Lower CI","numbers","^(\d|,)*\.?\d*$"
"/data/datasets/datagov/data/data/datagovdata/public-health-statistics-diabetes-hospitalizations-in-chicago-2000-2011.csv","Crude Rate 2008 Upper CI","numbers","^(\d|,)*\.?\d*$"
"/data/datasets/datagov/data/data/datagovdata/public-health-statistics-diabetes-hospitalizations-in-chicago-2000-2011.csv","Crude Rate 2010 Upper CI","numbers","^(\d|,)*\.?\d*$"
"/data/datasets/datagov/data/data/datagovdata/public-health-statistics-diabetes-hospitalizations-in-chicago-2000-2011.csv","Adjusted Rate 2005","numbers","^(\d|,)*\.?\d*$"
"/data/datasets/datagov/data/data/datagovdata/public-health-statistics-diabetes-hospitalizations-in-chicago-2000-2011.csv","Adjusted Rate 2003 Lower CI","numbers","^(\d|,)*\.?\d*$"
"/data/datasets/datagov/data/data/datagovdata/public-health-statistics-diabetes-hospitalizations-in-chicago-2000-2011.csv","Adjusted Rate 2003","numbers","^(\d|,)*\.?\d*$"
"/data/datasets/datagov/data/data/datagovdata/public-health-statistics-diabetes-hospitalizations-in-chicago-2000-2011.csv","Hospitalizations 2002","numbers","^(\d|,)*\.?\d*$"
"/data/datasets/datagov/data/data/datagovdata/public-health-statistics-diabetes-hospitalizations-in-chicago-2000-2011.csv","Adjusted Rate 2010 Upper CI","numbers","^(\d|,)*\.?\d*$"
"/data/datasets/datagov/data/data/datagovdata/public-health-statistics-diabetes-hospitalizations-in-chicago-2000-2011.csv","Crude Rate 2007 Lower CI","numbers","^(\d|,)*\.?\d*$"
"/data/datasets/datagov/data/data/datagovdata/public-health-statistics-diabetes-hospitalizations-in-chicago-2000-2011.csv","Adjusted Rate 2001","numbers","^(\d|,)*\.?\d*$"
"/data/datasets/datagov/data/data/datagovdata/public-health-statistics-diabetes-hospitalizations-in-chicago-2000-2011.csv","Adjusted Rate 2010","numbers","^(\d|,)*\.?\d*$"
"/data/datasets/datagov/data/data/datagovdata/public-health-statistics-diabetes-hospitalizations-in-chicago-2000-2011.csv","Adjusted Rate 2011","numbers","^(\d|,)*\.?\d*$"
"/data/datasets/datagov/data/data/datagovdata/public-health-statistics-diabetes-hospitalizations-in-chicago-2000-2011.csv","Crude Rate 2010 Lower CI","numbers","^(\d|,)*\.?\d*$"
"/data/datasets/datagov/data/data/datagovdata/public-health-statistics-diabetes-hospitalizations-in-chicago-2000-2011.csv","Adjusted Rate 2002 Upper CI","numbers","^(\d|,)*\.?\d*$"
"/data/datasets/datagov/data/data/datagovdata/public-health-statistics-diabetes-hospitalizations-in-chicago-2000-2011.csv","Adjusted Rate 2003 Upper CI","numbers","^(\d|,)*\.?\d*$"
"/data/datasets/datagov/data/data/datagovdata/public-health-statistics-diabetes-hospitalizations-in-chicago-2000-2011.csv","Adjusted Rate 2006","numbers","^(\d|,)*\.?\d*$"
"/data/datasets/datagov/data/data/datagovdata/public-health-statistics-diabetes-hospitalizations-in-chicago-2000-2011.csv","Crude Rate 2009 Lower CI","numbers","^(\d|,)*\.?\d*$"
"/data/datasets/datagov/data/data/datagovdata/public-health-statistics-diabetes-hospitalizations-in-chicago-2000-2011.csv","Crude Rate 2005 Upper CI","numbers","^(\d|,)*\.?\d*$"
"/data/datasets/datagov/data/data/datagovdata/public-health-statistics-diabetes-hospitalizations-in-chicago-2000-2011.csv","Crude Rate 2011","numbers","^(\d|,)*\.?\d*$"
"/data/datasets/datagov/data/data/datagovdata/public-health-statistics-diabetes-hospitalizations-in-chicago-2000-2011.csv","Crude Rate 2000 Lower CI","numbers","^(\d|,)*\.?\d*$"
"/data/datasets/datagov/data/data/datagovdata/public-health-statistics-diabetes-hospitalizations-in-chicago-2000-2011.csv","Crude Rate 2001 Lower CI","numbers","^(\d|,)*\.?\d*$"
"/data/datasets/datagov/data/data/datagovdata/public-health-statistics-diabetes-hospitalizations-in-chicago-2000-2011.csv","Hospitalizations 2009","numbers","^(\d|,)*\.?\d*$"
"/data/datasets/datagov/data/data/datagovdata/public-health-statistics-diabetes-hospitalizations-in-chicago-2000-2011.csv","Crude Rate 2003 Upper CI","numbers","^(\d|,)*\.?\d*$"
"/data/datasets/datagov/data/data/datagovdata/public-health-statistics-diabetes-hospitalizations-in-chicago-2000-2011.csv","Crude Rate 2011 Upper CI","numbers","^(\d|,)*\.?\d*$"
"/data/datasets/datagov/data/data/datagovdata/public-health-statistics-diabetes-hospitalizations-in-chicago-2000-2011.csv","Crude Rate 2002","numbers","^(\d|,)*\.?\d*$"
"/data/datasets/datagov/data/data/datagovdata/public-health-statistics-diabetes-hospitalizations-in-chicago-2000-2011.csv","Hospitalizations 2007","numbers","^(\d|,)*\.?\d*$"
"/data/datasets/datagov/data/data/datagovdata/public-health-statistics-diabetes-hospitalizations-in-chicago-2000-2011.csv","Hospitalizations 2004","numbers","^(\d|,)*\.?\d*$"
"/data/datasets/datagov/data/data/datagovdata/public-health-statistics-diabetes-hospitalizations-in-chicago-2000-2011.csv","Adjusted Rate 2008 Upper CI","numbers","^(\d|,)*\.?\d*$"
"/data/datasets/datagov/data/data/datagovdata/public-health-statistics-diabetes-hospitalizations-in-chicago-2000-2011.csv","Adjusted Rate 2000 Upper CI","numbers","^(\d|,)*\.?\d*$"
"/data/datasets/datagov/data/data/datagovdata/public-health-statistics-diabetes-hospitalizations-in-chicago-2000-2011.csv","Hospitalizations 2010","numbers","^(\d|,)*\.?\d*$"
"/data/datasets/datagov/data/data/datagovdata/public-health-statistics-diabetes-hospitalizations-in-chicago-2000-2011.csv","Adjusted Rate 2001 Upper CI","numbers","^(\d|,)*\.?\d*$"
"/data/datasets/datagov/data/data/datagovdata/public-health-statistics-diabetes-hospitalizations-in-chicago-2000-2011.csv","ZIP code (or aggregate)","uri",".*?$(?<!\.aspx)"
"/data/datasets/datagov/data/data/datagovdata/public-health-statistics-diabetes-hospitalizations-in-chicago-2000-2011.csv","Adjusted Rate 2007 Lower CI","numbers","^(\d|,)*\.?\d*$"
"/data/datasets/datagov/data/data/datagovdata/public-health-statistics-diabetes-hospitalizations-in-chicago-2000-2011.csv","Adjusted Rate 2002","numbers","^(\d|,)*\.?\d*$"
"/data/datasets/datagov/data/data/datagovdata/public-health-statistics-diabetes-hospitalizations-in-chicago-2000-2011.csv","Adjusted Rate 2005 Upper CI","numbers","^(\d|,)*\.?\d*$"
"/data/datasets/datagov/data/data/datagovdata/public-health-statistics-diabetes-hospitalizations-in-chicago-2000-2011.csv","Hospitalizations 2008","numbers","^(\d|,)*\.?\d*$"
"/data/datasets/datagov/data/data/datagovdata/public-health-statistics-diabetes-hospitalizations-in-chicago-2000-2011.csv","Crude Rate 2008","numbers","^(\d|,)*\.?\d*$"
"/data/datasets/datagov/data/data/datagovdata/public-health-statistics-diabetes-hospitalizations-in-chicago-2000-2011.csv","Adjusted Rate 2008","numbers","^(\d|,)*\.?\d*$"
"/data/datasets/datagov/data/data/datagovdata/public-health-statistics-diabetes-hospitalizations-in-chicago-2000-2011.csv","Crude Rate 2000 Upper CI","numbers","^(\d|,)*\.?\d*$"
"/data/datasets/datagov/data/data/datagovdata/public-health-statistics-diabetes-hospitalizations-in-chicago-2000-2011.csv","Crude Rate 2004","numbers","^(\d|,)*\.?\d*$"
"/data/datasets/datagov/data/data/datagovdata/public-health-statistics-diabetes-hospitalizations-in-chicago-2000-2011.csv","Crude Rate 2005 Lower CI","numbers","^(\d|,)*\.?\d*$"
"/data/datasets/datagov/data/data/datagovdata/public-health-statistics-diabetes-hospitalizations-in-chicago-2000-2011.csv","Crude Rate 2011 Lower CI","numbers","^(\d|,)*\.?\d*$"
"/data/datasets/datagov/data/data/datagovdata/public-health-statistics-diabetes-hospitalizations-in-chicago-2000-2011.csv","Crude Rate 2003 Lower CI","numbers","^(\d|,)*\.?\d*$"
"/data/datasets/datagov/data/data/datagovdata/public-health-statistics-diabetes-hospitalizations-in-chicago-2000-2011.csv","Crude Rate 2007 Upper CI","numbers","^(\d|,)*\.?\d*$"
"/data/datasets/datagov/data/data/datagovdata/public-health-statistics-diabetes-hospitalizations-in-chicago-2000-2011.csv","Hospitalizations 2003","numbers","^(\d|,)*\.?\d*$"
"/data/datasets/datagov/data/data/datagovdata/public-health-statistics-diabetes-hospitalizations-in-chicago-2000-2011.csv","Crude Rate 2008 Lower CI","numbers","^(\d|,)*\.?\d*$"
"/data/datasets/datagov/data/data/datagovdata/public-health-statistics-diabetes-hospitalizations-in-chicago-2000-2011.csv","Crude Rate 2009 Upper CI","numbers","^(\d|,)*\.?\d*$"
"/data/datasets/datagov/data/data/datagovdata/public-health-statistics-diabetes-hospitalizations-in-chicago-2000-2011.csv","Crude Rate 2005","numbers","^(\d|,)*\.?\d*$"
"/data/datasets/datagov/data/data/datagovdata/public-health-statistics-diabetes-hospitalizations-in-chicago-2000-2011.csv","Adjusted Rate 2010 Lower CI","numbers","^(\d|,)*\.?\d*$"
"/data/datasets/datagov/data/data/datagovdata/public-health-statistics-diabetes-hospitalizations-in-chicago-2000-2011.csv","Crude Rate 2003","numbers","^(\d|,)*\.?\d*$"
