"file_name","column_name","label","regex"
"/data/datasets/datagov/data/data/datagovdata/2015-continuous-count-stations.csv","Loop_Mile","numbers","^\d*$"
"/data/datasets/datagov/data/data/datagovdata/2015-continuous-count-stations.csv","Address","uri",".*?$(?<!\.aspx)"
"/data/datasets/datagov/data/data/datagovdata/2015-continuous-count-stations.csv","Most_Rec_1","strings","[^""\r\n]*"
"/data/datasets/datagov/data/data/datagovdata/2015-continuous-count-stations.csv","the_geom","uri",".*?$(?<!\.aspx)"
"/data/datasets/datagov/data/data/datagovdata/2015-continuous-count-stations.csv","FC","numbers","^\d*$"
"/data/datasets/datagov/data/data/datagovdata/2015-continuous-count-stations.csv","Station_No","numbers","^\d*$"
"/data/datasets/datagov/data/data/datagovdata/2015-continuous-count-stations.csv","LINE_LAT","numbers","^\d*$"
"/data/datasets/datagov/data/data/datagovdata/2015-continuous-count-stations.csv","Most_Recen","numbers","^\d*$"
"/data/datasets/datagov/data/data/datagovdata/2015-continuous-count-stations.csv","Func_Class","uri",".*?$(?<!\.aspx)"
"/data/datasets/datagov/data/data/datagovdata/2015-continuous-count-stations.csv","Route_No","numbers","^\d*$"
"/data/datasets/datagov/data/data/datagovdata/2015-continuous-count-stations.csv","Address2","uri",".*?$(?<!\.aspx)"
"/data/datasets/datagov/data/data/datagovdata/2015-continuous-count-stations.csv","LINE_LNG","numbers","^\d*$"
