"file_name","column_name","label","regex"
"/data/datasets/datagov/data/data/datagovdata/cdc-best-practices-for-comprehensive-tobacco-control-programs-2007-85553.csv","Funding Type1","uri",".*?$(?<!\.aspx)"
"/data/datasets/datagov/data/data/datagovdata/cdc-best-practices-for-comprehensive-tobacco-control-programs-2007-85553.csv","Data_Value_Unit","uri",".*?$(?<!\.aspx)"
"/data/datasets/datagov/data/data/datagovdata/cdc-best-practices-for-comprehensive-tobacco-control-programs-2007-85553.csv","LocationDesc","uri",".*?$(?<!\.aspx)"
"/data/datasets/datagov/data/data/datagovdata/cdc-best-practices-for-comprehensive-tobacco-control-programs-2007-85553.csv","Source","uri",".*?$(?<!\.aspx)"
"/data/datasets/datagov/data/data/datagovdata/cdc-best-practices-for-comprehensive-tobacco-control-programs-2007-85553.csv","Funding Type2","uri",".*?$(?<!\.aspx)"
"/data/datasets/datagov/data/data/datagovdata/cdc-best-practices-for-comprehensive-tobacco-control-programs-2007-85553.csv","Intervention Area","uri",".*?$(?<!\.aspx)"
"/data/datasets/datagov/data/data/datagovdata/cdc-best-practices-for-comprehensive-tobacco-control-programs-2007-85553.csv","MeasureId","uri",".*?$(?<!\.aspx)"
"/data/datasets/datagov/data/data/datagovdata/cdc-best-practices-for-comprehensive-tobacco-control-programs-2007-85553.csv","LocationAbbr","uri",".*?$(?<!\.aspx)"
"/data/datasets/datagov/data/data/datagovdata/cdc-best-practices-for-comprehensive-tobacco-control-programs-2007-85553.csv","Year","numbers","^(\d|,)*\.?\d*$"
"/data/datasets/datagov/data/data/datagovdata/cdc-best-practices-for-comprehensive-tobacco-control-programs-2007-85553.csv","Amount","numbers","^(\d|,)*\.?\d*$"
"/data/datasets/datagov/data/data/datagovdata/cdc-best-practices-for-comprehensive-tobacco-control-programs-2007-85553.csv","TopicTypeId","uri",".*?$(?<!\.aspx)"
"/data/datasets/datagov/data/data/datagovdata/cdc-best-practices-for-comprehensive-tobacco-control-programs-2007-85553.csv","GeoLocation","uri",".*?$(?<!\.aspx)"
"/data/datasets/datagov/data/data/datagovdata/cdc-best-practices-for-comprehensive-tobacco-control-programs-2007-85553.csv","TopicId","uri",".*?$(?<!\.aspx)"
