"file_name","column_name","label","regex"
"/data/datasets/datagov/data/data/datagovdata/iepa-facilities-table-456d6.csv","Location 1","uri","^[^\\\/\?\*\""\'\>\<\:\|]*$"
"/data/datasets/datagov/data/data/datagovdata/iepa-facilities-table-456d6.csv","LW?","strings","[^""\r\n]*"
"/data/datasets/datagov/data/data/datagovdata/iepa-facilities-table-456d6.csv","County","uri","^[^\\\/\?\*\""\'\>\<\:\|]*$"
"/data/datasets/datagov/data/data/datagovdata/iepa-facilities-table-456d6.csv","Facility","strings","[^""\r\n]*"
"/data/datasets/datagov/data/data/datagovdata/iepa-facilities-table-456d6.csv","Operator","uri","^[^\\\/\?\*\""\'\>\<\:\|]*$"
"/data/datasets/datagov/data/data/datagovdata/iepa-facilities-table-456d6.csv","Owner","uri","^[^\\\/\?\*\""\'\>\<\:\|]*$"
"/data/datasets/datagov/data/data/datagovdata/iepa-facilities-table-456d6.csv","Truck Tip Fee","strings","[^""\r\n]*"
"/data/datasets/datagov/data/data/datagovdata/iepa-facilities-table-456d6.csv","Type of Waste Accepted","uri","^[^\\\/\?\*\""\'\>\<\:\|]*$"
"/data/datasets/datagov/data/data/datagovdata/iepa-facilities-table-456d6.csv","C&D?","uri","^[^\\\/\?\*\""\'\>\<\:\|]*$"
"/data/datasets/datagov/data/data/datagovdata/iepa-facilities-table-456d6.csv","Municipality","uri","^[^\\\/\?\*\""\'\>\<\:\|]*$"
"/data/datasets/datagov/data/data/datagovdata/iepa-facilities-table-456d6.csv","Recycling?","strings","[^""\r\n]*"
"/data/datasets/datagov/data/data/datagovdata/iepa-facilities-table-456d6.csv","Tons in 2008","numbers","^(\d|,)*\.?\d*$"
