"file_name","column_name","label","regex"
"/data/datasets/datagov/data/data/datagovdata/fdny-fire-rule-3131d.csv","Fire Department Rule Description","strings","[^""\r\n]*"
"/data/datasets/datagov/data/data/datagovdata/fdny-fire-rule-3131d.csv","Chapter Name","uri",".*?$(?<!\.aspx)"
"/data/datasets/datagov/data/data/datagovdata/fdny-fire-rule-3131d.csv","Fire Department Rule Number","uri",".*?$(?<!\.aspx)"
"/data/datasets/datagov/data/data/datagovdata/fdny-fire-rule-3131d.csv","Chapter Number","uri",".*?$(?<!\.aspx)"
