"file_name","column_name","label","regex"
"/data/datasets/datagov/data/data/datagovdata/fy2015-budget-by-line-item-ef703.csv","Appropriation","numbers","^(\d|,)*\.?\d*$"
"/data/datasets/datagov/data/data/datagovdata/fy2015-budget-by-line-item-ef703.csv","Appropriation Type","uri",".*?$(?<!\.aspx)"
"/data/datasets/datagov/data/data/datagovdata/fy2015-budget-by-line-item-ef703.csv"," FY13 Actual Expend ","numbers","^(\d|,)*\.?\d*$"
"/data/datasets/datagov/data/data/datagovdata/fy2015-budget-by-line-item-ef703.csv","Agency","numbers","^(\d|,)*\.?\d*$"
"/data/datasets/datagov/data/data/datagovdata/fy2015-budget-by-line-item-ef703.csv","Capital Line","uri",".*?$(?<!\.aspx)"
"/data/datasets/datagov/data/data/datagovdata/fy2015-budget-by-line-item-ef703.csv","Agency Name","uri",".*?$(?<!\.aspx)"
"/data/datasets/datagov/data/data/datagovdata/fy2015-budget-by-line-item-ef703.csv"," FY15 Governors Proposed ","numbers","^(\d|,)*\.?\d*$"
"/data/datasets/datagov/data/data/datagovdata/fy2015-budget-by-line-item-ef703.csv"," FY14 Actual Approp ","numbers","^(\d|,)*\.?\d*$"
"/data/datasets/datagov/data/data/datagovdata/fy2015-budget-by-line-item-ef703.csv"," FY14 Estimate Expend ","numbers","^(\d|,)*\.?\d*$"
"/data/datasets/datagov/data/data/datagovdata/fy2015-budget-by-line-item-ef703.csv","Fund Name","uri",".*?$(?<!\.aspx)"
"/data/datasets/datagov/data/data/datagovdata/fy2015-budget-by-line-item-ef703.csv"," FY 15 Not Recommended ","numbers","^(\d|,)*\.?\d*$"
"/data/datasets/datagov/data/data/datagovdata/fy2015-budget-by-line-item-ef703.csv","Fund","numbers","^(\d|,)*\.?\d*$"
"/data/datasets/datagov/data/data/datagovdata/fy2015-budget-by-line-item-ef703.csv","Division Name","uri",".*?$(?<!\.aspx)"
"/data/datasets/datagov/data/data/datagovdata/fy2015-budget-by-line-item-ef703.csv","Appropriation Name","strings","[^""\r\n]*"
"/data/datasets/datagov/data/data/datagovdata/fy2015-budget-by-line-item-ef703.csv","Approp Code","uri",".*?$(?<!\.aspx)"
"/data/datasets/datagov/data/data/datagovdata/fy2015-budget-by-line-item-ef703.csv"," FY13 Actual Approp ","numbers","^(\d|,)*\.?\d*$"
"/data/datasets/datagov/data/data/datagovdata/fy2015-budget-by-line-item-ef703.csv","Fund Category Name","uri",".*?$(?<!\.aspx)"
"/data/datasets/datagov/data/data/datagovdata/fy2015-budget-by-line-item-ef703.csv","Division","numbers","^(\d|,)*\.?\d*$"
