"file_name","column_name","label","regex"
"/data/datasets/datagov/data/data/datagovdata/ccgisdata-sanitary-tax-dist-2014.csv","SHAPE_STAr","numbers","^(\d|,)*\.?\d*$"
"/data/datasets/datagov/data/data/datagovdata/ccgisdata-sanitary-tax-dist-2014.csv","AGENCY","numbers","^(\d|,)*\.?\d*$"
"/data/datasets/datagov/data/data/datagovdata/ccgisdata-sanitary-tax-dist-2014.csv","AGENCYNUM","numbers","^(\d|,)*\.?\d*$"
"/data/datasets/datagov/data/data/datagovdata/ccgisdata-sanitary-tax-dist-2014.csv","the_geom","strings","[^""\r\n]*"
"/data/datasets/datagov/data/data/datagovdata/ccgisdata-sanitary-tax-dist-2014.csv","MAX_AGENCY","uri",".*?$(?<!\.aspx)"
"/data/datasets/datagov/data/data/datagovdata/ccgisdata-sanitary-tax-dist-2014.csv","SHAPE_STLe","numbers","^(\d|,)*\.?\d*$"
