"file_name","column_name","label","regex"
"/data/datasets/datagov/data/data/datagovdata/tgr2006se_guad_placecu.csv","FIPSCC","uri",".*?$(?<!\.aspx)"
"/data/datasets/datagov/data/data/datagovdata/tgr2006se_guad_placecu.csv","COUNTY","numbers","^\d$"
"/data/datasets/datagov/data/data/datagovdata/tgr2006se_guad_placecu.csv","PLACE","numbers","^\d$"
"/data/datasets/datagov/data/data/datagovdata/tgr2006se_guad_placecu.csv","NAME","uri",".*?$(?<!\.aspx)"
"/data/datasets/datagov/data/data/datagovdata/tgr2006se_guad_placecu.csv","GIST_ID","numbers","^\d$"
"/data/datasets/datagov/data/data/datagovdata/tgr2006se_guad_placecu.csv","LSADC","numbers","^\d$"
"/data/datasets/datagov/data/data/datagovdata/tgr2006se_guad_placecu.csv","ENTITY","uri",".*?$(?<!\.aspx)"
"/data/datasets/datagov/data/data/datagovdata/tgr2006se_guad_placecu.csv","PLACEDC","numbers","^\d$"
