"file_name","column_name","label","regex"
"/data/datasets/datagov/data/data/datagovdata/city-of-seattle-webstats-pageviews-by-top-level-domains-affed.csv","pageviews","numbers","^(\d|,)*\.?\d*$"
"/data/datasets/datagov/data/data/datagovdata/city-of-seattle-webstats-pageviews-by-top-level-domains-affed.csv","average-time-on-page","strings","[^""\r\n]*"
"/data/datasets/datagov/data/data/datagovdata/city-of-seattle-webstats-pageviews-by-top-level-domains-affed.csv","month","strings","[^""\r\n]*"
"/data/datasets/datagov/data/data/datagovdata/city-of-seattle-webstats-pageviews-by-top-level-domains-affed.csv","bounce-rate","uri",".*?$(?<!\.aspx)"
"/data/datasets/datagov/data/data/datagovdata/city-of-seattle-webstats-pageviews-by-top-level-domains-affed.csv","unique-pageviews","numbers","^(\d|,)*\.?\d*$"
"/data/datasets/datagov/data/data/datagovdata/city-of-seattle-webstats-pageviews-by-top-level-domains-affed.csv","exit-percent","uri",".*?$(?<!\.aspx)"
"/data/datasets/datagov/data/data/datagovdata/city-of-seattle-webstats-pageviews-by-top-level-domains-affed.csv","domain","strings","[^""\r\n]*"
