"file_name","column_name","label","regex"
"/data/datasets/datagov/data/data/datagovdata/percentage-of-adults-25-64-with-at-least-an-associates-degree-4af0e.csv","U.S.: % of Adults with at Least an Associate's Degree","numbers","^[-+]?\d+(\.\d+)?|[-+]?\.\d+?$"
"/data/datasets/datagov/data/data/datagovdata/percentage-of-adults-25-64-with-at-least-an-associates-degree-4af0e.csv","Calendar Year","numbers","^[-+]?\d+(\.\d+)?|[-+]?\.\d+?$"
"/data/datasets/datagov/data/data/datagovdata/percentage-of-adults-25-64-with-at-least-an-associates-degree-4af0e.csv","MD: % of Adults with at Least an Associate's Degree","numbers","^[-+]?\d+(\.\d+)?|[-+]?\.\d+?$"
