"file_name","column_name","label","regex"
"/data/datasets/datagov/data/data/datagovdata/cdc-state-system-e-cigarette-legislation-tax-7ed93.csv","LocationDesc","uri",".*?$(?<!\.aspx)"
"/data/datasets/datagov/data/data/datagovdata/cdc-state-system-e-cigarette-legislation-tax-7ed93.csv","ProvisionDesc","strings","[^""\r\n]*"
"/data/datasets/datagov/data/data/datagovdata/cdc-state-system-e-cigarette-legislation-tax-7ed93.csv","ProvisionID","numbers","^\d*$"
"/data/datasets/datagov/data/data/datagovdata/cdc-state-system-e-cigarette-legislation-tax-7ed93.csv","YEAR","numbers","^\d*$"
"/data/datasets/datagov/data/data/datagovdata/cdc-state-system-e-cigarette-legislation-tax-7ed93.csv","GeoLocation","uri",".*?$(?<!\.aspx)"
"/data/datasets/datagov/data/data/datagovdata/cdc-state-system-e-cigarette-legislation-tax-7ed93.csv","Effective_Date","strings","[^""\r\n]*"
"/data/datasets/datagov/data/data/datagovdata/cdc-state-system-e-cigarette-legislation-tax-7ed93.csv","ProvisionGroupID","uri",".*?$(?<!\.aspx)"
"/data/datasets/datagov/data/data/datagovdata/cdc-state-system-e-cigarette-legislation-tax-7ed93.csv","TopicTypeId","uri",".*?$(?<!\.aspx)"
"/data/datasets/datagov/data/data/datagovdata/cdc-state-system-e-cigarette-legislation-tax-7ed93.csv","MeasureDesc","uri",".*?$(?<!\.aspx)"
"/data/datasets/datagov/data/data/datagovdata/cdc-state-system-e-cigarette-legislation-tax-7ed93.csv","MeasureId","address_or_phone","(\d{4,6})"
"/data/datasets/datagov/data/data/datagovdata/cdc-state-system-e-cigarette-legislation-tax-7ed93.csv","Quarter","numbers","^\d*$"
"/data/datasets/datagov/data/data/datagovdata/cdc-state-system-e-cigarette-legislation-tax-7ed93.csv","Enacted_Date","strings","[^""\r\n]*"
"/data/datasets/datagov/data/data/datagovdata/cdc-state-system-e-cigarette-legislation-tax-7ed93.csv","ProvisionValue","uri",".*?$(?<!\.aspx)"
"/data/datasets/datagov/data/data/datagovdata/cdc-state-system-e-cigarette-legislation-tax-7ed93.csv","Citation","uri",".*?$(?<!\.aspx)"
"/data/datasets/datagov/data/data/datagovdata/cdc-state-system-e-cigarette-legislation-tax-7ed93.csv","DataType","strings","[^""\r\n]*"
"/data/datasets/datagov/data/data/datagovdata/cdc-state-system-e-cigarette-legislation-tax-7ed93.csv","DataSource","uri",".*?$(?<!\.aspx)"
"/data/datasets/datagov/data/data/datagovdata/cdc-state-system-e-cigarette-legislation-tax-7ed93.csv","Comments","uri",".*?$(?<!\.aspx)"
"/data/datasets/datagov/data/data/datagovdata/cdc-state-system-e-cigarette-legislation-tax-7ed93.csv","TopicDesc","uri",".*?$(?<!\.aspx)"
"/data/datasets/datagov/data/data/datagovdata/cdc-state-system-e-cigarette-legislation-tax-7ed93.csv","ProvisionGroupDesc","uri",".*?$(?<!\.aspx)"
"/data/datasets/datagov/data/data/datagovdata/cdc-state-system-e-cigarette-legislation-tax-7ed93.csv","TopicId","address_or_phone","(\d{4,6})"
"/data/datasets/datagov/data/data/datagovdata/cdc-state-system-e-cigarette-legislation-tax-7ed93.csv","ProvisionAltValue","numbers","^\d*$"
"/data/datasets/datagov/data/data/datagovdata/cdc-state-system-e-cigarette-legislation-tax-7ed93.csv","LocationAbbr","uri",".*?$(?<!\.aspx)"
"/data/datasets/datagov/data/data/datagovdata/cdc-state-system-e-cigarette-legislation-tax-7ed93.csv","DisplayOrder","numbers","^\d*$"
