"file_name","column_name","label","regex"
"/data/datasets/datagov/data/data/datagovdata/risk-management-employee-healthcare-costs-by-department-june-2012-71bfc.csv","Number of Employees","numbers","^\$?\d+(\.(\d{2}))?$"
"/data/datasets/datagov/data/data/datagovdata/risk-management-employee-healthcare-costs-by-department-june-2012-71bfc.csv","Total Cost","numbers","^\$?\d+(\.(\d{2}))?$"
"/data/datasets/datagov/data/data/datagovdata/risk-management-employee-healthcare-costs-by-department-june-2012-71bfc.csv","Dept","uri",".*?$(?<!\.aspx)"
