"file_name","column_name","label","regex"
"/data/datasets/datagov/data/data/datagovdata/dpd-eca-wildlife-a1257.csv","DESCRIPTION","strings","[^""\r\n]*"
"/data/datasets/datagov/data/data/datagovdata/dpd-eca-wildlife-a1257.csv","FID_EAGLE_","numbers","^(\d|,)*\.?\d*$"
"/data/datasets/datagov/data/data/datagovdata/dpd-eca-wildlife-a1257.csv","EOFORM","numbers","^(\d|,)*\.?\d*$"
"/data/datasets/datagov/data/data/datagovdata/dpd-eca-wildlife-a1257.csv","SOURCE","uri",".*?$(?<!\.aspx)"
"/data/datasets/datagov/data/data/datagovdata/dpd-eca-wildlife-a1257.csv","LEN","numbers","^(\d|,)*\.?\d*$"
"/data/datasets/datagov/data/data/datagovdata/dpd-eca-wildlife-a1257.csv","Shape_Area","numbers","^(\d|,)*\.?\d*$"
"/data/datasets/datagov/data/data/datagovdata/dpd-eca-wildlife-a1257.csv","OBJECTID","numbers","^(\d|,)*\.?\d*$"
"/data/datasets/datagov/data/data/datagovdata/dpd-eca-wildlife-a1257.csv","FID_HERONH","numbers","^(\d|,)*\.?\d*$"
"/data/datasets/datagov/data/data/datagovdata/dpd-eca-wildlife-a1257.csv","Shape_Length","numbers","^(\d|,)*\.?\d*$"
"/data/datasets/datagov/data/data/datagovdata/dpd-eca-wildlife-a1257.csv","FID_PHSREG","numbers","^(\d|,)*\.?\d*$"
"/data/datasets/datagov/data/data/datagovdata/dpd-eca-wildlife-a1257.csv","AREA","numbers","^(\d|,)*\.?\d*$"
"/data/datasets/datagov/data/data/datagovdata/dpd-eca-wildlife-a1257.csv","Shape","uri",".*?$(?<!\.aspx)"
