"file_name","column_name","label","regex"
"/data/datasets/datagov/data/data/datagovdata/facilities-management-electrical-usage-at-10290-s-76th-facility-by-month-fiscal-year-200-2-0d10c.csv","Cost","numbers","^\$?\d+(\.(\d{2}))?$"
"/data/datasets/datagov/data/data/datagovdata/facilities-management-electrical-usage-at-10290-s-76th-facility-by-month-fiscal-year-200-2-0d10c.csv","Location 1","address_or_phone","(\d{4,6})"
"/data/datasets/datagov/data/data/datagovdata/facilities-management-electrical-usage-at-10290-s-76th-facility-by-month-fiscal-year-200-2-0d10c.csv","Month","uri",".*?$(?<!\.aspx)"
"/data/datasets/datagov/data/data/datagovdata/facilities-management-electrical-usage-at-10290-s-76th-facility-by-month-fiscal-year-200-2-0d10c.csv","Fiscal Year","numbers","^\$?\d+(\.(\d{2}))?$"
"/data/datasets/datagov/data/data/datagovdata/facilities-management-electrical-usage-at-10290-s-76th-facility-by-month-fiscal-year-200-2-0d10c.csv","Usage (kWh)","numbers","^\$?\d+(\.(\d{2}))?$"
