"file_name","column_name","label","regex"
"/data/datasets/datagov/data/data/datagovdata/report-card-2-2a-vsat-return-statewide-by-mma-febe1.csv","Japan","numbers","^(\d|,)*\.?\d*$"
"/data/datasets/datagov/data/data/datagovdata/report-card-2-2a-vsat-return-statewide-by-mma-febe1.csv","Year","numbers","^(\d|,)*\.?\d*$"
"/data/datasets/datagov/data/data/datagovdata/report-card-2-2a-vsat-return-statewide-by-mma-febe1.csv","U.S.","numbers","^(\d|,)*\.?\d*$"
"/data/datasets/datagov/data/data/datagovdata/report-card-2-2a-vsat-return-statewide-by-mma-febe1.csv","Europe","numbers","^(\d|,)*\.?\d*$"
"/data/datasets/datagov/data/data/datagovdata/report-card-2-2a-vsat-return-statewide-by-mma-febe1.csv","Oceania","numbers","^(\d|,)*\.?\d*$"
"/data/datasets/datagov/data/data/datagovdata/report-card-2-2a-vsat-return-statewide-by-mma-febe1.csv","Canada","numbers","^(\d|,)*\.?\d*$"
