"file_name","column_name","label","regex"
"/data/datasets/datagov/data/data/datagovdata/offenders-re-entering-workforce.csv","Historical Data","numbers","^[-+]?\d+(\.\d+)?|[-+]?\.\d+?$"
"/data/datasets/datagov/data/data/datagovdata/offenders-re-entering-workforce.csv","Target","numbers","^[-+]?\d+(\.\d+)?|[-+]?\.\d+?$"
"/data/datasets/datagov/data/data/datagovdata/offenders-re-entering-workforce.csv","Years","numbers","^[-+]?\d+(\.\d+)?|[-+]?\.\d+?$"
