"file_name","column_name","label","regex"
"/data/datasets/datagov/data/data/datagovdata/rural-development-obligations-and-disbursements-non-arra-august-2015.csv","RCPT_ST_CD","numbers","^\d$"
"/data/datasets/datagov/data/data/datagovdata/rural-development-obligations-and-disbursements-non-arra-august-2015.csv","PAID_DISB","uri",".*?$(?<!\.aspx)"
"/data/datasets/datagov/data/data/datagovdata/rural-development-obligations-and-disbursements-non-arra-august-2015.csv","TRANS_LOC","numbers","^\d$"
"/data/datasets/datagov/data/data/datagovdata/rural-development-obligations-and-disbursements-non-arra-august-2015.csv","RCPT_RCD_TYPE","numbers","^\d$"
"/data/datasets/datagov/data/data/datagovdata/rural-development-obligations-and-disbursements-non-arra-august-2015.csv","FY_QTR_CORR","uri",".*?$(?<!\.aspx)"
"/data/datasets/datagov/data/data/datagovdata/rural-development-obligations-and-disbursements-non-arra-august-2015.csv","RCPT_ID","uri",".*?$(?<!\.aspx)"
"/data/datasets/datagov/data/data/datagovdata/rural-development-obligations-and-disbursements-non-arra-august-2015.csv","RCPT_CTY_CD","numbers","^\d$"
"/data/datasets/datagov/data/data/datagovdata/rural-development-obligations-and-disbursements-non-arra-august-2015.csv","FAOUC","numbers","^\d$"
"/data/datasets/datagov/data/data/datagovdata/rural-development-obligations-and-disbursements-non-arra-august-2015.csv","FTR","uri",".*?$(?<!\.aspx)"
"/data/datasets/datagov/data/data/datagovdata/rural-development-obligations-and-disbursements-non-arra-august-2015.csv","FED_AWRD_ID","uri",".*?$(?<!\.aspx)"
"/data/datasets/datagov/data/data/datagovdata/rural-development-obligations-and-disbursements-non-arra-august-2015.csv","#CFDA","numbers","^\d$"
"/data/datasets/datagov/data/data/datagovdata/rural-development-obligations-and-disbursements-non-arra-august-2015.csv","RCVR_IND","uri",".*?$(?<!\.aspx)"
"/data/datasets/datagov/data/data/datagovdata/rural-development-obligations-and-disbursements-non-arra-august-2015.csv","AWRD_OBL_DT","numbers","^\d$"
"/data/datasets/datagov/data/data/datagovdata/rural-development-obligations-and-disbursements-non-arra-august-2015.csv","RCPT_ST_ABBR","uri",".*?$(?<!\.aspx)"
"/data/datasets/datagov/data/data/datagovdata/rural-development-obligations-and-disbursements-non-arra-august-2015.csv","RCPT_CTRY_CD","uri",".*?$(?<!\.aspx)"
"/data/datasets/datagov/data/data/datagovdata/rural-development-obligations-and-disbursements-non-arra-august-2015.csv","PERF_CONGR_DISTR","numbers","^\d$"
"/data/datasets/datagov/data/data/datagovdata/rural-development-obligations-and-disbursements-non-arra-august-2015.csv","END_DT","uri",".*?$(?<!\.aspx)"
"/data/datasets/datagov/data/data/datagovdata/rural-development-obligations-and-disbursements-non-arra-august-2015.csv","FED_AMT","numbers","^\d$"
"/data/datasets/datagov/data/data/datagovdata/rural-development-obligations-and-disbursements-non-arra-august-2015.csv","PERF_ST_ADDR2","uri",".*?$(?<!\.aspx)"
"/data/datasets/datagov/data/data/datagovdata/rural-development-obligations-and-disbursements-non-arra-august-2015.csv","RCPT_PRNT_ID","uri",".*?$(?<!\.aspx)"
"/data/datasets/datagov/data/data/datagovdata/rural-development-obligations-and-disbursements-non-arra-august-2015.csv","REC_CTRY_CD3","uri",".*?$(?<!\.aspx)"
"/data/datasets/datagov/data/data/datagovdata/rural-development-obligations-and-disbursements-non-arra-august-2015.csv","PERF_ST_ABBR","uri",".*?$(?<!\.aspx)"
"/data/datasets/datagov/data/data/datagovdata/rural-development-obligations-and-disbursements-non-arra-august-2015.csv","RCPT_ST_ADDR1","strings","[^""\r\n]*"
"/data/datasets/datagov/data/data/datagovdata/rural-development-obligations-and-disbursements-non-arra-august-2015.csv","PERF_CTRY_NM","uri",".*?$(?<!\.aspx)"
"/data/datasets/datagov/data/data/datagovdata/rural-development-obligations-and-disbursements-non-arra-august-2015.csv","ACTN_TYPE","uri",".*?$(?<!\.aspx)"
"/data/datasets/datagov/data/data/datagovdata/rural-development-obligations-and-disbursements-non-arra-august-2015.csv","SUB_AWRD_FAI","uri",".*?$(?<!\.aspx)"
"/data/datasets/datagov/data/data/datagovdata/rural-development-obligations-and-disbursements-non-arra-august-2015.csv","RCPT_CTY_NM","uri",".*?$(?<!\.aspx)"
"/data/datasets/datagov/data/data/datagovdata/rural-development-obligations-and-disbursements-non-arra-august-2015.csv","CONFIDENCE_CD","uri",".*?$(?<!\.aspx)"
"/data/datasets/datagov/data/data/datagovdata/rural-development-obligations-and-disbursements-non-arra-august-2015.csv","NON_FED_AMT","numbers","^\d$"
"/data/datasets/datagov/data/data/datagovdata/rural-development-obligations-and-disbursements-non-arra-august-2015.csv","RCPT_NM","uri",".*?$(?<!\.aspx)"
"/data/datasets/datagov/data/data/datagovdata/rural-development-obligations-and-disbursements-non-arra-august-2015.csv","RCPT_CTRY_NM","uri",".*?$(?<!\.aspx)"
"/data/datasets/datagov/data/data/datagovdata/rural-development-obligations-and-disbursements-non-arra-august-2015.csv","MNR_IND","uri",".*?$(?<!\.aspx)"
"/data/datasets/datagov/data/data/datagovdata/rural-development-obligations-and-disbursements-non-arra-august-2015.csv","PERF_CITY_NM","uri",".*?$(?<!\.aspx)"
"/data/datasets/datagov/data/data/datagovdata/rural-development-obligations-and-disbursements-non-arra-august-2015.csv","RCPT_ZIP_CD","uri",".*?$(?<!\.aspx)"
"/data/datasets/datagov/data/data/datagovdata/rural-development-obligations-and-disbursements-non-arra-august-2015.csv","RCPT_ST_ADDR2","uri",".*?$(?<!\.aspx)"
"/data/datasets/datagov/data/data/datagovdata/rural-development-obligations-and-disbursements-non-arra-august-2015.csv","PROJ_AWRD_DESCR","uri",".*?$(?<!\.aspx)"
"/data/datasets/datagov/data/data/datagovdata/rural-development-obligations-and-disbursements-non-arra-august-2015.csv","POP_FIPS_CD","strings","[^""\r\n]*"
"/data/datasets/datagov/data/data/datagovdata/rural-development-obligations-and-disbursements-non-arra-august-2015.csv","ASST_TRANS_TYPE","numbers","^\d$"
"/data/datasets/datagov/data/data/datagovdata/rural-development-obligations-and-disbursements-non-arra-august-2015.csv","SBSD_CST_AMT","numbers","^\d$"
"/data/datasets/datagov/data/data/datagovdata/rural-development-obligations-and-disbursements-non-arra-august-2015.csv","PERF_CTRY_CD3","uri",".*?$(?<!\.aspx)"
"/data/datasets/datagov/data/data/datagovdata/rural-development-obligations-and-disbursements-non-arra-august-2015.csv","PGM_SRC","numbers","^\d$"
"/data/datasets/datagov/data/data/datagovdata/rural-development-obligations-and-disbursements-non-arra-august-2015.csv","PERF_ST_ADDR1","uri",".*?$(?<!\.aspx)"
"/data/datasets/datagov/data/data/datagovdata/rural-development-obligations-and-disbursements-non-arra-august-2015.csv","CORR_LATE_IND","uri",".*?$(?<!\.aspx)"
"/data/datasets/datagov/data/data/datagovdata/rural-development-obligations-and-disbursements-non-arra-august-2015.csv","RCPT_CONGR_DISTR","numbers","^\d$"
"/data/datasets/datagov/data/data/datagovdata/rural-development-obligations-and-disbursements-non-arra-august-2015.csv","ST_APPL_ID","uri",".*?$(?<!\.aspx)"
"/data/datasets/datagov/data/data/datagovdata/rural-development-obligations-and-disbursements-non-arra-august-2015.csv","RCPT_CITY_CD","uri",".*?$(?<!\.aspx)"
"/data/datasets/datagov/data/data/datagovdata/rural-development-obligations-and-disbursements-non-arra-august-2015.csv","RCPT_REC_TYPE","numbers","^\d$"
"/data/datasets/datagov/data/data/datagovdata/rural-development-obligations-and-disbursements-non-arra-august-2015.csv","RCPT_CITY_NM","uri",".*?$(?<!\.aspx)"
"/data/datasets/datagov/data/data/datagovdata/rural-development-obligations-and-disbursements-non-arra-august-2015.csv","PERF_ZIP_CD","uri",".*?$(?<!\.aspx)"
"/data/datasets/datagov/data/data/datagovdata/rural-development-obligations-and-disbursements-non-arra-august-2015.csv","STRT_DT","uri",".*?$(?<!\.aspx)"
