"file_name","column_name","label","regex"
"/data/datasets/datagov/data/data/datagovdata/school-improvement-2010-grants.csv","Location","uri","^[^\\\/\?\*\""\'\>\<\:\|]*$"
"/data/datasets/datagov/data/data/datagovdata/school-improvement-2010-grants.csv","2010/11/Award Amount","numbers","^\$?\d+(\.(\d{2}))?$"
"/data/datasets/datagov/data/data/datagovdata/school-improvement-2010-grants.csv","Model Selected","uri","^[^\\\/\?\*\""\'\>\<\:\|]*$"
"/data/datasets/datagov/data/data/datagovdata/school-improvement-2010-grants.csv","School Name","strings","[^""\r\n]*"
"/data/datasets/datagov/data/data/datagovdata/school-improvement-2010-grants.csv","District Name","uri","^[^\\\/\?\*\""\'\>\<\:\|]*$"
"/data/datasets/datagov/data/data/datagovdata/school-improvement-2010-grants.csv","City","uri","^[^\\\/\?\*\""\'\>\<\:\|]*$"
"/data/datasets/datagov/data/data/datagovdata/school-improvement-2010-grants.csv","State","uri","^[^\\\/\?\*\""\'\>\<\:\|]*$"
