"file_name","column_name","label","regex"
"/data/datasets/datagov/data/data/datagovdata/2014-transportation-department-rights-of-way-inventory-list.csv","Location 1","uri",".*?$(?<!\.aspx)"
"/data/datasets/datagov/data/data/datagovdata/2014-transportation-department-rights-of-way-inventory-list.csv","COUNTY","uri",".*?$(?<!\.aspx)"
"/data/datasets/datagov/data/data/datagovdata/2014-transportation-department-rights-of-way-inventory-list.csv","LIST VALUE","numbers","^-?\d*(\.\d+)?$"
"/data/datasets/datagov/data/data/datagovdata/2014-transportation-department-rights-of-way-inventory-list.csv","BEGINNING POINT OF LONGITUTDE","numbers","^-?\d*(\.\d+)?$"
"/data/datasets/datagov/data/data/datagovdata/2014-transportation-department-rights-of-way-inventory-list.csv","SUBSECTION ID","uri",".*?$(?<!\.aspx)"
"/data/datasets/datagov/data/data/datagovdata/2014-transportation-department-rights-of-way-inventory-list.csv","PROPERTY CLASSIFICATION","uri",".*?$(?<!\.aspx)"
"/data/datasets/datagov/data/data/datagovdata/2014-transportation-department-rights-of-way-inventory-list.csv","BEGINNING POINT OF LATITUDE","numbers","^-?\d*(\.\d+)?$"
"/data/datasets/datagov/data/data/datagovdata/2014-transportation-department-rights-of-way-inventory-list.csv","SECTION TOWNSHIP RANGE","uri",".*?$(?<!\.aspx)"
"/data/datasets/datagov/data/data/datagovdata/2014-transportation-department-rights-of-way-inventory-list.csv","STATE AGENCY","uri",".*?$(?<!\.aspx)"
"/data/datasets/datagov/data/data/datagovdata/2014-transportation-department-rights-of-way-inventory-list.csv","USAGE BY STATE","uri",".*?$(?<!\.aspx)"
"/data/datasets/datagov/data/data/datagovdata/2014-transportation-department-rights-of-way-inventory-list.csv","% OF PROPERTY BEING UTILIZED","numbers","^-?\d*(\.\d+)?$"
"/data/datasets/datagov/data/data/datagovdata/2014-transportation-department-rights-of-way-inventory-list.csv","PURPOSE","address_or_phone","(\d{4,6})"
"/data/datasets/datagov/data/data/datagovdata/2014-transportation-department-rights-of-way-inventory-list.csv","% OF ACRES BEING LEASED","numbers","^-?\d*(\.\d+)?$"
"/data/datasets/datagov/data/data/datagovdata/2014-transportation-department-rights-of-way-inventory-list.csv","TYPE OF PROPERTY","uri",".*?$(?<!\.aspx)"
"/data/datasets/datagov/data/data/datagovdata/2014-transportation-department-rights-of-way-inventory-list.csv","ACRES OF LAND USED BY STATE","numbers","^-?\d*(\.\d+)?$"
"/data/datasets/datagov/data/data/datagovdata/2014-transportation-department-rights-of-way-inventory-list.csv","ACRES OF UNDEVELOPED LAND","numbers","^-?\d*(\.\d+)?$"
