"file_name","column_name","label","regex"
"/data/datasets/datagov/data/data/datagovdata/tgr2006se_guad_lpt.csv","NAME","uri",".*?$(?<!\.aspx)"
"/data/datasets/datagov/data/data/datagovdata/tgr2006se_guad_lpt.csv","CFCC","uri",".*?$(?<!\.aspx)"
"/data/datasets/datagov/data/data/datagovdata/tgr2006se_guad_lpt.csv","GIST_ID","numbers","^\d*$"
