"file_name","column_name","label","regex"
"/data/datasets/datagov/data/data/datagovdata/miles-of-streets-ae88a.csv","Jurisdiction","uri",".*?$(?<!\.aspx)"
"/data/datasets/datagov/data/data/datagovdata/miles-of-streets-ae88a.csv","JurisdictionGroup","uri",".*?$(?<!\.aspx)"
"/data/datasets/datagov/data/data/datagovdata/miles-of-streets-ae88a.csv","Miles","numbers","^(\d|,)*\.?\d*$"
