"file_name","column_name","label","regex"
"/data/datasets/datagov/data/data/datagovdata/pet-data-2015-animal-control-officer-service-calls.csv","Service Calls","numbers","^(\d|,)*\.?\d*$"
"/data/datasets/datagov/data/data/datagovdata/pet-data-2015-animal-control-officer-service-calls.csv","Month","uri",".*?$(?<!\.aspx)"
