"file_name","column_name","label","regex"
"/data/datasets/datagov/data/data/datagovdata/idot-multi-year-programming-2012-2017-spot-improvements-73430.csv","TYPE","uri",".*?$(?<!\.aspx)"
"/data/datasets/datagov/data/data/datagovdata/idot-multi-year-programming-2012-2017-spot-improvements-73430.csv","RTYPE11","uri",".*?$(?<!\.aspx)"
"/data/datasets/datagov/data/data/datagovdata/idot-multi-year-programming-2012-2017-spot-improvements-73430.csv","IMPRVMNT7","uri",".*?$(?<!\.aspx)"
"/data/datasets/datagov/data/data/datagovdata/idot-multi-year-programming-2012-2017-spot-improvements-73430.csv","MILES_FMT","uri",".*?$(?<!\.aspx)"
"/data/datasets/datagov/data/data/datagovdata/idot-multi-year-programming-2012-2017-spot-improvements-73430.csv","LOCATION4","uri",".*?$(?<!\.aspx)"
"/data/datasets/datagov/data/data/datagovdata/idot-multi-year-programming-2012-2017-spot-improvements-73430.csv","IMPRVMNT13","uri",".*?$(?<!\.aspx)"
"/data/datasets/datagov/data/data/datagovdata/idot-multi-year-programming-2012-2017-spot-improvements-73430.csv","LOCATION11","uri",".*?$(?<!\.aspx)"
"/data/datasets/datagov/data/data/datagovdata/idot-multi-year-programming-2012-2017-spot-improvements-73430.csv","END_STA","numbers","^(\d|,)*\.?\d*$"
"/data/datasets/datagov/data/data/datagovdata/idot-multi-year-programming-2012-2017-spot-improvements-73430.csv","TRACDESC4","uri",".*?$(?<!\.aspx)"
"/data/datasets/datagov/data/data/datagovdata/idot-multi-year-programming-2012-2017-spot-improvements-73430.csv","FOOTNOTES1","uri",".*?$(?<!\.aspx)"
"/data/datasets/datagov/data/data/datagovdata/idot-multi-year-programming-2012-2017-spot-improvements-73430.csv","YRS_IN_PGM","numbers","^(\d|,)*\.?\d*$"
"/data/datasets/datagov/data/data/datagovdata/idot-multi-year-programming-2012-2017-spot-improvements-73430.csv","IMPRVMNT9","uri",".*?$(?<!\.aspx)"
"/data/datasets/datagov/data/data/datagovdata/idot-multi-year-programming-2012-2017-spot-improvements-73430.csv","EST_COST_F","numbers","^(\d|,)*\.?\d*$"
"/data/datasets/datagov/data/data/datagovdata/idot-multi-year-programming-2012-2017-spot-improvements-73430.csv","ROUTE6","uri",".*?$(?<!\.aspx)"
"/data/datasets/datagov/data/data/datagovdata/idot-multi-year-programming-2012-2017-spot-improvements-73430.csv","INVENTORY","uri",".*?$(?<!\.aspx)"
"/data/datasets/datagov/data/data/datagovdata/idot-multi-year-programming-2012-2017-spot-improvements-73430.csv","RTYPE7","uri",".*?$(?<!\.aspx)"
"/data/datasets/datagov/data/data/datagovdata/idot-multi-year-programming-2012-2017-spot-improvements-73430.csv","ROUTE4","uri",".*?$(?<!\.aspx)"
"/data/datasets/datagov/data/data/datagovdata/idot-multi-year-programming-2012-2017-spot-improvements-73430.csv","LOCATION6","uri",".*?$(?<!\.aspx)"
"/data/datasets/datagov/data/data/datagovdata/idot-multi-year-programming-2012-2017-spot-improvements-73430.csv","RTYPE15","uri",".*?$(?<!\.aspx)"
"/data/datasets/datagov/data/data/datagovdata/idot-multi-year-programming-2012-2017-spot-improvements-73430.csv","TRACDESC6","uri",".*?$(?<!\.aspx)"
"/data/datasets/datagov/data/data/datagovdata/idot-multi-year-programming-2012-2017-spot-improvements-73430.csv","TRACDESC1","uri",".*?$(?<!\.aspx)"
"/data/datasets/datagov/data/data/datagovdata/idot-multi-year-programming-2012-2017-spot-improvements-73430.csv","COUNTY_NAM","uri",".*?$(?<!\.aspx)"
"/data/datasets/datagov/data/data/datagovdata/idot-multi-year-programming-2012-2017-spot-improvements-73430.csv","FOOTNOTES3","uri",".*?$(?<!\.aspx)"
"/data/datasets/datagov/data/data/datagovdata/idot-multi-year-programming-2012-2017-spot-improvements-73430.csv","FOOTNOTES4","uri",".*?$(?<!\.aspx)"
"/data/datasets/datagov/data/data/datagovdata/idot-multi-year-programming-2012-2017-spot-improvements-73430.csv","IMPRVMNT1","strings","[^""\r\n]*"
"/data/datasets/datagov/data/data/datagovdata/idot-multi-year-programming-2012-2017-spot-improvements-73430.csv","LOCATION2","strings","[^""\r\n]*"
"/data/datasets/datagov/data/data/datagovdata/idot-multi-year-programming-2012-2017-spot-improvements-73430.csv","RTYPE9","uri",".*?$(?<!\.aspx)"
"/data/datasets/datagov/data/data/datagovdata/idot-multi-year-programming-2012-2017-spot-improvements-73430.csv","IMPRVMNT12","uri",".*?$(?<!\.aspx)"
"/data/datasets/datagov/data/data/datagovdata/idot-multi-year-programming-2012-2017-spot-improvements-73430.csv","RECORD","numbers","^(\d|,)*\.?\d*$"
"/data/datasets/datagov/data/data/datagovdata/idot-multi-year-programming-2012-2017-spot-improvements-73430.csv","BEGIN_STA","numbers","^(\d|,)*\.?\d*$"
"/data/datasets/datagov/data/data/datagovdata/idot-multi-year-programming-2012-2017-spot-improvements-73430.csv","LOCATION9","uri",".*?$(?<!\.aspx)"
"/data/datasets/datagov/data/data/datagovdata/idot-multi-year-programming-2012-2017-spot-improvements-73430.csv","IMPRVMNT6","uri",".*?$(?<!\.aspx)"
"/data/datasets/datagov/data/data/datagovdata/idot-multi-year-programming-2012-2017-spot-improvements-73430.csv","POINT_X","numbers","^(\d|,)*\.?\d*$"
"/data/datasets/datagov/data/data/datagovdata/idot-multi-year-programming-2012-2017-spot-improvements-73430.csv","ROUTE10","uri",".*?$(?<!\.aspx)"
"/data/datasets/datagov/data/data/datagovdata/idot-multi-year-programming-2012-2017-spot-improvements-73430.csv","RTYPE6","uri",".*?$(?<!\.aspx)"
"/data/datasets/datagov/data/data/datagovdata/idot-multi-year-programming-2012-2017-spot-improvements-73430.csv","RTYPE2","uri",".*?$(?<!\.aspx)"
"/data/datasets/datagov/data/data/datagovdata/idot-multi-year-programming-2012-2017-spot-improvements-73430.csv","LOCATION13","uri",".*?$(?<!\.aspx)"
"/data/datasets/datagov/data/data/datagovdata/idot-multi-year-programming-2012-2017-spot-improvements-73430.csv","TRACDESC9","uri",".*?$(?<!\.aspx)"
"/data/datasets/datagov/data/data/datagovdata/idot-multi-year-programming-2012-2017-spot-improvements-73430.csv","ROUTE1","uri",".*?$(?<!\.aspx)"
"/data/datasets/datagov/data/data/datagovdata/idot-multi-year-programming-2012-2017-spot-improvements-73430.csv","TRACDESC2","uri",".*?$(?<!\.aspx)"
"/data/datasets/datagov/data/data/datagovdata/idot-multi-year-programming-2012-2017-spot-improvements-73430.csv","ROUTE11","uri",".*?$(?<!\.aspx)"
"/data/datasets/datagov/data/data/datagovdata/idot-multi-year-programming-2012-2017-spot-improvements-73430.csv","LOC_DIST_N","numbers","^(\d|,)*\.?\d*$"
"/data/datasets/datagov/data/data/datagovdata/idot-multi-year-programming-2012-2017-spot-improvements-73430.csv","RTYPE14","uri",".*?$(?<!\.aspx)"
"/data/datasets/datagov/data/data/datagovdata/idot-multi-year-programming-2012-2017-spot-improvements-73430.csv","IMPRVMNT14","uri",".*?$(?<!\.aspx)"
"/data/datasets/datagov/data/data/datagovdata/idot-multi-year-programming-2012-2017-spot-improvements-73430.csv","RTYPE10","uri",".*?$(?<!\.aspx)"
"/data/datasets/datagov/data/data/datagovdata/idot-multi-year-programming-2012-2017-spot-improvements-73430.csv","AREA_","numbers","^(\d|,)*\.?\d*$"
"/data/datasets/datagov/data/data/datagovdata/idot-multi-year-programming-2012-2017-spot-improvements-73430.csv","FOOTNOTES5","uri",".*?$(?<!\.aspx)"
"/data/datasets/datagov/data/data/datagovdata/idot-multi-year-programming-2012-2017-spot-improvements-73430.csv","PERIMETER","numbers","^(\d|,)*\.?\d*$"
"/data/datasets/datagov/data/data/datagovdata/idot-multi-year-programming-2012-2017-spot-improvements-73430.csv","LOCATION7","uri",".*?$(?<!\.aspx)"
"/data/datasets/datagov/data/data/datagovdata/idot-multi-year-programming-2012-2017-spot-improvements-73430.csv","RTYPE4","uri",".*?$(?<!\.aspx)"
"/data/datasets/datagov/data/data/datagovdata/idot-multi-year-programming-2012-2017-spot-improvements-73430.csv","ROUTE8","uri",".*?$(?<!\.aspx)"
"/data/datasets/datagov/data/data/datagovdata/idot-multi-year-programming-2012-2017-spot-improvements-73430.csv","ROUTE3","uri",".*?$(?<!\.aspx)"
"/data/datasets/datagov/data/data/datagovdata/idot-multi-year-programming-2012-2017-spot-improvements-73430.csv","IMPRVMNT5","uri",".*?$(?<!\.aspx)"
"/data/datasets/datagov/data/data/datagovdata/idot-multi-year-programming-2012-2017-spot-improvements-73430.csv","TRACDESC7","uri",".*?$(?<!\.aspx)"
"/data/datasets/datagov/data/data/datagovdata/idot-multi-year-programming-2012-2017-spot-improvements-73430.csv","PPS_PROJEC","numbers","^(\d|,)*\.?\d*$"
"/data/datasets/datagov/data/data/datagovdata/idot-multi-year-programming-2012-2017-spot-improvements-73430.csv","ROUTE13","uri",".*?$(?<!\.aspx)"
"/data/datasets/datagov/data/data/datagovdata/idot-multi-year-programming-2012-2017-spot-improvements-73430.csv","ROUTE14","uri",".*?$(?<!\.aspx)"
"/data/datasets/datagov/data/data/datagovdata/idot-multi-year-programming-2012-2017-spot-improvements-73430.csv","FOOTNOTES2","uri",".*?$(?<!\.aspx)"
"/data/datasets/datagov/data/data/datagovdata/idot-multi-year-programming-2012-2017-spot-improvements-73430.csv","POINT_Y","numbers","^(\d|,)*\.?\d*$"
"/data/datasets/datagov/data/data/datagovdata/idot-multi-year-programming-2012-2017-spot-improvements-73430.csv","RTYPE12","uri",".*?$(?<!\.aspx)"
"/data/datasets/datagov/data/data/datagovdata/idot-multi-year-programming-2012-2017-spot-improvements-73430.csv","LOCATION8","uri",".*?$(?<!\.aspx)"
"/data/datasets/datagov/data/data/datagovdata/idot-multi-year-programming-2012-2017-spot-improvements-73430.csv","FOOTNOTES7","uri",".*?$(?<!\.aspx)"
"/data/datasets/datagov/data/data/datagovdata/idot-multi-year-programming-2012-2017-spot-improvements-73430.csv","IMPRVMNT8","uri",".*?$(?<!\.aspx)"
"/data/datasets/datagov/data/data/datagovdata/idot-multi-year-programming-2012-2017-spot-improvements-73430.csv","LOCATION12","uri",".*?$(?<!\.aspx)"
"/data/datasets/datagov/data/data/datagovdata/idot-multi-year-programming-2012-2017-spot-improvements-73430.csv","IMPRVMNT10","uri",".*?$(?<!\.aspx)"
"/data/datasets/datagov/data/data/datagovdata/idot-multi-year-programming-2012-2017-spot-improvements-73430.csv","TRACDESC8","uri",".*?$(?<!\.aspx)"
"/data/datasets/datagov/data/data/datagovdata/idot-multi-year-programming-2012-2017-spot-improvements-73430.csv","PRJ_REC_TY","uri",".*?$(?<!\.aspx)"
"/data/datasets/datagov/data/data/datagovdata/idot-multi-year-programming-2012-2017-spot-improvements-73430.csv","IMPRVMNT2","strings","[^""\r\n]*"
"/data/datasets/datagov/data/data/datagovdata/idot-multi-year-programming-2012-2017-spot-improvements-73430.csv","FREQUENCY","numbers","^(\d|,)*\.?\d*$"
"/data/datasets/datagov/data/data/datagovdata/idot-multi-year-programming-2012-2017-spot-improvements-73430.csv","TRACDESC10","uri",".*?$(?<!\.aspx)"
"/data/datasets/datagov/data/data/datagovdata/idot-multi-year-programming-2012-2017-spot-improvements-73430.csv","IMPRVMNT4","strings","[^""\r\n]*"
"/data/datasets/datagov/data/data/datagovdata/idot-multi-year-programming-2012-2017-spot-improvements-73430.csv","LOCATION3","uri",".*?$(?<!\.aspx)"
"/data/datasets/datagov/data/data/datagovdata/idot-multi-year-programming-2012-2017-spot-improvements-73430.csv","FOOTNOTES8","uri",".*?$(?<!\.aspx)"
"/data/datasets/datagov/data/data/datagovdata/idot-multi-year-programming-2012-2017-spot-improvements-73430.csv","ROUTE7","uri",".*?$(?<!\.aspx)"
"/data/datasets/datagov/data/data/datagovdata/idot-multi-year-programming-2012-2017-spot-improvements-73430.csv","TRACDESC3","uri",".*?$(?<!\.aspx)"
"/data/datasets/datagov/data/data/datagovdata/idot-multi-year-programming-2012-2017-spot-improvements-73430.csv","LOCATION10","uri",".*?$(?<!\.aspx)"
"/data/datasets/datagov/data/data/datagovdata/idot-multi-year-programming-2012-2017-spot-improvements-73430.csv","IMPRVMNT15","uri",".*?$(?<!\.aspx)"
"/data/datasets/datagov/data/data/datagovdata/idot-multi-year-programming-2012-2017-spot-improvements-73430.csv","ROUTE5","uri",".*?$(?<!\.aspx)"
"/data/datasets/datagov/data/data/datagovdata/idot-multi-year-programming-2012-2017-spot-improvements-73430.csv","ROUTE15","uri",".*?$(?<!\.aspx)"
"/data/datasets/datagov/data/data/datagovdata/idot-multi-year-programming-2012-2017-spot-improvements-73430.csv","YEAR","numbers","^(\d|,)*\.?\d*$"
"/data/datasets/datagov/data/data/datagovdata/idot-multi-year-programming-2012-2017-spot-improvements-73430.csv","LOCATION5","uri",".*?$(?<!\.aspx)"
"/data/datasets/datagov/data/data/datagovdata/idot-multi-year-programming-2012-2017-spot-improvements-73430.csv","RTYPE5","uri",".*?$(?<!\.aspx)"
"/data/datasets/datagov/data/data/datagovdata/idot-multi-year-programming-2012-2017-spot-improvements-73430.csv","RTYPE1","uri",".*?$(?<!\.aspx)"
"/data/datasets/datagov/data/data/datagovdata/idot-multi-year-programming-2012-2017-spot-improvements-73430.csv","ROUTE2","uri",".*?$(?<!\.aspx)"
"/data/datasets/datagov/data/data/datagovdata/idot-multi-year-programming-2012-2017-spot-improvements-73430.csv","TRACDESC5","uri",".*?$(?<!\.aspx)"
"/data/datasets/datagov/data/data/datagovdata/idot-multi-year-programming-2012-2017-spot-improvements-73430.csv","ROUTE12","uri",".*?$(?<!\.aspx)"
"/data/datasets/datagov/data/data/datagovdata/idot-multi-year-programming-2012-2017-spot-improvements-73430.csv","PUB_DESC","address_or_phone","(\d{4,6})"
"/data/datasets/datagov/data/data/datagovdata/idot-multi-year-programming-2012-2017-spot-improvements-73430.csv","STRUCTURE_","uri",".*?$(?<!\.aspx)"
"/data/datasets/datagov/data/data/datagovdata/idot-multi-year-programming-2012-2017-spot-improvements-73430.csv","RTYPE13","uri",".*?$(?<!\.aspx)"
"/data/datasets/datagov/data/data/datagovdata/idot-multi-year-programming-2012-2017-spot-improvements-73430.csv","LOCATION1","strings","[^""\r\n]*"
"/data/datasets/datagov/data/data/datagovdata/idot-multi-year-programming-2012-2017-spot-improvements-73430.csv","FOOTNOTES6","uri",".*?$(?<!\.aspx)"
"/data/datasets/datagov/data/data/datagovdata/idot-multi-year-programming-2012-2017-spot-improvements-73430.csv","FOOTNOTES9","uri",".*?$(?<!\.aspx)"
"/data/datasets/datagov/data/data/datagovdata/idot-multi-year-programming-2012-2017-spot-improvements-73430.csv","LOCATION14","uri",".*?$(?<!\.aspx)"
"/data/datasets/datagov/data/data/datagovdata/idot-multi-year-programming-2012-2017-spot-improvements-73430.csv","IMPRVMNT11","uri",".*?$(?<!\.aspx)"
"/data/datasets/datagov/data/data/datagovdata/idot-multi-year-programming-2012-2017-spot-improvements-73430.csv","ROUTE9","uri",".*?$(?<!\.aspx)"
"/data/datasets/datagov/data/data/datagovdata/idot-multi-year-programming-2012-2017-spot-improvements-73430.csv","IMPRVMNT3","strings","[^""\r\n]*"
"/data/datasets/datagov/data/data/datagovdata/idot-multi-year-programming-2012-2017-spot-improvements-73430.csv","RTYPE3","uri",".*?$(?<!\.aspx)"
"/data/datasets/datagov/data/data/datagovdata/idot-multi-year-programming-2012-2017-spot-improvements-73430.csv","RTYPE8","uri",".*?$(?<!\.aspx)"
