"file_name","column_name","label","regex"
"/data/datasets/datagov/data/data/datagovdata/fdic-failed-bank-list.csv","CERT","numbers","^\d*$"
"/data/datasets/datagov/data/data/datagovdata/fdic-failed-bank-list.csv","Closing Date","uri",".*?$(?<!\.aspx)"
"/data/datasets/datagov/data/data/datagovdata/fdic-failed-bank-list.csv","Acquiring Institution","uri",".*?$(?<!\.aspx)"
"/data/datasets/datagov/data/data/datagovdata/fdic-failed-bank-list.csv","Updated Date","uri",".*?$(?<!\.aspx)"
"/data/datasets/datagov/data/data/datagovdata/fdic-failed-bank-list.csv","City","uri",".*?$(?<!\.aspx)"
"/data/datasets/datagov/data/data/datagovdata/fdic-failed-bank-list.csv","ST","uri",".*?$(?<!\.aspx)"
"/data/datasets/datagov/data/data/datagovdata/fdic-failed-bank-list.csv","Bank Name","uri",".*?$(?<!\.aspx)"
