"file_name","column_name","label","regex"
"/data/datasets/datagov/data/data/datagovdata/better-brakes-list-of-certified-parts-7a1b9.csv","ManufacturerName","uri",".*?$(?<!\.aspx)"
"/data/datasets/datagov/data/data/datagovdata/better-brakes-list-of-certified-parts-7a1b9.csv","ComplianceLevelCode","uri",".*?$(?<!\.aspx)"
"/data/datasets/datagov/data/data/datagovdata/better-brakes-list-of-certified-parts-7a1b9.csv","CertificationStartDate","strings","[^""\r\n]*"
"/data/datasets/datagov/data/data/datagovdata/better-brakes-list-of-certified-parts-7a1b9.csv","CertificationEndDate","strings","[^""\r\n]*"
"/data/datasets/datagov/data/data/datagovdata/better-brakes-list-of-certified-parts-7a1b9.csv","EdgeCode","strings","[^""\r\n]*"
