"file_name","column_name","label","regex"
"/data/datasets/datagov/data/data/datagovdata/maryland-number-of-retail-establishments-1997-2002-2007-ba820.csv","Date created","strings","[^""\r\n]*"
"/data/datasets/datagov/data/data/datagovdata/maryland-number-of-retail-establishments-1997-2002-2007-ba820.csv","Carroll County","numbers","^\d*$"
"/data/datasets/datagov/data/data/datagovdata/maryland-number-of-retail-establishments-1997-2002-2007-ba820.csv","Garrett County","numbers","^\d*$"
"/data/datasets/datagov/data/data/datagovdata/maryland-number-of-retail-establishments-1997-2002-2007-ba820.csv","Cecil County","numbers","^\d*$"
"/data/datasets/datagov/data/data/datagovdata/maryland-number-of-retail-establishments-1997-2002-2007-ba820.csv","Kent County","numbers","^\d*$"
"/data/datasets/datagov/data/data/datagovdata/maryland-number-of-retail-establishments-1997-2002-2007-ba820.csv","MARYLAND","numbers","^\d*$"
"/data/datasets/datagov/data/data/datagovdata/maryland-number-of-retail-establishments-1997-2002-2007-ba820.csv","St. Mary's County","numbers","^\d*$"
"/data/datasets/datagov/data/data/datagovdata/maryland-number-of-retail-establishments-1997-2002-2007-ba820.csv","Washington County","numbers","^\d*$"
"/data/datasets/datagov/data/data/datagovdata/maryland-number-of-retail-establishments-1997-2002-2007-ba820.csv","Anne Arundel County","numbers","^\d*$"
"/data/datasets/datagov/data/data/datagovdata/maryland-number-of-retail-establishments-1997-2002-2007-ba820.csv","Baltimore City","numbers","^\d*$"
"/data/datasets/datagov/data/data/datagovdata/maryland-number-of-retail-establishments-1997-2002-2007-ba820.csv","Caroline County","numbers","^\d*$"
"/data/datasets/datagov/data/data/datagovdata/maryland-number-of-retail-establishments-1997-2002-2007-ba820.csv","Prince George's County","numbers","^\d*$"
"/data/datasets/datagov/data/data/datagovdata/maryland-number-of-retail-establishments-1997-2002-2007-ba820.csv","Calvert County","numbers","^\d*$"
"/data/datasets/datagov/data/data/datagovdata/maryland-number-of-retail-establishments-1997-2002-2007-ba820.csv","Somerset County","numbers","^\d*$"
"/data/datasets/datagov/data/data/datagovdata/maryland-number-of-retail-establishments-1997-2002-2007-ba820.csv","Allegany County","numbers","^\d*$"
"/data/datasets/datagov/data/data/datagovdata/maryland-number-of-retail-establishments-1997-2002-2007-ba820.csv","Montgomery County","numbers","^\d*$"
"/data/datasets/datagov/data/data/datagovdata/maryland-number-of-retail-establishments-1997-2002-2007-ba820.csv","Dorchester County","numbers","^\d*$"
"/data/datasets/datagov/data/data/datagovdata/maryland-number-of-retail-establishments-1997-2002-2007-ba820.csv","Queen Anne's County","numbers","^\d*$"
"/data/datasets/datagov/data/data/datagovdata/maryland-number-of-retail-establishments-1997-2002-2007-ba820.csv","Frederick County","numbers","^\d*$"
"/data/datasets/datagov/data/data/datagovdata/maryland-number-of-retail-establishments-1997-2002-2007-ba820.csv","Talbot County","numbers","^\d*$"
"/data/datasets/datagov/data/data/datagovdata/maryland-number-of-retail-establishments-1997-2002-2007-ba820.csv","Wicomico County","numbers","^\d*$"
"/data/datasets/datagov/data/data/datagovdata/maryland-number-of-retail-establishments-1997-2002-2007-ba820.csv","Harford County","numbers","^\d*$"
"/data/datasets/datagov/data/data/datagovdata/maryland-number-of-retail-establishments-1997-2002-2007-ba820.csv","Worcester County","numbers","^\d*$"
"/data/datasets/datagov/data/data/datagovdata/maryland-number-of-retail-establishments-1997-2002-2007-ba820.csv","Charles County","numbers","^\d*$"
"/data/datasets/datagov/data/data/datagovdata/maryland-number-of-retail-establishments-1997-2002-2007-ba820.csv","Year","numbers","^\d*$"
"/data/datasets/datagov/data/data/datagovdata/maryland-number-of-retail-establishments-1997-2002-2007-ba820.csv","Howard County","numbers","^\d*$"
"/data/datasets/datagov/data/data/datagovdata/maryland-number-of-retail-establishments-1997-2002-2007-ba820.csv","Baltimore County","numbers","^\d*$"
