"file_name","column_name","label","regex"
"/data/datasets/datagov/data/data/datagovdata/mohegan-sun-slot-machine-contributions.csv","eBonus Credits Redeemed at Slot Machines (2)","numbers","^\$?\d+(\.(\d{2}))?$"
"/data/datasets/datagov/data/data/datagovdata/mohegan-sun-slot-machine-contributions.csv","Fiscal Year/Month","strings","[^""\r\n]*"
"/data/datasets/datagov/data/data/datagovdata/mohegan-sun-slot-machine-contributions.csv","Total Contributions (1)","numbers","^\$?\d+(\.(\d{2}))?$"
"/data/datasets/datagov/data/data/datagovdata/mohegan-sun-slot-machine-contributions.csv","Handle","numbers","^\$?\d+(\.(\d{2}))?$"
"/data/datasets/datagov/data/data/datagovdata/mohegan-sun-slot-machine-contributions.csv","eBonus Contribution (3)","numbers","^\$?\d+(\.(\d{2}))?$"
"/data/datasets/datagov/data/data/datagovdata/mohegan-sun-slot-machine-contributions.csv","Slot Machine Contributions to State of Connecticut (1) (6)","numbers","^\$?\d+(\.(\d{2}))?$"
"/data/datasets/datagov/data/data/datagovdata/mohegan-sun-slot-machine-contributions.csv","Hold %","numbers","^\$?\d+(\.(\d{2}))?$"
"/data/datasets/datagov/data/data/datagovdata/mohegan-sun-slot-machine-contributions.csv","Win","numbers","^\$?\d+(\.(\d{2}))?$"
"/data/datasets/datagov/data/data/datagovdata/mohegan-sun-slot-machine-contributions.csv","Weighted Average # of Machines","strings","[^""\r\n]*"
"/data/datasets/datagov/data/data/datagovdata/mohegan-sun-slot-machine-contributions.csv","Payout %","numbers","^\$?\d+(\.(\d{2}))?$"
