"file_name","column_name","label","regex"
"/data/datasets/datagov/data/data/datagovdata/cta-ridership-bus-routes-monthly-day-type-averages-totals-7a070.csv","Month_Beginning","strings","[^""\r\n]*"
"/data/datasets/datagov/data/data/datagovdata/cta-ridership-bus-routes-monthly-day-type-averages-totals-7a070.csv","Avg_Sunday-Holiday_Rides","numbers","^\d*$"
"/data/datasets/datagov/data/data/datagovdata/cta-ridership-bus-routes-monthly-day-type-averages-totals-7a070.csv","Avg_Weekday_Rides","numbers","^\d*$"
"/data/datasets/datagov/data/data/datagovdata/cta-ridership-bus-routes-monthly-day-type-averages-totals-7a070.csv","Avg_Saturday_Rides","numbers","^\d*$"
"/data/datasets/datagov/data/data/datagovdata/cta-ridership-bus-routes-monthly-day-type-averages-totals-7a070.csv","route","uri",".*?$(?<!\.aspx)"
"/data/datasets/datagov/data/data/datagovdata/cta-ridership-bus-routes-monthly-day-type-averages-totals-7a070.csv","routename","strings","[^""\r\n]*"
"/data/datasets/datagov/data/data/datagovdata/cta-ridership-bus-routes-monthly-day-type-averages-totals-7a070.csv","MonthTotal","numbers","^\d*$"
