"file_name","column_name","label","regex"
"/data/datasets/datagov/data/data/datagovdata/q1-2010-real-estate-market-indicators-9ae65.csv","Source","uri",".*?$(?<!\.aspx)"
"/data/datasets/datagov/data/data/datagovdata/q1-2010-real-estate-market-indicators-9ae65.csv","Commercial","strings","[^""\r\n]*"
"/data/datasets/datagov/data/data/datagovdata/q1-2010-real-estate-market-indicators-9ae65.csv","Q4 2009","strings","[^""\r\n]*"
"/data/datasets/datagov/data/data/datagovdata/q1-2010-real-estate-market-indicators-9ae65.csv","Q1 2010","strings","[^""\r\n]*"
"/data/datasets/datagov/data/data/datagovdata/q1-2010-real-estate-market-indicators-9ae65.csv","Q1 2009","strings","[^""\r\n]*"
"/data/datasets/datagov/data/data/datagovdata/q1-2010-real-estate-market-indicators-9ae65.csv","Q1 2001","uri",".*?$(?<!\.aspx)"
