"file_name","column_name","label","regex"
"/data/datasets/datagov/data/data/datagovdata/general-election-results-2010-24a09.csv","Candidate_Type","uri",".*?$(?<!\.aspx)"
"/data/datasets/datagov/data/data/datagovdata/general-election-results-2010-24a09.csv","Contest_id","numbers","^\d*$"
"/data/datasets/datagov/data/data/datagovdata/general-election-results-2010-24a09.csv","Reporting","numbers","^\d*$"
"/data/datasets/datagov/data/data/datagovdata/general-election-results-2010-24a09.csv","Contest_title","strings","[^""\r\n]*"
"/data/datasets/datagov/data/data/datagovdata/general-election-results-2010-24a09.csv","Candidate_name","strings","[^""\r\n]*"
"/data/datasets/datagov/data/data/datagovdata/general-election-results-2010-24a09.csv","Reg_voters","numbers","^\d*$"
"/data/datasets/datagov/data/data/datagovdata/general-election-results-2010-24a09.csv","Choice_id","numbers","^\d*$"
"/data/datasets/datagov/data/data/datagovdata/general-election-results-2010-24a09.csv","Absentee_votes","numbers","^\d*$"
"/data/datasets/datagov/data/data/datagovdata/general-election-results-2010-24a09.csv","Choice_party","uri",".*?$(?<!\.aspx)"
"/data/datasets/datagov/data/data/datagovdata/general-election-results-2010-24a09.csv","Election_Votes","numbers","^\d*$"
"/data/datasets/datagov/data/data/datagovdata/general-election-results-2010-24a09.csv","Precinct_Name","uri",".*?$(?<!\.aspx)"
"/data/datasets/datagov/data/data/datagovdata/general-election-results-2010-24a09.csv","Ballots","numbers","^\d*$"
"/data/datasets/datagov/data/data/datagovdata/general-election-results-2010-24a09.csv","Early_votes","numbers","^\d*$"
"/data/datasets/datagov/data/data/datagovdata/general-election-results-2010-24a09.csv","precinct_splitId","numbers","^\d*$"
