"file_name","column_name","label","regex"
"/data/datasets/datagov/data/data/datagovdata/top-10-separations-fy2014-1bf5b.csv","Job Code","uri",".*?$(?<!\.aspx)"
"/data/datasets/datagov/data/data/datagovdata/top-10-separations-fy2014-1bf5b.csv","Job Description","uri",".*?$(?<!\.aspx)"
"/data/datasets/datagov/data/data/datagovdata/top-10-separations-fy2014-1bf5b.csv","Count","numbers","^\d*$"
