"file_name","column_name","label","regex"
"/data/datasets/datagov/data/data/datagovdata/centerline-rumble-strips-cards-installations-beginning-2012.csv","County","uri",".*?$(?<!\.aspx)"
"/data/datasets/datagov/data/data/datagovdata/centerline-rumble-strips-cards-installations-beginning-2012.csv","To Reference Marker","uri",".*?$(?<!\.aspx)"
"/data/datasets/datagov/data/data/datagovdata/centerline-rumble-strips-cards-installations-beginning-2012.csv","Length in Miles","numbers","^\d*$"
"/data/datasets/datagov/data/data/datagovdata/centerline-rumble-strips-cards-installations-beginning-2012.csv","From Reference Marker","uri",".*?$(?<!\.aspx)"
"/data/datasets/datagov/data/data/datagovdata/centerline-rumble-strips-cards-installations-beginning-2012.csv","Route","uri",".*?$(?<!\.aspx)"
"/data/datasets/datagov/data/data/datagovdata/centerline-rumble-strips-cards-installations-beginning-2012.csv","Year Constructed","numbers","^\d*$"
