"file_name","column_name","label","regex"
"/data/datasets/mitdwh/Master_dept_hierarchy.csv","Master Dept Hier Level 4 Name","uri",".*?$(?<!\.aspx)"
"/data/datasets/mitdwh/Master_dept_hierarchy.csv","Dlc Key","strings","[^""\r\n]*"
"/data/datasets/mitdwh/Master_dept_hierarchy.csv","Master Dept Hier Level 4 Code","uri",".*?$(?<!\.aspx)"
"/data/datasets/mitdwh/Master_dept_hierarchy.csv","Master Dept Hier Level 3 Code","uri",".*?$(?<!\.aspx)"
"/data/datasets/mitdwh/Master_dept_hierarchy.csv","Dlc Name","strings","[^""\r\n]*"
"/data/datasets/mitdwh/Master_dept_hierarchy.csv","Master Dept Hier Level 2 Name","uri",".*?$(?<!\.aspx)"
"/data/datasets/mitdwh/Master_dept_hierarchy.csv","Dlc Code","strings","[^""\r\n]*"
"/data/datasets/mitdwh/Master_dept_hierarchy.csv","Hierarchy Type","uri",".*?$(?<!\.aspx)"
"/data/datasets/mitdwh/Master_dept_hierarchy.csv","Master Dept Hier Level 3 Name","uri",".*?$(?<!\.aspx)"
"/data/datasets/mitdwh/Master_dept_hierarchy.csv","Master Dept Hier Level 2 Code","uri",".*?$(?<!\.aspx)"
"/data/datasets/mitdwh/Master_dept_hierarchy.csv","Master Dept Hier Level 1 Code","uri",".*?$(?<!\.aspx)"
"/data/datasets/mitdwh/Master_dept_hierarchy.csv","Master Dept Hier Level 1 Name","uri",".*?$(?<!\.aspx)"
