"file_name","column_name","label","regex"
"/data/datasets/datagov/data/data/datagovdata/target-community-district-faca2.csv","Community District","uri",".*?$(?<!\.aspx)"
"/data/datasets/datagov/data/data/datagovdata/target-community-district-faca2.csv","Total Probationers Ages 16 - 24 ","numbers","^\d*$"
"/data/datasets/datagov/data/data/datagovdata/target-community-district-faca2.csv","Male Probationers Ages 16-24","numbers","^\d*$"
"/data/datasets/datagov/data/data/datagovdata/target-community-district-faca2.csv","Female Probationers      Ages 16-24","numbers","^\d*$"
"/data/datasets/datagov/data/data/datagovdata/target-community-district-faca2.csv","Borough Name","uri",".*?$(?<!\.aspx)"
