"file_name","column_name","label","regex"
"/data/datasets/datagov/data/data/datagovdata/loans-insured-by-the-cal-mortgage-loan-insurance-program-june-30-2014.csv","Date Loan Insured","strings","[^""\r\n]*"
"/data/datasets/datagov/data/data/datagovdata/loans-insured-by-the-cal-mortgage-loan-insurance-program-june-30-2014.csv","Insured Loan Amount","numbers","^\$?\d+(\.(\d{2}))?$"
"/data/datasets/datagov/data/data/datagovdata/loans-insured-by-the-cal-mortgage-loan-insurance-program-june-30-2014.csv","Borrower Name","uri","^[^\\\/\?\*\""\'\>\<\:\|]*$"
"/data/datasets/datagov/data/data/datagovdata/loans-insured-by-the-cal-mortgage-loan-insurance-program-june-30-2014.csv","Facility City","uri","^[^\\\/\?\*\""\'\>\<\:\|]*$"
"/data/datasets/datagov/data/data/datagovdata/loans-insured-by-the-cal-mortgage-loan-insurance-program-june-30-2014.csv","Facility Type","strings","[^""\r\n]*"
"/data/datasets/datagov/data/data/datagovdata/loans-insured-by-the-cal-mortgage-loan-insurance-program-june-30-2014.csv","Outstanding Principal Balance","numbers","^\$?\d+(\.(\d{2}))?$"
