"file_name","column_name","label","regex"
"/data/datasets/datagov/data/data/datagovdata/asbestos-removal-permits.csv","DATERECV","strings","[^""\r\n]*"
"/data/datasets/datagov/data/data/datagovdata/asbestos-removal-permits.csv","OTHERLF","numbers","^(\d|,)*\.?\d*$"
"/data/datasets/datagov/data/data/datagovdata/asbestos-removal-permits.csv","BOILERLF","numbers","^(\d|,)*\.?\d*$"
"/data/datasets/datagov/data/data/datagovdata/asbestos-removal-permits.csv","OCCUPIED","numbers","^(\d|,)*\.?\d*$"
"/data/datasets/datagov/data/data/datagovdata/asbestos-removal-permits.csv","ENTRYDATE","strings","[^""\r\n]*"
"/data/datasets/datagov/data/data/datagovdata/asbestos-removal-permits.csv","CLOTHSF","numbers","^(\d|,)*\.?\d*$"
"/data/datasets/datagov/data/data/datagovdata/asbestos-removal-permits.csv","TRANSITESF","numbers","^(\d|,)*\.?\d*$"
"/data/datasets/datagov/data/data/datagovdata/asbestos-removal-permits.csv","ABATEPROC","numbers","^(\d|,)*\.?\d*$"
"/data/datasets/datagov/data/data/datagovdata/asbestos-removal-permits.csv","PIPECORSF","numbers","^(\d|,)*\.?\d*$"
"/data/datasets/datagov/data/data/datagovdata/asbestos-removal-permits.csv","PIPESOLLF","numbers","^(\d|,)*\.?\d*$"
"/data/datasets/datagov/data/data/datagovdata/asbestos-removal-permits.csv","NEIGHBORHOOD","uri",".*?$(?<!\.aspx)"
"/data/datasets/datagov/data/data/datagovdata/asbestos-removal-permits.csv","LAB_NAME","uri",".*?$(?<!\.aspx)"
"/data/datasets/datagov/data/data/datagovdata/asbestos-removal-permits.csv","SPRAYONSF","numbers","^(\d|,)*\.?\d*$"
"/data/datasets/datagov/data/data/datagovdata/asbestos-removal-permits.csv","CLOTHLF","numbers","^(\d|,)*\.?\d*$"
"/data/datasets/datagov/data/data/datagovdata/asbestos-removal-permits.csv","NUM_FLOORS","numbers","^(\d|,)*\.?\d*$"
"/data/datasets/datagov/data/data/datagovdata/asbestos-removal-permits.csv","ZIP","numbers","^(\d|,)*\.?\d*$"
"/data/datasets/datagov/data/data/datagovdata/asbestos-removal-permits.csv","PIPECORLF","numbers","^(\d|,)*\.?\d*$"
"/data/datasets/datagov/data/data/datagovdata/asbestos-removal-permits.csv","PIPESOLSF","numbers","^(\d|,)*\.?\d*$"
"/data/datasets/datagov/data/data/datagovdata/asbestos-removal-permits.csv","MONITOR_NAME","strings","[^""\r\n]*"
"/data/datasets/datagov/data/data/datagovdata/asbestos-removal-permits.csv","SPRAYONLF","numbers","^(\d|,)*\.?\d*$"
"/data/datasets/datagov/data/data/datagovdata/asbestos-removal-permits.csv","COSTPROJ","numbers","^(\d|,)*\.?\d*$"
"/data/datasets/datagov/data/data/datagovdata/asbestos-removal-permits.csv","LAB_NUMBER","uri",".*?$(?<!\.aspx)"
"/data/datasets/datagov/data/data/datagovdata/asbestos-removal-permits.csv","ENDDATE","strings","[^""\r\n]*"
"/data/datasets/datagov/data/data/datagovdata/asbestos-removal-permits.csv","EXTERIOR","numbers","^(\d|,)*\.?\d*$"
"/data/datasets/datagov/data/data/datagovdata/asbestos-removal-permits.csv","PERMIT","uri",".*?$(?<!\.aspx)"
"/data/datasets/datagov/data/data/datagovdata/asbestos-removal-permits.csv","CONTRACTOR_LIC","uri",".*?$(?<!\.aspx)"
"/data/datasets/datagov/data/data/datagovdata/asbestos-removal-permits.csv","STARTDATE","strings","[^""\r\n]*"
"/data/datasets/datagov/data/data/datagovdata/asbestos-removal-permits.csv","TSFEET","numbers","^(\d|,)*\.?\d*$"
"/data/datasets/datagov/data/data/datagovdata/asbestos-removal-permits.csv","BOILERSF","numbers","^(\d|,)*\.?\d*$"
"/data/datasets/datagov/data/data/datagovdata/asbestos-removal-permits.csv","CEMENTLF","numbers","^(\d|,)*\.?\d*$"
"/data/datasets/datagov/data/data/datagovdata/asbestos-removal-permits.csv","PROJTYPE","numbers","^(\d|,)*\.?\d*$"
"/data/datasets/datagov/data/data/datagovdata/asbestos-removal-permits.csv","SUPERVISOR_NAME","uri",".*?$(?<!\.aspx)"
"/data/datasets/datagov/data/data/datagovdata/asbestos-removal-permits.csv","CONTRACTOR_NAME","strings","[^""\r\n]*"
"/data/datasets/datagov/data/data/datagovdata/asbestos-removal-permits.csv","TACMFEET","numbers","^(\d|,)*\.?\d*$"
"/data/datasets/datagov/data/data/datagovdata/asbestos-removal-permits.csv","VATSF","numbers","^(\d|,)*\.?\d*$"
"/data/datasets/datagov/data/data/datagovdata/asbestos-removal-permits.csv","MONITOR_NUM","uri",".*?$(?<!\.aspx)"
"/data/datasets/datagov/data/data/datagovdata/asbestos-removal-permits.csv","VATLF","numbers","^(\d|,)*\.?\d*$"
"/data/datasets/datagov/data/data/datagovdata/asbestos-removal-permits.csv","TROWELSF","numbers","^(\d|,)*\.?\d*$"
"/data/datasets/datagov/data/data/datagovdata/asbestos-removal-permits.csv","TRANSITELF","numbers","^(\d|,)*\.?\d*$"
"/data/datasets/datagov/data/data/datagovdata/asbestos-removal-permits.csv","SUPERVISOR_NUM","uri",".*?$(?<!\.aspx)"
"/data/datasets/datagov/data/data/datagovdata/asbestos-removal-permits.csv","DATEAPPRV","strings","[^""\r\n]*"
"/data/datasets/datagov/data/data/datagovdata/asbestos-removal-permits.csv","CEMENTSF","numbers","^(\d|,)*\.?\d*$"
"/data/datasets/datagov/data/data/datagovdata/asbestos-removal-permits.csv","TLFEET","numbers","^(\d|,)*\.?\d*$"
"/data/datasets/datagov/data/data/datagovdata/asbestos-removal-permits.csv","TROWELLF","numbers","^(\d|,)*\.?\d*$"
"/data/datasets/datagov/data/data/datagovdata/asbestos-removal-permits.csv","BLDG_SIZE","numbers","^(\d|,)*\.?\d*$"
"/data/datasets/datagov/data/data/datagovdata/asbestos-removal-permits.csv","OTHERSF","numbers","^(\d|,)*\.?\d*$"
