"file_name","column_name","label","regex"
"/data/datasets/datagov/data/data/datagovdata/place-based-planning.csv","Name","strings","[^""\r\n]*"
"/data/datasets/datagov/data/data/datagovdata/place-based-planning.csv","Shape_len","numbers","^(\d|,)*\.?\d*$"
"/data/datasets/datagov/data/data/datagovdata/place-based-planning.csv","Id","numbers","^(\d|,)*\.?\d*$"
"/data/datasets/datagov/data/data/datagovdata/place-based-planning.csv","Shape_area","numbers","^(\d|,)*\.?\d*$"
"/data/datasets/datagov/data/data/datagovdata/place-based-planning.csv","the_geom","strings","[^""\r\n]*"
