"file_name","column_name","label","regex"
"/data/datasets/datagov/data/data/datagovdata/public-health-statistics-screening-for-elevated-blood-lead-levels-in-children-aged-0-6-ye--fd65a.csv","Percent Elevated 2001","numbers","^(\d|,)*\.?\d*$"
"/data/datasets/datagov/data/data/datagovdata/public-health-statistics-screening-for-elevated-blood-lead-levels-in-children-aged-0-6-ye--fd65a.csv","Percent Elevated 2002 Upper CI","numbers","^(\d|,)*\.?\d*$"
"/data/datasets/datagov/data/data/datagovdata/public-health-statistics-screening-for-elevated-blood-lead-levels-in-children-aged-0-6-ye--fd65a.csv","Lead Screening Rate 1999","numbers","^(\d|,)*\.?\d*$"
"/data/datasets/datagov/data/data/datagovdata/public-health-statistics-screening-for-elevated-blood-lead-levels-in-children-aged-0-6-ye--fd65a.csv","Elevated Blood Lead Level in 2001","numbers","^(\d|,)*\.?\d*$"
"/data/datasets/datagov/data/data/datagovdata/public-health-statistics-screening-for-elevated-blood-lead-levels-in-children-aged-0-6-ye--fd65a.csv","Percent Elevated 2010","numbers","^(\d|,)*\.?\d*$"
"/data/datasets/datagov/data/data/datagovdata/public-health-statistics-screening-for-elevated-blood-lead-levels-in-children-aged-0-6-ye--fd65a.csv","Screened for Lead in 2003","numbers","^(\d|,)*\.?\d*$"
"/data/datasets/datagov/data/data/datagovdata/public-health-statistics-screening-for-elevated-blood-lead-levels-in-children-aged-0-6-ye--fd65a.csv","Percent Elevated 2010 Upper CI","numbers","^(\d|,)*\.?\d*$"
"/data/datasets/datagov/data/data/datagovdata/public-health-statistics-screening-for-elevated-blood-lead-levels-in-children-aged-0-6-ye--fd65a.csv","Lead Screening Rate 1999 Upper CI","numbers","^(\d|,)*\.?\d*$"
"/data/datasets/datagov/data/data/datagovdata/public-health-statistics-screening-for-elevated-blood-lead-levels-in-children-aged-0-6-ye--fd65a.csv","Percent Elevated 2000 Upper CI","numbers","^(\d|,)*\.?\d*$"
"/data/datasets/datagov/data/data/datagovdata/public-health-statistics-screening-for-elevated-blood-lead-levels-in-children-aged-0-6-ye--fd65a.csv","Percent Elevated 2009 Upper CI","numbers","^(\d|,)*\.?\d*$"
"/data/datasets/datagov/data/data/datagovdata/public-health-statistics-screening-for-elevated-blood-lead-levels-in-children-aged-0-6-ye--fd65a.csv","Lead Screening Rate 2009 Upper CI","numbers","^(\d|,)*\.?\d*$"
"/data/datasets/datagov/data/data/datagovdata/public-health-statistics-screening-for-elevated-blood-lead-levels-in-children-aged-0-6-ye--fd65a.csv","Lead Screening Rate 2012","numbers","^(\d|,)*\.?\d*$"
"/data/datasets/datagov/data/data/datagovdata/public-health-statistics-screening-for-elevated-blood-lead-levels-in-children-aged-0-6-ye--fd65a.csv","Percent Elevated 2004 Lower CI","numbers","^(\d|,)*\.?\d*$"
"/data/datasets/datagov/data/data/datagovdata/public-health-statistics-screening-for-elevated-blood-lead-levels-in-children-aged-0-6-ye--fd65a.csv","Elevated Blood Lead Level in 2012","numbers","^(\d|,)*\.?\d*$"
"/data/datasets/datagov/data/data/datagovdata/public-health-statistics-screening-for-elevated-blood-lead-levels-in-children-aged-0-6-ye--fd65a.csv","Lead Screening Rate 2009 Lower CI","numbers","^(\d|,)*\.?\d*$"
"/data/datasets/datagov/data/data/datagovdata/public-health-statistics-screening-for-elevated-blood-lead-levels-in-children-aged-0-6-ye--fd65a.csv","Elevated Blood Lead Level in 1999","numbers","^(\d|,)*\.?\d*$"
"/data/datasets/datagov/data/data/datagovdata/public-health-statistics-screening-for-elevated-blood-lead-levels-in-children-aged-0-6-ye--fd65a.csv","Screened for Lead in 2002","numbers","^(\d|,)*\.?\d*$"
"/data/datasets/datagov/data/data/datagovdata/public-health-statistics-screening-for-elevated-blood-lead-levels-in-children-aged-0-6-ye--fd65a.csv","Percent Elevated 2006 Upper CI","numbers","^(\d|,)*\.?\d*$"
"/data/datasets/datagov/data/data/datagovdata/public-health-statistics-screening-for-elevated-blood-lead-levels-in-children-aged-0-6-ye--fd65a.csv","Percent Elevated 2006 Lower CI","numbers","^(\d|,)*\.?\d*$"
"/data/datasets/datagov/data/data/datagovdata/public-health-statistics-screening-for-elevated-blood-lead-levels-in-children-aged-0-6-ye--fd65a.csv","Lead Screening Rate 2002","numbers","^(\d|,)*\.?\d*$"
"/data/datasets/datagov/data/data/datagovdata/public-health-statistics-screening-for-elevated-blood-lead-levels-in-children-aged-0-6-ye--fd65a.csv","Percent Elevated 2012","numbers","^(\d|,)*\.?\d*$"
"/data/datasets/datagov/data/data/datagovdata/public-health-statistics-screening-for-elevated-blood-lead-levels-in-children-aged-0-6-ye--fd65a.csv","Elevated Blood Lead Level in 2013","numbers","^(\d|,)*\.?\d*$"
"/data/datasets/datagov/data/data/datagovdata/public-health-statistics-screening-for-elevated-blood-lead-levels-in-children-aged-0-6-ye--fd65a.csv","Percent Elevated 2010 Lower CI","numbers","^(\d|,)*\.?\d*$"
"/data/datasets/datagov/data/data/datagovdata/public-health-statistics-screening-for-elevated-blood-lead-levels-in-children-aged-0-6-ye--fd65a.csv","Elevated Blood Lead Level in 2007","numbers","^(\d|,)*\.?\d*$"
"/data/datasets/datagov/data/data/datagovdata/public-health-statistics-screening-for-elevated-blood-lead-levels-in-children-aged-0-6-ye--fd65a.csv","Lead Screening Rate 2003 Lower CI","numbers","^(\d|,)*\.?\d*$"
"/data/datasets/datagov/data/data/datagovdata/public-health-statistics-screening-for-elevated-blood-lead-levels-in-children-aged-0-6-ye--fd65a.csv","Lead Screening Rate 2004","numbers","^(\d|,)*\.?\d*$"
"/data/datasets/datagov/data/data/datagovdata/public-health-statistics-screening-for-elevated-blood-lead-levels-in-children-aged-0-6-ye--fd65a.csv","Community Area Number","numbers","^(\d|,)*\.?\d*$"
"/data/datasets/datagov/data/data/datagovdata/public-health-statistics-screening-for-elevated-blood-lead-levels-in-children-aged-0-6-ye--fd65a.csv","Percent Elevated 2004 Upper CI","numbers","^(\d|,)*\.?\d*$"
"/data/datasets/datagov/data/data/datagovdata/public-health-statistics-screening-for-elevated-blood-lead-levels-in-children-aged-0-6-ye--fd65a.csv","Elevated Blood Lead Level in 2008","numbers","^(\d|,)*\.?\d*$"
"/data/datasets/datagov/data/data/datagovdata/public-health-statistics-screening-for-elevated-blood-lead-levels-in-children-aged-0-6-ye--fd65a.csv","Lead Screening Rate 2006 Lower CI","numbers","^(\d|,)*\.?\d*$"
"/data/datasets/datagov/data/data/datagovdata/public-health-statistics-screening-for-elevated-blood-lead-levels-in-children-aged-0-6-ye--fd65a.csv","Percent Elevated 2008 Upper CI","numbers","^(\d|,)*\.?\d*$"
"/data/datasets/datagov/data/data/datagovdata/public-health-statistics-screening-for-elevated-blood-lead-levels-in-children-aged-0-6-ye--fd65a.csv","Lead Screening Rate 2003","numbers","^(\d|,)*\.?\d*$"
"/data/datasets/datagov/data/data/datagovdata/public-health-statistics-screening-for-elevated-blood-lead-levels-in-children-aged-0-6-ye--fd65a.csv","Elevated Blood Lead Level in 2009","numbers","^(\d|,)*\.?\d*$"
"/data/datasets/datagov/data/data/datagovdata/public-health-statistics-screening-for-elevated-blood-lead-levels-in-children-aged-0-6-ye--fd65a.csv","Lead Screening Rate 2006","numbers","^(\d|,)*\.?\d*$"
"/data/datasets/datagov/data/data/datagovdata/public-health-statistics-screening-for-elevated-blood-lead-levels-in-children-aged-0-6-ye--fd65a.csv","Lead Screening Rate 2013","numbers","^(\d|,)*\.?\d*$"
"/data/datasets/datagov/data/data/datagovdata/public-health-statistics-screening-for-elevated-blood-lead-levels-in-children-aged-0-6-ye--fd65a.csv","Community Area Name","uri",".*?$(?<!\.aspx)"
"/data/datasets/datagov/data/data/datagovdata/public-health-statistics-screening-for-elevated-blood-lead-levels-in-children-aged-0-6-ye--fd65a.csv","Lead Screening Rate 2010 Lower CI","numbers","^(\d|,)*\.?\d*$"
"/data/datasets/datagov/data/data/datagovdata/public-health-statistics-screening-for-elevated-blood-lead-levels-in-children-aged-0-6-ye--fd65a.csv","Screened for Lead in 2000","numbers","^(\d|,)*\.?\d*$"
"/data/datasets/datagov/data/data/datagovdata/public-health-statistics-screening-for-elevated-blood-lead-levels-in-children-aged-0-6-ye--fd65a.csv","Percent Elevated 2008","numbers","^(\d|,)*\.?\d*$"
"/data/datasets/datagov/data/data/datagovdata/public-health-statistics-screening-for-elevated-blood-lead-levels-in-children-aged-0-6-ye--fd65a.csv","Lead Screening Rate 2000 Upper CI","numbers","^(\d|,)*\.?\d*$"
"/data/datasets/datagov/data/data/datagovdata/public-health-statistics-screening-for-elevated-blood-lead-levels-in-children-aged-0-6-ye--fd65a.csv","Lead Screening Rate 2007","numbers","^(\d|,)*\.?\d*$"
"/data/datasets/datagov/data/data/datagovdata/public-health-statistics-screening-for-elevated-blood-lead-levels-in-children-aged-0-6-ye--fd65a.csv","Percent Elevated 2005","numbers","^(\d|,)*\.?\d*$"
"/data/datasets/datagov/data/data/datagovdata/public-health-statistics-screening-for-elevated-blood-lead-levels-in-children-aged-0-6-ye--fd65a.csv","Screened for Lead in 2006","numbers","^(\d|,)*\.?\d*$"
"/data/datasets/datagov/data/data/datagovdata/public-health-statistics-screening-for-elevated-blood-lead-levels-in-children-aged-0-6-ye--fd65a.csv","Percent Elevated 1999","numbers","^(\d|,)*\.?\d*$"
"/data/datasets/datagov/data/data/datagovdata/public-health-statistics-screening-for-elevated-blood-lead-levels-in-children-aged-0-6-ye--fd65a.csv","Screened for Lead in 2007","numbers","^(\d|,)*\.?\d*$"
"/data/datasets/datagov/data/data/datagovdata/public-health-statistics-screening-for-elevated-blood-lead-levels-in-children-aged-0-6-ye--fd65a.csv","Screened for Lead in 2013","numbers","^(\d|,)*\.?\d*$"
"/data/datasets/datagov/data/data/datagovdata/public-health-statistics-screening-for-elevated-blood-lead-levels-in-children-aged-0-6-ye--fd65a.csv","Screened for Lead in 2004","numbers","^(\d|,)*\.?\d*$"
"/data/datasets/datagov/data/data/datagovdata/public-health-statistics-screening-for-elevated-blood-lead-levels-in-children-aged-0-6-ye--fd65a.csv","Lead Screening Rate 2007 Lower CI","numbers","^(\d|,)*\.?\d*$"
"/data/datasets/datagov/data/data/datagovdata/public-health-statistics-screening-for-elevated-blood-lead-levels-in-children-aged-0-6-ye--fd65a.csv","Percent Elevated 2009","numbers","^(\d|,)*\.?\d*$"
"/data/datasets/datagov/data/data/datagovdata/public-health-statistics-screening-for-elevated-blood-lead-levels-in-children-aged-0-6-ye--fd65a.csv","Elevated Blood Lead Level in 2011","numbers","^(\d|,)*\.?\d*$"
"/data/datasets/datagov/data/data/datagovdata/public-health-statistics-screening-for-elevated-blood-lead-levels-in-children-aged-0-6-ye--fd65a.csv","Percent Elevated 2003","numbers","^(\d|,)*\.?\d*$"
"/data/datasets/datagov/data/data/datagovdata/public-health-statistics-screening-for-elevated-blood-lead-levels-in-children-aged-0-6-ye--fd65a.csv","Lead Screening Rate 2001","numbers","^(\d|,)*\.?\d*$"
"/data/datasets/datagov/data/data/datagovdata/public-health-statistics-screening-for-elevated-blood-lead-levels-in-children-aged-0-6-ye--fd65a.csv","Lead Screening Rate 2005 Upper CI","numbers","^(\d|,)*\.?\d*$"
"/data/datasets/datagov/data/data/datagovdata/public-health-statistics-screening-for-elevated-blood-lead-levels-in-children-aged-0-6-ye--fd65a.csv","Percent Elevated 2007 Upper CI","numbers","^(\d|,)*\.?\d*$"
"/data/datasets/datagov/data/data/datagovdata/public-health-statistics-screening-for-elevated-blood-lead-levels-in-children-aged-0-6-ye--fd65a.csv","Lead Screening Rate 2008 Upper CI","numbers","^(\d|,)*\.?\d*$"
"/data/datasets/datagov/data/data/datagovdata/public-health-statistics-screening-for-elevated-blood-lead-levels-in-children-aged-0-6-ye--fd65a.csv","Elevated Blood Lead Level in 2004","numbers","^(\d|,)*\.?\d*$"
"/data/datasets/datagov/data/data/datagovdata/public-health-statistics-screening-for-elevated-blood-lead-levels-in-children-aged-0-6-ye--fd65a.csv","Lead Screening Rate 2007 Upper CI","numbers","^(\d|,)*\.?\d*$"
"/data/datasets/datagov/data/data/datagovdata/public-health-statistics-screening-for-elevated-blood-lead-levels-in-children-aged-0-6-ye--fd65a.csv","Screened for Lead in 2010","numbers","^(\d|,)*\.?\d*$"
"/data/datasets/datagov/data/data/datagovdata/public-health-statistics-screening-for-elevated-blood-lead-levels-in-children-aged-0-6-ye--fd65a.csv","Percent Elevated 2002 Lower CI","numbers","^(\d|,)*\.?\d*$"
"/data/datasets/datagov/data/data/datagovdata/public-health-statistics-screening-for-elevated-blood-lead-levels-in-children-aged-0-6-ye--fd65a.csv","Elevated Blood Lead Level in 2000","numbers","^(\d|,)*\.?\d*$"
"/data/datasets/datagov/data/data/datagovdata/public-health-statistics-screening-for-elevated-blood-lead-levels-in-children-aged-0-6-ye--fd65a.csv","Lead Screening Rate 2011 Upper CI","numbers","^(\d|,)*\.?\d*$"
"/data/datasets/datagov/data/data/datagovdata/public-health-statistics-screening-for-elevated-blood-lead-levels-in-children-aged-0-6-ye--fd65a.csv","Percent Elevated 2011 Lower CI","numbers","^(\d|,)*\.?\d*$"
"/data/datasets/datagov/data/data/datagovdata/public-health-statistics-screening-for-elevated-blood-lead-levels-in-children-aged-0-6-ye--fd65a.csv","Elevated Blood Lead Level in 2002","numbers","^(\d|,)*\.?\d*$"
"/data/datasets/datagov/data/data/datagovdata/public-health-statistics-screening-for-elevated-blood-lead-levels-in-children-aged-0-6-ye--fd65a.csv","Lead Screening Rate 2011 Lower CI","numbers","^(\d|,)*\.?\d*$"
"/data/datasets/datagov/data/data/datagovdata/public-health-statistics-screening-for-elevated-blood-lead-levels-in-children-aged-0-6-ye--fd65a.csv","Percent Elevated 2005 Upper CI","numbers","^(\d|,)*\.?\d*$"
"/data/datasets/datagov/data/data/datagovdata/public-health-statistics-screening-for-elevated-blood-lead-levels-in-children-aged-0-6-ye--fd65a.csv","Lead Screening Rate 2012 Lower CI","numbers","^(\d|,)*\.?\d*$"
"/data/datasets/datagov/data/data/datagovdata/public-health-statistics-screening-for-elevated-blood-lead-levels-in-children-aged-0-6-ye--fd65a.csv","Lead Screening Rate 2003 Upper CI","numbers","^(\d|,)*\.?\d*$"
"/data/datasets/datagov/data/data/datagovdata/public-health-statistics-screening-for-elevated-blood-lead-levels-in-children-aged-0-6-ye--fd65a.csv","Elevated Blood Lead Level in 2006","numbers","^(\d|,)*\.?\d*$"
"/data/datasets/datagov/data/data/datagovdata/public-health-statistics-screening-for-elevated-blood-lead-levels-in-children-aged-0-6-ye--fd65a.csv","Lead Screening Rate 2004 Upper CI","numbers","^(\d|,)*\.?\d*$"
"/data/datasets/datagov/data/data/datagovdata/public-health-statistics-screening-for-elevated-blood-lead-levels-in-children-aged-0-6-ye--fd65a.csv","Percent Elevated 2012 Lower CI","numbers","^(\d|,)*\.?\d*$"
"/data/datasets/datagov/data/data/datagovdata/public-health-statistics-screening-for-elevated-blood-lead-levels-in-children-aged-0-6-ye--fd65a.csv","Percent Elevated 1999 Upper CI","numbers","^(\d|,)*\.?\d*$"
"/data/datasets/datagov/data/data/datagovdata/public-health-statistics-screening-for-elevated-blood-lead-levels-in-children-aged-0-6-ye--fd65a.csv","Percent Elevated 1999 Lower CI","numbers","^(\d|,)*\.?\d*$"
"/data/datasets/datagov/data/data/datagovdata/public-health-statistics-screening-for-elevated-blood-lead-levels-in-children-aged-0-6-ye--fd65a.csv","Elevated Blood Lead Level in 2003","numbers","^(\d|,)*\.?\d*$"
"/data/datasets/datagov/data/data/datagovdata/public-health-statistics-screening-for-elevated-blood-lead-levels-in-children-aged-0-6-ye--fd65a.csv","Percent Elevated 2001 Upper CI","numbers","^(\d|,)*\.?\d*$"
"/data/datasets/datagov/data/data/datagovdata/public-health-statistics-screening-for-elevated-blood-lead-levels-in-children-aged-0-6-ye--fd65a.csv","Percent Elevated 2011 Upper CI","numbers","^(\d|,)*\.?\d*$"
"/data/datasets/datagov/data/data/datagovdata/public-health-statistics-screening-for-elevated-blood-lead-levels-in-children-aged-0-6-ye--fd65a.csv","Lead Screening Rate 2010","numbers","^(\d|,)*\.?\d*$"
"/data/datasets/datagov/data/data/datagovdata/public-health-statistics-screening-for-elevated-blood-lead-levels-in-children-aged-0-6-ye--fd65a.csv","Lead Screening Rate 2008","numbers","^(\d|,)*\.?\d*$"
"/data/datasets/datagov/data/data/datagovdata/public-health-statistics-screening-for-elevated-blood-lead-levels-in-children-aged-0-6-ye--fd65a.csv","Lead Screening Rate 2006 Upper CI","numbers","^(\d|,)*\.?\d*$"
"/data/datasets/datagov/data/data/datagovdata/public-health-statistics-screening-for-elevated-blood-lead-levels-in-children-aged-0-6-ye--fd65a.csv","Lead Screening Rate 1999 Lower CI","numbers","^(\d|,)*\.?\d*$"
"/data/datasets/datagov/data/data/datagovdata/public-health-statistics-screening-for-elevated-blood-lead-levels-in-children-aged-0-6-ye--fd65a.csv","Lead Screening Rate 2004 Lower CI","numbers","^(\d|,)*\.?\d*$"
"/data/datasets/datagov/data/data/datagovdata/public-health-statistics-screening-for-elevated-blood-lead-levels-in-children-aged-0-6-ye--fd65a.csv","Percent Elevated 2005 Lower CI","numbers","^(\d|,)*\.?\d*$"
"/data/datasets/datagov/data/data/datagovdata/public-health-statistics-screening-for-elevated-blood-lead-levels-in-children-aged-0-6-ye--fd65a.csv","Percent Elevated 2013 Upper CI","numbers","^(\d|,)*\.?\d*$"
"/data/datasets/datagov/data/data/datagovdata/public-health-statistics-screening-for-elevated-blood-lead-levels-in-children-aged-0-6-ye--fd65a.csv","Percent Elevated 2008 Lower CI","numbers","^(\d|,)*\.?\d*$"
"/data/datasets/datagov/data/data/datagovdata/public-health-statistics-screening-for-elevated-blood-lead-levels-in-children-aged-0-6-ye--fd65a.csv","Lead Screening Rate 2005","numbers","^(\d|,)*\.?\d*$"
"/data/datasets/datagov/data/data/datagovdata/public-health-statistics-screening-for-elevated-blood-lead-levels-in-children-aged-0-6-ye--fd65a.csv","Lead Screening Rate 2000 Lower CI","numbers","^(\d|,)*\.?\d*$"
"/data/datasets/datagov/data/data/datagovdata/public-health-statistics-screening-for-elevated-blood-lead-levels-in-children-aged-0-6-ye--fd65a.csv","Lead Screening Rate 2005 Lower CI","numbers","^(\d|,)*\.?\d*$"
"/data/datasets/datagov/data/data/datagovdata/public-health-statistics-screening-for-elevated-blood-lead-levels-in-children-aged-0-6-ye--fd65a.csv","Percent Elevated 2000","numbers","^(\d|,)*\.?\d*$"
"/data/datasets/datagov/data/data/datagovdata/public-health-statistics-screening-for-elevated-blood-lead-levels-in-children-aged-0-6-ye--fd65a.csv","Percent Elevated 2013 Lower CI","numbers","^(\d|,)*\.?\d*$"
"/data/datasets/datagov/data/data/datagovdata/public-health-statistics-screening-for-elevated-blood-lead-levels-in-children-aged-0-6-ye--fd65a.csv","Percent Elevated 2000 Lower CI","numbers","^(\d|,)*\.?\d*$"
"/data/datasets/datagov/data/data/datagovdata/public-health-statistics-screening-for-elevated-blood-lead-levels-in-children-aged-0-6-ye--fd65a.csv","Percent Elevated 2009 Lower CI","numbers","^(\d|,)*\.?\d*$"
"/data/datasets/datagov/data/data/datagovdata/public-health-statistics-screening-for-elevated-blood-lead-levels-in-children-aged-0-6-ye--fd65a.csv","Elevated Blood Lead Level in 2010","numbers","^(\d|,)*\.?\d*$"
"/data/datasets/datagov/data/data/datagovdata/public-health-statistics-screening-for-elevated-blood-lead-levels-in-children-aged-0-6-ye--fd65a.csv","Percent Elevated 2012 Upper CI","numbers","^(\d|,)*\.?\d*$"
"/data/datasets/datagov/data/data/datagovdata/public-health-statistics-screening-for-elevated-blood-lead-levels-in-children-aged-0-6-ye--fd65a.csv","Elevated Blood Lead Level in 2005","numbers","^(\d|,)*\.?\d*$"
"/data/datasets/datagov/data/data/datagovdata/public-health-statistics-screening-for-elevated-blood-lead-levels-in-children-aged-0-6-ye--fd65a.csv","Percent Elevated 2004","numbers","^(\d|,)*\.?\d*$"
"/data/datasets/datagov/data/data/datagovdata/public-health-statistics-screening-for-elevated-blood-lead-levels-in-children-aged-0-6-ye--fd65a.csv","Lead Screening Rate 2009","numbers","^(\d|,)*\.?\d*$"
"/data/datasets/datagov/data/data/datagovdata/public-health-statistics-screening-for-elevated-blood-lead-levels-in-children-aged-0-6-ye--fd65a.csv","Lead Screening Rate 2001 Upper CI","numbers","^(\d|,)*\.?\d*$"
"/data/datasets/datagov/data/data/datagovdata/public-health-statistics-screening-for-elevated-blood-lead-levels-in-children-aged-0-6-ye--fd65a.csv","Lead Screening Rate 2012 Upper CI","numbers","^(\d|,)*\.?\d*$"
"/data/datasets/datagov/data/data/datagovdata/public-health-statistics-screening-for-elevated-blood-lead-levels-in-children-aged-0-6-ye--fd65a.csv","Percent Elevated 2006","numbers","^(\d|,)*\.?\d*$"
"/data/datasets/datagov/data/data/datagovdata/public-health-statistics-screening-for-elevated-blood-lead-levels-in-children-aged-0-6-ye--fd65a.csv","Screened for Lead in 2001","numbers","^(\d|,)*\.?\d*$"
"/data/datasets/datagov/data/data/datagovdata/public-health-statistics-screening-for-elevated-blood-lead-levels-in-children-aged-0-6-ye--fd65a.csv","Percent Elevated 2013","numbers","^(\d|,)*\.?\d*$"
"/data/datasets/datagov/data/data/datagovdata/public-health-statistics-screening-for-elevated-blood-lead-levels-in-children-aged-0-6-ye--fd65a.csv","Screened for Lead in 2008","numbers","^(\d|,)*\.?\d*$"
"/data/datasets/datagov/data/data/datagovdata/public-health-statistics-screening-for-elevated-blood-lead-levels-in-children-aged-0-6-ye--fd65a.csv","Screened for Lead in 1999","numbers","^(\d|,)*\.?\d*$"
"/data/datasets/datagov/data/data/datagovdata/public-health-statistics-screening-for-elevated-blood-lead-levels-in-children-aged-0-6-ye--fd65a.csv","Percent Elevated 2002","numbers","^(\d|,)*\.?\d*$"
"/data/datasets/datagov/data/data/datagovdata/public-health-statistics-screening-for-elevated-blood-lead-levels-in-children-aged-0-6-ye--fd65a.csv","Lead Screening Rate 2010 Upper CI","numbers","^(\d|,)*\.?\d*$"
"/data/datasets/datagov/data/data/datagovdata/public-health-statistics-screening-for-elevated-blood-lead-levels-in-children-aged-0-6-ye--fd65a.csv","Lead Screening Rate 2002 Lower CI","numbers","^(\d|,)*\.?\d*$"
"/data/datasets/datagov/data/data/datagovdata/public-health-statistics-screening-for-elevated-blood-lead-levels-in-children-aged-0-6-ye--fd65a.csv","Percent Elevated 2007","numbers","^(\d|,)*\.?\d*$"
"/data/datasets/datagov/data/data/datagovdata/public-health-statistics-screening-for-elevated-blood-lead-levels-in-children-aged-0-6-ye--fd65a.csv","Lead Screening Rate 2001 Lower CI","numbers","^(\d|,)*\.?\d*$"
"/data/datasets/datagov/data/data/datagovdata/public-health-statistics-screening-for-elevated-blood-lead-levels-in-children-aged-0-6-ye--fd65a.csv","Screened for Lead in 2012","numbers","^(\d|,)*\.?\d*$"
"/data/datasets/datagov/data/data/datagovdata/public-health-statistics-screening-for-elevated-blood-lead-levels-in-children-aged-0-6-ye--fd65a.csv","Lead Screening Rate 2013 Lower CI","numbers","^(\d|,)*\.?\d*$"
"/data/datasets/datagov/data/data/datagovdata/public-health-statistics-screening-for-elevated-blood-lead-levels-in-children-aged-0-6-ye--fd65a.csv","Screened for Lead in 2009","numbers","^(\d|,)*\.?\d*$"
"/data/datasets/datagov/data/data/datagovdata/public-health-statistics-screening-for-elevated-blood-lead-levels-in-children-aged-0-6-ye--fd65a.csv","Screened for Lead in 2005","numbers","^(\d|,)*\.?\d*$"
"/data/datasets/datagov/data/data/datagovdata/public-health-statistics-screening-for-elevated-blood-lead-levels-in-children-aged-0-6-ye--fd65a.csv","Percent Elevated 2003 Lower CI","numbers","^(\d|,)*\.?\d*$"
"/data/datasets/datagov/data/data/datagovdata/public-health-statistics-screening-for-elevated-blood-lead-levels-in-children-aged-0-6-ye--fd65a.csv","Percent Elevated 2007 Lower CI","numbers","^(\d|,)*\.?\d*$"
"/data/datasets/datagov/data/data/datagovdata/public-health-statistics-screening-for-elevated-blood-lead-levels-in-children-aged-0-6-ye--fd65a.csv","Percent Elevated 2003 Upper CI","numbers","^(\d|,)*\.?\d*$"
"/data/datasets/datagov/data/data/datagovdata/public-health-statistics-screening-for-elevated-blood-lead-levels-in-children-aged-0-6-ye--fd65a.csv","Lead Screening Rate 2002 Upper CI","numbers","^(\d|,)*\.?\d*$"
"/data/datasets/datagov/data/data/datagovdata/public-health-statistics-screening-for-elevated-blood-lead-levels-in-children-aged-0-6-ye--fd65a.csv","Lead Screening Rate in 2011","numbers","^(\d|,)*\.?\d*$"
"/data/datasets/datagov/data/data/datagovdata/public-health-statistics-screening-for-elevated-blood-lead-levels-in-children-aged-0-6-ye--fd65a.csv","Lead Screening Rate 2008 Lower CI","numbers","^(\d|,)*\.?\d*$"
"/data/datasets/datagov/data/data/datagovdata/public-health-statistics-screening-for-elevated-blood-lead-levels-in-children-aged-0-6-ye--fd65a.csv","Screened for Lead in 2011","numbers","^(\d|,)*\.?\d*$"
"/data/datasets/datagov/data/data/datagovdata/public-health-statistics-screening-for-elevated-blood-lead-levels-in-children-aged-0-6-ye--fd65a.csv","Percent Elevated 2011","numbers","^(\d|,)*\.?\d*$"
"/data/datasets/datagov/data/data/datagovdata/public-health-statistics-screening-for-elevated-blood-lead-levels-in-children-aged-0-6-ye--fd65a.csv","Lead Screening Rate 2013 Upper CI","numbers","^(\d|,)*\.?\d*$"
"/data/datasets/datagov/data/data/datagovdata/public-health-statistics-screening-for-elevated-blood-lead-levels-in-children-aged-0-6-ye--fd65a.csv","Percent Elevated 2001 Lower CI","numbers","^(\d|,)*\.?\d*$"
"/data/datasets/datagov/data/data/datagovdata/public-health-statistics-screening-for-elevated-blood-lead-levels-in-children-aged-0-6-ye--fd65a.csv","Lead Screening Rate 2000","numbers","^(\d|,)*\.?\d*$"
