"file_name","column_name","label","regex"
"/data/datasets/datagov/data/data/datagovdata/types-of-allegations-in-complaints-received-2005-2009-00d86.csv","2007 Percent of Total","numbers","(^([0-9]+[.]+[0-9]+)|(0)$)"
"/data/datasets/datagov/data/data/datagovdata/types-of-allegations-in-complaints-received-2005-2009-00d86.csv","2009 Percent of Total","numbers","(^([0-9]+[.]+[0-9]+)|(0)$)"
"/data/datasets/datagov/data/data/datagovdata/types-of-allegations-in-complaints-received-2005-2009-00d86.csv","2008 Number","numbers","(^([0-9]+[.]+[0-9]+)|(0)$)"
"/data/datasets/datagov/data/data/datagovdata/types-of-allegations-in-complaints-received-2005-2009-00d86.csv","2006 Number","numbers","(^([0-9]+[.]+[0-9]+)|(0)$)"
"/data/datasets/datagov/data/data/datagovdata/types-of-allegations-in-complaints-received-2005-2009-00d86.csv","2007 Number","numbers","(^([0-9]+[.]+[0-9]+)|(0)$)"
"/data/datasets/datagov/data/data/datagovdata/types-of-allegations-in-complaints-received-2005-2009-00d86.csv","2006 Percent of Total","numbers","(^([0-9]+[.]+[0-9]+)|(0)$)"
"/data/datasets/datagov/data/data/datagovdata/types-of-allegations-in-complaints-received-2005-2009-00d86.csv","2008 Percent of Total","numbers","(^([0-9]+[.]+[0-9]+)|(0)$)"
"/data/datasets/datagov/data/data/datagovdata/types-of-allegations-in-complaints-received-2005-2009-00d86.csv","Category","uri",".*?$(?<!\.aspx)"
"/data/datasets/datagov/data/data/datagovdata/types-of-allegations-in-complaints-received-2005-2009-00d86.csv","2009 Number","numbers","(^([0-9]+[.]+[0-9]+)|(0)$)"
"/data/datasets/datagov/data/data/datagovdata/types-of-allegations-in-complaints-received-2005-2009-00d86.csv","2005 Number","numbers","(^([0-9]+[.]+[0-9]+)|(0)$)"
"/data/datasets/datagov/data/data/datagovdata/types-of-allegations-in-complaints-received-2005-2009-00d86.csv","2005 Percent of Total","numbers","(^([0-9]+[.]+[0-9]+)|(0)$)"
