"file_name","column_name","label","regex"
"/data/datasets/datagov/data/data/datagovdata/boundaries-zip-codes.csv","SHAPE_AREA","numbers","^(\d|,)*\.?\d*$"
"/data/datasets/datagov/data/data/datagovdata/boundaries-zip-codes.csv","OBJECTID","numbers","^(\d|,)*\.?\d*$"
"/data/datasets/datagov/data/data/datagovdata/boundaries-zip-codes.csv","ZIP","numbers","^(\d|,)*\.?\d*$"
"/data/datasets/datagov/data/data/datagovdata/boundaries-zip-codes.csv","SHAPE_LEN","numbers","^(\d|,)*\.?\d*$"
"/data/datasets/datagov/data/data/datagovdata/boundaries-zip-codes.csv","the_geom","strings","[^""\r\n]*"
