"file_name","column_name","label","regex"
"/data/datasets/datagov/data/data/datagovdata/adoption-child-custody-advocacy-performance-measures-adoption-investigations-2010-f8cea.csv","Statistics  ","uri",".*?$(?<!\.aspx)"
"/data/datasets/datagov/data/data/datagovdata/adoption-child-custody-advocacy-performance-measures-adoption-investigations-2010-f8cea.csv"," Jan  ","numbers","^(\d|,)*\.?\d*$"
"/data/datasets/datagov/data/data/datagovdata/adoption-child-custody-advocacy-performance-measures-adoption-investigations-2010-f8cea.csv"," Jul  ","numbers","^(\d|,)*\.?\d*$"
"/data/datasets/datagov/data/data/datagovdata/adoption-child-custody-advocacy-performance-measures-adoption-investigations-2010-f8cea.csv"," Feb  ","numbers","^(\d|,)*\.?\d*$"
"/data/datasets/datagov/data/data/datagovdata/adoption-child-custody-advocacy-performance-measures-adoption-investigations-2010-f8cea.csv"," May  ","numbers","^(\d|,)*\.?\d*$"
"/data/datasets/datagov/data/data/datagovdata/adoption-child-custody-advocacy-performance-measures-adoption-investigations-2010-f8cea.csv"," Apr  ","numbers","^(\d|,)*\.?\d*$"
"/data/datasets/datagov/data/data/datagovdata/adoption-child-custody-advocacy-performance-measures-adoption-investigations-2010-f8cea.csv"," Est. 2010  ","numbers","^(\d|,)*\.?\d*$"
"/data/datasets/datagov/data/data/datagovdata/adoption-child-custody-advocacy-performance-measures-adoption-investigations-2010-f8cea.csv"," Mar  ","numbers","^(\d|,)*\.?\d*$"
"/data/datasets/datagov/data/data/datagovdata/adoption-child-custody-advocacy-performance-measures-adoption-investigations-2010-f8cea.csv"," Oct  ","numbers","^(\d|,)*\.?\d*$"
"/data/datasets/datagov/data/data/datagovdata/adoption-child-custody-advocacy-performance-measures-adoption-investigations-2010-f8cea.csv"," Aug  ","numbers","^(\d|,)*\.?\d*$"
"/data/datasets/datagov/data/data/datagovdata/adoption-child-custody-advocacy-performance-measures-adoption-investigations-2010-f8cea.csv"," Sep  ","numbers","^(\d|,)*\.?\d*$"
"/data/datasets/datagov/data/data/datagovdata/adoption-child-custody-advocacy-performance-measures-adoption-investigations-2010-f8cea.csv"," Dec  ","numbers","^(\d|,)*\.?\d*$"
"/data/datasets/datagov/data/data/datagovdata/adoption-child-custody-advocacy-performance-measures-adoption-investigations-2010-f8cea.csv"," Nov  ","numbers","^(\d|,)*\.?\d*$"
"/data/datasets/datagov/data/data/datagovdata/adoption-child-custody-advocacy-performance-measures-adoption-investigations-2010-f8cea.csv"," Jun  ","numbers","^(\d|,)*\.?\d*$"
