"file_name","column_name","label","regex"
"/data/datasets/datagov/data/data/datagovdata/hudson-river-valley-greenway-land-trail-segments.csv","Miles","numbers","^(\d|,)*\.?\d*$"
"/data/datasets/datagov/data/data/datagovdata/hudson-river-valley-greenway-land-trail-segments.csv","Trail Type","uri",".*?$(?<!\.aspx)"
"/data/datasets/datagov/data/data/datagovdata/hudson-river-valley-greenway-land-trail-segments.csv","County","uri",".*?$(?<!\.aspx)"
"/data/datasets/datagov/data/data/datagovdata/hudson-river-valley-greenway-land-trail-segments.csv","Trail Name","strings","[^""\r\n]*"
"/data/datasets/datagov/data/data/datagovdata/hudson-river-valley-greenway-land-trail-segments.csv","Park","uri",".*?$(?<!\.aspx)"
