"file_name","column_name","label","regex"
"/data/datasets/datagov/data/data/datagovdata/pet-data-2015-intakes.csv","Month","uri",".*?$(?<!\.aspx)"
"/data/datasets/datagov/data/data/datagovdata/pet-data-2015-intakes.csv","Animal Intakes","numbers","^(\d|,)*\.?\d*$"
