"file_name","column_name","label","regex"
"/data/datasets/datagov/data/data/datagovdata/tgr2006se_roos_sldlcu.csv","NAME","numbers","^\d*$"
"/data/datasets/datagov/data/data/datagovdata/tgr2006se_roos_sldlcu.csv","COUNTY","numbers","^\d*$"
"/data/datasets/datagov/data/data/datagovdata/tgr2006se_roos_sldlcu.csv","SLDL","numbers","^\d*$"
"/data/datasets/datagov/data/data/datagovdata/tgr2006se_roos_sldlcu.csv","GIST_ID","numbers","^\d*$"
