"file_name","column_name","label","regex"
"/data/datasets/datagov/data/data/datagovdata/real-estate-across-the-united-states-rexus-lease.csv","Lessor Zip Code","uri",".*?$(?<!\.aspx)"
"/data/datasets/datagov/data/data/datagovdata/real-estate-across-the-united-states-rexus-lease.csv","Lease Usable Sqft","numbers","^(\d|,)*\.?\d*$"
"/data/datasets/datagov/data/data/datagovdata/real-estate-across-the-united-states-rexus-lease.csv","Lessor Name","strings","[^""\r\n]*"
"/data/datasets/datagov/data/data/datagovdata/real-estate-across-the-united-states-rexus-lease.csv","Lessor Address 1","uri",".*?$(?<!\.aspx)"
"/data/datasets/datagov/data/data/datagovdata/real-estate-across-the-united-states-rexus-lease.csv","Lease Initial Effective Date","uri",".*?$(?<!\.aspx)"
"/data/datasets/datagov/data/data/datagovdata/real-estate-across-the-united-states-rexus-lease.csv","Lessor City","uri",".*?$(?<!\.aspx)"
"/data/datasets/datagov/data/data/datagovdata/real-estate-across-the-united-states-rexus-lease.csv","Lse Structured Parking Spaces","numbers","^(\d|,)*\.?\d*$"
"/data/datasets/datagov/data/data/datagovdata/real-estate-across-the-united-states-rexus-lease.csv","Location Code","numbers","^(\d|,)*\.?\d*$"
"/data/datasets/datagov/data/data/datagovdata/real-estate-across-the-united-states-rexus-lease.csv","Lessor Country","uri",".*?$(?<!\.aspx)"
"/data/datasets/datagov/data/data/datagovdata/real-estate-across-the-united-states-rexus-lease.csv","Current Expiration Date","uri",".*?$(?<!\.aspx)"
"/data/datasets/datagov/data/data/datagovdata/real-estate-across-the-united-states-rexus-lease.csv","Lease ANSI Rentable Sqft","numbers","^(\d|,)*\.?\d*$"
"/data/datasets/datagov/data/data/datagovdata/real-estate-across-the-united-states-rexus-lease.csv","Lse Surface Parking Spaces","numbers","^(\d|,)*\.?\d*$"
"/data/datasets/datagov/data/data/datagovdata/real-estate-across-the-united-states-rexus-lease.csv","Lease Number","uri",".*?$(?<!\.aspx)"
"/data/datasets/datagov/data/data/datagovdata/real-estate-across-the-united-states-rexus-lease.csv","Lease Responsibility","strings","[^""\r\n]*"
"/data/datasets/datagov/data/data/datagovdata/real-estate-across-the-united-states-rexus-lease.csv","Lessor State","address_or_phone","(\d{4,6})"
"/data/datasets/datagov/data/data/datagovdata/real-estate-across-the-united-states-rexus-lease.csv","Lessor Address 2","uri",".*?$(?<!\.aspx)"
"/data/datasets/datagov/data/data/datagovdata/real-estate-across-the-united-states-rexus-lease.csv","Lessor In-Care-Of","uri",".*?$(?<!\.aspx)"
"/data/datasets/datagov/data/data/datagovdata/real-estate-across-the-united-states-rexus-lease.csv","Lease Annual Rent Amount","uri",".*?$(?<!\.aspx)"
