"file_name","column_name","label","regex"
"/data/datasets/datagov/data/data/datagovdata/neighborhood-boards-0ffcb.csv","DayOfTheMonth","strings","[^""\r\n]*"
"/data/datasets/datagov/data/data/datagovdata/neighborhood-boards-0ffcb.csv","LocationName","uri","^[^\\\/\?\*\""\'\>\<\:\|]*$"
"/data/datasets/datagov/data/data/datagovdata/neighborhood-boards-0ffcb.csv","Number","numbers","^\d*$"
"/data/datasets/datagov/data/data/datagovdata/neighborhood-boards-0ffcb.csv","Location","uri","^[^\\\/\?\*\""\'\>\<\:\|]*$"
"/data/datasets/datagov/data/data/datagovdata/neighborhood-boards-0ffcb.csv","Board","strings","[^""\r\n]*"
"/data/datasets/datagov/data/data/datagovdata/neighborhood-boards-0ffcb.csv","Time","strings","[^""\r\n]*"
