"file_name","column_name","label","regex"
"/data/datasets/datagov/data/data/datagovdata/hgbp-state-agencies-ff579.csv","First Green Report","address_or_phone","(\d{4,6})"
"/data/datasets/datagov/data/data/datagovdata/hgbp-state-agencies-ff579.csv","State Agencies Phone Number","strings","[^""\r\n]*"
"/data/datasets/datagov/data/data/datagovdata/hgbp-state-agencies-ff579.csv","State Agencies Address","uri",".*?$(?<!\.aspx)"
"/data/datasets/datagov/data/data/datagovdata/hgbp-state-agencies-ff579.csv","State Agencies Name","strings","[^""\r\n]*"
"/data/datasets/datagov/data/data/datagovdata/hgbp-state-agencies-ff579.csv","Logo","uri",".*?$(?<!\.aspx)"
"/data/datasets/datagov/data/data/datagovdata/hgbp-state-agencies-ff579.csv","Green Report","address_or_phone","(\d{4,6})"
"/data/datasets/datagov/data/data/datagovdata/hgbp-state-agencies-ff579.csv","State Agencies Website","uri",".*?$(?<!\.aspx)"
