"file_name","column_name","label","regex"
"/data/datasets/datagov/data/data/datagovdata/language-assistance-program-may-2015.csv","Var3","numbers","^\d*$"
"/data/datasets/datagov/data/data/datagovdata/language-assistance-program-may-2015.csv","Var5","numbers","^\d*$"
"/data/datasets/datagov/data/data/datagovdata/language-assistance-program-may-2015.csv","Var2","uri",".*?$(?<!\.aspx)"
"/data/datasets/datagov/data/data/datagovdata/language-assistance-program-may-2015.csv","Var4","numbers","^\d*$"
"/data/datasets/datagov/data/data/datagovdata/language-assistance-program-may-2015.csv","Var1","uri",".*?$(?<!\.aspx)"
