"file_name","column_name","label","regex"
"/data/datasets/datagov/data/data/datagovdata/tcapmtnshp.csv","MINOR4","numbers","^(\d|,)*\.?\d*$"
"/data/datasets/datagov/data/data/datagovdata/tcapmtnshp.csv","MINOR1","numbers","^(\d|,)*\.?\d*$"
"/data/datasets/datagov/data/data/datagovdata/tcapmtnshp.csv","MAJOR3","numbers","^(\d|,)*\.?\d*$"
"/data/datasets/datagov/data/data/datagovdata/tcapmtnshp.csv","MINOR3","numbers","^(\d|,)*\.?\d*$"
"/data/datasets/datagov/data/data/datagovdata/tcapmtnshp.csv","LPOLY_","numbers","^(\d|,)*\.?\d*$"
"/data/datasets/datagov/data/data/datagovdata/tcapmtnshp.csv","ID03_","numbers","^(\d|,)*\.?\d*$"
"/data/datasets/datagov/data/data/datagovdata/tcapmtnshp.csv","FNODE_","numbers","^(\d|,)*\.?\d*$"
"/data/datasets/datagov/data/data/datagovdata/tcapmtnshp.csv","MAJOR5","numbers","^(\d|,)*\.?\d*$"
"/data/datasets/datagov/data/data/datagovdata/tcapmtnshp.csv","NAME","uri",".*?$(?<!\.aspx)"
"/data/datasets/datagov/data/data/datagovdata/tcapmtnshp.csv","MINOR5","numbers","^(\d|,)*\.?\d*$"
"/data/datasets/datagov/data/data/datagovdata/tcapmtnshp.csv","RPOLY_","numbers","^(\d|,)*\.?\d*$"
"/data/datasets/datagov/data/data/datagovdata/tcapmtnshp.csv","Q100_ID","numbers","^(\d|,)*\.?\d*$"
"/data/datasets/datagov/data/data/datagovdata/tcapmtnshp.csv","MAJOR4","numbers","^(\d|,)*\.?\d*$"
"/data/datasets/datagov/data/data/datagovdata/tcapmtnshp.csv","ABBREV","uri",".*?$(?<!\.aspx)"
"/data/datasets/datagov/data/data/datagovdata/tcapmtnshp.csv","MAJOR2","numbers","^(\d|,)*\.?\d*$"
"/data/datasets/datagov/data/data/datagovdata/tcapmtnshp.csv","LENGTH","numbers","^(\d|,)*\.?\d*$"
"/data/datasets/datagov/data/data/datagovdata/tcapmtnshp.csv","MINOR2","numbers","^(\d|,)*\.?\d*$"
"/data/datasets/datagov/data/data/datagovdata/tcapmtnshp.csv","NM03_ID","numbers","^(\d|,)*\.?\d*$"
"/data/datasets/datagov/data/data/datagovdata/tcapmtnshp.csv","MAJOR1","numbers","^(\d|,)*\.?\d*$"
"/data/datasets/datagov/data/data/datagovdata/tcapmtnshp.csv","AREA","numbers","^(\d|,)*\.?\d*$"
"/data/datasets/datagov/data/data/datagovdata/tcapmtnshp.csv","TNODE_","numbers","^(\d|,)*\.?\d*$"
"/data/datasets/datagov/data/data/datagovdata/tcapmtnshp.csv","Q100_","numbers","^(\d|,)*\.?\d*$"
"/data/datasets/datagov/data/data/datagovdata/tcapmtnshp.csv","NM03_","numbers","^(\d|,)*\.?\d*$"
"/data/datasets/datagov/data/data/datagovdata/tcapmtnshp.csv","ID03_ID","numbers","^(\d|,)*\.?\d*$"
"/data/datasets/datagov/data/data/datagovdata/tcapmtnshp.csv","PERIMETER","numbers","^(\d|,)*\.?\d*$"
