"file_name","column_name","label","regex"
"/data/datasets/datagov/data/data/datagovdata/horse-racing-rulings.csv","Race Track","uri",".*?$(?<!\.aspx)"
"/data/datasets/datagov/data/data/datagovdata/horse-racing-rulings.csv","Fine Amount","numbers","^\$?\d+(\.(\d{2}))?$"
"/data/datasets/datagov/data/data/datagovdata/horse-racing-rulings.csv","Type","uri",".*?$(?<!\.aspx)"
"/data/datasets/datagov/data/data/datagovdata/horse-racing-rulings.csv","Suspension Start","strings","[^""\r\n]*"
"/data/datasets/datagov/data/data/datagovdata/horse-racing-rulings.csv","Ruling Text","strings","[^""\r\n]*"
"/data/datasets/datagov/data/data/datagovdata/horse-racing-rulings.csv","Notice","uri",".*?$(?<!\.aspx)"
"/data/datasets/datagov/data/data/datagovdata/horse-racing-rulings.csv","Race Type","strings","[^""\r\n]*"
"/data/datasets/datagov/data/data/datagovdata/horse-racing-rulings.csv","Notice Date","strings","[^""\r\n]*"
"/data/datasets/datagov/data/data/datagovdata/horse-racing-rulings.csv","Fine Year","numbers","^\$?\d+(\.(\d{2}))?$"
"/data/datasets/datagov/data/data/datagovdata/horse-racing-rulings.csv","Days Suspended","uri",".*?$(?<!\.aspx)"
"/data/datasets/datagov/data/data/datagovdata/horse-racing-rulings.csv","Suspension End","strings","[^""\r\n]*"
"/data/datasets/datagov/data/data/datagovdata/horse-racing-rulings.csv","Full Name","strings","[^""\r\n]*"
"/data/datasets/datagov/data/data/datagovdata/horse-racing-rulings.csv","Rules","uri",".*?$(?<!\.aspx)"
"/data/datasets/datagov/data/data/datagovdata/horse-racing-rulings.csv","Occupation","uri",".*?$(?<!\.aspx)"
