"file_name","column_name","label","regex"
"/data/datasets/mitdwh/Ctx_stoplists.csv","Spl Count","numbers","^\d*$"
"/data/datasets/mitdwh/Ctx_stoplists.csv","Spl Type","uri",".*?$(?<!\.aspx)"
"/data/datasets/mitdwh/Ctx_stoplists.csv","Spl Owner","uri",".*?$(?<!\.aspx)"
"/data/datasets/mitdwh/Ctx_stoplists.csv","Spl Name","uri",".*?$(?<!\.aspx)"
