"file_name","column_name","label","regex"
"/data/datasets/datagov/data/data/datagovdata/missouri-active-alcohol-license-data-af6fa.csv","SUBDIST","numbers","^\d$"
"/data/datasets/datagov/data/data/datagovdata/missouri-active-alcohol-license-data-af6fa.csv","STREET NUMBER","uri",".*?$(?<!\.aspx)"
"/data/datasets/datagov/data/data/datagovdata/missouri-active-alcohol-license-data-af6fa.csv","PRIMARY LICENSE","numbers","^\d$"
"/data/datasets/datagov/data/data/datagovdata/missouri-active-alcohol-license-data-af6fa.csv","SECONDARY TYPE","uri",".*?$(?<!\.aspx)"
"/data/datasets/datagov/data/data/datagovdata/missouri-active-alcohol-license-data-af6fa.csv","STREET","uri",".*?$(?<!\.aspx)"
"/data/datasets/datagov/data/data/datagovdata/missouri-active-alcohol-license-data-af6fa.csv","DISTRICT","numbers","^\d$"
"/data/datasets/datagov/data/data/datagovdata/missouri-active-alcohol-license-data-af6fa.csv","COUNTY","uri",".*?$(?<!\.aspx)"
"/data/datasets/datagov/data/data/datagovdata/missouri-active-alcohol-license-data-af6fa.csv","LATLNG","uri",".*?$(?<!\.aspx)"
"/data/datasets/datagov/data/data/datagovdata/missouri-active-alcohol-license-data-af6fa.csv","DBANAME","uri",".*?$(?<!\.aspx)"
"/data/datasets/datagov/data/data/datagovdata/missouri-active-alcohol-license-data-af6fa.csv","ZIPCODE","numbers","^\d$"
"/data/datasets/datagov/data/data/datagovdata/missouri-active-alcohol-license-data-af6fa.csv","LICENSEE","uri",".*?$(?<!\.aspx)"
"/data/datasets/datagov/data/data/datagovdata/missouri-active-alcohol-license-data-af6fa.csv","PRIMARY TYPE","uri",".*?$(?<!\.aspx)"
"/data/datasets/datagov/data/data/datagovdata/missouri-active-alcohol-license-data-af6fa.csv","PHONE NUMBER","numbers","^\d$"
"/data/datasets/datagov/data/data/datagovdata/missouri-active-alcohol-license-data-af6fa.csv","SECONDARY LICENSE","numbers","^\d$"
"/data/datasets/datagov/data/data/datagovdata/missouri-active-alcohol-license-data-af6fa.csv","CITY","uri",".*?$(?<!\.aspx)"
"/data/datasets/datagov/data/data/datagovdata/missouri-active-alcohol-license-data-af6fa.csv","STATE","uri",".*?$(?<!\.aspx)"
