"file_name","column_name","label","regex"
"/data/datasets/datagov/data/data/datagovdata/tl_2008_35013_taz00.csv","TAZCE00","numbers","^\d*$"
"/data/datasets/datagov/data/data/datagovdata/tl_2008_35013_taz00.csv","MTFCC00","uri",".*?$(?<!\.aspx)"
"/data/datasets/datagov/data/data/datagovdata/tl_2008_35013_taz00.csv","COUNTYFP00","numbers","^\d*$"
"/data/datasets/datagov/data/data/datagovdata/tl_2008_35013_taz00.csv","FUNCSTAT00","uri",".*?$(?<!\.aspx)"
"/data/datasets/datagov/data/data/datagovdata/tl_2008_35013_taz00.csv","TAZIDFP00","numbers","^\d*$"
"/data/datasets/datagov/data/data/datagovdata/tl_2008_35013_taz00.csv","STATEFP00","numbers","^\d*$"
