"file_name","column_name","label","regex"
"/data/datasets/datagov/data/data/datagovdata/better-brakes-count-of-formulas-in-each-compliance-category-64fd1.csv","Cu Count of Formulas","numbers","^\d*$"
"/data/datasets/datagov/data/data/datagovdata/better-brakes-count-of-formulas-in-each-compliance-category-64fd1.csv","Sb Count of Formulas","numbers","^\d*$"
"/data/datasets/datagov/data/data/datagovdata/better-brakes-count-of-formulas-in-each-compliance-category-64fd1.csv","Vehicle Type","uri",".*?$(?<!\.aspx)"
"/data/datasets/datagov/data/data/datagovdata/better-brakes-count-of-formulas-in-each-compliance-category-64fd1.csv","Zn Count of Formulas","numbers","^\d*$"
"/data/datasets/datagov/data/data/datagovdata/better-brakes-count-of-formulas-in-each-compliance-category-64fd1.csv","Zn Concentration Range","strings","[^""\r\n]*"
"/data/datasets/datagov/data/data/datagovdata/better-brakes-count-of-formulas-in-each-compliance-category-64fd1.csv","Sb Concentration Range","strings","[^""\r\n]*"
"/data/datasets/datagov/data/data/datagovdata/better-brakes-count-of-formulas-in-each-compliance-category-64fd1.csv","Cu Compliance Category","strings","[^""\r\n]*"
