"file_name","column_name","label","regex"
"/data/datasets/datagov/data/data/datagovdata/comparison-of-residential-power-and-water-rates-c86e9.csv","Agency","uri",".*?$(?<!\.aspx)"
"/data/datasets/datagov/data/data/datagovdata/comparison-of-residential-power-and-water-rates-c86e9.csv","Type of Bill","uri",".*?$(?<!\.aspx)"
"/data/datasets/datagov/data/data/datagovdata/comparison-of-residential-power-and-water-rates-c86e9.csv","Typical Monthly Residential Bill","numbers","^\$?\d+(\.(\d{2}))?$"
