"file_name","column_name","label","regex"
"/data/datasets/datagov/data/data/datagovdata/dof-cooperative-comparable-rental-income-brooklyn-fy-2009-2010-d6fbd.csv","COMPARABLE RENTAL – 2 –Est. Gross Income","numbers","^(\d|,)*\.?\d*$"
"/data/datasets/datagov/data/data/datagovdata/dof-cooperative-comparable-rental-income-brooklyn-fy-2009-2010-d6fbd.csv","BROOKLYN – COOPERATIVES COMPARABLE PROPERTIES – Total Units","numbers","^(\d|,)*\.?\d*$"
"/data/datasets/datagov/data/data/datagovdata/dof-cooperative-comparable-rental-income-brooklyn-fy-2009-2010-d6fbd.csv","COMPARABLE RENTAL – 2 –Full Market Value","numbers","^(\d|,)*\.?\d*$"
"/data/datasets/datagov/data/data/datagovdata/dof-cooperative-comparable-rental-income-brooklyn-fy-2009-2010-d6fbd.csv","COMPARABLE RENTAL – 2 –Dist. from Coop in miles","numbers","^(\d|,)*\.?\d*$"
"/data/datasets/datagov/data/data/datagovdata/dof-cooperative-comparable-rental-income-brooklyn-fy-2009-2010-d6fbd.csv","COMPARABLE RENTAL – 1 –Address","uri",".*?$(?<!\.aspx)"
"/data/datasets/datagov/data/data/datagovdata/dof-cooperative-comparable-rental-income-brooklyn-fy-2009-2010-d6fbd.csv","COMPARABLE RENTAL – 1 –Building Classification","uri",".*?$(?<!\.aspx)"
"/data/datasets/datagov/data/data/datagovdata/dof-cooperative-comparable-rental-income-brooklyn-fy-2009-2010-d6fbd.csv","BROOKLYN – COOPERATIVES COMPARABLE PROPERTIES – Est. Gross Income","numbers","^(\d|,)*\.?\d*$"
"/data/datasets/datagov/data/data/datagovdata/dof-cooperative-comparable-rental-income-brooklyn-fy-2009-2010-d6fbd.csv","BROOKLYN – COOPERATIVES COMPARABLE PROPERTIES – Gross Income per SqFt","numbers","^(\d|,)*\.?\d*$"
"/data/datasets/datagov/data/data/datagovdata/dof-cooperative-comparable-rental-income-brooklyn-fy-2009-2010-d6fbd.csv","BROOKLYN – COOPERATIVES COMPARABLE PROPERTIES – Year Built","numbers","^(\d|,)*\.?\d*$"
"/data/datasets/datagov/data/data/datagovdata/dof-cooperative-comparable-rental-income-brooklyn-fy-2009-2010-d6fbd.csv","COMPARABLE RENTAL – 2 –Address","strings","[^""\r\n]*"
"/data/datasets/datagov/data/data/datagovdata/dof-cooperative-comparable-rental-income-brooklyn-fy-2009-2010-d6fbd.csv","COMPARABLE RENTAL – 1 –Neighborhood","uri",".*?$(?<!\.aspx)"
"/data/datasets/datagov/data/data/datagovdata/dof-cooperative-comparable-rental-income-brooklyn-fy-2009-2010-d6fbd.csv","BROOKLYN – COOPERATIVES COMPARABLE PROPERTIES – Building Classification","uri",".*?$(?<!\.aspx)"
"/data/datasets/datagov/data/data/datagovdata/dof-cooperative-comparable-rental-income-brooklyn-fy-2009-2010-d6fbd.csv","COMPARABLE RENTAL – 1 –Est. Gross Income","numbers","^(\d|,)*\.?\d*$"
"/data/datasets/datagov/data/data/datagovdata/dof-cooperative-comparable-rental-income-brooklyn-fy-2009-2010-d6fbd.csv","COMPARABLE RENTAL – 2 –Total Units","numbers","^(\d|,)*\.?\d*$"
"/data/datasets/datagov/data/data/datagovdata/dof-cooperative-comparable-rental-income-brooklyn-fy-2009-2010-d6fbd.csv","BROOKLYN – COOPERATIVES COMPARABLE PROPERTIES – Full Market Value","numbers","^(\d|,)*\.?\d*$"
"/data/datasets/datagov/data/data/datagovdata/dof-cooperative-comparable-rental-income-brooklyn-fy-2009-2010-d6fbd.csv","COMPARABLE RENTAL – 1 –Market Value per SqFt","numbers","^(\d|,)*\.?\d*$"
"/data/datasets/datagov/data/data/datagovdata/dof-cooperative-comparable-rental-income-brooklyn-fy-2009-2010-d6fbd.csv","COMPARABLE RENTAL – 1 –Full Market Value","numbers","^(\d|,)*\.?\d*$"
"/data/datasets/datagov/data/data/datagovdata/dof-cooperative-comparable-rental-income-brooklyn-fy-2009-2010-d6fbd.csv","COMPARABLE RENTAL – 2 –Market Value per SqFt","numbers","^(\d|,)*\.?\d*$"
"/data/datasets/datagov/data/data/datagovdata/dof-cooperative-comparable-rental-income-brooklyn-fy-2009-2010-d6fbd.csv","COMPARABLE RENTAL – 1 –Boro-Block-Lot","uri",".*?$(?<!\.aspx)"
"/data/datasets/datagov/data/data/datagovdata/dof-cooperative-comparable-rental-income-brooklyn-fy-2009-2010-d6fbd.csv","COMPARABLE RENTAL – 2 –Gross SqFt","numbers","^(\d|,)*\.?\d*$"
"/data/datasets/datagov/data/data/datagovdata/dof-cooperative-comparable-rental-income-brooklyn-fy-2009-2010-d6fbd.csv","COMPARABLE RENTAL – 1 –Total Units","numbers","^(\d|,)*\.?\d*$"
"/data/datasets/datagov/data/data/datagovdata/dof-cooperative-comparable-rental-income-brooklyn-fy-2009-2010-d6fbd.csv","BROOKLYN – COOPERATIVES COMPARABLE PROPERTIES – Gross SqFt","numbers","^(\d|,)*\.?\d*$"
"/data/datasets/datagov/data/data/datagovdata/dof-cooperative-comparable-rental-income-brooklyn-fy-2009-2010-d6fbd.csv","COMPARABLE RENTAL – 1 –Gross SqFt","numbers","^(\d|,)*\.?\d*$"
"/data/datasets/datagov/data/data/datagovdata/dof-cooperative-comparable-rental-income-brooklyn-fy-2009-2010-d6fbd.csv","COMPARABLE RENTAL – 1 –Year Built","numbers","^(\d|,)*\.?\d*$"
"/data/datasets/datagov/data/data/datagovdata/dof-cooperative-comparable-rental-income-brooklyn-fy-2009-2010-d6fbd.csv","BROOKLYN – COOPERATIVES COMPARABLE PROPERTIES – Address","strings","[^""\r\n]*"
"/data/datasets/datagov/data/data/datagovdata/dof-cooperative-comparable-rental-income-brooklyn-fy-2009-2010-d6fbd.csv","COMPARABLE RENTAL – 2 –Year Built","numbers","^(\d|,)*\.?\d*$"
"/data/datasets/datagov/data/data/datagovdata/dof-cooperative-comparable-rental-income-brooklyn-fy-2009-2010-d6fbd.csv","BROOKLYN – COOPERATIVES COMPARABLE PROPERTIES – Neighborhood","uri",".*?$(?<!\.aspx)"
"/data/datasets/datagov/data/data/datagovdata/dof-cooperative-comparable-rental-income-brooklyn-fy-2009-2010-d6fbd.csv","COMPARABLE RENTAL – 2 –Boro-Block-Lot","uri",".*?$(?<!\.aspx)"
"/data/datasets/datagov/data/data/datagovdata/dof-cooperative-comparable-rental-income-brooklyn-fy-2009-2010-d6fbd.csv","COMPARABLE RENTAL – 1 –Dist. from Coop in miles","numbers","^(\d|,)*\.?\d*$"
"/data/datasets/datagov/data/data/datagovdata/dof-cooperative-comparable-rental-income-brooklyn-fy-2009-2010-d6fbd.csv","COMPARABLE RENTAL – 2 –Gross Income per SqFt","numbers","^(\d|,)*\.?\d*$"
"/data/datasets/datagov/data/data/datagovdata/dof-cooperative-comparable-rental-income-brooklyn-fy-2009-2010-d6fbd.csv","BROOKLYN – COOPERATIVES COMPARABLE PROPERTIES – Boro-Block-Lot","uri",".*?$(?<!\.aspx)"
"/data/datasets/datagov/data/data/datagovdata/dof-cooperative-comparable-rental-income-brooklyn-fy-2009-2010-d6fbd.csv","COMPARABLE RENTAL – 2 –Neighborhood","uri",".*?$(?<!\.aspx)"
"/data/datasets/datagov/data/data/datagovdata/dof-cooperative-comparable-rental-income-brooklyn-fy-2009-2010-d6fbd.csv","COMPARABLE RENTAL – 2 –Building Classification","uri",".*?$(?<!\.aspx)"
"/data/datasets/datagov/data/data/datagovdata/dof-cooperative-comparable-rental-income-brooklyn-fy-2009-2010-d6fbd.csv","COMPARABLE RENTAL – 1 –Gross Income per SqFt","numbers","^(\d|,)*\.?\d*$"
"/data/datasets/datagov/data/data/datagovdata/dof-cooperative-comparable-rental-income-brooklyn-fy-2009-2010-d6fbd.csv","BROOKLYN – COOPERATIVES COMPARABLE PROPERTIES – Market Value per SqFt","numbers","^(\d|,)*\.?\d*$"
