"file_name","column_name","label","regex"
"/data/datasets/datagov/data/data/datagovdata/2010-2011-class-size-district-level-summary-f0000.csv","BORO","uri",".*?$(?<!\.aspx)"
"/data/datasets/datagov/data/data/datagovdata/2010-2011-class-size-district-level-summary-f0000.csv","NUMBER OF STUDENTS / SEATS FILLED","numbers","^(\d|,)*\.?\d*$"
"/data/datasets/datagov/data/data/datagovdata/2010-2011-class-size-district-level-summary-f0000.csv","CORE COURSE (MS CORE and 9-12 ONLY)","uri",".*?$(?<!\.aspx)"
"/data/datasets/datagov/data/data/datagovdata/2010-2011-class-size-district-level-summary-f0000.csv","GRADE ","uri",".*?$(?<!\.aspx)"
"/data/datasets/datagov/data/data/datagovdata/2010-2011-class-size-district-level-summary-f0000.csv","PROGRAM TYPE","uri",".*?$(?<!\.aspx)"
"/data/datasets/datagov/data/data/datagovdata/2010-2011-class-size-district-level-summary-f0000.csv","NUMBER OF SECTIONS","numbers","^(\d|,)*\.?\d*$"
"/data/datasets/datagov/data/data/datagovdata/2010-2011-class-size-district-level-summary-f0000.csv","CORE SUBJECT (MS CORE and 9-12 ONLY)","uri",".*?$(?<!\.aspx)"
"/data/datasets/datagov/data/data/datagovdata/2010-2011-class-size-district-level-summary-f0000.csv","CSD","numbers","^(\d|,)*\.?\d*$"
"/data/datasets/datagov/data/data/datagovdata/2010-2011-class-size-district-level-summary-f0000.csv","AVERAGE CLASS SIZE","numbers","^(\d|,)*\.?\d*$"
"/data/datasets/datagov/data/data/datagovdata/2010-2011-class-size-district-level-summary-f0000.csv","SERVICE CATEGORY(K-9* ONLY)","strings","[^""\r\n]*"
