"file_name","column_name","label","regex"
"/data/datasets/datagov/data/data/datagovdata/tgr2006se_eddy_zcta500.csv","COUNTY","numbers","^\d*$"
"/data/datasets/datagov/data/data/datagovdata/tgr2006se_eddy_zcta500.csv","ZCTA","numbers","^\d*$"
"/data/datasets/datagov/data/data/datagovdata/tgr2006se_eddy_zcta500.csv","GIST_ID","numbers","^\d*$"
