"file_name","column_name","label","regex"
"/data/datasets/chemical/chembl_21/csvdata/public.compound_structural_alerts.csv","cpd_str_alert_id","numbers","^\d*$"
"/data/datasets/chemical/chembl_21/csvdata/public.compound_structural_alerts.csv","molregno","numbers","^\d*$"
"/data/datasets/chemical/chembl_21/csvdata/public.compound_structural_alerts.csv","alert_id","numbers","^\d*$"
