"file_name","column_name","label","regex"
"/data/datasets/datagov/data/data/datagovdata/tgr2006se_oter_puma1.csv","COUNTY","numbers","^\d*$"
"/data/datasets/datagov/data/data/datagovdata/tgr2006se_oter_puma1.csv","PUMA1","numbers","^\d*$"
"/data/datasets/datagov/data/data/datagovdata/tgr2006se_oter_puma1.csv","GIST_ID","numbers","^\d*$"
