"file_name","column_name","label","regex"
"/data/datasets/datagov/data/data/datagovdata/tl_2010_35015_arealm.csv","INTPTLAT","numbers","^-?\d*(\.\d+)?$"
"/data/datasets/datagov/data/data/datagovdata/tl_2010_35015_arealm.csv","ALAND","numbers","^-?\d*(\.\d+)?$"
"/data/datasets/datagov/data/data/datagovdata/tl_2010_35015_arealm.csv","FULLNAME","uri",".*?$(?<!\.aspx)"
"/data/datasets/datagov/data/data/datagovdata/tl_2010_35015_arealm.csv","MTFCC","uri",".*?$(?<!\.aspx)"
"/data/datasets/datagov/data/data/datagovdata/tl_2010_35015_arealm.csv","AWATER","numbers","^-?\d*(\.\d+)?$"
"/data/datasets/datagov/data/data/datagovdata/tl_2010_35015_arealm.csv","INTPTLON","numbers","^-?\d*(\.\d+)?$"
"/data/datasets/datagov/data/data/datagovdata/tl_2010_35015_arealm.csv","AREAID","numbers","^-?\d*(\.\d+)?$"
"/data/datasets/datagov/data/data/datagovdata/tl_2010_35015_arealm.csv","COUNTYFP","numbers","^-?\d*(\.\d+)?$"
"/data/datasets/datagov/data/data/datagovdata/tl_2010_35015_arealm.csv","STATEFP","numbers","^-?\d*(\.\d+)?$"
