"file_name","column_name","label","regex"
"/data/datasets/datagov/data/data/datagovdata/maryland-births-and-birth-rates-1902-2011-3252f.csv","Year","numbers","^(\d|,)*\.?\d*$"
"/data/datasets/datagov/data/data/datagovdata/maryland-births-and-birth-rates-1902-2011-3252f.csv","Birth Rate","numbers","^(\d|,)*\.?\d*$"
"/data/datasets/datagov/data/data/datagovdata/maryland-births-and-birth-rates-1902-2011-3252f.csv","Number of Births","numbers","^(\d|,)*\.?\d*$"
