"file_name","column_name","label","regex"
"/data/datasets/datagov/data/data/datagovdata/king-county-elections-canvassing-board-schedule-92152.csv","Event","strings","[^""\r\n]*"
"/data/datasets/datagov/data/data/datagovdata/king-county-elections-canvassing-board-schedule-92152.csv","Date","uri",".*?$(?<!\.aspx)"
"/data/datasets/datagov/data/data/datagovdata/king-county-elections-canvassing-board-schedule-92152.csv","Time","strings","[^""\r\n]*"
"/data/datasets/datagov/data/data/datagovdata/king-county-elections-canvassing-board-schedule-92152.csv","Event ID","uri",".*?$(?<!\.aspx)"
