"file_name","column_name","label","regex"
"/data/datasets/datagov/data/data/datagovdata/oeig-primary-allegation-of-complaints-in-fy-2010-fy-2011-99ec5.csv","FY 2011","numbers","^\d*$"
"/data/datasets/datagov/data/data/datagovdata/oeig-primary-allegation-of-complaints-in-fy-2010-fy-2011-99ec5.csv","Category of Misconduct","strings","[^""\r\n]*"
"/data/datasets/datagov/data/data/datagovdata/oeig-primary-allegation-of-complaints-in-fy-2010-fy-2011-99ec5.csv","FY 2010","numbers","^\d*$"
