"file_name","column_name","label","regex"
"/data/datasets/datagov/data/data/datagovdata/new-york-city-population-by-borough-1950-2040-d09f9.csv","1980 - Boro share of NYC total","uri",".*?$(?<!\.aspx)"
"/data/datasets/datagov/data/data/datagovdata/new-york-city-population-by-borough-1950-2040-d09f9.csv","2040","numbers","^\d*$"
"/data/datasets/datagov/data/data/datagovdata/new-york-city-population-by-borough-1950-2040-d09f9.csv","2010","numbers","^\d*$"
"/data/datasets/datagov/data/data/datagovdata/new-york-city-population-by-borough-1950-2040-d09f9.csv","1990","numbers","^\d*$"
"/data/datasets/datagov/data/data/datagovdata/new-york-city-population-by-borough-1950-2040-d09f9.csv","1960","numbers","^\d*$"
"/data/datasets/datagov/data/data/datagovdata/new-york-city-population-by-borough-1950-2040-d09f9.csv","1950 - Boro share of NYC total","uri",".*?$(?<!\.aspx)"
"/data/datasets/datagov/data/data/datagovdata/new-york-city-population-by-borough-1950-2040-d09f9.csv","2020 - Boro share of NYC total","uri",".*?$(?<!\.aspx)"
"/data/datasets/datagov/data/data/datagovdata/new-york-city-population-by-borough-1950-2040-d09f9.csv","2030","numbers","^\d*$"
"/data/datasets/datagov/data/data/datagovdata/new-york-city-population-by-borough-1950-2040-d09f9.csv","1990 - Boro share of NYC total","uri",".*?$(?<!\.aspx)"
"/data/datasets/datagov/data/data/datagovdata/new-york-city-population-by-borough-1950-2040-d09f9.csv","1970","numbers","^\d*$"
"/data/datasets/datagov/data/data/datagovdata/new-york-city-population-by-borough-1950-2040-d09f9.csv","1950","numbers","^\d*$"
"/data/datasets/datagov/data/data/datagovdata/new-york-city-population-by-borough-1950-2040-d09f9.csv","2000","numbers","^\d*$"
"/data/datasets/datagov/data/data/datagovdata/new-york-city-population-by-borough-1950-2040-d09f9.csv","2010 - Boro share of NYC total","uri",".*?$(?<!\.aspx)"
"/data/datasets/datagov/data/data/datagovdata/new-york-city-population-by-borough-1950-2040-d09f9.csv","2000 - Boro share of NYC total","uri",".*?$(?<!\.aspx)"
"/data/datasets/datagov/data/data/datagovdata/new-york-city-population-by-borough-1950-2040-d09f9.csv","2040 - Boro share of NYC total","uri",".*?$(?<!\.aspx)"
"/data/datasets/datagov/data/data/datagovdata/new-york-city-population-by-borough-1950-2040-d09f9.csv","1980","numbers","^\d*$"
"/data/datasets/datagov/data/data/datagovdata/new-york-city-population-by-borough-1950-2040-d09f9.csv","2030 - Boro share of NYC total","uri",".*?$(?<!\.aspx)"
"/data/datasets/datagov/data/data/datagovdata/new-york-city-population-by-borough-1950-2040-d09f9.csv","Age Group","uri",".*?$(?<!\.aspx)"
"/data/datasets/datagov/data/data/datagovdata/new-york-city-population-by-borough-1950-2040-d09f9.csv","1960 - Boro share of NYC total","uri",".*?$(?<!\.aspx)"
"/data/datasets/datagov/data/data/datagovdata/new-york-city-population-by-borough-1950-2040-d09f9.csv","1970 - Boro share of NYC total","uri",".*?$(?<!\.aspx)"
"/data/datasets/datagov/data/data/datagovdata/new-york-city-population-by-borough-1950-2040-d09f9.csv","Borough","uri",".*?$(?<!\.aspx)"
"/data/datasets/datagov/data/data/datagovdata/new-york-city-population-by-borough-1950-2040-d09f9.csv","2020","numbers","^\d*$"
