"file_name","column_name","label","regex"
"/data/datasets/datagov/data/data/datagovdata/liquor-authority-quarterly-list-of-active-licenses.csv","Premises Name","strings","[^""\r\n]*"
"/data/datasets/datagov/data/data/datagovdata/liquor-authority-quarterly-list-of-active-licenses.csv","Latitude","numbers","^-?\d*(\.\d+)?$"
"/data/datasets/datagov/data/data/datagovdata/liquor-authority-quarterly-list-of-active-licenses.csv","County Name (Licensee)","uri",".*?$(?<!\.aspx)"
"/data/datasets/datagov/data/data/datagovdata/liquor-authority-quarterly-list-of-active-licenses.csv","Longitude","numbers","^-?\d*(\.\d+)?$"
"/data/datasets/datagov/data/data/datagovdata/liquor-authority-quarterly-list-of-active-licenses.csv","Agency Zone Office Name","uri",".*?$(?<!\.aspx)"
"/data/datasets/datagov/data/data/datagovdata/liquor-authority-quarterly-list-of-active-licenses.csv","License Serial Number","numbers","^-?\d*(\.\d+)?$"
"/data/datasets/datagov/data/data/datagovdata/liquor-authority-quarterly-list-of-active-licenses.csv","License Type Name","strings","[^""\r\n]*"
"/data/datasets/datagov/data/data/datagovdata/liquor-authority-quarterly-list-of-active-licenses.csv","License Effective Date","strings","[^""\r\n]*"
"/data/datasets/datagov/data/data/datagovdata/liquor-authority-quarterly-list-of-active-licenses.csv","Location","uri",".*?$(?<!\.aspx)"
"/data/datasets/datagov/data/data/datagovdata/liquor-authority-quarterly-list-of-active-licenses.csv","Zip","numbers","^-?\d*(\.\d+)?$"
"/data/datasets/datagov/data/data/datagovdata/liquor-authority-quarterly-list-of-active-licenses.csv","Actual Address of Premises (Address1)","uri",".*?$(?<!\.aspx)"
"/data/datasets/datagov/data/data/datagovdata/liquor-authority-quarterly-list-of-active-licenses.csv","Agency Zone Office Number","numbers","^-?\d*(\.\d+)?$"
"/data/datasets/datagov/data/data/datagovdata/liquor-authority-quarterly-list-of-active-licenses.csv","License Class Code","numbers","^-?\d*(\.\d+)?$"
"/data/datasets/datagov/data/data/datagovdata/liquor-authority-quarterly-list-of-active-licenses.csv","City","uri",".*?$(?<!\.aspx)"
"/data/datasets/datagov/data/data/datagovdata/liquor-authority-quarterly-list-of-active-licenses.csv","License Expiration Date","strings","[^""\r\n]*"
"/data/datasets/datagov/data/data/datagovdata/liquor-authority-quarterly-list-of-active-licenses.csv","License Original Issue Date","strings","[^""\r\n]*"
"/data/datasets/datagov/data/data/datagovdata/liquor-authority-quarterly-list-of-active-licenses.csv","License Certificate Number","numbers","^-?\d*(\.\d+)?$"
"/data/datasets/datagov/data/data/datagovdata/liquor-authority-quarterly-list-of-active-licenses.csv","License Type Code","uri",".*?$(?<!\.aspx)"
"/data/datasets/datagov/data/data/datagovdata/liquor-authority-quarterly-list-of-active-licenses.csv","State","uri",".*?$(?<!\.aspx)"
"/data/datasets/datagov/data/data/datagovdata/liquor-authority-quarterly-list-of-active-licenses.csv","Additional Address Information (Address2)","strings","[^""\r\n]*"
"/data/datasets/datagov/data/data/datagovdata/liquor-authority-quarterly-list-of-active-licenses.csv","Doing Business As (DBA)","strings","[^""\r\n]*"
