"file_name","column_name","label","regex"
"/data/datasets/datagov/data/data/datagovdata/state-of-oklahoma-capital-asset-utilization-by-function-primary-government.csv","2004","numbers","^\$?\d+(\.(\d{2}))?$"
"/data/datasets/datagov/data/data/datagovdata/state-of-oklahoma-capital-asset-utilization-by-function-primary-government.csv","2012","numbers","^\$?\d+(\.(\d{2}))?$"
"/data/datasets/datagov/data/data/datagovdata/state-of-oklahoma-capital-asset-utilization-by-function-primary-government.csv","2005","numbers","^\$?\d+(\.(\d{2}))?$"
"/data/datasets/datagov/data/data/datagovdata/state-of-oklahoma-capital-asset-utilization-by-function-primary-government.csv","2011","numbers","^\$?\d+(\.(\d{2}))?$"
"/data/datasets/datagov/data/data/datagovdata/state-of-oklahoma-capital-asset-utilization-by-function-primary-government.csv","2010","numbers","^\$?\d+(\.(\d{2}))?$"
"/data/datasets/datagov/data/data/datagovdata/state-of-oklahoma-capital-asset-utilization-by-function-primary-government.csv","2013","numbers","^\$?\d+(\.(\d{2}))?$"
"/data/datasets/datagov/data/data/datagovdata/state-of-oklahoma-capital-asset-utilization-by-function-primary-government.csv","2006","numbers","^\$?\d+(\.(\d{2}))?$"
"/data/datasets/datagov/data/data/datagovdata/state-of-oklahoma-capital-asset-utilization-by-function-primary-government.csv","2009","numbers","^\$?\d+(\.(\d{2}))?$"
"/data/datasets/datagov/data/data/datagovdata/state-of-oklahoma-capital-asset-utilization-by-function-primary-government.csv","Governmental Activities","uri",".*?$(?<!\.aspx)"
"/data/datasets/datagov/data/data/datagovdata/state-of-oklahoma-capital-asset-utilization-by-function-primary-government.csv","2007","numbers","^\$?\d+(\.(\d{2}))?$"
"/data/datasets/datagov/data/data/datagovdata/state-of-oklahoma-capital-asset-utilization-by-function-primary-government.csv","2008","numbers","^\$?\d+(\.(\d{2}))?$"
