"file_name","column_name","label","regex"
"/data/datasets/datagov/data/data/datagovdata/contracts-ous-captial-construction-retainer-program-pc-supplements-fy2013-82ad2.csv","Self-Certified","uri",".*?$(?<!\.aspx)"
"/data/datasets/datagov/data/data/datagovdata/contracts-ous-captial-construction-retainer-program-pc-supplements-fy2013-82ad2.csv"," Price ","numbers","^(\d|,)*\.?\d*$"
"/data/datasets/datagov/data/data/datagovdata/contracts-ous-captial-construction-retainer-program-pc-supplements-fy2013-82ad2.csv","Organization","uri",".*?$(?<!\.aspx)"
"/data/datasets/datagov/data/data/datagovdata/contracts-ous-captial-construction-retainer-program-pc-supplements-fy2013-82ad2.csv","Issue Date","strings","[^""\r\n]*"
"/data/datasets/datagov/data/data/datagovdata/contracts-ous-captial-construction-retainer-program-pc-supplements-fy2013-82ad2.csv","MWESB","uri",".*?$(?<!\.aspx)"
"/data/datasets/datagov/data/data/datagovdata/contracts-ous-captial-construction-retainer-program-pc-supplements-fy2013-82ad2.csv","Retainer Period","uri",".*?$(?<!\.aspx)"
"/data/datasets/datagov/data/data/datagovdata/contracts-ous-captial-construction-retainer-program-pc-supplements-fy2013-82ad2.csv","Consultant","uri",".*?$(?<!\.aspx)"
"/data/datasets/datagov/data/data/datagovdata/contracts-ous-captial-construction-retainer-program-pc-supplements-fy2013-82ad2.csv","Amendments","uri",".*?$(?<!\.aspx)"
