"file_name","column_name","label","regex"
"/data/datasets/datagov/data/data/datagovdata/hawaii-state-ethics-commissions-ethics-advice-46070.csv","Advice Name","strings","[^""\r\n]*"
"/data/datasets/datagov/data/data/datagovdata/hawaii-state-ethics-commissions-ethics-advice-46070.csv","Year Issued","numbers","^\d*$"
"/data/datasets/datagov/data/data/datagovdata/hawaii-state-ethics-commissions-ethics-advice-46070.csv","Date Issued","strings","[^""\r\n]*"
"/data/datasets/datagov/data/data/datagovdata/hawaii-state-ethics-commissions-ethics-advice-46070.csv","Advice Type","uri",".*?$(?<!\.aspx)"
"/data/datasets/datagov/data/data/datagovdata/hawaii-state-ethics-commissions-ethics-advice-46070.csv","Keywords","strings","[^""\r\n]*"
