"file_name","column_name","label","regex"
"/data/datasets/datagov/data/data/datagovdata/calculated-library-indicators-for-results-nola.csv","IndicatorName","uri",".*?$(?<!\.aspx)"
"/data/datasets/datagov/data/data/datagovdata/calculated-library-indicators-for-results-nola.csv","Year","numbers","(^([0-9]+[.]+[0-9]+)|(0)$)"
"/data/datasets/datagov/data/data/datagovdata/calculated-library-indicators-for-results-nola.csv","IndicatorValue","numbers","(^([0-9]+[.]+[0-9]+)|(0)$)"
"/data/datasets/datagov/data/data/datagovdata/calculated-library-indicators-for-results-nola.csv","RowID","uri",".*?$(?<!\.aspx)"
"/data/datasets/datagov/data/data/datagovdata/calculated-library-indicators-for-results-nola.csv","Date","strings","[^""\r\n]*"
"/data/datasets/datagov/data/data/datagovdata/calculated-library-indicators-for-results-nola.csv","Month","uri",".*?$(?<!\.aspx)"
