"file_name","column_name","label","regex"
"/data/datasets/datagov/data/data/datagovdata/view-bid-results-9e367.csv","Results","uri",".*?$(?<!\.aspx)"
"/data/datasets/datagov/data/data/datagovdata/view-bid-results-9e367.csv","Project","strings","[^""\r\n]*"
"/data/datasets/datagov/data/data/datagovdata/view-bid-results-9e367.csv","Sublisting","uri",".*?$(?<!\.aspx)"
"/data/datasets/datagov/data/data/datagovdata/view-bid-results-9e367.csv","Job#","uri",".*?$(?<!\.aspx)"
