"file_name","column_name","label","regex"
"/data/datasets/mitdwh/Sdo_prime_meridians.csv","Greenwich Longitude","numbers","^(\d|,)*\d*$"
"/data/datasets/mitdwh/Sdo_prime_meridians.csv","Data Source","uri",".*?$(?<!\.aspx)"
"/data/datasets/mitdwh/Sdo_prime_meridians.csv","Uom Id","numbers","^(\d|,)*\d*$"
"/data/datasets/mitdwh/Sdo_prime_meridians.csv","Prime Meridian Id","numbers","^(\d|,)*\d*$"
"/data/datasets/mitdwh/Sdo_prime_meridians.csv","Information Source","strings","[^""\r\n]*"
"/data/datasets/mitdwh/Sdo_prime_meridians.csv","Prime Meridian Name","uri",".*?$(?<!\.aspx)"
