"file_name","column_name","label","regex"
"/data/datasets/datagov/data/data/datagovdata/total-provider-reimbursement-for-family-planning-access-care-and-treatment-pact-services-b.csv","Fiscal Year (FY)","numbers","^\$?\d+(\.(\d{2}))?$"
"/data/datasets/datagov/data/data/datagovdata/total-provider-reimbursement-for-family-planning-access-care-and-treatment-pact-services-b.csv","Reimbursement Amount","numbers","^\$?\d+(\.(\d{2}))?$"
