"file_name","column_name","label","regex"
"/data/datasets/datagov/data/data/datagovdata/dmh-veterans-provider-enrollment-71d7a.csv","LMSW","uri",".*?$(?<!\.aspx)"
"/data/datasets/datagov/data/data/datagovdata/dmh-veterans-provider-enrollment-71d7a.csv","Anger Management","uri",".*?$(?<!\.aspx)"
"/data/datasets/datagov/data/data/datagovdata/dmh-veterans-provider-enrollment-71d7a.csv","Psychiatrist","uri",".*?$(?<!\.aspx)"
"/data/datasets/datagov/data/data/datagovdata/dmh-veterans-provider-enrollment-71d7a.csv","Alcohol and Substance Abuse","uri",".*?$(?<!\.aspx)"
"/data/datasets/datagov/data/data/datagovdata/dmh-veterans-provider-enrollment-71d7a.csv","Zip Code","numbers","^(\d|,)*\.?\d*$"
"/data/datasets/datagov/data/data/datagovdata/dmh-veterans-provider-enrollment-71d7a.csv","Traumatic Brain Injury","uri",".*?$(?<!\.aspx)"
"/data/datasets/datagov/data/data/datagovdata/dmh-veterans-provider-enrollment-71d7a.csv","General Mental Health","uri",".*?$(?<!\.aspx)"
"/data/datasets/datagov/data/data/datagovdata/dmh-veterans-provider-enrollment-71d7a.csv","Company Name","strings","[^""\r\n]*"
"/data/datasets/datagov/data/data/datagovdata/dmh-veterans-provider-enrollment-71d7a.csv","Military Culture","uri",".*?$(?<!\.aspx)"
"/data/datasets/datagov/data/data/datagovdata/dmh-veterans-provider-enrollment-71d7a.csv","TRICARE","uri",".*?$(?<!\.aspx)"
"/data/datasets/datagov/data/data/datagovdata/dmh-veterans-provider-enrollment-71d7a.csv","Psychologist","uri",".*?$(?<!\.aspx)"
"/data/datasets/datagov/data/data/datagovdata/dmh-veterans-provider-enrollment-71d7a.csv","PLPC","uri",".*?$(?<!\.aspx)"
"/data/datasets/datagov/data/data/datagovdata/dmh-veterans-provider-enrollment-71d7a.csv","Website","strings","[^""\r\n]*"
"/data/datasets/datagov/data/data/datagovdata/dmh-veterans-provider-enrollment-71d7a.csv","Child/Adolescent","uri",".*?$(?<!\.aspx)"
"/data/datasets/datagov/data/data/datagovdata/dmh-veterans-provider-enrollment-71d7a.csv","Domestic Violence","uri",".*?$(?<!\.aspx)"
"/data/datasets/datagov/data/data/datagovdata/dmh-veterans-provider-enrollment-71d7a.csv","BAN","uri",".*?$(?<!\.aspx)"
"/data/datasets/datagov/data/data/datagovdata/dmh-veterans-provider-enrollment-71d7a.csv","Family/Marriage","uri",".*?$(?<!\.aspx)"
"/data/datasets/datagov/data/data/datagovdata/dmh-veterans-provider-enrollment-71d7a.csv","Post Traumatic Stress","uri",".*?$(?<!\.aspx)"
"/data/datasets/datagov/data/data/datagovdata/dmh-veterans-provider-enrollment-71d7a.csv","Location 1","strings","[^""\r\n]*"
"/data/datasets/datagov/data/data/datagovdata/dmh-veterans-provider-enrollment-71d7a.csv","Suite No.","uri",".*?$(?<!\.aspx)"
"/data/datasets/datagov/data/data/datagovdata/dmh-veterans-provider-enrollment-71d7a.csv","Sexual Assault","uri",".*?$(?<!\.aspx)"
"/data/datasets/datagov/data/data/datagovdata/dmh-veterans-provider-enrollment-71d7a.csv","Faith Based","uri",".*?$(?<!\.aspx)"
"/data/datasets/datagov/data/data/datagovdata/dmh-veterans-provider-enrollment-71d7a.csv","Suicide Prevention","uri",".*?$(?<!\.aspx)"
"/data/datasets/datagov/data/data/datagovdata/dmh-veterans-provider-enrollment-71d7a.csv","LPC","uri",".*?$(?<!\.aspx)"
"/data/datasets/datagov/data/data/datagovdata/dmh-veterans-provider-enrollment-71d7a.csv","Phone Number","numbers","^(\d|,)*\.?\d*$"
"/data/datasets/datagov/data/data/datagovdata/dmh-veterans-provider-enrollment-71d7a.csv","Country ","uri",".*?$(?<!\.aspx)"
"/data/datasets/datagov/data/data/datagovdata/dmh-veterans-provider-enrollment-71d7a.csv","Psychiatric Nurse Practitioner","uri",".*?$(?<!\.aspx)"
"/data/datasets/datagov/data/data/datagovdata/dmh-veterans-provider-enrollment-71d7a.csv","LCSW","uri",".*?$(?<!\.aspx)"
"/data/datasets/datagov/data/data/datagovdata/dmh-veterans-provider-enrollment-71d7a.csv","Substance Abuse","uri",".*?$(?<!\.aspx)"
"/data/datasets/datagov/data/data/datagovdata/dmh-veterans-provider-enrollment-71d7a.csv","MFT","uri",".*?$(?<!\.aspx)"
