"file_name","column_name","label","regex"
"/data/datasets/datagov/data/data/datagovdata/greenhouse-gas-reporting-update.csv","Email Address","email","^.+@[^\.].*\.[a-z]{2,}$"
"/data/datasets/datagov/data/data/datagovdata/greenhouse-gas-reporting-update.csv","First Name","uri",".*?$(?<!\.aspx)"
"/data/datasets/datagov/data/data/datagovdata/greenhouse-gas-reporting-update.csv","Organization","uri",".*?$(?<!\.aspx)"
"/data/datasets/datagov/data/data/datagovdata/greenhouse-gas-reporting-update.csv","Additional Document","uri",".*?$(?<!\.aspx)"
"/data/datasets/datagov/data/data/datagovdata/greenhouse-gas-reporting-update.csv","Comment","uri",".*?$(?<!\.aspx)"
"/data/datasets/datagov/data/data/datagovdata/greenhouse-gas-reporting-update.csv","Last Name","uri",".*?$(?<!\.aspx)"
"/data/datasets/datagov/data/data/datagovdata/greenhouse-gas-reporting-update.csv","State","uri",".*?$(?<!\.aspx)"
