"file_name","column_name","label","regex"
"/data/datasets/datagov/data/data/datagovdata/nola-grocery-stores.csv","Business_State","uri","^[^\\\/\?\*\""\'\>\<\:\|]*$"
"/data/datasets/datagov/data/data/datagovdata/nola-grocery-stores.csv","Address","uri","^[^\\\/\?\*\""\'\>\<\:\|]*$"
"/data/datasets/datagov/data/data/datagovdata/nola-grocery-stores.csv","Description","address_or_phone","(\d{4,6})"
"/data/datasets/datagov/data/data/datagovdata/nola-grocery-stores.csv","Business_City","uri","^[^\\\/\?\*\""\'\>\<\:\|]*$"
"/data/datasets/datagov/data/data/datagovdata/nola-grocery-stores.csv","Location 1","uri","^[^\\\/\?\*\""\'\>\<\:\|]*$"
"/data/datasets/datagov/data/data/datagovdata/nola-grocery-stores.csv","Business_Zip5","numbers","^\d*$"
"/data/datasets/datagov/data/data/datagovdata/nola-grocery-stores.csv","Trade_Name","uri","^[^\\\/\?\*\""\'\>\<\:\|]*$"
