"file_name","column_name","label","regex"
"/data/datasets/datagov/data/data/datagovdata/socrata-help.csv","Description","uri",".*?$(?<!\.aspx)"
"/data/datasets/datagov/data/data/datagovdata/socrata-help.csv","Name","uri",".*?$(?<!\.aspx)"
"/data/datasets/datagov/data/data/datagovdata/socrata-help.csv","Link","uri",".*?$(?<!\.aspx)"
