"file_name","column_name","label","regex"
"/data/datasets/datagov/data/data/datagovdata/attribution-of-complaints-to-different-bureaus-bdb58.csv","Personnel Bureau","numbers","^\d$"
"/data/datasets/datagov/data/data/datagovdata/attribution-of-complaints-to-different-bureaus-bdb58.csv","Housing Bureau","numbers","^\d$"
"/data/datasets/datagov/data/data/datagovdata/attribution-of-complaints-to-different-bureaus-bdb58.csv","Other Patrol Services Bureau","numbers","^\d$"
"/data/datasets/datagov/data/data/datagovdata/attribution-of-complaints-to-different-bureaus-bdb58.csv","Detective Bureau","numbers","^\d$"
"/data/datasets/datagov/data/data/datagovdata/attribution-of-complaints-to-different-bureaus-bdb58.csv","Organized Crime Control Bureau","numbers","^\d$"
"/data/datasets/datagov/data/data/datagovdata/attribution-of-complaints-to-different-bureaus-bdb58.csv","Patrol Services Bureau","numbers","^\d$"
"/data/datasets/datagov/data/data/datagovdata/attribution-of-complaints-to-different-bureaus-bdb58.csv","Criminal Justice Bureau","numbers","^\d$"
"/data/datasets/datagov/data/data/datagovdata/attribution-of-complaints-to-different-bureaus-bdb58.csv","Year","numbers","^\d$"
"/data/datasets/datagov/data/data/datagovdata/attribution-of-complaints-to-different-bureaus-bdb58.csv","Other Commands","numbers","^\d$"
"/data/datasets/datagov/data/data/datagovdata/attribution-of-complaints-to-different-bureaus-bdb58.csv","Special Operation Division","numbers","^\d$"
"/data/datasets/datagov/data/data/datagovdata/attribution-of-complaints-to-different-bureaus-bdb58.csv","Support Services Bureau","numbers","^\d$"
"/data/datasets/datagov/data/data/datagovdata/attribution-of-complaints-to-different-bureaus-bdb58.csv","Transit Bureau","numbers","^\d$"
"/data/datasets/datagov/data/data/datagovdata/attribution-of-complaints-to-different-bureaus-bdb58.csv","Traffic Control Division","numbers","^\d$"
"/data/datasets/datagov/data/data/datagovdata/attribution-of-complaints-to-different-bureaus-bdb58.csv","Internal Affairs Bureau","numbers","^\d$"
"/data/datasets/datagov/data/data/datagovdata/attribution-of-complaints-to-different-bureaus-bdb58.csv","Special Operations Division","numbers","^\d$"
"/data/datasets/datagov/data/data/datagovdata/attribution-of-complaints-to-different-bureaus-bdb58.csv","Deputy Commissioners and Misc. Commands","numbers","^\d$"
