"file_name","column_name","label","regex"
"/data/datasets/datagov/data/data/datagovdata/transportation-department-permits.csv","TOTALFEES","numbers","^-?\d*(\.\d+)?$"
"/data/datasets/datagov/data/data/datagovdata/transportation-department-permits.csv","APPLICATIONPROCESSEDDATE","strings","[^""\r\n]*"
"/data/datasets/datagov/data/data/datagovdata/transportation-department-permits.csv","WAIVEDFEES","numbers","^-?\d*(\.\d+)?$"
"/data/datasets/datagov/data/data/datagovdata/transportation-department-permits.csv","EMERGENCYCONTACTNAME","uri",".*?$(?<!\.aspx)"
"/data/datasets/datagov/data/data/datagovdata/transportation-department-permits.csv","WORKTYPEDESCRIPTION","strings","[^""\r\n]*"
"/data/datasets/datagov/data/data/datagovdata/transportation-department-permits.csv","APPLICATIONISSUEDDATE","strings","[^""\r\n]*"
"/data/datasets/datagov/data/data/datagovdata/transportation-department-permits.csv","STREETNAME","uri",".*?$(?<!\.aspx)"
"/data/datasets/datagov/data/data/datagovdata/transportation-department-permits.csv","DETAIL","strings","[^""\r\n]*"
"/data/datasets/datagov/data/data/datagovdata/transportation-department-permits.csv","LATITUDE","numbers","^-?\d*(\.\d+)?$"
"/data/datasets/datagov/data/data/datagovdata/transportation-department-permits.csv","PRIMARYCONTACTCITY","uri",".*?$(?<!\.aspx)"
"/data/datasets/datagov/data/data/datagovdata/transportation-department-permits.csv","STREETNUMBERFROM","numbers","^-?\d*(\.\d+)?$"
"/data/datasets/datagov/data/data/datagovdata/transportation-department-permits.csv","STREETCLOSURE","uri",".*?$(?<!\.aspx)"
"/data/datasets/datagov/data/data/datagovdata/transportation-department-permits.csv","PLACEMENT","uri",".*?$(?<!\.aspx)"
"/data/datasets/datagov/data/data/datagovdata/transportation-department-permits.csv","LASTINSPECTIONDATE","strings","[^""\r\n]*"
"/data/datasets/datagov/data/data/datagovdata/transportation-department-permits.csv","PRIMARYCONTACTSTREET2","strings","[^""\r\n]*"
"/data/datasets/datagov/data/data/datagovdata/transportation-department-permits.csv","PRIMARYCONTACTMIDDLE","uri",".*?$(?<!\.aspx)"
"/data/datasets/datagov/data/data/datagovdata/transportation-department-permits.csv","APPLICATIONNAME","numbers","^-?\d*(\.\d+)?$"
"/data/datasets/datagov/data/data/datagovdata/transportation-department-permits.csv","LASTINSPECTIONTYPE","uri",".*?$(?<!\.aspx)"
"/data/datasets/datagov/data/data/datagovdata/transportation-department-permits.csv","PRIMARYCONTACTSTREET","uri",".*?$(?<!\.aspx)"
"/data/datasets/datagov/data/data/datagovdata/transportation-department-permits.csv","APPLICATIONEXPIREDATE","strings","[^""\r\n]*"
"/data/datasets/datagov/data/data/datagovdata/transportation-department-permits.csv","APPLICATIONSTATUS","uri",".*?$(?<!\.aspx)"
"/data/datasets/datagov/data/data/datagovdata/transportation-department-permits.csv","LONGITUDE","numbers","^-?\d*(\.\d+)?$"
"/data/datasets/datagov/data/data/datagovdata/transportation-department-permits.csv","LASTINSPECTIONRESULT","uri",".*?$(?<!\.aspx)"
"/data/datasets/datagov/data/data/datagovdata/transportation-department-permits.csv","CURRENTMILESTONE","uri",".*?$(?<!\.aspx)"
"/data/datasets/datagov/data/data/datagovdata/transportation-department-permits.csv","DIRECTION","uri",".*?$(?<!\.aspx)"
"/data/datasets/datagov/data/data/datagovdata/transportation-department-permits.csv","LOCATION","uri",".*?$(?<!\.aspx)"
"/data/datasets/datagov/data/data/datagovdata/transportation-department-permits.csv","SUFFIX","uri",".*?$(?<!\.aspx)"
"/data/datasets/datagov/data/data/datagovdata/transportation-department-permits.csv","APPLICATIONENDDATE","strings","[^""\r\n]*"
"/data/datasets/datagov/data/data/datagovdata/transportation-department-permits.csv","APPLICATIONSTARTDATE","strings","[^""\r\n]*"
"/data/datasets/datagov/data/data/datagovdata/transportation-department-permits.csv","LASTINSPTYPEDESCR","uri",".*?$(?<!\.aspx)"
"/data/datasets/datagov/data/data/datagovdata/transportation-department-permits.csv","PARKINGMETERPOSTINGORBAGGING","uri",".*?$(?<!\.aspx)"
"/data/datasets/datagov/data/data/datagovdata/transportation-department-permits.csv","LASTINSPECTIONNUMBER","numbers","^-?\d*(\.\d+)?$"
"/data/datasets/datagov/data/data/datagovdata/transportation-department-permits.csv","PRIMARYCONTACTLAST","uri",".*?$(?<!\.aspx)"
"/data/datasets/datagov/data/data/datagovdata/transportation-department-permits.csv","COMMENTS","strings","[^""\r\n]*"
"/data/datasets/datagov/data/data/datagovdata/transportation-department-permits.csv","APPLICATIONTYPE","uri",".*?$(?<!\.aspx)"
"/data/datasets/datagov/data/data/datagovdata/transportation-department-permits.csv","PRIMARYCONTACTFIRST","uri",".*?$(?<!\.aspx)"
"/data/datasets/datagov/data/data/datagovdata/transportation-department-permits.csv","APPLICATIONDESCRIPTION","uri",".*?$(?<!\.aspx)"
"/data/datasets/datagov/data/data/datagovdata/transportation-department-permits.csv","WORKTYPE","uri",".*?$(?<!\.aspx)"
"/data/datasets/datagov/data/data/datagovdata/transportation-department-permits.csv","APPLICATIONFINALIZEDDATE","strings","[^""\r\n]*"
"/data/datasets/datagov/data/data/datagovdata/transportation-department-permits.csv","PRIMARYCONTACTZIP","address_or_phone","(\d{4,6})"
"/data/datasets/datagov/data/data/datagovdata/transportation-department-permits.csv","APPLICATIONNUMBER","uri",".*?$(?<!\.aspx)"
"/data/datasets/datagov/data/data/datagovdata/transportation-department-permits.csv","STREETNUMBERTO","numbers","^-?\d*(\.\d+)?$"
"/data/datasets/datagov/data/data/datagovdata/transportation-department-permits.csv","PRIMARYCONTACTSTATE","uri",".*?$(?<!\.aspx)"
