"file_name","column_name","label","regex"
"/data/datasets/datagov/data/data/datagovdata/medallion-drivers-passenger-assistance-trained-0a5a8.csv","Type","uri",".*?$(?<!\.aspx)"
"/data/datasets/datagov/data/data/datagovdata/medallion-drivers-passenger-assistance-trained-0a5a8.csv","Completed Both Training","uri",".*?$(?<!\.aspx)"
"/data/datasets/datagov/data/data/datagovdata/medallion-drivers-passenger-assistance-trained-0a5a8.csv","Last Date Updated","strings","[^""\r\n]*"
"/data/datasets/datagov/data/data/datagovdata/medallion-drivers-passenger-assistance-trained-0a5a8.csv","Last Time Updated","dates_and_times","^(\d{1,2})(\s?(H|h)?)(:([0-5]\d))?$"
"/data/datasets/datagov/data/data/datagovdata/medallion-drivers-passenger-assistance-trained-0a5a8.csv","Expiration Date","strings","[^""\r\n]*"
"/data/datasets/datagov/data/data/datagovdata/medallion-drivers-passenger-assistance-trained-0a5a8.csv","Name","uri",".*?$(?<!\.aspx)"
"/data/datasets/datagov/data/data/datagovdata/medallion-drivers-passenger-assistance-trained-0a5a8.csv","License Number","numbers","^\d*$"
