"file_name","column_name","label","regex"
"/data/datasets/datagov/data/data/datagovdata/waofm-census-population-and-housing-2000-and-2010-309cc.csv","Location 1","uri","^[^\\\/\?\*\""\'\>\<\:\|]*$"
"/data/datasets/datagov/data/data/datagovdata/waofm-census-population-and-housing-2000-and-2010-309cc.csv","Land Area (Square Miles) 2010","numbers","^\d*$"
"/data/datasets/datagov/data/data/datagovdata/waofm-census-population-and-housing-2000-and-2010-309cc.csv","Population Density (Persons / Square Mile) 2010","numbers","^\d*$"
"/data/datasets/datagov/data/data/datagovdata/waofm-census-population-and-housing-2000-and-2010-309cc.csv","Population Rank Change in Rank 2000 to 2010","numbers","^\d*$"
"/data/datasets/datagov/data/data/datagovdata/waofm-census-population-and-housing-2000-and-2010-309cc.csv","Total Area (Square Miles) 2000","numbers","^\d*$"
"/data/datasets/datagov/data/data/datagovdata/waofm-census-population-and-housing-2000-and-2010-309cc.csv","Total Housing Units Numeric Change 2000 to 2010","numbers","^\d*$"
"/data/datasets/datagov/data/data/datagovdata/waofm-census-population-and-housing-2000-and-2010-309cc.csv","Water Area (%) 2010","numbers","^\d*$"
"/data/datasets/datagov/data/data/datagovdata/waofm-census-population-and-housing-2000-and-2010-309cc.csv","Occupancy Rate (%) 2010","numbers","^\d*$"
"/data/datasets/datagov/data/data/datagovdata/waofm-census-population-and-housing-2000-and-2010-309cc.csv","Population Density Numeric Change 2000 to 2010","numbers","^\d*$"
"/data/datasets/datagov/data/data/datagovdata/waofm-census-population-and-housing-2000-and-2010-309cc.csv","Vacant Housing Units 2010","numbers","^\d*$"
"/data/datasets/datagov/data/data/datagovdata/waofm-census-population-and-housing-2000-and-2010-309cc.csv","Land Area (Square Miles) 2000","numbers","^\d*$"
"/data/datasets/datagov/data/data/datagovdata/waofm-census-population-and-housing-2000-and-2010-309cc.csv","Total Housing Units 2000","numbers","^\d*$"
"/data/datasets/datagov/data/data/datagovdata/waofm-census-population-and-housing-2000-and-2010-309cc.csv","City Name","uri","^[^\\\/\?\*\""\'\>\<\:\|]*$"
"/data/datasets/datagov/data/data/datagovdata/waofm-census-population-and-housing-2000-and-2010-309cc.csv","Vacancy Rate (%) 2000","numbers","^\d*$"
"/data/datasets/datagov/data/data/datagovdata/waofm-census-population-and-housing-2000-and-2010-309cc.csv","Occupancy Rate Numeric Change 2000 to 2010","numbers","^\d*$"
"/data/datasets/datagov/data/data/datagovdata/waofm-census-population-and-housing-2000-and-2010-309cc.csv","Vacancy Rate Numeric Change 2000 to 2010","numbers","^\d*$"
"/data/datasets/datagov/data/data/datagovdata/waofm-census-population-and-housing-2000-and-2010-309cc.csv","Vacancy Rate (%) 2010","numbers","^\d*$"
"/data/datasets/datagov/data/data/datagovdata/waofm-census-population-and-housing-2000-and-2010-309cc.csv","Total Housing Units Percent Change 2000 to 2010","numbers","^\d*$"
"/data/datasets/datagov/data/data/datagovdata/waofm-census-population-and-housing-2000-and-2010-309cc.csv","Occupancy Rate (%) 2000","numbers","^\d*$"
"/data/datasets/datagov/data/data/datagovdata/waofm-census-population-and-housing-2000-and-2010-309cc.csv","Population Density (Persons / Square Mile) 2000","numbers","^\d*$"
"/data/datasets/datagov/data/data/datagovdata/waofm-census-population-and-housing-2000-and-2010-309cc.csv","Occupied Housing Units 2010","numbers","^\d*$"
"/data/datasets/datagov/data/data/datagovdata/waofm-census-population-and-housing-2000-and-2010-309cc.csv","Water Area (%) 2000","numbers","^\d*$"
"/data/datasets/datagov/data/data/datagovdata/waofm-census-population-and-housing-2000-and-2010-309cc.csv","Population Rank 2010","numbers","^\d*$"
"/data/datasets/datagov/data/data/datagovdata/waofm-census-population-and-housing-2000-and-2010-309cc.csv","Occupied Housing Units 2000","numbers","^\d*$"
"/data/datasets/datagov/data/data/datagovdata/waofm-census-population-and-housing-2000-and-2010-309cc.csv","Total Population Percent Change 2000 to 2010","numbers","^\d*$"
"/data/datasets/datagov/data/data/datagovdata/waofm-census-population-and-housing-2000-and-2010-309cc.csv","Total Housing Units 2010","numbers","^\d*$"
"/data/datasets/datagov/data/data/datagovdata/waofm-census-population-and-housing-2000-and-2010-309cc.csv","Population Density Percent Change 2000 to 2010","numbers","^\d*$"
"/data/datasets/datagov/data/data/datagovdata/waofm-census-population-and-housing-2000-and-2010-309cc.csv","Total Population 2010","numbers","^\d*$"
"/data/datasets/datagov/data/data/datagovdata/waofm-census-population-and-housing-2000-and-2010-309cc.csv","Population Rank 2000","numbers","^\d*$"
"/data/datasets/datagov/data/data/datagovdata/waofm-census-population-and-housing-2000-and-2010-309cc.csv","Total Population Numeric Change 2000 to 2010","numbers","^\d*$"
"/data/datasets/datagov/data/data/datagovdata/waofm-census-population-and-housing-2000-and-2010-309cc.csv","Total Population 2000","numbers","^\d*$"
"/data/datasets/datagov/data/data/datagovdata/waofm-census-population-and-housing-2000-and-2010-309cc.csv","Geoid","numbers","^\d*$"
"/data/datasets/datagov/data/data/datagovdata/waofm-census-population-and-housing-2000-and-2010-309cc.csv","Vacant Housing Units 2000","numbers","^\d*$"
"/data/datasets/datagov/data/data/datagovdata/waofm-census-population-and-housing-2000-and-2010-309cc.csv","Total Area (Square Miles) 2010","numbers","^\d*$"
