"file_name","column_name","label","regex"
"/data/datasets/datagov/data/data/datagovdata/reclaimed-water-rulemaking-173-219-wac.csv","SEPA Comments","uri",".*?$(?<!\.aspx)"
"/data/datasets/datagov/data/data/datagovdata/reclaimed-water-rulemaking-173-219-wac.csv","First Name","uri",".*?$(?<!\.aspx)"
"/data/datasets/datagov/data/data/datagovdata/reclaimed-water-rulemaking-173-219-wac.csv","Attach File 2","uri",".*?$(?<!\.aspx)"
"/data/datasets/datagov/data/data/datagovdata/reclaimed-water-rulemaking-173-219-wac.csv","Purple Book Comments","strings","[^""\r\n]*"
"/data/datasets/datagov/data/data/datagovdata/reclaimed-water-rulemaking-173-219-wac.csv","Rule Comments","strings","[^""\r\n]*"
"/data/datasets/datagov/data/data/datagovdata/reclaimed-water-rulemaking-173-219-wac.csv","Attach File","uri",".*?$(?<!\.aspx)"
"/data/datasets/datagov/data/data/datagovdata/reclaimed-water-rulemaking-173-219-wac.csv","CBA Comments","uri",".*?$(?<!\.aspx)"
"/data/datasets/datagov/data/data/datagovdata/reclaimed-water-rulemaking-173-219-wac.csv","Last Name","uri",".*?$(?<!\.aspx)"
"/data/datasets/datagov/data/data/datagovdata/reclaimed-water-rulemaking-173-219-wac.csv","Organization","strings","[^""\r\n]*"
