"file_name","column_name","label","regex"
"/data/datasets/datagov/data/data/datagovdata/california-statewide-inpatient-mortality-rates-2012-2013-be51b.csv","Procedure/Condition","uri",".*?$(?<!\.aspx)"
"/data/datasets/datagov/data/data/datagovdata/california-statewide-inpatient-mortality-rates-2012-2013-be51b.csv","# of Deaths","numbers","^(\d|,)*\.?\d*$"
"/data/datasets/datagov/data/data/datagovdata/california-statewide-inpatient-mortality-rates-2012-2013-be51b.csv","Year","numbers","^(\d|,)*\.?\d*$"
"/data/datasets/datagov/data/data/datagovdata/california-statewide-inpatient-mortality-rates-2012-2013-be51b.csv","Risk Adjusted Mortality Rate","numbers","^(\d|,)*\.?\d*$"
"/data/datasets/datagov/data/data/datagovdata/california-statewide-inpatient-mortality-rates-2012-2013-be51b.csv","# of Cases","numbers","^(\d|,)*\.?\d*$"
"/data/datasets/datagov/data/data/datagovdata/california-statewide-inpatient-mortality-rates-2012-2013-be51b.csv","Hospital","uri",".*?$(?<!\.aspx)"
