"file_name","column_name","label","regex"
"/data/datasets/mitdwh/Hr_faculty_roster.csv","Hr Org Unit Title","uri",".*?$(?<!\.aspx)"
"/data/datasets/mitdwh/Hr_faculty_roster.csv","Warehouse Load Date","strings","[^""\r\n]*"
"/data/datasets/mitdwh/Hr_faculty_roster.csv","First Name","uri",".*?$(?<!\.aspx)"
"/data/datasets/mitdwh/Hr_faculty_roster.csv","Admin Position Title","strings","[^""\r\n]*"
"/data/datasets/mitdwh/Hr_faculty_roster.csv","Endowed Chair","strings","[^""\r\n]*"
"/data/datasets/mitdwh/Hr_faculty_roster.csv","Mit Id","numbers","^\d*$"
"/data/datasets/mitdwh/Hr_faculty_roster.csv","Admin Job Title","strings","[^""\r\n]*"
"/data/datasets/mitdwh/Hr_faculty_roster.csv","Admin Org Unit Title","strings","[^""\r\n]*"
"/data/datasets/mitdwh/Hr_faculty_roster.csv","Job Title","uri",".*?$(?<!\.aspx)"
"/data/datasets/mitdwh/Hr_faculty_roster.csv","Appointment Type","uri",".*?$(?<!\.aspx)"
"/data/datasets/mitdwh/Hr_faculty_roster.csv","Terminal Degree","uri",".*?$(?<!\.aspx)"
"/data/datasets/mitdwh/Hr_faculty_roster.csv","Emeritus Status","uri",".*?$(?<!\.aspx)"
"/data/datasets/mitdwh/Hr_faculty_roster.csv","Directory Org Unit Title","strings","[^""\r\n]*"
"/data/datasets/mitdwh/Hr_faculty_roster.csv","Last Name","uri",".*?$(?<!\.aspx)"
"/data/datasets/mitdwh/Hr_faculty_roster.csv","Middle Name","uri",".*?$(?<!\.aspx)"
"/data/datasets/mitdwh/Hr_faculty_roster.csv","Position Title","uri",".*?$(?<!\.aspx)"
