"file_name","column_name","label","regex"
"/data/datasets/datagov/data/data/datagovdata/wic-authorized-vendors.csv","Location 1","uri",".*?$(?<!\.aspx)"
"/data/datasets/datagov/data/data/datagovdata/wic-authorized-vendors.csv","Phone","uri",".*?$(?<!\.aspx)"
"/data/datasets/datagov/data/data/datagovdata/wic-authorized-vendors.csv","Vendor","uri",".*?$(?<!\.aspx)"
