"file_name","column_name","label","regex"
"/data/datasets/datagov/data/data/datagovdata/cargo-tonnage-by-airport-port-authority-of-ny-nj-beginning-1977.csv","Total Tonnage","numbers","^\d*$"
"/data/datasets/datagov/data/data/datagovdata/cargo-tonnage-by-airport-port-authority-of-ny-nj-beginning-1977.csv","Year","numbers","^\d*$"
"/data/datasets/datagov/data/data/datagovdata/cargo-tonnage-by-airport-port-authority-of-ny-nj-beginning-1977.csv","Domestic Tonnage","numbers","^\d*$"
"/data/datasets/datagov/data/data/datagovdata/cargo-tonnage-by-airport-port-authority-of-ny-nj-beginning-1977.csv","Month","uri",".*?$(?<!\.aspx)"
"/data/datasets/datagov/data/data/datagovdata/cargo-tonnage-by-airport-port-authority-of-ny-nj-beginning-1977.csv","Airport","uri",".*?$(?<!\.aspx)"
"/data/datasets/datagov/data/data/datagovdata/cargo-tonnage-by-airport-port-authority-of-ny-nj-beginning-1977.csv","International Tonnage","numbers","^\d*$"
