"file_name","column_name","label","regex"
"/data/datasets/datagov/data/data/datagovdata/certificate-of-fitness-schedule-of-fees-30479.csv","ORIG_FEE","numbers","^\d*$"
"/data/datasets/datagov/data/data/datagovdata/certificate-of-fitness-schedule-of-fees-30479.csv","DESCRIPTION","strings","[^""\r\n]*"
"/data/datasets/datagov/data/data/datagovdata/certificate-of-fitness-schedule-of-fees-30479.csv","RENEWAL_FEE","numbers","^\d*$"
"/data/datasets/datagov/data/data/datagovdata/certificate-of-fitness-schedule-of-fees-30479.csv","PREMISE_FLG","uri",".*?$(?<!\.aspx)"
"/data/datasets/datagov/data/data/datagovdata/certificate-of-fitness-schedule-of-fees-30479.csv"," COFTYPE","uri",".*?$(?<!\.aspx)"
