"file_name","column_name","label","regex"
"/data/datasets/datagov/data/data/datagovdata/dof-condominium-comparable-rental-income-manhattan-fy-2008-2009-000a6.csv","MANHATTAN CONDOMINIUM PROPERTY Address","uri",".*?$(?<!\.aspx)"
"/data/datasets/datagov/data/data/datagovdata/dof-condominium-comparable-rental-income-manhattan-fy-2008-2009-000a6.csv","COMPARABLE RENTAL 1 Address","uri",".*?$(?<!\.aspx)"
"/data/datasets/datagov/data/data/datagovdata/dof-condominium-comparable-rental-income-manhattan-fy-2008-2009-000a6.csv","MANHATTAN CONDOMINIUM PROPERTY Building Classification","uri",".*?$(?<!\.aspx)"
"/data/datasets/datagov/data/data/datagovdata/dof-condominium-comparable-rental-income-manhattan-fy-2008-2009-000a6.csv","COMPARABLE RENTAL 2  Gross Income per SqFt","numbers","^(\d|,)*\.?\d*$"
"/data/datasets/datagov/data/data/datagovdata/dof-condominium-comparable-rental-income-manhattan-fy-2008-2009-000a6.csv","COMPARABLE RENTAL 1  Gross SqFt","numbers","^(\d|,)*\.?\d*$"
"/data/datasets/datagov/data/data/datagovdata/dof-condominium-comparable-rental-income-manhattan-fy-2008-2009-000a6.csv","COMPARABLE RENTAL 2  Est. Gross Income","numbers","^(\d|,)*\.?\d*$"
"/data/datasets/datagov/data/data/datagovdata/dof-condominium-comparable-rental-income-manhattan-fy-2008-2009-000a6.csv","MANHATTAN CONDOMINIUM PROPERTY Boro-Block-Lot","uri",".*?$(?<!\.aspx)"
"/data/datasets/datagov/data/data/datagovdata/dof-condominium-comparable-rental-income-manhattan-fy-2008-2009-000a6.csv","COMPARABLE RENTAL 1  Gross Income per SqFt","numbers","^(\d|,)*\.?\d*$"
"/data/datasets/datagov/data/data/datagovdata/dof-condominium-comparable-rental-income-manhattan-fy-2008-2009-000a6.csv","MANHATTAN CONDOMINIUM PROPERTY Est. Gross Income","numbers","^(\d|,)*\.?\d*$"
"/data/datasets/datagov/data/data/datagovdata/dof-condominium-comparable-rental-income-manhattan-fy-2008-2009-000a6.csv","MANHATTAN CONDOMINIUM PROPERTY Gross Income per SqFt","numbers","^(\d|,)*\.?\d*$"
"/data/datasets/datagov/data/data/datagovdata/dof-condominium-comparable-rental-income-manhattan-fy-2008-2009-000a6.csv","COMPARABLE RENTAL 2  Dist. from Coop in miles","numbers","^(\d|,)*\.?\d*$"
"/data/datasets/datagov/data/data/datagovdata/dof-condominium-comparable-rental-income-manhattan-fy-2008-2009-000a6.csv","MANHATTAN CONDOMINIUM PROPERTY Year Built","numbers","^(\d|,)*\.?\d*$"
"/data/datasets/datagov/data/data/datagovdata/dof-condominium-comparable-rental-income-manhattan-fy-2008-2009-000a6.csv","COMPARABLE RENTAL 2  Gross SqFt","numbers","^(\d|,)*\.?\d*$"
"/data/datasets/datagov/data/data/datagovdata/dof-condominium-comparable-rental-income-manhattan-fy-2008-2009-000a6.csv","COMPARABLE RENTAL 1  Year Built","numbers","^(\d|,)*\.?\d*$"
"/data/datasets/datagov/data/data/datagovdata/dof-condominium-comparable-rental-income-manhattan-fy-2008-2009-000a6.csv","MANHATTAN CONDOMINIUM PROPERTY Gross SqFt","numbers","^(\d|,)*\.?\d*$"
"/data/datasets/datagov/data/data/datagovdata/dof-condominium-comparable-rental-income-manhattan-fy-2008-2009-000a6.csv","COMPARABLE RENTAL 2  Boro-Block-Lot","uri",".*?$(?<!\.aspx)"
"/data/datasets/datagov/data/data/datagovdata/dof-condominium-comparable-rental-income-manhattan-fy-2008-2009-000a6.csv","COMPARABLE RENTAL 2  Building Classification","uri",".*?$(?<!\.aspx)"
"/data/datasets/datagov/data/data/datagovdata/dof-condominium-comparable-rental-income-manhattan-fy-2008-2009-000a6.csv","COMPARABLE RENTAL 1 Full Market Value","numbers","^(\d|,)*\.?\d*$"
"/data/datasets/datagov/data/data/datagovdata/dof-condominium-comparable-rental-income-manhattan-fy-2008-2009-000a6.csv","COMPARABLE RENTAL 1  Total Units","numbers","^(\d|,)*\.?\d*$"
"/data/datasets/datagov/data/data/datagovdata/dof-condominium-comparable-rental-income-manhattan-fy-2008-2009-000a6.csv","COMPARABLE RENTAL 2  Year Built","numbers","^(\d|,)*\.?\d*$"
"/data/datasets/datagov/data/data/datagovdata/dof-condominium-comparable-rental-income-manhattan-fy-2008-2009-000a6.csv","MANHATTAN CONDOMINIUM PROPERTY Condo Section","uri",".*?$(?<!\.aspx)"
"/data/datasets/datagov/data/data/datagovdata/dof-condominium-comparable-rental-income-manhattan-fy-2008-2009-000a6.csv","MANHATTAN CONDOMINIUM PROPERTY Market Value per SqFt","numbers","^(\d|,)*\.?\d*$"
"/data/datasets/datagov/data/data/datagovdata/dof-condominium-comparable-rental-income-manhattan-fy-2008-2009-000a6.csv","MANHATTAN CONDOMINIUM PROPERTY Full Market Value","numbers","^(\d|,)*\.?\d*$"
"/data/datasets/datagov/data/data/datagovdata/dof-condominium-comparable-rental-income-manhattan-fy-2008-2009-000a6.csv","COMPARABLE RENTAL 2  Neighborhood","uri",".*?$(?<!\.aspx)"
"/data/datasets/datagov/data/data/datagovdata/dof-condominium-comparable-rental-income-manhattan-fy-2008-2009-000a6.csv","COMPARABLE RENTAL 1  Building Classification","uri",".*?$(?<!\.aspx)"
"/data/datasets/datagov/data/data/datagovdata/dof-condominium-comparable-rental-income-manhattan-fy-2008-2009-000a6.csv","COMPARABLE RENTAL 1  Neighborhood","uri",".*?$(?<!\.aspx)"
"/data/datasets/datagov/data/data/datagovdata/dof-condominium-comparable-rental-income-manhattan-fy-2008-2009-000a6.csv","COMPARABLE RENTAL 1  Market Value per SqFt","numbers","^(\d|,)*\.?\d*$"
"/data/datasets/datagov/data/data/datagovdata/dof-condominium-comparable-rental-income-manhattan-fy-2008-2009-000a6.csv","COMPARABLE RENTAL 2  Address","uri",".*?$(?<!\.aspx)"
"/data/datasets/datagov/data/data/datagovdata/dof-condominium-comparable-rental-income-manhattan-fy-2008-2009-000a6.csv","MANHATTAN CONDOMINIUM PROPERTY Neighborhood","uri",".*?$(?<!\.aspx)"
"/data/datasets/datagov/data/data/datagovdata/dof-condominium-comparable-rental-income-manhattan-fy-2008-2009-000a6.csv","MANHATTAN CONDOMINIUM PROPERTY Total Units","numbers","^(\d|,)*\.?\d*$"
"/data/datasets/datagov/data/data/datagovdata/dof-condominium-comparable-rental-income-manhattan-fy-2008-2009-000a6.csv"," COMPARABLE RENTAL 1 Boro-Block-Lot","uri",".*?$(?<!\.aspx)"
"/data/datasets/datagov/data/data/datagovdata/dof-condominium-comparable-rental-income-manhattan-fy-2008-2009-000a6.csv","COMPARABLE RENTAL 2  Market Value per SqFt","numbers","^(\d|,)*\.?\d*$"
"/data/datasets/datagov/data/data/datagovdata/dof-condominium-comparable-rental-income-manhattan-fy-2008-2009-000a6.csv","COMPARABLE RENTAL 1  Est. Gross Income","numbers","^(\d|,)*\.?\d*$"
"/data/datasets/datagov/data/data/datagovdata/dof-condominium-comparable-rental-income-manhattan-fy-2008-2009-000a6.csv","COMPARABLE RENTAL 2  Total Units","numbers","^(\d|,)*\.?\d*$"
"/data/datasets/datagov/data/data/datagovdata/dof-condominium-comparable-rental-income-manhattan-fy-2008-2009-000a6.csv","COMPARABLE RENTAL 1  Dist. from Coop in miles","numbers","^(\d|,)*\.?\d*$"
"/data/datasets/datagov/data/data/datagovdata/dof-condominium-comparable-rental-income-manhattan-fy-2008-2009-000a6.csv","COMPARABLE RENTAL 2  Full Market Value","numbers","^(\d|,)*\.?\d*$"
