"file_name","column_name","label","regex"
"/data/datasets/datagov/data/data/datagovdata/home-health-care-hhcahps-national-data.csv","Percent of patients who gave their home health agency a rating of 9 or 10 on a scale from 0 (lowest) to 10 (highest)","numbers","^[-+]?\d+(\.\d+)?|[-+]?\.\d+?$"
"/data/datasets/datagov/data/data/datagovdata/home-health-care-hhcahps-national-data.csv","Percent of patients who reported YES, they would definitely recommend the home health agency to friends and family","numbers","^[-+]?\d+(\.\d+)?|[-+]?\.\d+?$"
"/data/datasets/datagov/data/data/datagovdata/home-health-care-hhcahps-national-data.csv","Percent of patients who reported that their home health team gave care in a professional way","numbers","^[-+]?\d+(\.\d+)?|[-+]?\.\d+?$"
"/data/datasets/datagov/data/data/datagovdata/home-health-care-hhcahps-national-data.csv","Percent of patients who reported that their home health team discussed medicines, pain, and home safety with them","numbers","^[-+]?\d+(\.\d+)?|[-+]?\.\d+?$"
"/data/datasets/datagov/data/data/datagovdata/home-health-care-hhcahps-national-data.csv","Percent of patients who reported that their home health team communicated well with them","numbers","^[-+]?\d+(\.\d+)?|[-+]?\.\d+?$"
"/data/datasets/datagov/data/data/datagovdata/home-health-care-hhcahps-national-data.csv","Country","uri",".*?$(?<!\.aspx)"
