"file_name","column_name","label","regex"
"/data/datasets/datagov/data/data/datagovdata/nmh273data219257856_sth_view.csv","GID","numbers","^(\d|,)*\.?\d*$"
"/data/datasets/datagov/data/data/datagovdata/nmh273data219257856_sth_view.csv","RGIS_CODE","numbers","^(\d|,)*\.?\d*$"
"/data/datasets/datagov/data/data/datagovdata/nmh273data219257856_sth_view.csv","P008041","numbers","^(\d|,)*\.?\d*$"
"/data/datasets/datagov/data/data/datagovdata/nmh273data219257856_sth_view.csv","P008117","numbers","^(\d|,)*\.?\d*$"
"/data/datasets/datagov/data/data/datagovdata/nmh273data219257856_sth_view.csv","P008116","numbers","^(\d|,)*\.?\d*$"
"/data/datasets/datagov/data/data/datagovdata/nmh273data219257856_sth_view.csv","P008125","numbers","^(\d|,)*\.?\d*$"
"/data/datasets/datagov/data/data/datagovdata/nmh273data219257856_sth_view.csv","LSAD","uri",".*?$(?<!\.aspx)"
"/data/datasets/datagov/data/data/datagovdata/nmh273data219257856_sth_view.csv","P008121","numbers","^(\d|,)*\.?\d*$"
"/data/datasets/datagov/data/data/datagovdata/nmh273data219257856_sth_view.csv","STFID","numbers","^(\d|,)*\.?\d*$"
"/data/datasets/datagov/data/data/datagovdata/nmh273data219257856_sth_view.csv","LSAD_TRANS","uri",".*?$(?<!\.aspx)"
"/data/datasets/datagov/data/data/datagovdata/nmh273data219257856_sth_view.csv","P008130","numbers","^(\d|,)*\.?\d*$"
"/data/datasets/datagov/data/data/datagovdata/nmh273data219257856_sth_view.csv","P008126","numbers","^(\d|,)*\.?\d*$"
"/data/datasets/datagov/data/data/datagovdata/nmh273data219257856_sth_view.csv","P008131","numbers","^(\d|,)*\.?\d*$"
"/data/datasets/datagov/data/data/datagovdata/nmh273data219257856_sth_view.csv","P008133","numbers","^(\d|,)*\.?\d*$"
"/data/datasets/datagov/data/data/datagovdata/nmh273data219257856_sth_view.csv","P008128","numbers","^(\d|,)*\.?\d*$"
"/data/datasets/datagov/data/data/datagovdata/nmh273data219257856_sth_view.csv","P008122","numbers","^(\d|,)*\.?\d*$"
"/data/datasets/datagov/data/data/datagovdata/nmh273data219257856_sth_view.csv","NAME","numbers","^(\d|,)*\.?\d*$"
"/data/datasets/datagov/data/data/datagovdata/nmh273data219257856_sth_view.csv","P008123","numbers","^(\d|,)*\.?\d*$"
"/data/datasets/datagov/data/data/datagovdata/nmh273data219257856_sth_view.csv","AREA_NAME","uri",".*?$(?<!\.aspx)"
"/data/datasets/datagov/data/data/datagovdata/nmh273data219257856_sth_view.csv","P008119","numbers","^(\d|,)*\.?\d*$"
"/data/datasets/datagov/data/data/datagovdata/nmh273data219257856_sth_view.csv","P008132","numbers","^(\d|,)*\.?\d*$"
"/data/datasets/datagov/data/data/datagovdata/nmh273data219257856_sth_view.csv","STATE","numbers","^(\d|,)*\.?\d*$"
"/data/datasets/datagov/data/data/datagovdata/nmh273data219257856_sth_view.csv","SLDL","numbers","^(\d|,)*\.?\d*$"
"/data/datasets/datagov/data/data/datagovdata/nmh273data219257856_sth_view.csv","P008129","numbers","^(\d|,)*\.?\d*$"
"/data/datasets/datagov/data/data/datagovdata/nmh273data219257856_sth_view.csv","P008124","numbers","^(\d|,)*\.?\d*$"
"/data/datasets/datagov/data/data/datagovdata/nmh273data219257856_sth_view.csv","P008127","numbers","^(\d|,)*\.?\d*$"
"/data/datasets/datagov/data/data/datagovdata/nmh273data219257856_sth_view.csv","GEO_ID","numbers","^(\d|,)*\.?\d*$"
"/data/datasets/datagov/data/data/datagovdata/nmh273data219257856_sth_view.csv","P008118","numbers","^(\d|,)*\.?\d*$"
"/data/datasets/datagov/data/data/datagovdata/nmh273data219257856_sth_view.csv","P008120","numbers","^(\d|,)*\.?\d*$"
