"file_name","column_name","label","regex"
"/data/datasets/datagov/data/data/datagovdata/online-business-filing-transactions-2033f.csv","Historical Data","numbers","(^([0-9]+[.]+[0-9]+)|(0)$)"
"/data/datasets/datagov/data/data/datagovdata/online-business-filing-transactions-2033f.csv","Target","numbers","(^([0-9]+[.]+[0-9]+)|(0)$)"
"/data/datasets/datagov/data/data/datagovdata/online-business-filing-transactions-2033f.csv","Years","numbers","(^([0-9]+[.]+[0-9]+)|(0)$)"
