"file_name","column_name","label","regex"
"/data/datasets/datagov/data/data/datagovdata/ccrb-attribution-of-complaints-to-traffic-control-division-2005-2009-d9157.csv","Traffic Control Division","uri",".*?$(?<!\.aspx)"
"/data/datasets/datagov/data/data/datagovdata/ccrb-attribution-of-complaints-to-traffic-control-division-2005-2009-d9157.csv","2005","numbers","^(\d|,)*\.?\d*$"
"/data/datasets/datagov/data/data/datagovdata/ccrb-attribution-of-complaints-to-traffic-control-division-2005-2009-d9157.csv","Total","numbers","^(\d|,)*\.?\d*$"
"/data/datasets/datagov/data/data/datagovdata/ccrb-attribution-of-complaints-to-traffic-control-division-2005-2009-d9157.csv","2006","numbers","^(\d|,)*\.?\d*$"
"/data/datasets/datagov/data/data/datagovdata/ccrb-attribution-of-complaints-to-traffic-control-division-2005-2009-d9157.csv","2009","numbers","^(\d|,)*\.?\d*$"
"/data/datasets/datagov/data/data/datagovdata/ccrb-attribution-of-complaints-to-traffic-control-division-2005-2009-d9157.csv","2007","numbers","^(\d|,)*\.?\d*$"
"/data/datasets/datagov/data/data/datagovdata/ccrb-attribution-of-complaints-to-traffic-control-division-2005-2009-d9157.csv","2008","numbers","^(\d|,)*\.?\d*$"
