"file_name","column_name","label","regex"
"/data/datasets/datagov/data/data/datagovdata/39th-ave-ne-greenway-at-ne-62nd-st-6b3bf.csv","39th Ave NE Greenway at NE 62nd St Total","numbers","^(\d|,)*\.?\d*$"
"/data/datasets/datagov/data/data/datagovdata/39th-ave-ne-greenway-at-ne-62nd-st-6b3bf.csv","South","numbers","^(\d|,)*\.?\d*$"
"/data/datasets/datagov/data/data/datagovdata/39th-ave-ne-greenway-at-ne-62nd-st-6b3bf.csv","Date","strings","[^""\r\n]*"
"/data/datasets/datagov/data/data/datagovdata/39th-ave-ne-greenway-at-ne-62nd-st-6b3bf.csv","North","numbers","^(\d|,)*\.?\d*$"
