"file_name","column_name","label","regex"
"/data/datasets/datagov/data/data/datagovdata/projected-population-2010-2040-total-by-age-groups-1f46d.csv","2015","numbers","^\d*$"
"/data/datasets/datagov/data/data/datagovdata/projected-population-2010-2040-total-by-age-groups-1f46d.csv","2035","numbers","^\d*$"
"/data/datasets/datagov/data/data/datagovdata/projected-population-2010-2040-total-by-age-groups-1f46d.csv","2030","numbers","^\d*$"
"/data/datasets/datagov/data/data/datagovdata/projected-population-2010-2040-total-by-age-groups-1f46d.csv","2025","numbers","^\d*$"
"/data/datasets/datagov/data/data/datagovdata/projected-population-2010-2040-total-by-age-groups-1f46d.csv","Borough","uri",".*?$(?<!\.aspx)"
"/data/datasets/datagov/data/data/datagovdata/projected-population-2010-2040-total-by-age-groups-1f46d.csv","2040","numbers","^\d*$"
"/data/datasets/datagov/data/data/datagovdata/projected-population-2010-2040-total-by-age-groups-1f46d.csv","2010","numbers","^\d*$"
"/data/datasets/datagov/data/data/datagovdata/projected-population-2010-2040-total-by-age-groups-1f46d.csv","Age","uri",".*?$(?<!\.aspx)"
"/data/datasets/datagov/data/data/datagovdata/projected-population-2010-2040-total-by-age-groups-1f46d.csv","2020","numbers","^\d*$"
