"file_name","column_name","label","regex"
"/data/datasets/datagov/data/data/datagovdata/city-assisted-evacuation-pickup-locations-evacuspots.csv","NAME","strings","[^""\r\n]*"
"/data/datasets/datagov/data/data/datagovdata/city-assisted-evacuation-pickup-locations-evacuspots.csv","ADDRESS","uri",".*?$(?<!\.aspx)"
"/data/datasets/datagov/data/data/datagovdata/city-assisted-evacuation-pickup-locations-evacuspots.csv","TYPE","uri",".*?$(?<!\.aspx)"
"/data/datasets/datagov/data/data/datagovdata/city-assisted-evacuation-pickup-locations-evacuspots.csv","Location","uri",".*?$(?<!\.aspx)"
"/data/datasets/datagov/data/data/datagovdata/city-assisted-evacuation-pickup-locations-evacuspots.csv","ObjectID","numbers","^(\d|,)*\.?\d*$"
"/data/datasets/datagov/data/data/datagovdata/city-assisted-evacuation-pickup-locations-evacuspots.csv","POINT_X","numbers","^(\d|,)*\.?\d*$"
"/data/datasets/datagov/data/data/datagovdata/city-assisted-evacuation-pickup-locations-evacuspots.csv","POINT_Y","numbers","^(\d|,)*\.?\d*$"
