"file_name","column_name","label","regex"
"/data/datasets/datagov/data/data/datagovdata/business-licenses-71e6d.csv","APPLICATION TYPE","uri",".*?$(?<!\.aspx)"
"/data/datasets/datagov/data/data/datagovdata/business-licenses-71e6d.csv","ADDRESS","uri",".*?$(?<!\.aspx)"
"/data/datasets/datagov/data/data/datagovdata/business-licenses-71e6d.csv","PAYMENT DATE","strings","[^""\r\n]*"
"/data/datasets/datagov/data/data/datagovdata/business-licenses-71e6d.csv","CONDITIONAL APPROVAL","uri",".*?$(?<!\.aspx)"
"/data/datasets/datagov/data/data/datagovdata/business-licenses-71e6d.csv","LICENSE NUMBER","numbers","^-?\d*(\.\d+)?$"
"/data/datasets/datagov/data/data/datagovdata/business-licenses-71e6d.csv","LICENSE TERM EXPIRATION DATE","strings","[^""\r\n]*"
"/data/datasets/datagov/data/data/datagovdata/business-licenses-71e6d.csv","LOCATION","uri",".*?$(?<!\.aspx)"
"/data/datasets/datagov/data/data/datagovdata/business-licenses-71e6d.csv","LATITUDE","numbers","^-?\d*(\.\d+)?$"
"/data/datasets/datagov/data/data/datagovdata/business-licenses-71e6d.csv","LICENSE STATUS CHANGE DATE","strings","[^""\r\n]*"
"/data/datasets/datagov/data/data/datagovdata/business-licenses-71e6d.csv","SSA","numbers","^-?\d*(\.\d+)?$"
"/data/datasets/datagov/data/data/datagovdata/business-licenses-71e6d.csv","LICENSE STATUS","uri",".*?$(?<!\.aspx)"
"/data/datasets/datagov/data/data/datagovdata/business-licenses-71e6d.csv","LONGITUDE","numbers","^-?\d*(\.\d+)?$"
"/data/datasets/datagov/data/data/datagovdata/business-licenses-71e6d.csv","LEGAL NAME","uri",".*?$(?<!\.aspx)"
"/data/datasets/datagov/data/data/datagovdata/business-licenses-71e6d.csv","ZIP CODE","numbers","^-?\d*(\.\d+)?$"
"/data/datasets/datagov/data/data/datagovdata/business-licenses-71e6d.csv","APPLICATION CREATED DATE","strings","[^""\r\n]*"
"/data/datasets/datagov/data/data/datagovdata/business-licenses-71e6d.csv","DOING BUSINESS AS NAME","strings","[^""\r\n]*"
"/data/datasets/datagov/data/data/datagovdata/business-licenses-71e6d.csv","PRECINCT","numbers","^-?\d*(\.\d+)?$"
"/data/datasets/datagov/data/data/datagovdata/business-licenses-71e6d.csv","POLICE DISTRICT","numbers","^-?\d*(\.\d+)?$"
"/data/datasets/datagov/data/data/datagovdata/business-licenses-71e6d.csv","LICENSE TERM START DATE","strings","[^""\r\n]*"
"/data/datasets/datagov/data/data/datagovdata/business-licenses-71e6d.csv","STATE","uri",".*?$(?<!\.aspx)"
"/data/datasets/datagov/data/data/datagovdata/business-licenses-71e6d.csv","LICENSE ID","numbers","^-?\d*(\.\d+)?$"
"/data/datasets/datagov/data/data/datagovdata/business-licenses-71e6d.csv","ACCOUNT NUMBER","numbers","^-?\d*(\.\d+)?$"
"/data/datasets/datagov/data/data/datagovdata/business-licenses-71e6d.csv","ID","numbers","^-?\d*(\.\d+)?$"
"/data/datasets/datagov/data/data/datagovdata/business-licenses-71e6d.csv","DATE ISSUED","strings","[^""\r\n]*"
"/data/datasets/datagov/data/data/datagovdata/business-licenses-71e6d.csv","SITE NUMBER","numbers","^-?\d*(\.\d+)?$"
"/data/datasets/datagov/data/data/datagovdata/business-licenses-71e6d.csv","CITY","uri",".*?$(?<!\.aspx)"
"/data/datasets/datagov/data/data/datagovdata/business-licenses-71e6d.csv","LICENSE DESCRIPTION","strings","[^""\r\n]*"
"/data/datasets/datagov/data/data/datagovdata/business-licenses-71e6d.csv","APPLICATION REQUIREMENTS COMPLETE","strings","[^""\r\n]*"
"/data/datasets/datagov/data/data/datagovdata/business-licenses-71e6d.csv","WARD","numbers","^-?\d*(\.\d+)?$"
"/data/datasets/datagov/data/data/datagovdata/business-licenses-71e6d.csv","LICENSE APPROVED FOR ISSUANCE","strings","[^""\r\n]*"
"/data/datasets/datagov/data/data/datagovdata/business-licenses-71e6d.csv","LICENSE CODE","numbers","^-?\d*(\.\d+)?$"
