"file_name","column_name","label","regex"
"/data/datasets/datagov/data/data/datagovdata/choose-maryland-compare-metros-workforce-f2aca.csv","Professional and Technical Workers in Workforce (%)","numbers","^\$?\d+(\.(\d{2}))?$"
"/data/datasets/datagov/data/data/datagovdata/choose-maryland-compare-metros-workforce-f2aca.csv","Civilian Labor Force","numbers","^\$?\d+(\.(\d{2}))?$"
"/data/datasets/datagov/data/data/datagovdata/choose-maryland-compare-metros-workforce-f2aca.csv","Metro","uri",".*?$(?<!\.aspx)"
"/data/datasets/datagov/data/data/datagovdata/choose-maryland-compare-metros-workforce-f2aca.csv","Employment","numbers","^\$?\d+(\.(\d{2}))?$"
"/data/datasets/datagov/data/data/datagovdata/choose-maryland-compare-metros-workforce-f2aca.csv","Unemployment Rate (%)","numbers","^\$?\d+(\.(\d{2}))?$"
"/data/datasets/datagov/data/data/datagovdata/choose-maryland-compare-metros-workforce-f2aca.csv","Median Hourly Wage, Freight, Stock and Material Movers ($ Dollars)","numbers","^\$?\d+(\.(\d{2}))?$"
"/data/datasets/datagov/data/data/datagovdata/choose-maryland-compare-metros-workforce-f2aca.csv","Median Hourly Wage, Computer Systems Analysts ($ Dollars)","numbers","^\$?\d+(\.(\d{2}))?$"
"/data/datasets/datagov/data/data/datagovdata/choose-maryland-compare-metros-workforce-f2aca.csv","Median Hourly Wage, Secretaries ($ Dollars)","numbers","^\$?\d+(\.(\d{2}))?$"
"/data/datasets/datagov/data/data/datagovdata/choose-maryland-compare-metros-workforce-f2aca.csv","Unemployment","numbers","^\$?\d+(\.(\d{2}))?$"
