"file_name","column_name","label","regex"
"/data/datasets/datagov/data/data/datagovdata/great-plains-trail-hackberry-flat-loop.csv","name","strings","[^""\r\n]*"
"/data/datasets/datagov/data/data/datagovdata/great-plains-trail-hackberry-flat-loop.csv","category","strings","[^""\r\n]*"
"/data/datasets/datagov/data/data/datagovdata/great-plains-trail-hackberry-flat-loop.csv","address","uri",".*?$(?<!\.aspx)"
"/data/datasets/datagov/data/data/datagovdata/great-plains-trail-hackberry-flat-loop.csv","phone","uri",".*?$(?<!\.aspx)"
"/data/datasets/datagov/data/data/datagovdata/great-plains-trail-hackberry-flat-loop.csv","website","strings","[^""\r\n]*"
"/data/datasets/datagov/data/data/datagovdata/great-plains-trail-hackberry-flat-loop.csv","city","uri",".*?$(?<!\.aspx)"
"/data/datasets/datagov/data/data/datagovdata/great-plains-trail-hackberry-flat-loop.csv","phone2","uri",".*?$(?<!\.aspx)"
