"file_name","column_name","label","regex"
"/data/datasets/datagov/data/data/datagovdata/new-york-city-population-by-community-districts-6486e.csv","CD Name","uri",".*?$(?<!\.aspx)"
"/data/datasets/datagov/data/data/datagovdata/new-york-city-population-by-community-districts-6486e.csv","Borough","uri",".*?$(?<!\.aspx)"
"/data/datasets/datagov/data/data/datagovdata/new-york-city-population-by-community-districts-6486e.csv","2000 Population","numbers","^\d*$"
"/data/datasets/datagov/data/data/datagovdata/new-york-city-population-by-community-districts-6486e.csv","1980 Population","numbers","^\d*$"
"/data/datasets/datagov/data/data/datagovdata/new-york-city-population-by-community-districts-6486e.csv","1970 Population","numbers","^\d*$"
"/data/datasets/datagov/data/data/datagovdata/new-york-city-population-by-community-districts-6486e.csv","CD Number","numbers","^\d*$"
"/data/datasets/datagov/data/data/datagovdata/new-york-city-population-by-community-districts-6486e.csv","2010 Population","numbers","^\d*$"
"/data/datasets/datagov/data/data/datagovdata/new-york-city-population-by-community-districts-6486e.csv","1990 Population","numbers","^\d*$"
