"file_name","column_name","label","regex"
"/data/datasets/datagov/data/data/datagovdata/life-safety-evaluations-e3f53.csv","Building Street Number","numbers","^[-+]?\d+(\.\d+)?|[-+]?\.\d+?$"
"/data/datasets/datagov/data/data/datagovdata/life-safety-evaluations-e3f53.csv","Inspection Status - Inspection Results","strings","[^""\r\n]*"
"/data/datasets/datagov/data/data/datagovdata/life-safety-evaluations-e3f53.csv","Construction Status (Self-Reported by Building Representative)","uri",".*?$(?<!\.aspx)"
"/data/datasets/datagov/data/data/datagovdata/life-safety-evaluations-e3f53.csv","Building Street Direction","uri",".*?$(?<!\.aspx)"
"/data/datasets/datagov/data/data/datagovdata/life-safety-evaluations-e3f53.csv","Report Status - Original LSE Report Approved","uri",".*?$(?<!\.aspx)"
"/data/datasets/datagov/data/data/datagovdata/life-safety-evaluations-e3f53.csv","Building Street Name","uri",".*?$(?<!\.aspx)"
"/data/datasets/datagov/data/data/datagovdata/life-safety-evaluations-e3f53.csv","Inspection Status - Date Passed","strings","[^""\r\n]*"
"/data/datasets/datagov/data/data/datagovdata/life-safety-evaluations-e3f53.csv","Rescheduled Inspection Date","strings","[^""\r\n]*"
"/data/datasets/datagov/data/data/datagovdata/life-safety-evaluations-e3f53.csv","Scheduled Inspection Date","strings","[^""\r\n]*"
"/data/datasets/datagov/data/data/datagovdata/life-safety-evaluations-e3f53.csv","Report Status - LSE Report Resubmitted","uri",".*?$(?<!\.aspx)"
"/data/datasets/datagov/data/data/datagovdata/life-safety-evaluations-e3f53.csv","Building Street Type I","uri",".*?$(?<!\.aspx)"
"/data/datasets/datagov/data/data/datagovdata/life-safety-evaluations-e3f53.csv","Report Status - Resubmitted Report Approved","uri",".*?$(?<!\.aspx)"
"/data/datasets/datagov/data/data/datagovdata/life-safety-evaluations-e3f53.csv","Installing a full sprinkler system instead of an alternative LSE Compliance scope of work (Self-Reported by Building Representative)","uri",".*?$(?<!\.aspx)"
