"file_name","column_name","label","regex"
"/data/datasets/datagov/data/data/datagovdata/structurally-deficient-bridges.csv","Historical Data","numbers","^(\d|,)*\.?\d*$"
"/data/datasets/datagov/data/data/datagovdata/structurally-deficient-bridges.csv","Target","numbers","^(\d|,)*\.?\d*$"
"/data/datasets/datagov/data/data/datagovdata/structurally-deficient-bridges.csv","Years","numbers","^(\d|,)*\.?\d*$"
