"file_name","column_name","label","regex"
"/data/datasets/datagov/data/data/datagovdata/port-of-los-angeles-port-air-quality-95b2c.csv","EC","numbers","^(\d|,)*\.?\d*$"
"/data/datasets/datagov/data/data/datagovdata/port-of-los-angeles-port-air-quality-95b2c.csv","Year","numbers","^(\d|,)*\.?\d*$"
