"file_name","column_name","label","regex"
"/data/datasets/datagov/data/data/datagovdata/oregon-elections-calendar.csv","End Date","strings","[^""\r\n]*"
"/data/datasets/datagov/data/data/datagovdata/oregon-elections-calendar.csv","Reference","strings","[^""\r\n]*"
"/data/datasets/datagov/data/data/datagovdata/oregon-elections-calendar.csv","Date","strings","[^""\r\n]*"
"/data/datasets/datagov/data/data/datagovdata/oregon-elections-calendar.csv","Description of Event","strings","[^""\r\n]*"
