"file_name","column_name","label","regex"
"/data/datasets/datagov/data/data/datagovdata/rehabilitation-expenditures-37cfb.csv","Grantee","uri",".*?$(?<!\.aspx)"
"/data/datasets/datagov/data/data/datagovdata/rehabilitation-expenditures-37cfb.csv","Completion Date","strings","[^""\r\n]*"
"/data/datasets/datagov/data/data/datagovdata/rehabilitation-expenditures-37cfb.csv","Description of Purpose of Award","strings","[^""\r\n]*"
"/data/datasets/datagov/data/data/datagovdata/rehabilitation-expenditures-37cfb.csv","Grant Amount","numbers","^\d*$"
"/data/datasets/datagov/data/data/datagovdata/rehabilitation-expenditures-37cfb.csv","Start Date","strings","[^""\r\n]*"
"/data/datasets/datagov/data/data/datagovdata/rehabilitation-expenditures-37cfb.csv","Grantor Agency","uri",".*?$(?<!\.aspx)"
"/data/datasets/datagov/data/data/datagovdata/rehabilitation-expenditures-37cfb.csv","Grantee Zip Code","numbers","^\d*$"
"/data/datasets/datagov/data/data/datagovdata/rehabilitation-expenditures-37cfb.csv","Duration (in days)","numbers","^\d*$"
