"file_name","column_name","label","regex"
"/data/datasets/datagov/data/data/datagovdata/public-health-statistics-gonorrhea-cases-for-males-aged-15-44-in-chicago-by-year-2000-2013-a6c61.csv","Incidence Rate 2010 Upper CI","numbers","^(\d|,)*\.?\d*$"
"/data/datasets/datagov/data/data/datagovdata/public-health-statistics-gonorrhea-cases-for-males-aged-15-44-in-chicago-by-year-2000-2013-a6c61.csv","Incidence Rate 2008","numbers","^(\d|,)*\.?\d*$"
"/data/datasets/datagov/data/data/datagovdata/public-health-statistics-gonorrhea-cases-for-males-aged-15-44-in-chicago-by-year-2000-2013-a6c61.csv","Incidence Rate 2011","numbers","^(\d|,)*\.?\d*$"
"/data/datasets/datagov/data/data/datagovdata/public-health-statistics-gonorrhea-cases-for-males-aged-15-44-in-chicago-by-year-2000-2013-a6c61.csv","Cases 2007 Male 15-44","numbers","^(\d|,)*\.?\d*$"
"/data/datasets/datagov/data/data/datagovdata/public-health-statistics-gonorrhea-cases-for-males-aged-15-44-in-chicago-by-year-2000-2013-a6c61.csv","Cases 2000 Male 15-44","numbers","^(\d|,)*\.?\d*$"
"/data/datasets/datagov/data/data/datagovdata/public-health-statistics-gonorrhea-cases-for-males-aged-15-44-in-chicago-by-year-2000-2013-a6c61.csv","Incidence Rate 2000 Lower CI","numbers","^(\d|,)*\.?\d*$"
"/data/datasets/datagov/data/data/datagovdata/public-health-statistics-gonorrhea-cases-for-males-aged-15-44-in-chicago-by-year-2000-2013-a6c61.csv","Incidence Rate 2003","numbers","^(\d|,)*\.?\d*$"
"/data/datasets/datagov/data/data/datagovdata/public-health-statistics-gonorrhea-cases-for-males-aged-15-44-in-chicago-by-year-2000-2013-a6c61.csv","Incidence Rate 2012","numbers","^(\d|,)*\.?\d*$"
"/data/datasets/datagov/data/data/datagovdata/public-health-statistics-gonorrhea-cases-for-males-aged-15-44-in-chicago-by-year-2000-2013-a6c61.csv","Incidence Rate 2002 Upper CI","numbers","^(\d|,)*\.?\d*$"
"/data/datasets/datagov/data/data/datagovdata/public-health-statistics-gonorrhea-cases-for-males-aged-15-44-in-chicago-by-year-2000-2013-a6c61.csv","Incidence Rate 2010 Lower CI","numbers","^(\d|,)*\.?\d*$"
"/data/datasets/datagov/data/data/datagovdata/public-health-statistics-gonorrhea-cases-for-males-aged-15-44-in-chicago-by-year-2000-2013-a6c61.csv","Incidence Rate 2002","numbers","^(\d|,)*\.?\d*$"
"/data/datasets/datagov/data/data/datagovdata/public-health-statistics-gonorrhea-cases-for-males-aged-15-44-in-chicago-by-year-2000-2013-a6c61.csv","Incidence Rate 2004","numbers","^(\d|,)*\.?\d*$"
"/data/datasets/datagov/data/data/datagovdata/public-health-statistics-gonorrhea-cases-for-males-aged-15-44-in-chicago-by-year-2000-2013-a6c61.csv","Incidence Rate 2001 Lower CI","numbers","^(\d|,)*\.?\d*$"
"/data/datasets/datagov/data/data/datagovdata/public-health-statistics-gonorrhea-cases-for-males-aged-15-44-in-chicago-by-year-2000-2013-a6c61.csv","Incidence Rate 2000 Upper CI","numbers","^(\d|,)*\.?\d*$"
"/data/datasets/datagov/data/data/datagovdata/public-health-statistics-gonorrhea-cases-for-males-aged-15-44-in-chicago-by-year-2000-2013-a6c61.csv","Cases 2004 Male 15-44","numbers","^(\d|,)*\.?\d*$"
"/data/datasets/datagov/data/data/datagovdata/public-health-statistics-gonorrhea-cases-for-males-aged-15-44-in-chicago-by-year-2000-2013-a6c61.csv","Incidence Rate 2013 Lower CI","numbers","^(\d|,)*\.?\d*$"
"/data/datasets/datagov/data/data/datagovdata/public-health-statistics-gonorrhea-cases-for-males-aged-15-44-in-chicago-by-year-2000-2013-a6c61.csv","Cases 2009 Male 15-44","numbers","^(\d|,)*\.?\d*$"
"/data/datasets/datagov/data/data/datagovdata/public-health-statistics-gonorrhea-cases-for-males-aged-15-44-in-chicago-by-year-2000-2013-a6c61.csv","Incidence Rate 2008 Upper CI","numbers","^(\d|,)*\.?\d*$"
"/data/datasets/datagov/data/data/datagovdata/public-health-statistics-gonorrhea-cases-for-males-aged-15-44-in-chicago-by-year-2000-2013-a6c61.csv","Incidence Rate 2012 Lower CI","numbers","^(\d|,)*\.?\d*$"
"/data/datasets/datagov/data/data/datagovdata/public-health-statistics-gonorrhea-cases-for-males-aged-15-44-in-chicago-by-year-2000-2013-a6c61.csv","Incidence Rate 2011 Lower CI","numbers","^(\d|,)*\.?\d*$"
"/data/datasets/datagov/data/data/datagovdata/public-health-statistics-gonorrhea-cases-for-males-aged-15-44-in-chicago-by-year-2000-2013-a6c61.csv","Incidence Rate 2011 Upper CI","numbers","^(\d|,)*\.?\d*$"
"/data/datasets/datagov/data/data/datagovdata/public-health-statistics-gonorrhea-cases-for-males-aged-15-44-in-chicago-by-year-2000-2013-a6c61.csv","Cases 2001 Male 15-44","numbers","^(\d|,)*\.?\d*$"
"/data/datasets/datagov/data/data/datagovdata/public-health-statistics-gonorrhea-cases-for-males-aged-15-44-in-chicago-by-year-2000-2013-a6c61.csv","Incidence Rate 2007","numbers","^(\d|,)*\.?\d*$"
"/data/datasets/datagov/data/data/datagovdata/public-health-statistics-gonorrhea-cases-for-males-aged-15-44-in-chicago-by-year-2000-2013-a6c61.csv","Incidence Rate 2005 Upper CI","numbers","^(\d|,)*\.?\d*$"
"/data/datasets/datagov/data/data/datagovdata/public-health-statistics-gonorrhea-cases-for-males-aged-15-44-in-chicago-by-year-2000-2013-a6c61.csv","Incidence Rate 2008 Lower CI","numbers","^(\d|,)*\.?\d*$"
"/data/datasets/datagov/data/data/datagovdata/public-health-statistics-gonorrhea-cases-for-males-aged-15-44-in-chicago-by-year-2000-2013-a6c61.csv","Cases 2005 Male 15-44","numbers","^(\d|,)*\.?\d*$"
"/data/datasets/datagov/data/data/datagovdata/public-health-statistics-gonorrhea-cases-for-males-aged-15-44-in-chicago-by-year-2000-2013-a6c61.csv","Cases 2003 Male 15-44","numbers","^(\d|,)*\.?\d*$"
"/data/datasets/datagov/data/data/datagovdata/public-health-statistics-gonorrhea-cases-for-males-aged-15-44-in-chicago-by-year-2000-2013-a6c61.csv","Cases 2013 Male 15-44","numbers","^(\d|,)*\.?\d*$"
"/data/datasets/datagov/data/data/datagovdata/public-health-statistics-gonorrhea-cases-for-males-aged-15-44-in-chicago-by-year-2000-2013-a6c61.csv","Incidence Rate 2013 Upper CI","numbers","^(\d|,)*\.?\d*$"
"/data/datasets/datagov/data/data/datagovdata/public-health-statistics-gonorrhea-cases-for-males-aged-15-44-in-chicago-by-year-2000-2013-a6c61.csv","Cases 2011 Male 15-44","numbers","^(\d|,)*\.?\d*$"
"/data/datasets/datagov/data/data/datagovdata/public-health-statistics-gonorrhea-cases-for-males-aged-15-44-in-chicago-by-year-2000-2013-a6c61.csv","Community Area","numbers","^(\d|,)*\.?\d*$"
"/data/datasets/datagov/data/data/datagovdata/public-health-statistics-gonorrhea-cases-for-males-aged-15-44-in-chicago-by-year-2000-2013-a6c61.csv","Incidence Rate 2009 Lower CI","numbers","^(\d|,)*\.?\d*$"
"/data/datasets/datagov/data/data/datagovdata/public-health-statistics-gonorrhea-cases-for-males-aged-15-44-in-chicago-by-year-2000-2013-a6c61.csv","Incidence Rate 2013","numbers","^(\d|,)*\.?\d*$"
"/data/datasets/datagov/data/data/datagovdata/public-health-statistics-gonorrhea-cases-for-males-aged-15-44-in-chicago-by-year-2000-2013-a6c61.csv","Incidence Rate 2000","numbers","^(\d|,)*\.?\d*$"
"/data/datasets/datagov/data/data/datagovdata/public-health-statistics-gonorrhea-cases-for-males-aged-15-44-in-chicago-by-year-2000-2013-a6c61.csv","Incidence Rate 2006 Upper CI","numbers","^(\d|,)*\.?\d*$"
"/data/datasets/datagov/data/data/datagovdata/public-health-statistics-gonorrhea-cases-for-males-aged-15-44-in-chicago-by-year-2000-2013-a6c61.csv","Incidence Rate 2010","numbers","^(\d|,)*\.?\d*$"
"/data/datasets/datagov/data/data/datagovdata/public-health-statistics-gonorrhea-cases-for-males-aged-15-44-in-chicago-by-year-2000-2013-a6c61.csv","Incidence Rate 2006 Lower CI","numbers","^(\d|,)*\.?\d*$"
"/data/datasets/datagov/data/data/datagovdata/public-health-statistics-gonorrhea-cases-for-males-aged-15-44-in-chicago-by-year-2000-2013-a6c61.csv","Cases 2012 Male 15-44","numbers","^(\d|,)*\.?\d*$"
"/data/datasets/datagov/data/data/datagovdata/public-health-statistics-gonorrhea-cases-for-males-aged-15-44-in-chicago-by-year-2000-2013-a6c61.csv","Incidence Rate 2007 Lower CI","numbers","^(\d|,)*\.?\d*$"
"/data/datasets/datagov/data/data/datagovdata/public-health-statistics-gonorrhea-cases-for-males-aged-15-44-in-chicago-by-year-2000-2013-a6c61.csv","Incidence Rate 2001 Upper CI","numbers","^(\d|,)*\.?\d*$"
"/data/datasets/datagov/data/data/datagovdata/public-health-statistics-gonorrhea-cases-for-males-aged-15-44-in-chicago-by-year-2000-2013-a6c61.csv","Cases 2008 Male 15-44","numbers","^(\d|,)*\.?\d*$"
"/data/datasets/datagov/data/data/datagovdata/public-health-statistics-gonorrhea-cases-for-males-aged-15-44-in-chicago-by-year-2000-2013-a6c61.csv","Incidence Rate 2004 Upper CI","numbers","^(\d|,)*\.?\d*$"
"/data/datasets/datagov/data/data/datagovdata/public-health-statistics-gonorrhea-cases-for-males-aged-15-44-in-chicago-by-year-2000-2013-a6c61.csv","Incidence Rate 2012 Upper CI","numbers","^(\d|,)*\.?\d*$"
"/data/datasets/datagov/data/data/datagovdata/public-health-statistics-gonorrhea-cases-for-males-aged-15-44-in-chicago-by-year-2000-2013-a6c61.csv","Incidence Rate 2009","numbers","^(\d|,)*\.?\d*$"
"/data/datasets/datagov/data/data/datagovdata/public-health-statistics-gonorrhea-cases-for-males-aged-15-44-in-chicago-by-year-2000-2013-a6c61.csv","Cases 2006 Male 15-44","numbers","^(\d|,)*\.?\d*$"
"/data/datasets/datagov/data/data/datagovdata/public-health-statistics-gonorrhea-cases-for-males-aged-15-44-in-chicago-by-year-2000-2013-a6c61.csv","Incidence Rate 2003 Upper CI","numbers","^(\d|,)*\.?\d*$"
"/data/datasets/datagov/data/data/datagovdata/public-health-statistics-gonorrhea-cases-for-males-aged-15-44-in-chicago-by-year-2000-2013-a6c61.csv","WARNING","uri",".*?$(?<!\.aspx)"
"/data/datasets/datagov/data/data/datagovdata/public-health-statistics-gonorrhea-cases-for-males-aged-15-44-in-chicago-by-year-2000-2013-a6c61.csv","Incidence Rate 2002 Lower CI","numbers","^(\d|,)*\.?\d*$"
"/data/datasets/datagov/data/data/datagovdata/public-health-statistics-gonorrhea-cases-for-males-aged-15-44-in-chicago-by-year-2000-2013-a6c61.csv","Incidence Rate 2006","numbers","^(\d|,)*\.?\d*$"
"/data/datasets/datagov/data/data/datagovdata/public-health-statistics-gonorrhea-cases-for-males-aged-15-44-in-chicago-by-year-2000-2013-a6c61.csv","Incidence Rate 2001","numbers","^(\d|,)*\.?\d*$"
"/data/datasets/datagov/data/data/datagovdata/public-health-statistics-gonorrhea-cases-for-males-aged-15-44-in-chicago-by-year-2000-2013-a6c61.csv","Community Area Name","uri",".*?$(?<!\.aspx)"
"/data/datasets/datagov/data/data/datagovdata/public-health-statistics-gonorrhea-cases-for-males-aged-15-44-in-chicago-by-year-2000-2013-a6c61.csv","Incidence Rate 2004 Lower CI","numbers","^(\d|,)*\.?\d*$"
"/data/datasets/datagov/data/data/datagovdata/public-health-statistics-gonorrhea-cases-for-males-aged-15-44-in-chicago-by-year-2000-2013-a6c61.csv","Cases 2002 Male 15-44","numbers","^(\d|,)*\.?\d*$"
"/data/datasets/datagov/data/data/datagovdata/public-health-statistics-gonorrhea-cases-for-males-aged-15-44-in-chicago-by-year-2000-2013-a6c61.csv","Incidence Rate 2005 Lower CI","numbers","^(\d|,)*\.?\d*$"
"/data/datasets/datagov/data/data/datagovdata/public-health-statistics-gonorrhea-cases-for-males-aged-15-44-in-chicago-by-year-2000-2013-a6c61.csv","Incidence Rate 2007 Upper CI","numbers","^(\d|,)*\.?\d*$"
"/data/datasets/datagov/data/data/datagovdata/public-health-statistics-gonorrhea-cases-for-males-aged-15-44-in-chicago-by-year-2000-2013-a6c61.csv","Incidence Rate 2009 Upper CI","numbers","^(\d|,)*\.?\d*$"
"/data/datasets/datagov/data/data/datagovdata/public-health-statistics-gonorrhea-cases-for-males-aged-15-44-in-chicago-by-year-2000-2013-a6c61.csv","Incidence Rate 2005","numbers","^(\d|,)*\.?\d*$"
"/data/datasets/datagov/data/data/datagovdata/public-health-statistics-gonorrhea-cases-for-males-aged-15-44-in-chicago-by-year-2000-2013-a6c61.csv","Incidence Rate 2003 Lower CI","numbers","^(\d|,)*\.?\d*$"
"/data/datasets/datagov/data/data/datagovdata/public-health-statistics-gonorrhea-cases-for-males-aged-15-44-in-chicago-by-year-2000-2013-a6c61.csv","Cases 2010 Male 15-44","numbers","^(\d|,)*\.?\d*$"
