"file_name","column_name","label","regex"
"/data/datasets/datagov/data/data/datagovdata/hospitals-in-hawaii.csv","Location 1","uri",".*?$(?<!\.aspx)"
"/data/datasets/datagov/data/data/datagovdata/hospitals-in-hawaii.csv","Name","strings","[^""\r\n]*"
"/data/datasets/datagov/data/data/datagovdata/hospitals-in-hawaii.csv","Services","uri",".*?$(?<!\.aspx)"
"/data/datasets/datagov/data/data/datagovdata/hospitals-in-hawaii.csv","PHONE","numbers","^[-+]?\d+(\.\d+)?|[-+]?\.\d+?$"
"/data/datasets/datagov/data/data/datagovdata/hospitals-in-hawaii.csv","Island","uri",".*?$(?<!\.aspx)"
"/data/datasets/datagov/data/data/datagovdata/hospitals-in-hawaii.csv","Map icon","uri",".*?$(?<!\.aspx)"
"/data/datasets/datagov/data/data/datagovdata/hospitals-in-hawaii.csv","House","uri",".*?$(?<!\.aspx)"
"/data/datasets/datagov/data/data/datagovdata/hospitals-in-hawaii.csv","Zip code","numbers","^[-+]?\d+(\.\d+)?|[-+]?\.\d+?$"
