"file_name","column_name","label","regex"
"/data/datasets/datagov/data/data/datagovdata/nowcast-predictions-for-local-transmission-of-chikungunya-virus.csv","location","uri",".*?$(?<!\.aspx)"
"/data/datasets/datagov/data/data/datagovdata/nowcast-predictions-for-local-transmission-of-chikungunya-virus.csv","pLocalTransmissionMin","numbers","^\d$"
"/data/datasets/datagov/data/data/datagovdata/nowcast-predictions-for-local-transmission-of-chikungunya-virus.csv","month","strings","[^""\r\n]*"
"/data/datasets/datagov/data/data/datagovdata/nowcast-predictions-for-local-transmission-of-chikungunya-virus.csv","localcases","numbers","^\d$"
"/data/datasets/datagov/data/data/datagovdata/nowcast-predictions-for-local-transmission-of-chikungunya-virus.csv","pLocalTransmissionMax","numbers","^\d$"
"/data/datasets/datagov/data/data/datagovdata/nowcast-predictions-for-local-transmission-of-chikungunya-virus.csv","pLocalTransmissionAve","numbers","^\d$"
