"file_name","column_name","label","regex"
"/data/datasets/datagov/data/data/datagovdata/behavioral-risk-factors-selected-metropolitan-area-risk-trends-smart-mmsa-prevalence-data--9873f.csv","GeoLocation","uri",".*?$(?<!\.aspx)"
"/data/datasets/datagov/data/data/datagovdata/behavioral-risk-factors-selected-metropolitan-area-risk-trends-smart-mmsa-prevalence-data--9873f.csv","Topic","uri",".*?$(?<!\.aspx)"
"/data/datasets/datagov/data/data/datagovdata/behavioral-risk-factors-selected-metropolitan-area-risk-trends-smart-mmsa-prevalence-data--9873f.csv","LocationID","numbers","^\d*$"
"/data/datasets/datagov/data/data/datagovdata/behavioral-risk-factors-selected-metropolitan-area-risk-trends-smart-mmsa-prevalence-data--9873f.csv","Class","strings","[^""\r\n]*"
"/data/datasets/datagov/data/data/datagovdata/behavioral-risk-factors-selected-metropolitan-area-risk-trends-smart-mmsa-prevalence-data--9873f.csv","Data_value_unit","uri",".*?$(?<!\.aspx)"
"/data/datasets/datagov/data/data/datagovdata/behavioral-risk-factors-selected-metropolitan-area-risk-trends-smart-mmsa-prevalence-data--9873f.csv","Locationdesc","uri",".*?$(?<!\.aspx)"
"/data/datasets/datagov/data/data/datagovdata/behavioral-risk-factors-selected-metropolitan-area-risk-trends-smart-mmsa-prevalence-data--9873f.csv","Data_value_type","uri",".*?$(?<!\.aspx)"
"/data/datasets/datagov/data/data/datagovdata/behavioral-risk-factors-selected-metropolitan-area-risk-trends-smart-mmsa-prevalence-data--9873f.csv","RESPID","uri",".*?$(?<!\.aspx)"
"/data/datasets/datagov/data/data/datagovdata/behavioral-risk-factors-selected-metropolitan-area-risk-trends-smart-mmsa-prevalence-data--9873f.csv","Locationabbr","numbers","^\d*$"
"/data/datasets/datagov/data/data/datagovdata/behavioral-risk-factors-selected-metropolitan-area-risk-trends-smart-mmsa-prevalence-data--9873f.csv","Question","strings","[^""\r\n]*"
"/data/datasets/datagov/data/data/datagovdata/behavioral-risk-factors-selected-metropolitan-area-risk-trends-smart-mmsa-prevalence-data--9873f.csv","Confidence_limit_Low","numbers","^\d*$"
"/data/datasets/datagov/data/data/datagovdata/behavioral-risk-factors-selected-metropolitan-area-risk-trends-smart-mmsa-prevalence-data--9873f.csv","Data_Value_Footnote_Symbol","strings","[^""\r\n]*"
"/data/datasets/datagov/data/data/datagovdata/behavioral-risk-factors-selected-metropolitan-area-risk-trends-smart-mmsa-prevalence-data--9873f.csv","QuestionID","uri",".*?$(?<!\.aspx)"
"/data/datasets/datagov/data/data/datagovdata/behavioral-risk-factors-selected-metropolitan-area-risk-trends-smart-mmsa-prevalence-data--9873f.csv","Confidence_limit_High","numbers","^\d*$"
"/data/datasets/datagov/data/data/datagovdata/behavioral-risk-factors-selected-metropolitan-area-risk-trends-smart-mmsa-prevalence-data--9873f.csv","Data_Value_Footnote","uri",".*?$(?<!\.aspx)"
"/data/datasets/datagov/data/data/datagovdata/behavioral-risk-factors-selected-metropolitan-area-risk-trends-smart-mmsa-prevalence-data--9873f.csv","DataSource","uri",".*?$(?<!\.aspx)"
"/data/datasets/datagov/data/data/datagovdata/behavioral-risk-factors-selected-metropolitan-area-risk-trends-smart-mmsa-prevalence-data--9873f.csv","Data_value","numbers","^\d*$"
"/data/datasets/datagov/data/data/datagovdata/behavioral-risk-factors-selected-metropolitan-area-risk-trends-smart-mmsa-prevalence-data--9873f.csv","Response","uri",".*?$(?<!\.aspx)"
"/data/datasets/datagov/data/data/datagovdata/behavioral-risk-factors-selected-metropolitan-area-risk-trends-smart-mmsa-prevalence-data--9873f.csv","Year","numbers","^\d*$"
"/data/datasets/datagov/data/data/datagovdata/behavioral-risk-factors-selected-metropolitan-area-risk-trends-smart-mmsa-prevalence-data--9873f.csv","Display_order","numbers","^\d*$"
"/data/datasets/datagov/data/data/datagovdata/behavioral-risk-factors-selected-metropolitan-area-risk-trends-smart-mmsa-prevalence-data--9873f.csv","Sample_Size","numbers","^\d*$"
"/data/datasets/datagov/data/data/datagovdata/behavioral-risk-factors-selected-metropolitan-area-risk-trends-smart-mmsa-prevalence-data--9873f.csv","ClassId","uri",".*?$(?<!\.aspx)"
"/data/datasets/datagov/data/data/datagovdata/behavioral-risk-factors-selected-metropolitan-area-risk-trends-smart-mmsa-prevalence-data--9873f.csv","TopicId","uri",".*?$(?<!\.aspx)"
