"file_name","column_name","label","regex"
"/data/datasets/datagov/data/data/datagovdata/hospital-value-based-purchasing-hvbp-acute-myocardial-infarction-scores.csv","Hospital Name","uri","^[^\\\/\?\*\""\'\>\<\:\|]*$"
"/data/datasets/datagov/data/data/datagovdata/hospital-value-based-purchasing-hvbp-acute-myocardial-infarction-scores.csv","Provider Number","numbers","^\d*$"
"/data/datasets/datagov/data/data/datagovdata/hospital-value-based-purchasing-hvbp-acute-myocardial-infarction-scores.csv","AMI-7a Improvement Points","uri","^[^\\\/\?\*\""\'\>\<\:\|]*$"
"/data/datasets/datagov/data/data/datagovdata/hospital-value-based-purchasing-hvbp-acute-myocardial-infarction-scores.csv","Address","uri","^[^\\\/\?\*\""\'\>\<\:\|]*$"
"/data/datasets/datagov/data/data/datagovdata/hospital-value-based-purchasing-hvbp-acute-myocardial-infarction-scores.csv","AMI Condition/Procedure Score","uri","^[^\\\/\?\*\""\'\>\<\:\|]*$"
"/data/datasets/datagov/data/data/datagovdata/hospital-value-based-purchasing-hvbp-acute-myocardial-infarction-scores.csv","County Name","uri","^[^\\\/\?\*\""\'\>\<\:\|]*$"
"/data/datasets/datagov/data/data/datagovdata/hospital-value-based-purchasing-hvbp-acute-myocardial-infarction-scores.csv","AMI-7a Achievement Points","uri","^[^\\\/\?\*\""\'\>\<\:\|]*$"
"/data/datasets/datagov/data/data/datagovdata/hospital-value-based-purchasing-hvbp-acute-myocardial-infarction-scores.csv","AMI-7a Measure Score","uri","^[^\\\/\?\*\""\'\>\<\:\|]*$"
"/data/datasets/datagov/data/data/datagovdata/hospital-value-based-purchasing-hvbp-acute-myocardial-infarction-scores.csv","Location","uri","^[^\\\/\?\*\""\'\>\<\:\|]*$"
"/data/datasets/datagov/data/data/datagovdata/hospital-value-based-purchasing-hvbp-acute-myocardial-infarction-scores.csv","City","uri","^[^\\\/\?\*\""\'\>\<\:\|]*$"
"/data/datasets/datagov/data/data/datagovdata/hospital-value-based-purchasing-hvbp-acute-myocardial-infarction-scores.csv","ZIP Code","address_or_phone","(\d{4,6})"
"/data/datasets/datagov/data/data/datagovdata/hospital-value-based-purchasing-hvbp-acute-myocardial-infarction-scores.csv","AMI-7a Performance Rate","uri","^[^\\\/\?\*\""\'\>\<\:\|]*$"
"/data/datasets/datagov/data/data/datagovdata/hospital-value-based-purchasing-hvbp-acute-myocardial-infarction-scores.csv","State","uri","^[^\\\/\?\*\""\'\>\<\:\|]*$"
