"file_name","column_name","label","regex"
"/data/datasets/datagov/data/data/datagovdata/state-park-trails-65ae9.csv","SHAPE.area","numbers","^(\d|,)*\.?\d*$"
"/data/datasets/datagov/data/data/datagovdata/state-park-trails-65ae9.csv","PROPERTY","uri",".*?$(?<!\.aspx)"
"/data/datasets/datagov/data/data/datagovdata/state-park-trails-65ae9.csv","OBJECTID","numbers","^(\d|,)*\.?\d*$"
"/data/datasets/datagov/data/data/datagovdata/state-park-trails-65ae9.csv","SHAPE","uri",".*?$(?<!\.aspx)"
"/data/datasets/datagov/data/data/datagovdata/state-park-trails-65ae9.csv","DEP_ID","numbers","^(\d|,)*\.?\d*$"
"/data/datasets/datagov/data/data/datagovdata/state-park-trails-65ae9.csv","AV_LEGEND","uri",".*?$(?<!\.aspx)"
