"file_name","column_name","label","regex"
"/data/datasets/datagov/data/data/datagovdata/health-hospitals-system-outpatient-registrations-by-zip-fiscal-year-2010-ab403.csv","60406","numbers","^(\d|,)*\.?\d*$"
"/data/datasets/datagov/data/data/datagovdata/health-hospitals-system-outpatient-registrations-by-zip-fiscal-year-2010-ab403.csv","60502","numbers","^(\d|,)*\.?\d*$"
"/data/datasets/datagov/data/data/datagovdata/health-hospitals-system-outpatient-registrations-by-zip-fiscal-year-2010-ab403.csv","61612","numbers","^(\d|,)*\.?\d*$"
"/data/datasets/datagov/data/data/datagovdata/health-hospitals-system-outpatient-registrations-by-zip-fiscal-year-2010-ab403.csv","61021","numbers","^(\d|,)*\.?\d*$"
"/data/datasets/datagov/data/data/datagovdata/health-hospitals-system-outpatient-registrations-by-zip-fiscal-year-2010-ab403.csv","60558","numbers","^(\d|,)*\.?\d*$"
"/data/datasets/datagov/data/data/datagovdata/health-hospitals-system-outpatient-registrations-by-zip-fiscal-year-2010-ab403.csv","60007","numbers","^(\d|,)*\.?\d*$"
"/data/datasets/datagov/data/data/datagovdata/health-hospitals-system-outpatient-registrations-by-zip-fiscal-year-2010-ab403.csv","46312","numbers","^(\d|,)*\.?\d*$"
"/data/datasets/datagov/data/data/datagovdata/health-hospitals-system-outpatient-registrations-by-zip-fiscal-year-2010-ab403.csv","60478","numbers","^(\d|,)*\.?\d*$"
"/data/datasets/datagov/data/data/datagovdata/health-hospitals-system-outpatient-registrations-by-zip-fiscal-year-2010-ab403.csv","60805","numbers","^(\d|,)*\.?\d*$"
"/data/datasets/datagov/data/data/datagovdata/health-hospitals-system-outpatient-registrations-by-zip-fiscal-year-2010-ab403.csv","60586","numbers","^(\d|,)*\.?\d*$"
"/data/datasets/datagov/data/data/datagovdata/health-hospitals-system-outpatient-registrations-by-zip-fiscal-year-2010-ab403.csv","60404","numbers","^(\d|,)*\.?\d*$"
"/data/datasets/datagov/data/data/datagovdata/health-hospitals-system-outpatient-registrations-by-zip-fiscal-year-2010-ab403.csv","46406","numbers","^(\d|,)*\.?\d*$"
"/data/datasets/datagov/data/data/datagovdata/health-hospitals-system-outpatient-registrations-by-zip-fiscal-year-2010-ab403.csv","60124","numbers","^(\d|,)*\.?\d*$"
"/data/datasets/datagov/data/data/datagovdata/health-hospitals-system-outpatient-registrations-by-zip-fiscal-year-2010-ab403.csv","60049","numbers","^(\d|,)*\.?\d*$"
"/data/datasets/datagov/data/data/datagovdata/health-hospitals-system-outpatient-registrations-by-zip-fiscal-year-2010-ab403.csv","60473","numbers","^(\d|,)*\.?\d*$"
"/data/datasets/datagov/data/data/datagovdata/health-hospitals-system-outpatient-registrations-by-zip-fiscal-year-2010-ab403.csv","60660","numbers","^(\d|,)*\.?\d*$"
"/data/datasets/datagov/data/data/datagovdata/health-hospitals-system-outpatient-registrations-by-zip-fiscal-year-2010-ab403.csv","60706","numbers","^(\d|,)*\.?\d*$"
"/data/datasets/datagov/data/data/datagovdata/health-hospitals-system-outpatient-registrations-by-zip-fiscal-year-2010-ab403.csv","60922","numbers","^(\d|,)*\.?\d*$"
"/data/datasets/datagov/data/data/datagovdata/health-hospitals-system-outpatient-registrations-by-zip-fiscal-year-2010-ab403.csv","60177","numbers","^(\d|,)*\.?\d*$"
"/data/datasets/datagov/data/data/datagovdata/health-hospitals-system-outpatient-registrations-by-zip-fiscal-year-2010-ab403.csv","60154","numbers","^(\d|,)*\.?\d*$"
"/data/datasets/datagov/data/data/datagovdata/health-hospitals-system-outpatient-registrations-by-zip-fiscal-year-2010-ab403.csv","60162","numbers","^(\d|,)*\.?\d*$"
"/data/datasets/datagov/data/data/datagovdata/health-hospitals-system-outpatient-registrations-by-zip-fiscal-year-2010-ab403.csv","60462","numbers","^(\d|,)*\.?\d*$"
"/data/datasets/datagov/data/data/datagovdata/health-hospitals-system-outpatient-registrations-by-zip-fiscal-year-2010-ab403.csv","60827","numbers","^(\d|,)*\.?\d*$"
"/data/datasets/datagov/data/data/datagovdata/health-hospitals-system-outpatient-registrations-by-zip-fiscal-year-2010-ab403.csv","60627","numbers","^(\d|,)*\.?\d*$"
"/data/datasets/datagov/data/data/datagovdata/health-hospitals-system-outpatient-registrations-by-zip-fiscal-year-2010-ab403.csv","60302","numbers","^(\d|,)*\.?\d*$"
"/data/datasets/datagov/data/data/datagovdata/health-hospitals-system-outpatient-registrations-by-zip-fiscal-year-2010-ab403.csv","60527","numbers","^(\d|,)*\.?\d*$"
"/data/datasets/datagov/data/data/datagovdata/health-hospitals-system-outpatient-registrations-by-zip-fiscal-year-2010-ab403.csv","60426","numbers","^(\d|,)*\.?\d*$"
"/data/datasets/datagov/data/data/datagovdata/health-hospitals-system-outpatient-registrations-by-zip-fiscal-year-2010-ab403.csv","60441","numbers","^(\d|,)*\.?\d*$"
"/data/datasets/datagov/data/data/datagovdata/health-hospitals-system-outpatient-registrations-by-zip-fiscal-year-2010-ab403.csv","60195","numbers","^(\d|,)*\.?\d*$"
"/data/datasets/datagov/data/data/datagovdata/health-hospitals-system-outpatient-registrations-by-zip-fiscal-year-2010-ab403.csv","60616","numbers","^(\d|,)*\.?\d*$"
"/data/datasets/datagov/data/data/datagovdata/health-hospitals-system-outpatient-registrations-by-zip-fiscal-year-2010-ab403.csv","60657","numbers","^(\d|,)*\.?\d*$"
"/data/datasets/datagov/data/data/datagovdata/health-hospitals-system-outpatient-registrations-by-zip-fiscal-year-2010-ab403.csv","60546","numbers","^(\d|,)*\.?\d*$"
"/data/datasets/datagov/data/data/datagovdata/health-hospitals-system-outpatient-registrations-by-zip-fiscal-year-2010-ab403.csv","60491","numbers","^(\d|,)*\.?\d*$"
"/data/datasets/datagov/data/data/datagovdata/health-hospitals-system-outpatient-registrations-by-zip-fiscal-year-2010-ab403.csv","60401","numbers","^(\d|,)*\.?\d*$"
"/data/datasets/datagov/data/data/datagovdata/health-hospitals-system-outpatient-registrations-by-zip-fiscal-year-2010-ab403.csv","60115","numbers","^(\d|,)*\.?\d*$"
"/data/datasets/datagov/data/data/datagovdata/health-hospitals-system-outpatient-registrations-by-zip-fiscal-year-2010-ab403.csv","60475","numbers","^(\d|,)*\.?\d*$"
"/data/datasets/datagov/data/data/datagovdata/health-hospitals-system-outpatient-registrations-by-zip-fiscal-year-2010-ab403.csv","60610","numbers","^(\d|,)*\.?\d*$"
"/data/datasets/datagov/data/data/datagovdata/health-hospitals-system-outpatient-registrations-by-zip-fiscal-year-2010-ab403.csv","60669","numbers","^(\d|,)*\.?\d*$"
"/data/datasets/datagov/data/data/datagovdata/health-hospitals-system-outpatient-registrations-by-zip-fiscal-year-2010-ab403.csv","60828","numbers","^(\d|,)*\.?\d*$"
"/data/datasets/datagov/data/data/datagovdata/health-hospitals-system-outpatient-registrations-by-zip-fiscal-year-2010-ab403.csv","60611","numbers","^(\d|,)*\.?\d*$"
"/data/datasets/datagov/data/data/datagovdata/health-hospitals-system-outpatient-registrations-by-zip-fiscal-year-2010-ab403.csv","60609","numbers","^(\d|,)*\.?\d*$"
"/data/datasets/datagov/data/data/datagovdata/health-hospitals-system-outpatient-registrations-by-zip-fiscal-year-2010-ab403.csv","60181","numbers","^(\d|,)*\.?\d*$"
"/data/datasets/datagov/data/data/datagovdata/health-hospitals-system-outpatient-registrations-by-zip-fiscal-year-2010-ab403.csv","60053","numbers","^(\d|,)*\.?\d*$"
"/data/datasets/datagov/data/data/datagovdata/health-hospitals-system-outpatient-registrations-by-zip-fiscal-year-2010-ab403.csv","60025","numbers","^(\d|,)*\.?\d*$"
"/data/datasets/datagov/data/data/datagovdata/health-hospitals-system-outpatient-registrations-by-zip-fiscal-year-2010-ab403.csv","46307","numbers","^(\d|,)*\.?\d*$"
"/data/datasets/datagov/data/data/datagovdata/health-hospitals-system-outpatient-registrations-by-zip-fiscal-year-2010-ab403.csv","60510","numbers","^(\d|,)*\.?\d*$"
"/data/datasets/datagov/data/data/datagovdata/health-hospitals-system-outpatient-registrations-by-zip-fiscal-year-2010-ab403.csv","60655","numbers","^(\d|,)*\.?\d*$"
"/data/datasets/datagov/data/data/datagovdata/health-hospitals-system-outpatient-registrations-by-zip-fiscal-year-2010-ab403.csv","60564","numbers","^(\d|,)*\.?\d*$"
"/data/datasets/datagov/data/data/datagovdata/health-hospitals-system-outpatient-registrations-by-zip-fiscal-year-2010-ab403.csv","60061","numbers","^(\d|,)*\.?\d*$"
"/data/datasets/datagov/data/data/datagovdata/health-hospitals-system-outpatient-registrations-by-zip-fiscal-year-2010-ab403.csv","60651","numbers","^(\d|,)*\.?\d*$"
"/data/datasets/datagov/data/data/datagovdata/health-hospitals-system-outpatient-registrations-by-zip-fiscal-year-2010-ab403.csv","61244","numbers","^(\d|,)*\.?\d*$"
"/data/datasets/datagov/data/data/datagovdata/health-hospitals-system-outpatient-registrations-by-zip-fiscal-year-2010-ab403.csv","60643","numbers","^(\d|,)*\.?\d*$"
"/data/datasets/datagov/data/data/datagovdata/health-hospitals-system-outpatient-registrations-by-zip-fiscal-year-2010-ab403.csv","60445","numbers","^(\d|,)*\.?\d*$"
"/data/datasets/datagov/data/data/datagovdata/health-hospitals-system-outpatient-registrations-by-zip-fiscal-year-2010-ab403.csv","60068","numbers","^(\d|,)*\.?\d*$"
"/data/datasets/datagov/data/data/datagovdata/health-hospitals-system-outpatient-registrations-by-zip-fiscal-year-2010-ab403.csv","46375","numbers","^(\d|,)*\.?\d*$"
"/data/datasets/datagov/data/data/datagovdata/health-hospitals-system-outpatient-registrations-by-zip-fiscal-year-2010-ab403.csv","60604","numbers","^(\d|,)*\.?\d*$"
"/data/datasets/datagov/data/data/datagovdata/health-hospitals-system-outpatient-registrations-by-zip-fiscal-year-2010-ab403.csv","60436","numbers","^(\d|,)*\.?\d*$"
"/data/datasets/datagov/data/data/datagovdata/health-hospitals-system-outpatient-registrations-by-zip-fiscal-year-2010-ab403.csv","60601","numbers","^(\d|,)*\.?\d*$"
"/data/datasets/datagov/data/data/datagovdata/health-hospitals-system-outpatient-registrations-by-zip-fiscal-year-2010-ab403.csv","60964","numbers","^(\d|,)*\.?\d*$"
"/data/datasets/datagov/data/data/datagovdata/health-hospitals-system-outpatient-registrations-by-zip-fiscal-year-2010-ab403.csv","60087","numbers","^(\d|,)*\.?\d*$"
"/data/datasets/datagov/data/data/datagovdata/health-hospitals-system-outpatient-registrations-by-zip-fiscal-year-2010-ab403.csv","53218","numbers","^(\d|,)*\.?\d*$"
"/data/datasets/datagov/data/data/datagovdata/health-hospitals-system-outpatient-registrations-by-zip-fiscal-year-2010-ab403.csv","60446","numbers","^(\d|,)*\.?\d*$"
"/data/datasets/datagov/data/data/datagovdata/health-hospitals-system-outpatient-registrations-by-zip-fiscal-year-2010-ab403.csv","60004","numbers","^(\d|,)*\.?\d*$"
"/data/datasets/datagov/data/data/datagovdata/health-hospitals-system-outpatient-registrations-by-zip-fiscal-year-2010-ab403.csv","60076","numbers","^(\d|,)*\.?\d*$"
"/data/datasets/datagov/data/data/datagovdata/health-hospitals-system-outpatient-registrations-by-zip-fiscal-year-2010-ab403.csv","60659","numbers","^(\d|,)*\.?\d*$"
"/data/datasets/datagov/data/data/datagovdata/health-hospitals-system-outpatient-registrations-by-zip-fiscal-year-2010-ab403.csv","60641","numbers","^(\d|,)*\.?\d*$"
"/data/datasets/datagov/data/data/datagovdata/health-hospitals-system-outpatient-registrations-by-zip-fiscal-year-2010-ab403.csv","61102","numbers","^(\d|,)*\.?\d*$"
"/data/datasets/datagov/data/data/datagovdata/health-hospitals-system-outpatient-registrations-by-zip-fiscal-year-2010-ab403.csv","60484","numbers","^(\d|,)*\.?\d*$"
"/data/datasets/datagov/data/data/datagovdata/health-hospitals-system-outpatient-registrations-by-zip-fiscal-year-2010-ab403.csv","60632","numbers","^(\d|,)*\.?\d*$"
"/data/datasets/datagov/data/data/datagovdata/health-hospitals-system-outpatient-registrations-by-zip-fiscal-year-2010-ab403.csv","60670","numbers","^(\d|,)*\.?\d*$"
"/data/datasets/datagov/data/data/datagovdata/health-hospitals-system-outpatient-registrations-by-zip-fiscal-year-2010-ab403.csv","6501","numbers","^(\d|,)*\.?\d*$"
"/data/datasets/datagov/data/data/datagovdata/health-hospitals-system-outpatient-registrations-by-zip-fiscal-year-2010-ab403.csv","61350","numbers","^(\d|,)*\.?\d*$"
"/data/datasets/datagov/data/data/datagovdata/health-hospitals-system-outpatient-registrations-by-zip-fiscal-year-2010-ab403.csv","60169","numbers","^(\d|,)*\.?\d*$"
"/data/datasets/datagov/data/data/datagovdata/health-hospitals-system-outpatient-registrations-by-zip-fiscal-year-2010-ab403.csv","60504","numbers","^(\d|,)*\.?\d*$"
"/data/datasets/datagov/data/data/datagovdata/health-hospitals-system-outpatient-registrations-by-zip-fiscal-year-2010-ab403.csv","60046","numbers","^(\d|,)*\.?\d*$"
"/data/datasets/datagov/data/data/datagovdata/health-hospitals-system-outpatient-registrations-by-zip-fiscal-year-2010-ab403.csv","60424","numbers","^(\d|,)*\.?\d*$"
"/data/datasets/datagov/data/data/datagovdata/health-hospitals-system-outpatient-registrations-by-zip-fiscal-year-2010-ab403.csv","60637","numbers","^(\d|,)*\.?\d*$"
"/data/datasets/datagov/data/data/datagovdata/health-hospitals-system-outpatient-registrations-by-zip-fiscal-year-2010-ab403.csv","60639","numbers","^(\d|,)*\.?\d*$"
"/data/datasets/datagov/data/data/datagovdata/health-hospitals-system-outpatient-registrations-by-zip-fiscal-year-2010-ab403.csv","60699","numbers","^(\d|,)*\.?\d*$"
"/data/datasets/datagov/data/data/datagovdata/health-hospitals-system-outpatient-registrations-by-zip-fiscal-year-2010-ab403.csv","60440","numbers","^(\d|,)*\.?\d*$"
"/data/datasets/datagov/data/data/datagovdata/health-hospitals-system-outpatient-registrations-by-zip-fiscal-year-2010-ab403.csv","60463","numbers","^(\d|,)*\.?\d*$"
"/data/datasets/datagov/data/data/datagovdata/health-hospitals-system-outpatient-registrations-by-zip-fiscal-year-2010-ab403.csv","60561","numbers","^(\d|,)*\.?\d*$"
"/data/datasets/datagov/data/data/datagovdata/health-hospitals-system-outpatient-registrations-by-zip-fiscal-year-2010-ab403.csv","60189","numbers","^(\d|,)*\.?\d*$"
"/data/datasets/datagov/data/data/datagovdata/health-hospitals-system-outpatient-registrations-by-zip-fiscal-year-2010-ab403.csv","55412","numbers","^(\d|,)*\.?\d*$"
"/data/datasets/datagov/data/data/datagovdata/health-hospitals-system-outpatient-registrations-by-zip-fiscal-year-2010-ab403.csv","60159","numbers","^(\d|,)*\.?\d*$"
"/data/datasets/datagov/data/data/datagovdata/health-hospitals-system-outpatient-registrations-by-zip-fiscal-year-2010-ab403.csv","60429","numbers","^(\d|,)*\.?\d*$"
"/data/datasets/datagov/data/data/datagovdata/health-hospitals-system-outpatient-registrations-by-zip-fiscal-year-2010-ab403.csv","60103","numbers","^(\d|,)*\.?\d*$"
"/data/datasets/datagov/data/data/datagovdata/health-hospitals-system-outpatient-registrations-by-zip-fiscal-year-2010-ab403.csv","60427","numbers","^(\d|,)*\.?\d*$"
"/data/datasets/datagov/data/data/datagovdata/health-hospitals-system-outpatient-registrations-by-zip-fiscal-year-2010-ab403.csv","60196","numbers","^(\d|,)*\.?\d*$"
"/data/datasets/datagov/data/data/datagovdata/health-hospitals-system-outpatient-registrations-by-zip-fiscal-year-2010-ab403.csv","60090","numbers","^(\d|,)*\.?\d*$"
"/data/datasets/datagov/data/data/datagovdata/health-hospitals-system-outpatient-registrations-by-zip-fiscal-year-2010-ab403.csv","60662","numbers","^(\d|,)*\.?\d*$"
"/data/datasets/datagov/data/data/datagovdata/health-hospitals-system-outpatient-registrations-by-zip-fiscal-year-2010-ab403.csv","60543","numbers","^(\d|,)*\.?\d*$"
"/data/datasets/datagov/data/data/datagovdata/health-hospitals-system-outpatient-registrations-by-zip-fiscal-year-2010-ab403.csv","60156","numbers","^(\d|,)*\.?\d*$"
"/data/datasets/datagov/data/data/datagovdata/health-hospitals-system-outpatient-registrations-by-zip-fiscal-year-2010-ab403.csv","60133","numbers","^(\d|,)*\.?\d*$"
"/data/datasets/datagov/data/data/datagovdata/health-hospitals-system-outpatient-registrations-by-zip-fiscal-year-2010-ab403.csv","60191","numbers","^(\d|,)*\.?\d*$"
"/data/datasets/datagov/data/data/datagovdata/health-hospitals-system-outpatient-registrations-by-zip-fiscal-year-2010-ab403.csv","60022","numbers","^(\d|,)*\.?\d*$"
"/data/datasets/datagov/data/data/datagovdata/health-hospitals-system-outpatient-registrations-by-zip-fiscal-year-2010-ab403.csv","60666","numbers","^(\d|,)*\.?\d*$"
"/data/datasets/datagov/data/data/datagovdata/health-hospitals-system-outpatient-registrations-by-zip-fiscal-year-2010-ab403.csv","60203","numbers","^(\d|,)*\.?\d*$"
"/data/datasets/datagov/data/data/datagovdata/health-hospitals-system-outpatient-registrations-by-zip-fiscal-year-2010-ab403.csv","61821","numbers","^(\d|,)*\.?\d*$"
"/data/datasets/datagov/data/data/datagovdata/health-hospitals-system-outpatient-registrations-by-zip-fiscal-year-2010-ab403.csv","60405","numbers","^(\d|,)*\.?\d*$"
"/data/datasets/datagov/data/data/datagovdata/health-hospitals-system-outpatient-registrations-by-zip-fiscal-year-2010-ab403.csv","60101","numbers","^(\d|,)*\.?\d*$"
"/data/datasets/datagov/data/data/datagovdata/health-hospitals-system-outpatient-registrations-by-zip-fiscal-year-2010-ab403.csv","61301","numbers","^(\d|,)*\.?\d*$"
"/data/datasets/datagov/data/data/datagovdata/health-hospitals-system-outpatient-registrations-by-zip-fiscal-year-2010-ab403.csv","46342","numbers","^(\d|,)*\.?\d*$"
"/data/datasets/datagov/data/data/datagovdata/health-hospitals-system-outpatient-registrations-by-zip-fiscal-year-2010-ab403.csv","61364","numbers","^(\d|,)*\.?\d*$"
"/data/datasets/datagov/data/data/datagovdata/health-hospitals-system-outpatient-registrations-by-zip-fiscal-year-2010-ab403.csv","60602","numbers","^(\d|,)*\.?\d*$"
"/data/datasets/datagov/data/data/datagovdata/health-hospitals-system-outpatient-registrations-by-zip-fiscal-year-2010-ab403.csv","60161","numbers","^(\d|,)*\.?\d*$"
"/data/datasets/datagov/data/data/datagovdata/health-hospitals-system-outpatient-registrations-by-zip-fiscal-year-2010-ab403.csv","60646","numbers","^(\d|,)*\.?\d*$"
"/data/datasets/datagov/data/data/datagovdata/health-hospitals-system-outpatient-registrations-by-zip-fiscal-year-2010-ab403.csv","60653","numbers","^(\d|,)*\.?\d*$"
"/data/datasets/datagov/data/data/datagovdata/health-hospitals-system-outpatient-registrations-by-zip-fiscal-year-2010-ab403.csv","60005","numbers","^(\d|,)*\.?\d*$"
"/data/datasets/datagov/data/data/datagovdata/health-hospitals-system-outpatient-registrations-by-zip-fiscal-year-2010-ab403.csv","60180","numbers","^(\d|,)*\.?\d*$"
"/data/datasets/datagov/data/data/datagovdata/health-hospitals-system-outpatient-registrations-by-zip-fiscal-year-2010-ab403.csv","60448","numbers","^(\d|,)*\.?\d*$"
"/data/datasets/datagov/data/data/datagovdata/health-hospitals-system-outpatient-registrations-by-zip-fiscal-year-2010-ab403.csv","60677","numbers","^(\d|,)*\.?\d*$"
"/data/datasets/datagov/data/data/datagovdata/health-hospitals-system-outpatient-registrations-by-zip-fiscal-year-2010-ab403.csv","60430","numbers","^(\d|,)*\.?\d*$"
"/data/datasets/datagov/data/data/datagovdata/health-hospitals-system-outpatient-registrations-by-zip-fiscal-year-2010-ab403.csv","60615","numbers","^(\d|,)*\.?\d*$"
"/data/datasets/datagov/data/data/datagovdata/health-hospitals-system-outpatient-registrations-by-zip-fiscal-year-2010-ab403.csv","60120","numbers","^(\d|,)*\.?\d*$"
"/data/datasets/datagov/data/data/datagovdata/health-hospitals-system-outpatient-registrations-by-zip-fiscal-year-2010-ab403.csv","60425","numbers","^(\d|,)*\.?\d*$"
"/data/datasets/datagov/data/data/datagovdata/health-hospitals-system-outpatient-registrations-by-zip-fiscal-year-2010-ab403.csv","60408","numbers","^(\d|,)*\.?\d*$"
"/data/datasets/datagov/data/data/datagovdata/health-hospitals-system-outpatient-registrations-by-zip-fiscal-year-2010-ab403.csv","60638","numbers","^(\d|,)*\.?\d*$"
"/data/datasets/datagov/data/data/datagovdata/health-hospitals-system-outpatient-registrations-by-zip-fiscal-year-2010-ab403.csv","60098","numbers","^(\d|,)*\.?\d*$"
"/data/datasets/datagov/data/data/datagovdata/health-hospitals-system-outpatient-registrations-by-zip-fiscal-year-2010-ab403.csv","60126","numbers","^(\d|,)*\.?\d*$"
"/data/datasets/datagov/data/data/datagovdata/health-hospitals-system-outpatient-registrations-by-zip-fiscal-year-2010-ab403.csv","60503","numbers","^(\d|,)*\.?\d*$"
"/data/datasets/datagov/data/data/datagovdata/health-hospitals-system-outpatient-registrations-by-zip-fiscal-year-2010-ab403.csv","60560","numbers","^(\d|,)*\.?\d*$"
"/data/datasets/datagov/data/data/datagovdata/health-hospitals-system-outpatient-registrations-by-zip-fiscal-year-2010-ab403.csv","60167","numbers","^(\d|,)*\.?\d*$"
"/data/datasets/datagov/data/data/datagovdata/health-hospitals-system-outpatient-registrations-by-zip-fiscal-year-2010-ab403.csv","60006","numbers","^(\d|,)*\.?\d*$"
"/data/datasets/datagov/data/data/datagovdata/health-hospitals-system-outpatient-registrations-by-zip-fiscal-year-2010-ab403.csv","60623","numbers","^(\d|,)*\.?\d*$"
"/data/datasets/datagov/data/data/datagovdata/health-hospitals-system-outpatient-registrations-by-zip-fiscal-year-2010-ab403.csv","60040","numbers","^(\d|,)*\.?\d*$"
"/data/datasets/datagov/data/data/datagovdata/health-hospitals-system-outpatient-registrations-by-zip-fiscal-year-2010-ab403.csv","60070","numbers","^(\d|,)*\.?\d*$"
"/data/datasets/datagov/data/data/datagovdata/health-hospitals-system-outpatient-registrations-by-zip-fiscal-year-2010-ab403.csv","60914","numbers","^(\d|,)*\.?\d*$"
"/data/datasets/datagov/data/data/datagovdata/health-hospitals-system-outpatient-registrations-by-zip-fiscal-year-2010-ab403.csv","60175","numbers","^(\d|,)*\.?\d*$"
"/data/datasets/datagov/data/data/datagovdata/health-hospitals-system-outpatient-registrations-by-zip-fiscal-year-2010-ab403.csv","60468","numbers","^(\d|,)*\.?\d*$"
"/data/datasets/datagov/data/data/datagovdata/health-hospitals-system-outpatient-registrations-by-zip-fiscal-year-2010-ab403.csv","60096","numbers","^(\d|,)*\.?\d*$"
"/data/datasets/datagov/data/data/datagovdata/health-hospitals-system-outpatient-registrations-by-zip-fiscal-year-2010-ab403.csv","60432","numbers","^(\d|,)*\.?\d*$"
"/data/datasets/datagov/data/data/datagovdata/health-hospitals-system-outpatient-registrations-by-zip-fiscal-year-2010-ab403.csv","60516","numbers","^(\d|,)*\.?\d*$"
"/data/datasets/datagov/data/data/datagovdata/health-hospitals-system-outpatient-registrations-by-zip-fiscal-year-2010-ab403.csv","60663","numbers","^(\d|,)*\.?\d*$"
"/data/datasets/datagov/data/data/datagovdata/health-hospitals-system-outpatient-registrations-by-zip-fiscal-year-2010-ab403.csv","66063","numbers","^(\d|,)*\.?\d*$"
"/data/datasets/datagov/data/data/datagovdata/health-hospitals-system-outpatient-registrations-by-zip-fiscal-year-2010-ab403.csv","60428","numbers","^(\d|,)*\.?\d*$"
"/data/datasets/datagov/data/data/datagovdata/health-hospitals-system-outpatient-registrations-by-zip-fiscal-year-2010-ab403.csv","60143","numbers","^(\d|,)*\.?\d*$"
"/data/datasets/datagov/data/data/datagovdata/health-hospitals-system-outpatient-registrations-by-zip-fiscal-year-2010-ab403.csv","60108","numbers","^(\d|,)*\.?\d*$"
"/data/datasets/datagov/data/data/datagovdata/health-hospitals-system-outpatient-registrations-by-zip-fiscal-year-2010-ab403.csv","60093","numbers","^(\d|,)*\.?\d*$"
"/data/datasets/datagov/data/data/datagovdata/health-hospitals-system-outpatient-registrations-by-zip-fiscal-year-2010-ab403.csv","60548","numbers","^(\d|,)*\.?\d*$"
"/data/datasets/datagov/data/data/datagovdata/health-hospitals-system-outpatient-registrations-by-zip-fiscal-year-2010-ab403.csv","60544","numbers","^(\d|,)*\.?\d*$"
"/data/datasets/datagov/data/data/datagovdata/health-hospitals-system-outpatient-registrations-by-zip-fiscal-year-2010-ab403.csv","60607","numbers","^(\d|,)*\.?\d*$"
"/data/datasets/datagov/data/data/datagovdata/health-hospitals-system-outpatient-registrations-by-zip-fiscal-year-2010-ab403.csv","60136","numbers","^(\d|,)*\.?\d*$"
"/data/datasets/datagov/data/data/datagovdata/health-hospitals-system-outpatient-registrations-by-zip-fiscal-year-2010-ab403.csv","60626","numbers","^(\d|,)*\.?\d*$"
"/data/datasets/datagov/data/data/datagovdata/health-hospitals-system-outpatient-registrations-by-zip-fiscal-year-2010-ab403.csv","60681","numbers","^(\d|,)*\.?\d*$"
"/data/datasets/datagov/data/data/datagovdata/health-hospitals-system-outpatient-registrations-by-zip-fiscal-year-2010-ab403.csv","60526","numbers","^(\d|,)*\.?\d*$"
"/data/datasets/datagov/data/data/datagovdata/health-hospitals-system-outpatient-registrations-by-zip-fiscal-year-2010-ab403.csv","60194","numbers","^(\d|,)*\.?\d*$"
"/data/datasets/datagov/data/data/datagovdata/health-hospitals-system-outpatient-registrations-by-zip-fiscal-year-2010-ab403.csv","60712","numbers","^(\d|,)*\.?\d*$"
"/data/datasets/datagov/data/data/datagovdata/health-hospitals-system-outpatient-registrations-by-zip-fiscal-year-2010-ab403.csv","60303","numbers","^(\d|,)*\.?\d*$"
"/data/datasets/datagov/data/data/datagovdata/health-hospitals-system-outpatient-registrations-by-zip-fiscal-year-2010-ab403.csv","60062","numbers","^(\d|,)*\.?\d*$"
"/data/datasets/datagov/data/data/datagovdata/health-hospitals-system-outpatient-registrations-by-zip-fiscal-year-2010-ab403.csv","46385","numbers","^(\d|,)*\.?\d*$"
"/data/datasets/datagov/data/data/datagovdata/health-hospitals-system-outpatient-registrations-by-zip-fiscal-year-2010-ab403.csv","60411","numbers","^(\d|,)*\.?\d*$"
"/data/datasets/datagov/data/data/datagovdata/health-hospitals-system-outpatient-registrations-by-zip-fiscal-year-2010-ab403.csv","60603","numbers","^(\d|,)*\.?\d*$"
"/data/datasets/datagov/data/data/datagovdata/health-hospitals-system-outpatient-registrations-by-zip-fiscal-year-2010-ab403.csv","60454","numbers","^(\d|,)*\.?\d*$"
"/data/datasets/datagov/data/data/datagovdata/health-hospitals-system-outpatient-registrations-by-zip-fiscal-year-2010-ab403.csv","61111","numbers","^(\d|,)*\.?\d*$"
"/data/datasets/datagov/data/data/datagovdata/health-hospitals-system-outpatient-registrations-by-zip-fiscal-year-2010-ab403.csv","60045","numbers","^(\d|,)*\.?\d*$"
"/data/datasets/datagov/data/data/datagovdata/health-hospitals-system-outpatient-registrations-by-zip-fiscal-year-2010-ab403.csv","61832","numbers","^(\d|,)*\.?\d*$"
"/data/datasets/datagov/data/data/datagovdata/health-hospitals-system-outpatient-registrations-by-zip-fiscal-year-2010-ab403.csv","60630","numbers","^(\d|,)*\.?\d*$"
"/data/datasets/datagov/data/data/datagovdata/health-hospitals-system-outpatient-registrations-by-zip-fiscal-year-2010-ab403.csv","46410","numbers","^(\d|,)*\.?\d*$"
"/data/datasets/datagov/data/data/datagovdata/health-hospitals-system-outpatient-registrations-by-zip-fiscal-year-2010-ab403.csv","60514","numbers","^(\d|,)*\.?\d*$"
"/data/datasets/datagov/data/data/datagovdata/health-hospitals-system-outpatient-registrations-by-zip-fiscal-year-2010-ab403.csv","60647","numbers","^(\d|,)*\.?\d*$"
"/data/datasets/datagov/data/data/datagovdata/health-hospitals-system-outpatient-registrations-by-zip-fiscal-year-2010-ab403.csv","46322","numbers","^(\d|,)*\.?\d*$"
"/data/datasets/datagov/data/data/datagovdata/health-hospitals-system-outpatient-registrations-by-zip-fiscal-year-2010-ab403.csv","60112","numbers","^(\d|,)*\.?\d*$"
"/data/datasets/datagov/data/data/datagovdata/health-hospitals-system-outpatient-registrations-by-zip-fiscal-year-2010-ab403.csv","60026","numbers","^(\d|,)*\.?\d*$"
"/data/datasets/datagov/data/data/datagovdata/health-hospitals-system-outpatient-registrations-by-zip-fiscal-year-2010-ab403.csv","60676","numbers","^(\d|,)*\.?\d*$"
"/data/datasets/datagov/data/data/datagovdata/health-hospitals-system-outpatient-registrations-by-zip-fiscal-year-2010-ab403.csv","60437","numbers","^(\d|,)*\.?\d*$"
"/data/datasets/datagov/data/data/datagovdata/health-hospitals-system-outpatient-registrations-by-zip-fiscal-year-2010-ab403.csv","60014","numbers","^(\d|,)*\.?\d*$"
"/data/datasets/datagov/data/data/datagovdata/health-hospitals-system-outpatient-registrations-by-zip-fiscal-year-2010-ab403.csv","60642","numbers","^(\d|,)*\.?\d*$"
"/data/datasets/datagov/data/data/datagovdata/health-hospitals-system-outpatient-registrations-by-zip-fiscal-year-2010-ab403.csv","60600","numbers","^(\d|,)*\.?\d*$"
"/data/datasets/datagov/data/data/datagovdata/health-hospitals-system-outpatient-registrations-by-zip-fiscal-year-2010-ab403.csv","46404","numbers","^(\d|,)*\.?\d*$"
"/data/datasets/datagov/data/data/datagovdata/health-hospitals-system-outpatient-registrations-by-zip-fiscal-year-2010-ab403.csv","60409","numbers","^(\d|,)*\.?\d*$"
"/data/datasets/datagov/data/data/datagovdata/health-hospitals-system-outpatient-registrations-by-zip-fiscal-year-2010-ab403.csv","60469","numbers","^(\d|,)*\.?\d*$"
"/data/datasets/datagov/data/data/datagovdata/health-hospitals-system-outpatient-registrations-by-zip-fiscal-year-2010-ab403.csv","60041","numbers","^(\d|,)*\.?\d*$"
"/data/datasets/datagov/data/data/datagovdata/health-hospitals-system-outpatient-registrations-by-zip-fiscal-year-2010-ab403.csv","60077","numbers","^(\d|,)*\.?\d*$"
"/data/datasets/datagov/data/data/datagovdata/health-hospitals-system-outpatient-registrations-by-zip-fiscal-year-2010-ab403.csv","60487","numbers","^(\d|,)*\.?\d*$"
"/data/datasets/datagov/data/data/datagovdata/health-hospitals-system-outpatient-registrations-by-zip-fiscal-year-2010-ab403.csv","60435","numbers","^(\d|,)*\.?\d*$"
"/data/datasets/datagov/data/data/datagovdata/health-hospitals-system-outpatient-registrations-by-zip-fiscal-year-2010-ab403.csv","Month","uri",".*?$(?<!\.aspx)"
"/data/datasets/datagov/data/data/datagovdata/health-hospitals-system-outpatient-registrations-by-zip-fiscal-year-2010-ab403.csv","60031","numbers","^(\d|,)*\.?\d*$"
"/data/datasets/datagov/data/data/datagovdata/health-hospitals-system-outpatient-registrations-by-zip-fiscal-year-2010-ab403.csv","60423","numbers","^(\d|,)*\.?\d*$"
"/data/datasets/datagov/data/data/datagovdata/health-hospitals-system-outpatient-registrations-by-zip-fiscal-year-2010-ab403.csv","60002","numbers","^(\d|,)*\.?\d*$"
"/data/datasets/datagov/data/data/datagovdata/health-hospitals-system-outpatient-registrations-by-zip-fiscal-year-2010-ab403.csv","60606","numbers","^(\d|,)*\.?\d*$"
"/data/datasets/datagov/data/data/datagovdata/health-hospitals-system-outpatient-registrations-by-zip-fiscal-year-2010-ab403.csv","60137","numbers","^(\d|,)*\.?\d*$"
"/data/datasets/datagov/data/data/datagovdata/health-hospitals-system-outpatient-registrations-by-zip-fiscal-year-2010-ab403.csv","60944","numbers","^(\d|,)*\.?\d*$"
"/data/datasets/datagov/data/data/datagovdata/health-hospitals-system-outpatient-registrations-by-zip-fiscal-year-2010-ab403.csv","60534","numbers","^(\d|,)*\.?\d*$"
"/data/datasets/datagov/data/data/datagovdata/health-hospitals-system-outpatient-registrations-by-zip-fiscal-year-2010-ab403.csv","60165","numbers","^(\d|,)*\.?\d*$"
"/data/datasets/datagov/data/data/datagovdata/health-hospitals-system-outpatient-registrations-by-zip-fiscal-year-2010-ab403.csv","60042","numbers","^(\d|,)*\.?\d*$"
"/data/datasets/datagov/data/data/datagovdata/health-hospitals-system-outpatient-registrations-by-zip-fiscal-year-2010-ab403.csv","60202","numbers","^(\d|,)*\.?\d*$"
"/data/datasets/datagov/data/data/datagovdata/health-hospitals-system-outpatient-registrations-by-zip-fiscal-year-2010-ab403.csv","60130","numbers","^(\d|,)*\.?\d*$"
"/data/datasets/datagov/data/data/datagovdata/health-hospitals-system-outpatient-registrations-by-zip-fiscal-year-2010-ab403.csv","60407","numbers","^(\d|,)*\.?\d*$"
"/data/datasets/datagov/data/data/datagovdata/health-hospitals-system-outpatient-registrations-by-zip-fiscal-year-2010-ab403.csv","60650","numbers","^(\d|,)*\.?\d*$"
"/data/datasets/datagov/data/data/datagovdata/health-hospitals-system-outpatient-registrations-by-zip-fiscal-year-2010-ab403.csv","60439","numbers","^(\d|,)*\.?\d*$"
"/data/datasets/datagov/data/data/datagovdata/health-hospitals-system-outpatient-registrations-by-zip-fiscal-year-2010-ab403.csv","60142","numbers","^(\d|,)*\.?\d*$"
"/data/datasets/datagov/data/data/datagovdata/health-hospitals-system-outpatient-registrations-by-zip-fiscal-year-2010-ab403.csv","60091","numbers","^(\d|,)*\.?\d*$"
"/data/datasets/datagov/data/data/datagovdata/health-hospitals-system-outpatient-registrations-by-zip-fiscal-year-2010-ab403.csv","60714","numbers","^(\d|,)*\.?\d*$"
"/data/datasets/datagov/data/data/datagovdata/health-hospitals-system-outpatient-registrations-by-zip-fiscal-year-2010-ab403.csv","60452","numbers","^(\d|,)*\.?\d*$"
"/data/datasets/datagov/data/data/datagovdata/health-hospitals-system-outpatient-registrations-by-zip-fiscal-year-2010-ab403.csv","60069","numbers","^(\d|,)*\.?\d*$"
"/data/datasets/datagov/data/data/datagovdata/health-hospitals-system-outpatient-registrations-by-zip-fiscal-year-2010-ab403.csv","60044","numbers","^(\d|,)*\.?\d*$"
"/data/datasets/datagov/data/data/datagovdata/health-hospitals-system-outpatient-registrations-by-zip-fiscal-year-2010-ab403.csv","60453","numbers","^(\d|,)*\.?\d*$"
"/data/datasets/datagov/data/data/datagovdata/health-hospitals-system-outpatient-registrations-by-zip-fiscal-year-2010-ab403.csv","60559","numbers","^(\d|,)*\.?\d*$"
"/data/datasets/datagov/data/data/datagovdata/health-hospitals-system-outpatient-registrations-by-zip-fiscal-year-2010-ab403.csv","60499","numbers","^(\d|,)*\.?\d*$"
"/data/datasets/datagov/data/data/datagovdata/health-hospitals-system-outpatient-registrations-by-zip-fiscal-year-2010-ab403.csv","60608","numbers","^(\d|,)*\.?\d*$"
"/data/datasets/datagov/data/data/datagovdata/health-hospitals-system-outpatient-registrations-by-zip-fiscal-year-2010-ab403.csv","60102","numbers","^(\d|,)*\.?\d*$"
"/data/datasets/datagov/data/data/datagovdata/health-hospitals-system-outpatient-registrations-by-zip-fiscal-year-2010-ab403.csv","60555","numbers","^(\d|,)*\.?\d*$"
"/data/datasets/datagov/data/data/datagovdata/health-hospitals-system-outpatient-registrations-by-zip-fiscal-year-2010-ab403.csv","60457","numbers","^(\d|,)*\.?\d*$"
"/data/datasets/datagov/data/data/datagovdata/health-hospitals-system-outpatient-registrations-by-zip-fiscal-year-2010-ab403.csv","60459","numbers","^(\d|,)*\.?\d*$"
"/data/datasets/datagov/data/data/datagovdata/health-hospitals-system-outpatient-registrations-by-zip-fiscal-year-2010-ab403.csv","60301","numbers","^(\d|,)*\.?\d*$"
"/data/datasets/datagov/data/data/datagovdata/health-hospitals-system-outpatient-registrations-by-zip-fiscal-year-2010-ab403.csv","60104","numbers","^(\d|,)*\.?\d*$"
"/data/datasets/datagov/data/data/datagovdata/health-hospitals-system-outpatient-registrations-by-zip-fiscal-year-2010-ab403.csv","62901","numbers","^(\d|,)*\.?\d*$"
"/data/datasets/datagov/data/data/datagovdata/health-hospitals-system-outpatient-registrations-by-zip-fiscal-year-2010-ab403.csv","60501","numbers","^(\d|,)*\.?\d*$"
"/data/datasets/datagov/data/data/datagovdata/health-hospitals-system-outpatient-registrations-by-zip-fiscal-year-2010-ab403.csv","60097","numbers","^(\d|,)*\.?\d*$"
"/data/datasets/datagov/data/data/datagovdata/health-hospitals-system-outpatient-registrations-by-zip-fiscal-year-2010-ab403.csv","46321","numbers","^(\d|,)*\.?\d*$"
"/data/datasets/datagov/data/data/datagovdata/health-hospitals-system-outpatient-registrations-by-zip-fiscal-year-2010-ab403.csv","61107","numbers","^(\d|,)*\.?\d*$"
"/data/datasets/datagov/data/data/datagovdata/health-hospitals-system-outpatient-registrations-by-zip-fiscal-year-2010-ab403.csv","40223","numbers","^(\d|,)*\.?\d*$"
"/data/datasets/datagov/data/data/datagovdata/health-hospitals-system-outpatient-registrations-by-zip-fiscal-year-2010-ab403.csv","60017","numbers","^(\d|,)*\.?\d*$"
"/data/datasets/datagov/data/data/datagovdata/health-hospitals-system-outpatient-registrations-by-zip-fiscal-year-2010-ab403.csv","60019","numbers","^(\d|,)*\.?\d*$"
"/data/datasets/datagov/data/data/datagovdata/health-hospitals-system-outpatient-registrations-by-zip-fiscal-year-2010-ab403.csv","60685","numbers","^(\d|,)*\.?\d*$"
"/data/datasets/datagov/data/data/datagovdata/health-hospitals-system-outpatient-registrations-by-zip-fiscal-year-2010-ab403.csv","60954","numbers","^(\d|,)*\.?\d*$"
"/data/datasets/datagov/data/data/datagovdata/health-hospitals-system-outpatient-registrations-by-zip-fiscal-year-2010-ab403.csv","60481","numbers","^(\d|,)*\.?\d*$"
"/data/datasets/datagov/data/data/datagovdata/health-hospitals-system-outpatient-registrations-by-zip-fiscal-year-2010-ab403.csv","60636","numbers","^(\d|,)*\.?\d*$"
"/data/datasets/datagov/data/data/datagovdata/health-hospitals-system-outpatient-registrations-by-zip-fiscal-year-2010-ab403.csv","60480","numbers","^(\d|,)*\.?\d*$"
"/data/datasets/datagov/data/data/datagovdata/health-hospitals-system-outpatient-registrations-by-zip-fiscal-year-2010-ab403.csv","53115","numbers","^(\d|,)*\.?\d*$"
"/data/datasets/datagov/data/data/datagovdata/health-hospitals-system-outpatient-registrations-by-zip-fiscal-year-2010-ab403.csv","60803","numbers","^(\d|,)*\.?\d*$"
"/data/datasets/datagov/data/data/datagovdata/health-hospitals-system-outpatient-registrations-by-zip-fiscal-year-2010-ab403.csv","60110","numbers","^(\d|,)*\.?\d*$"
"/data/datasets/datagov/data/data/datagovdata/health-hospitals-system-outpatient-registrations-by-zip-fiscal-year-2010-ab403.csv","60563","numbers","^(\d|,)*\.?\d*$"
"/data/datasets/datagov/data/data/datagovdata/health-hospitals-system-outpatient-registrations-by-zip-fiscal-year-2010-ab403.csv","60521","numbers","^(\d|,)*\.?\d*$"
"/data/datasets/datagov/data/data/datagovdata/health-hospitals-system-outpatient-registrations-by-zip-fiscal-year-2010-ab403.csv","60479","numbers","^(\d|,)*\.?\d*$"
"/data/datasets/datagov/data/data/datagovdata/health-hospitals-system-outpatient-registrations-by-zip-fiscal-year-2010-ab403.csv","60614","numbers","^(\d|,)*\.?\d*$"
"/data/datasets/datagov/data/data/datagovdata/health-hospitals-system-outpatient-registrations-by-zip-fiscal-year-2010-ab403.csv","60640","numbers","^(\d|,)*\.?\d*$"
"/data/datasets/datagov/data/data/datagovdata/health-hospitals-system-outpatient-registrations-by-zip-fiscal-year-2010-ab403.csv","46319","numbers","^(\d|,)*\.?\d*$"
"/data/datasets/datagov/data/data/datagovdata/health-hospitals-system-outpatient-registrations-by-zip-fiscal-year-2010-ab403.csv","60121","numbers","^(\d|,)*\.?\d*$"
"/data/datasets/datagov/data/data/datagovdata/health-hospitals-system-outpatient-registrations-by-zip-fiscal-year-2010-ab403.csv","60661","numbers","^(\d|,)*\.?\d*$"
"/data/datasets/datagov/data/data/datagovdata/health-hospitals-system-outpatient-registrations-by-zip-fiscal-year-2010-ab403.csv","60164","numbers","^(\d|,)*\.?\d*$"
"/data/datasets/datagov/data/data/datagovdata/health-hospitals-system-outpatient-registrations-by-zip-fiscal-year-2010-ab403.csv","60099","numbers","^(\d|,)*\.?\d*$"
"/data/datasets/datagov/data/data/datagovdata/health-hospitals-system-outpatient-registrations-by-zip-fiscal-year-2010-ab403.csv","60634","numbers","^(\d|,)*\.?\d*$"
"/data/datasets/datagov/data/data/datagovdata/health-hospitals-system-outpatient-registrations-by-zip-fiscal-year-2010-ab403.csv","60187","numbers","^(\d|,)*\.?\d*$"
"/data/datasets/datagov/data/data/datagovdata/health-hospitals-system-outpatient-registrations-by-zip-fiscal-year-2010-ab403.csv","60622","numbers","^(\d|,)*\.?\d*$"
"/data/datasets/datagov/data/data/datagovdata/health-hospitals-system-outpatient-registrations-by-zip-fiscal-year-2010-ab403.csv","60163","numbers","^(\d|,)*\.?\d*$"
"/data/datasets/datagov/data/data/datagovdata/health-hospitals-system-outpatient-registrations-by-zip-fiscal-year-2010-ab403.csv","60433","numbers","^(\d|,)*\.?\d*$"
"/data/datasets/datagov/data/data/datagovdata/health-hospitals-system-outpatient-registrations-by-zip-fiscal-year-2010-ab403.csv","60033","numbers","^(\d|,)*\.?\d*$"
"/data/datasets/datagov/data/data/datagovdata/health-hospitals-system-outpatient-registrations-by-zip-fiscal-year-2010-ab403.csv","60063","numbers","^(\d|,)*\.?\d*$"
"/data/datasets/datagov/data/data/datagovdata/health-hospitals-system-outpatient-registrations-by-zip-fiscal-year-2010-ab403.csv","60538","numbers","^(\d|,)*\.?\d*$"
"/data/datasets/datagov/data/data/datagovdata/health-hospitals-system-outpatient-registrations-by-zip-fiscal-year-2010-ab403.csv","60139","numbers","^(\d|,)*\.?\d*$"
"/data/datasets/datagov/data/data/datagovdata/health-hospitals-system-outpatient-registrations-by-zip-fiscal-year-2010-ab403.csv","60141","numbers","^(\d|,)*\.?\d*$"
"/data/datasets/datagov/data/data/datagovdata/health-hospitals-system-outpatient-registrations-by-zip-fiscal-year-2010-ab403.csv","60021","numbers","^(\d|,)*\.?\d*$"
"/data/datasets/datagov/data/data/datagovdata/health-hospitals-system-outpatient-registrations-by-zip-fiscal-year-2010-ab403.csv","60073","numbers","^(\d|,)*\.?\d*$"
"/data/datasets/datagov/data/data/datagovdata/health-hospitals-system-outpatient-registrations-by-zip-fiscal-year-2010-ab403.csv","60458","numbers","^(\d|,)*\.?\d*$"
"/data/datasets/datagov/data/data/datagovdata/health-hospitals-system-outpatient-registrations-by-zip-fiscal-year-2010-ab403.csv","60654","numbers","^(\d|,)*\.?\d*$"
"/data/datasets/datagov/data/data/datagovdata/health-hospitals-system-outpatient-registrations-by-zip-fiscal-year-2010-ab403.csv","60132","numbers","^(\d|,)*\.?\d*$"
"/data/datasets/datagov/data/data/datagovdata/health-hospitals-system-outpatient-registrations-by-zip-fiscal-year-2010-ab403.csv","46403","numbers","^(\d|,)*\.?\d*$"
"/data/datasets/datagov/data/data/datagovdata/health-hospitals-system-outpatient-registrations-by-zip-fiscal-year-2010-ab403.csv","60680","numbers","^(\d|,)*\.?\d*$"
"/data/datasets/datagov/data/data/datagovdata/health-hospitals-system-outpatient-registrations-by-zip-fiscal-year-2010-ab403.csv","60518","numbers","^(\d|,)*\.?\d*$"
"/data/datasets/datagov/data/data/datagovdata/health-hospitals-system-outpatient-registrations-by-zip-fiscal-year-2010-ab403.csv","60443","numbers","^(\d|,)*\.?\d*$"
"/data/datasets/datagov/data/data/datagovdata/health-hospitals-system-outpatient-registrations-by-zip-fiscal-year-2010-ab403.csv","60035","numbers","^(\d|,)*\.?\d*$"
"/data/datasets/datagov/data/data/datagovdata/health-hospitals-system-outpatient-registrations-by-zip-fiscal-year-2010-ab403.csv","46368","numbers","^(\d|,)*\.?\d*$"
"/data/datasets/datagov/data/data/datagovdata/health-hospitals-system-outpatient-registrations-by-zip-fiscal-year-2010-ab403.csv","60585","numbers","^(\d|,)*\.?\d*$"
"/data/datasets/datagov/data/data/datagovdata/health-hospitals-system-outpatient-registrations-by-zip-fiscal-year-2010-ab403.csv","60403","numbers","^(\d|,)*\.?\d*$"
"/data/datasets/datagov/data/data/datagovdata/health-hospitals-system-outpatient-registrations-by-zip-fiscal-year-2010-ab403.csv","60148","numbers","^(\d|,)*\.?\d*$"
"/data/datasets/datagov/data/data/datagovdata/health-hospitals-system-outpatient-registrations-by-zip-fiscal-year-2010-ab403.csv","60013","numbers","^(\d|,)*\.?\d*$"
"/data/datasets/datagov/data/data/datagovdata/health-hospitals-system-outpatient-registrations-by-zip-fiscal-year-2010-ab403.csv","60482","numbers","^(\d|,)*\.?\d*$"
"/data/datasets/datagov/data/data/datagovdata/health-hospitals-system-outpatient-registrations-by-zip-fiscal-year-2010-ab403.csv","46408","numbers","^(\d|,)*\.?\d*$"
"/data/datasets/datagov/data/data/datagovdata/health-hospitals-system-outpatient-registrations-by-zip-fiscal-year-2010-ab403.csv","60134","numbers","^(\d|,)*\.?\d*$"
"/data/datasets/datagov/data/data/datagovdata/health-hospitals-system-outpatient-registrations-by-zip-fiscal-year-2010-ab403.csv","ZIP Not Readable","numbers","^(\d|,)*\.?\d*$"
"/data/datasets/datagov/data/data/datagovdata/health-hospitals-system-outpatient-registrations-by-zip-fiscal-year-2010-ab403.csv","60467","numbers","^(\d|,)*\.?\d*$"
"/data/datasets/datagov/data/data/datagovdata/health-hospitals-system-outpatient-registrations-by-zip-fiscal-year-2010-ab403.csv","60455","numbers","^(\d|,)*\.?\d*$"
"/data/datasets/datagov/data/data/datagovdata/health-hospitals-system-outpatient-registrations-by-zip-fiscal-year-2010-ab403.csv","60631","numbers","^(\d|,)*\.?\d*$"
"/data/datasets/datagov/data/data/datagovdata/health-hospitals-system-outpatient-registrations-by-zip-fiscal-year-2010-ab403.csv","61103","numbers","^(\d|,)*\.?\d*$"
"/data/datasets/datagov/data/data/datagovdata/health-hospitals-system-outpatient-registrations-by-zip-fiscal-year-2010-ab403.csv","60018","numbers","^(\d|,)*\.?\d*$"
"/data/datasets/datagov/data/data/datagovdata/health-hospitals-system-outpatient-registrations-by-zip-fiscal-year-2010-ab403.csv","46323","numbers","^(\d|,)*\.?\d*$"
"/data/datasets/datagov/data/data/datagovdata/health-hospitals-system-outpatient-registrations-by-zip-fiscal-year-2010-ab403.csv","60067","numbers","^(\d|,)*\.?\d*$"
"/data/datasets/datagov/data/data/datagovdata/health-hospitals-system-outpatient-registrations-by-zip-fiscal-year-2010-ab403.csv","60171","numbers","^(\d|,)*\.?\d*$"
"/data/datasets/datagov/data/data/datagovdata/health-hospitals-system-outpatient-registrations-by-zip-fiscal-year-2010-ab403.csv","60015","numbers","^(\d|,)*\.?\d*$"
"/data/datasets/datagov/data/data/datagovdata/health-hospitals-system-outpatient-registrations-by-zip-fiscal-year-2010-ab403.csv","60472","numbers","^(\d|,)*\.?\d*$"
"/data/datasets/datagov/data/data/datagovdata/health-hospitals-system-outpatient-registrations-by-zip-fiscal-year-2010-ab403.csv","61108","numbers","^(\d|,)*\.?\d*$"
"/data/datasets/datagov/data/data/datagovdata/health-hospitals-system-outpatient-registrations-by-zip-fiscal-year-2010-ab403.csv","60633","numbers","^(\d|,)*\.?\d*$"
"/data/datasets/datagov/data/data/datagovdata/health-hospitals-system-outpatient-registrations-by-zip-fiscal-year-2010-ab403.csv","60910","numbers","^(\d|,)*\.?\d*$"
"/data/datasets/datagov/data/data/datagovdata/health-hospitals-system-outpatient-registrations-by-zip-fiscal-year-2010-ab403.csv","60465","numbers","^(\d|,)*\.?\d*$"
"/data/datasets/datagov/data/data/datagovdata/health-hospitals-system-outpatient-registrations-by-zip-fiscal-year-2010-ab403.csv","60193","numbers","^(\d|,)*\.?\d*$"
"/data/datasets/datagov/data/data/datagovdata/health-hospitals-system-outpatient-registrations-by-zip-fiscal-year-2010-ab403.csv","46394","numbers","^(\d|,)*\.?\d*$"
"/data/datasets/datagov/data/data/datagovdata/health-hospitals-system-outpatient-registrations-by-zip-fiscal-year-2010-ab403.csv","60629","numbers","^(\d|,)*\.?\d*$"
"/data/datasets/datagov/data/data/datagovdata/health-hospitals-system-outpatient-registrations-by-zip-fiscal-year-2010-ab403.csv","60624","numbers","^(\d|,)*\.?\d*$"
"/data/datasets/datagov/data/data/datagovdata/health-hospitals-system-outpatient-registrations-by-zip-fiscal-year-2010-ab403.csv","60450","numbers","^(\d|,)*\.?\d*$"
"/data/datasets/datagov/data/data/datagovdata/health-hospitals-system-outpatient-registrations-by-zip-fiscal-year-2010-ab403.csv","60173","numbers","^(\d|,)*\.?\d*$"
"/data/datasets/datagov/data/data/datagovdata/health-hospitals-system-outpatient-registrations-by-zip-fiscal-year-2010-ab403.csv","72370","numbers","^(\d|,)*\.?\d*$"
"/data/datasets/datagov/data/data/datagovdata/health-hospitals-system-outpatient-registrations-by-zip-fiscal-year-2010-ab403.csv","60915","numbers","^(\d|,)*\.?\d*$"
"/data/datasets/datagov/data/data/datagovdata/health-hospitals-system-outpatient-registrations-by-zip-fiscal-year-2010-ab403.csv","46628","numbers","^(\d|,)*\.?\d*$"
"/data/datasets/datagov/data/data/datagovdata/health-hospitals-system-outpatient-registrations-by-zip-fiscal-year-2010-ab403.csv","60107","numbers","^(\d|,)*\.?\d*$"
"/data/datasets/datagov/data/data/datagovdata/health-hospitals-system-outpatient-registrations-by-zip-fiscal-year-2010-ab403.csv","61376","numbers","^(\d|,)*\.?\d*$"
"/data/datasets/datagov/data/data/datagovdata/health-hospitals-system-outpatient-registrations-by-zip-fiscal-year-2010-ab403.csv","60140","numbers","^(\d|,)*\.?\d*$"
"/data/datasets/datagov/data/data/datagovdata/health-hospitals-system-outpatient-registrations-by-zip-fiscal-year-2010-ab403.csv","60506","numbers","^(\d|,)*\.?\d*$"
"/data/datasets/datagov/data/data/datagovdata/health-hospitals-system-outpatient-registrations-by-zip-fiscal-year-2010-ab403.csv","60422","numbers","^(\d|,)*\.?\d*$"
"/data/datasets/datagov/data/data/datagovdata/health-hospitals-system-outpatient-registrations-by-zip-fiscal-year-2010-ab403.csv","60010","numbers","^(\d|,)*\.?\d*$"
"/data/datasets/datagov/data/data/datagovdata/health-hospitals-system-outpatient-registrations-by-zip-fiscal-year-2010-ab403.csv","61820","numbers","^(\d|,)*\.?\d*$"
"/data/datasets/datagov/data/data/datagovdata/health-hospitals-system-outpatient-registrations-by-zip-fiscal-year-2010-ab403.csv","52001","numbers","^(\d|,)*\.?\d*$"
"/data/datasets/datagov/data/data/datagovdata/health-hospitals-system-outpatient-registrations-by-zip-fiscal-year-2010-ab403.csv","60618","numbers","^(\d|,)*\.?\d*$"
"/data/datasets/datagov/data/data/datagovdata/health-hospitals-system-outpatient-registrations-by-zip-fiscal-year-2010-ab403.csv","61008","numbers","^(\d|,)*\.?\d*$"
"/data/datasets/datagov/data/data/datagovdata/health-hospitals-system-outpatient-registrations-by-zip-fiscal-year-2010-ab403.csv","60619","numbers","^(\d|,)*\.?\d*$"
"/data/datasets/datagov/data/data/datagovdata/health-hospitals-system-outpatient-registrations-by-zip-fiscal-year-2010-ab403.csv","60438","numbers","^(\d|,)*\.?\d*$"
"/data/datasets/datagov/data/data/datagovdata/health-hospitals-system-outpatient-registrations-by-zip-fiscal-year-2010-ab403.csv","60415","numbers","^(\d|,)*\.?\d*$"
"/data/datasets/datagov/data/data/datagovdata/health-hospitals-system-outpatient-registrations-by-zip-fiscal-year-2010-ab403.csv","60649","numbers","^(\d|,)*\.?\d*$"
"/data/datasets/datagov/data/data/datagovdata/health-hospitals-system-outpatient-registrations-by-zip-fiscal-year-2010-ab403.csv","60528","numbers","^(\d|,)*\.?\d*$"
"/data/datasets/datagov/data/data/datagovdata/health-hospitals-system-outpatient-registrations-by-zip-fiscal-year-2010-ab403.csv","60664","numbers","^(\d|,)*\.?\d*$"
"/data/datasets/datagov/data/data/datagovdata/health-hospitals-system-outpatient-registrations-by-zip-fiscal-year-2010-ab403.csv","60613","numbers","^(\d|,)*\.?\d*$"
"/data/datasets/datagov/data/data/datagovdata/health-hospitals-system-outpatient-registrations-by-zip-fiscal-year-2010-ab403.csv","60466","numbers","^(\d|,)*\.?\d*$"
"/data/datasets/datagov/data/data/datagovdata/health-hospitals-system-outpatient-registrations-by-zip-fiscal-year-2010-ab403.csv","60089","numbers","^(\d|,)*\.?\d*$"
"/data/datasets/datagov/data/data/datagovdata/health-hospitals-system-outpatient-registrations-by-zip-fiscal-year-2010-ab403.csv","60690","numbers","^(\d|,)*\.?\d*$"
"/data/datasets/datagov/data/data/datagovdata/health-hospitals-system-outpatient-registrations-by-zip-fiscal-year-2010-ab403.csv","60958","numbers","^(\d|,)*\.?\d*$"
"/data/datasets/datagov/data/data/datagovdata/health-hospitals-system-outpatient-registrations-by-zip-fiscal-year-2010-ab403.csv","60201","numbers","^(\d|,)*\.?\d*$"
"/data/datasets/datagov/data/data/datagovdata/health-hospitals-system-outpatient-registrations-by-zip-fiscal-year-2010-ab403.csv","46405","numbers","^(\d|,)*\.?\d*$"
"/data/datasets/datagov/data/data/datagovdata/health-hospitals-system-outpatient-registrations-by-zip-fiscal-year-2010-ab403.csv","46409","numbers","^(\d|,)*\.?\d*$"
"/data/datasets/datagov/data/data/datagovdata/health-hospitals-system-outpatient-registrations-by-zip-fiscal-year-2010-ab403.csv","60554","numbers","^(\d|,)*\.?\d*$"
"/data/datasets/datagov/data/data/datagovdata/health-hospitals-system-outpatient-registrations-by-zip-fiscal-year-2010-ab403.csv","60155","numbers","^(\d|,)*\.?\d*$"
"/data/datasets/datagov/data/data/datagovdata/health-hospitals-system-outpatient-registrations-by-zip-fiscal-year-2010-ab403.csv","60490","numbers","^(\d|,)*\.?\d*$"
"/data/datasets/datagov/data/data/datagovdata/health-hospitals-system-outpatient-registrations-by-zip-fiscal-year-2010-ab403.csv","60621","numbers","^(\d|,)*\.?\d*$"
"/data/datasets/datagov/data/data/datagovdata/health-hospitals-system-outpatient-registrations-by-zip-fiscal-year-2010-ab403.csv","53140","numbers","^(\d|,)*\.?\d*$"
"/data/datasets/datagov/data/data/datagovdata/health-hospitals-system-outpatient-registrations-by-zip-fiscal-year-2010-ab403.csv","61032","numbers","^(\d|,)*\.?\d*$"
"/data/datasets/datagov/data/data/datagovdata/health-hospitals-system-outpatient-registrations-by-zip-fiscal-year-2010-ab403.csv","60525","numbers","^(\d|,)*\.?\d*$"
"/data/datasets/datagov/data/data/datagovdata/health-hospitals-system-outpatient-registrations-by-zip-fiscal-year-2010-ab403.csv","61801","numbers","^(\d|,)*\.?\d*$"
"/data/datasets/datagov/data/data/datagovdata/health-hospitals-system-outpatient-registrations-by-zip-fiscal-year-2010-ab403.csv","60410","numbers","^(\d|,)*\.?\d*$"
"/data/datasets/datagov/data/data/datagovdata/health-hospitals-system-outpatient-registrations-by-zip-fiscal-year-2010-ab403.csv","61109","numbers","^(\d|,)*\.?\d*$"
"/data/datasets/datagov/data/data/datagovdata/health-hospitals-system-outpatient-registrations-by-zip-fiscal-year-2010-ab403.csv","60540","numbers","^(\d|,)*\.?\d*$"
"/data/datasets/datagov/data/data/datagovdata/health-hospitals-system-outpatient-registrations-by-zip-fiscal-year-2010-ab403.csv","60477","numbers","^(\d|,)*\.?\d*$"
"/data/datasets/datagov/data/data/datagovdata/health-hospitals-system-outpatient-registrations-by-zip-fiscal-year-2010-ab403.csv","46407","numbers","^(\d|,)*\.?\d*$"
"/data/datasets/datagov/data/data/datagovdata/health-hospitals-system-outpatient-registrations-by-zip-fiscal-year-2010-ab403.csv","60684","numbers","^(\d|,)*\.?\d*$"
"/data/datasets/datagov/data/data/datagovdata/health-hospitals-system-outpatient-registrations-by-zip-fiscal-year-2010-ab403.csv","61802","numbers","^(\d|,)*\.?\d*$"
"/data/datasets/datagov/data/data/datagovdata/health-hospitals-system-outpatient-registrations-by-zip-fiscal-year-2010-ab403.csv","60678","numbers","^(\d|,)*\.?\d*$"
"/data/datasets/datagov/data/data/datagovdata/health-hospitals-system-outpatient-registrations-by-zip-fiscal-year-2010-ab403.csv","60174","numbers","^(\d|,)*\.?\d*$"
"/data/datasets/datagov/data/data/datagovdata/health-hospitals-system-outpatient-registrations-by-zip-fiscal-year-2010-ab403.csv","60106","numbers","^(\d|,)*\.?\d*$"
"/data/datasets/datagov/data/data/datagovdata/health-hospitals-system-outpatient-registrations-by-zip-fiscal-year-2010-ab403.csv","60625","numbers","^(\d|,)*\.?\d*$"
"/data/datasets/datagov/data/data/datagovdata/health-hospitals-system-outpatient-registrations-by-zip-fiscal-year-2010-ab403.csv","60084","numbers","^(\d|,)*\.?\d*$"
"/data/datasets/datagov/data/data/datagovdata/health-hospitals-system-outpatient-registrations-by-zip-fiscal-year-2010-ab403.csv","60970","numbers","^(\d|,)*\.?\d*$"
"/data/datasets/datagov/data/data/datagovdata/health-hospitals-system-outpatient-registrations-by-zip-fiscal-year-2010-ab403.csv","60542","numbers","^(\d|,)*\.?\d*$"
"/data/datasets/datagov/data/data/datagovdata/health-hospitals-system-outpatient-registrations-by-zip-fiscal-year-2010-ab403.csv","61068","numbers","^(\d|,)*\.?\d*$"
"/data/datasets/datagov/data/data/datagovdata/health-hospitals-system-outpatient-registrations-by-zip-fiscal-year-2010-ab403.csv","60656","numbers","^(\d|,)*\.?\d*$"
"/data/datasets/datagov/data/data/datagovdata/health-hospitals-system-outpatient-registrations-by-zip-fiscal-year-2010-ab403.csv","60305","numbers","^(\d|,)*\.?\d*$"
"/data/datasets/datagov/data/data/datagovdata/health-hospitals-system-outpatient-registrations-by-zip-fiscal-year-2010-ab403.csv","60532","numbers","^(\d|,)*\.?\d*$"
"/data/datasets/datagov/data/data/datagovdata/health-hospitals-system-outpatient-registrations-by-zip-fiscal-year-2010-ab403.csv","60064","numbers","^(\d|,)*\.?\d*$"
"/data/datasets/datagov/data/data/datagovdata/health-hospitals-system-outpatient-registrations-by-zip-fiscal-year-2010-ab403.csv","60083","numbers","^(\d|,)*\.?\d*$"
"/data/datasets/datagov/data/data/datagovdata/health-hospitals-system-outpatient-registrations-by-zip-fiscal-year-2010-ab403.csv","60635","numbers","^(\d|,)*\.?\d*$"
"/data/datasets/datagov/data/data/datagovdata/health-hospitals-system-outpatient-registrations-by-zip-fiscal-year-2010-ab403.csv","60505","numbers","^(\d|,)*\.?\d*$"
"/data/datasets/datagov/data/data/datagovdata/health-hospitals-system-outpatient-registrations-by-zip-fiscal-year-2010-ab403.csv","60545","numbers","^(\d|,)*\.?\d*$"
"/data/datasets/datagov/data/data/datagovdata/health-hospitals-system-outpatient-registrations-by-zip-fiscal-year-2010-ab403.csv","60000","numbers","^(\d|,)*\.?\d*$"
"/data/datasets/datagov/data/data/datagovdata/health-hospitals-system-outpatient-registrations-by-zip-fiscal-year-2010-ab403.csv","60707","numbers","^(\d|,)*\.?\d*$"
"/data/datasets/datagov/data/data/datagovdata/health-hospitals-system-outpatient-registrations-by-zip-fiscal-year-2010-ab403.csv","ZIP Not Provided","numbers","^(\d|,)*\.?\d*$"
"/data/datasets/datagov/data/data/datagovdata/health-hospitals-system-outpatient-registrations-by-zip-fiscal-year-2010-ab403.csv","60456","numbers","^(\d|,)*\.?\d*$"
"/data/datasets/datagov/data/data/datagovdata/health-hospitals-system-outpatient-registrations-by-zip-fiscal-year-2010-ab403.csv","60950","numbers","^(\d|,)*\.?\d*$"
"/data/datasets/datagov/data/data/datagovdata/health-hospitals-system-outpatient-registrations-by-zip-fiscal-year-2010-ab403.csv","60515","numbers","^(\d|,)*\.?\d*$"
"/data/datasets/datagov/data/data/datagovdata/health-hospitals-system-outpatient-registrations-by-zip-fiscal-year-2010-ab403.csv","60074","numbers","^(\d|,)*\.?\d*$"
"/data/datasets/datagov/data/data/datagovdata/health-hospitals-system-outpatient-registrations-by-zip-fiscal-year-2010-ab403.csv","61701","numbers","^(\d|,)*\.?\d*$"
"/data/datasets/datagov/data/data/datagovdata/health-hospitals-system-outpatient-registrations-by-zip-fiscal-year-2010-ab403.csv","60417","numbers","^(\d|,)*\.?\d*$"
"/data/datasets/datagov/data/data/datagovdata/health-hospitals-system-outpatient-registrations-by-zip-fiscal-year-2010-ab403.csv","60612","numbers","^(\d|,)*\.?\d*$"
"/data/datasets/datagov/data/data/datagovdata/health-hospitals-system-outpatient-registrations-by-zip-fiscal-year-2010-ab403.csv","46320","numbers","^(\d|,)*\.?\d*$"
"/data/datasets/datagov/data/data/datagovdata/health-hospitals-system-outpatient-registrations-by-zip-fiscal-year-2010-ab403.csv","60123","numbers","^(\d|,)*\.?\d*$"
"/data/datasets/datagov/data/data/datagovdata/health-hospitals-system-outpatient-registrations-by-zip-fiscal-year-2010-ab403.csv","60420","numbers","^(\d|,)*\.?\d*$"
"/data/datasets/datagov/data/data/datagovdata/health-hospitals-system-outpatient-registrations-by-zip-fiscal-year-2010-ab403.csv","60020","numbers","^(\d|,)*\.?\d*$"
"/data/datasets/datagov/data/data/datagovdata/health-hospitals-system-outpatient-registrations-by-zip-fiscal-year-2010-ab403.csv","60605","numbers","^(\d|,)*\.?\d*$"
"/data/datasets/datagov/data/data/datagovdata/health-hospitals-system-outpatient-registrations-by-zip-fiscal-year-2010-ab403.csv","60016","numbers","^(\d|,)*\.?\d*$"
"/data/datasets/datagov/data/data/datagovdata/health-hospitals-system-outpatient-registrations-by-zip-fiscal-year-2010-ab403.csv","61101","numbers","^(\d|,)*\.?\d*$"
"/data/datasets/datagov/data/data/datagovdata/health-hospitals-system-outpatient-registrations-by-zip-fiscal-year-2010-ab403.csv","60153","numbers","^(\d|,)*\.?\d*$"
"/data/datasets/datagov/data/data/datagovdata/health-hospitals-system-outpatient-registrations-by-zip-fiscal-year-2010-ab403.csv","60644","numbers","^(\d|,)*\.?\d*$"
"/data/datasets/datagov/data/data/datagovdata/health-hospitals-system-outpatient-registrations-by-zip-fiscal-year-2010-ab403.csv","60901","numbers","^(\d|,)*\.?\d*$"
"/data/datasets/datagov/data/data/datagovdata/health-hospitals-system-outpatient-registrations-by-zip-fiscal-year-2010-ab403.csv","60152","numbers","^(\d|,)*\.?\d*$"
"/data/datasets/datagov/data/data/datagovdata/health-hospitals-system-outpatient-registrations-by-zip-fiscal-year-2010-ab403.csv","60160","numbers","^(\d|,)*\.?\d*$"
"/data/datasets/datagov/data/data/datagovdata/health-hospitals-system-outpatient-registrations-by-zip-fiscal-year-2010-ab403.csv","60620","numbers","^(\d|,)*\.?\d*$"
"/data/datasets/datagov/data/data/datagovdata/health-hospitals-system-outpatient-registrations-by-zip-fiscal-year-2010-ab403.csv","46402","numbers","^(\d|,)*\.?\d*$"
"/data/datasets/datagov/data/data/datagovdata/health-hospitals-system-outpatient-registrations-by-zip-fiscal-year-2010-ab403.csv","60442","numbers","^(\d|,)*\.?\d*$"
"/data/datasets/datagov/data/data/datagovdata/health-hospitals-system-outpatient-registrations-by-zip-fiscal-year-2010-ab403.csv","60192","numbers","^(\d|,)*\.?\d*$"
"/data/datasets/datagov/data/data/datagovdata/health-hospitals-system-outpatient-registrations-by-zip-fiscal-year-2010-ab403.csv","60447","numbers","^(\d|,)*\.?\d*$"
"/data/datasets/datagov/data/data/datagovdata/health-hospitals-system-outpatient-registrations-by-zip-fiscal-year-2010-ab403.csv","60476","numbers","^(\d|,)*\.?\d*$"
"/data/datasets/datagov/data/data/datagovdata/health-hospitals-system-outpatient-registrations-by-zip-fiscal-year-2010-ab403.csv","60523","numbers","^(\d|,)*\.?\d*$"
"/data/datasets/datagov/data/data/datagovdata/health-hospitals-system-outpatient-registrations-by-zip-fiscal-year-2010-ab403.csv","60051","numbers","^(\d|,)*\.?\d*$"
"/data/datasets/datagov/data/data/datagovdata/health-hospitals-system-outpatient-registrations-by-zip-fiscal-year-2010-ab403.csv","61704","numbers","^(\d|,)*\.?\d*$"
"/data/datasets/datagov/data/data/datagovdata/health-hospitals-system-outpatient-registrations-by-zip-fiscal-year-2010-ab403.csv","60118","numbers","^(\d|,)*\.?\d*$"
"/data/datasets/datagov/data/data/datagovdata/health-hospitals-system-outpatient-registrations-by-zip-fiscal-year-2010-ab403.csv","60513","numbers","^(\d|,)*\.?\d*$"
"/data/datasets/datagov/data/data/datagovdata/health-hospitals-system-outpatient-registrations-by-zip-fiscal-year-2010-ab403.csv","60047","numbers","^(\d|,)*\.?\d*$"
"/data/datasets/datagov/data/data/datagovdata/health-hospitals-system-outpatient-registrations-by-zip-fiscal-year-2010-ab403.csv","60471","numbers","^(\d|,)*\.?\d*$"
"/data/datasets/datagov/data/data/datagovdata/health-hospitals-system-outpatient-registrations-by-zip-fiscal-year-2010-ab403.csv","60188","numbers","^(\d|,)*\.?\d*$"
"/data/datasets/datagov/data/data/datagovdata/health-hospitals-system-outpatient-registrations-by-zip-fiscal-year-2010-ab403.csv","60184","numbers","^(\d|,)*\.?\d*$"
"/data/datasets/datagov/data/data/datagovdata/health-hospitals-system-outpatient-registrations-by-zip-fiscal-year-2010-ab403.csv","60682","numbers","^(\d|,)*\.?\d*$"
"/data/datasets/datagov/data/data/datagovdata/health-hospitals-system-outpatient-registrations-by-zip-fiscal-year-2010-ab403.csv","60434","numbers","^(\d|,)*\.?\d*$"
"/data/datasets/datagov/data/data/datagovdata/health-hospitals-system-outpatient-registrations-by-zip-fiscal-year-2010-ab403.csv","60204","numbers","^(\d|,)*\.?\d*$"
"/data/datasets/datagov/data/data/datagovdata/health-hospitals-system-outpatient-registrations-by-zip-fiscal-year-2010-ab403.csv","60185","numbers","^(\d|,)*\.?\d*$"
"/data/datasets/datagov/data/data/datagovdata/health-hospitals-system-outpatient-registrations-by-zip-fiscal-year-2010-ab403.csv","61081","numbers","^(\d|,)*\.?\d*$"
"/data/datasets/datagov/data/data/datagovdata/health-hospitals-system-outpatient-registrations-by-zip-fiscal-year-2010-ab403.csv","60658","numbers","^(\d|,)*\.?\d*$"
"/data/datasets/datagov/data/data/datagovdata/health-hospitals-system-outpatient-registrations-by-zip-fiscal-year-2010-ab403.csv","60008","numbers","^(\d|,)*\.?\d*$"
"/data/datasets/datagov/data/data/datagovdata/health-hospitals-system-outpatient-registrations-by-zip-fiscal-year-2010-ab403.csv","60304","numbers","^(\d|,)*\.?\d*$"
"/data/datasets/datagov/data/data/datagovdata/health-hospitals-system-outpatient-registrations-by-zip-fiscal-year-2010-ab403.csv","60030","numbers","^(\d|,)*\.?\d*$"
"/data/datasets/datagov/data/data/datagovdata/health-hospitals-system-outpatient-registrations-by-zip-fiscal-year-2010-ab403.csv","60804","numbers","^(\d|,)*\.?\d*$"
"/data/datasets/datagov/data/data/datagovdata/health-hospitals-system-outpatient-registrations-by-zip-fiscal-year-2010-ab403.csv","60431","numbers","^(\d|,)*\.?\d*$"
"/data/datasets/datagov/data/data/datagovdata/health-hospitals-system-outpatient-registrations-by-zip-fiscal-year-2010-ab403.csv","60085","numbers","^(\d|,)*\.?\d*$"
"/data/datasets/datagov/data/data/datagovdata/health-hospitals-system-outpatient-registrations-by-zip-fiscal-year-2010-ab403.csv","90221","numbers","^(\d|,)*\.?\d*$"
"/data/datasets/datagov/data/data/datagovdata/health-hospitals-system-outpatient-registrations-by-zip-fiscal-year-2010-ab403.csv","60065","numbers","^(\d|,)*\.?\d*$"
"/data/datasets/datagov/data/data/datagovdata/health-hospitals-system-outpatient-registrations-by-zip-fiscal-year-2010-ab403.csv","60048","numbers","^(\d|,)*\.?\d*$"
"/data/datasets/datagov/data/data/datagovdata/health-hospitals-system-outpatient-registrations-by-zip-fiscal-year-2010-ab403.csv","61104","numbers","^(\d|,)*\.?\d*$"
"/data/datasets/datagov/data/data/datagovdata/health-hospitals-system-outpatient-registrations-by-zip-fiscal-year-2010-ab403.csv","60464","numbers","^(\d|,)*\.?\d*$"
"/data/datasets/datagov/data/data/datagovdata/health-hospitals-system-outpatient-registrations-by-zip-fiscal-year-2010-ab403.csv","60416","numbers","^(\d|,)*\.?\d*$"
"/data/datasets/datagov/data/data/datagovdata/health-hospitals-system-outpatient-registrations-by-zip-fiscal-year-2010-ab403.csv","60412","numbers","^(\d|,)*\.?\d*$"
"/data/datasets/datagov/data/data/datagovdata/health-hospitals-system-outpatient-registrations-by-zip-fiscal-year-2010-ab403.csv","62703","numbers","^(\d|,)*\.?\d*$"
"/data/datasets/datagov/data/data/datagovdata/health-hospitals-system-outpatient-registrations-by-zip-fiscal-year-2010-ab403.csv","60461","numbers","^(\d|,)*\.?\d*$"
"/data/datasets/datagov/data/data/datagovdata/health-hospitals-system-outpatient-registrations-by-zip-fiscal-year-2010-ab403.csv","60419","numbers","^(\d|,)*\.?\d*$"
"/data/datasets/datagov/data/data/datagovdata/health-hospitals-system-outpatient-registrations-by-zip-fiscal-year-2010-ab403.csv","60131","numbers","^(\d|,)*\.?\d*$"
"/data/datasets/datagov/data/data/datagovdata/health-hospitals-system-outpatient-registrations-by-zip-fiscal-year-2010-ab403.csv","60693","numbers","^(\d|,)*\.?\d*$"
"/data/datasets/datagov/data/data/datagovdata/health-hospitals-system-outpatient-registrations-by-zip-fiscal-year-2010-ab403.csv","60176","numbers","^(\d|,)*\.?\d*$"
"/data/datasets/datagov/data/data/datagovdata/health-hospitals-system-outpatient-registrations-by-zip-fiscal-year-2010-ab403.csv","60517","numbers","^(\d|,)*\.?\d*$"
"/data/datasets/datagov/data/data/datagovdata/health-hospitals-system-outpatient-registrations-by-zip-fiscal-year-2010-ab403.csv","60451","numbers","^(\d|,)*\.?\d*$"
"/data/datasets/datagov/data/data/datagovdata/health-hospitals-system-outpatient-registrations-by-zip-fiscal-year-2010-ab403.csv","60628","numbers","^(\d|,)*\.?\d*$"
"/data/datasets/datagov/data/data/datagovdata/health-hospitals-system-outpatient-registrations-by-zip-fiscal-year-2010-ab403.csv","60172","numbers","^(\d|,)*\.?\d*$"
"/data/datasets/datagov/data/data/datagovdata/health-hospitals-system-outpatient-registrations-by-zip-fiscal-year-2010-ab403.csv","60421","numbers","^(\d|,)*\.?\d*$"
"/data/datasets/datagov/data/data/datagovdata/health-hospitals-system-outpatient-registrations-by-zip-fiscal-year-2010-ab403.csv","60617","numbers","^(\d|,)*\.?\d*$"
"/data/datasets/datagov/data/data/datagovdata/health-hospitals-system-outpatient-registrations-by-zip-fiscal-year-2010-ab403.csv","60645","numbers","^(\d|,)*\.?\d*$"
"/data/datasets/datagov/data/data/datagovdata/health-hospitals-system-outpatient-registrations-by-zip-fiscal-year-2010-ab403.csv","46327","numbers","^(\d|,)*\.?\d*$"
"/data/datasets/datagov/data/data/datagovdata/health-hospitals-system-outpatient-registrations-by-zip-fiscal-year-2010-ab403.csv","60668","numbers","^(\d|,)*\.?\d*$"
"/data/datasets/datagov/data/data/datagovdata/health-hospitals-system-outpatient-registrations-by-zip-fiscal-year-2010-ab403.csv","60507","numbers","^(\d|,)*\.?\d*$"
"/data/datasets/datagov/data/data/datagovdata/health-hospitals-system-outpatient-registrations-by-zip-fiscal-year-2010-ab403.csv","60056","numbers","^(\d|,)*\.?\d*$"
"/data/datasets/datagov/data/data/datagovdata/health-hospitals-system-outpatient-registrations-by-zip-fiscal-year-2010-ab403.csv","46360","numbers","^(\d|,)*\.?\d*$"
"/data/datasets/datagov/data/data/datagovdata/health-hospitals-system-outpatient-registrations-by-zip-fiscal-year-2010-ab403.csv","60687","numbers","^(\d|,)*\.?\d*$"
"/data/datasets/datagov/data/data/datagovdata/health-hospitals-system-outpatient-registrations-by-zip-fiscal-year-2010-ab403.csv","46324","numbers","^(\d|,)*\.?\d*$"
"/data/datasets/datagov/data/data/datagovdata/health-hospitals-system-outpatient-registrations-by-zip-fiscal-year-2010-ab403.csv","60449","numbers","^(\d|,)*\.?\d*$"
"/data/datasets/datagov/data/data/datagovdata/health-hospitals-system-outpatient-registrations-by-zip-fiscal-year-2010-ab403.csv","60652","numbers","^(\d|,)*\.?\d*$"
"/data/datasets/datagov/data/data/datagovdata/health-hospitals-system-outpatient-registrations-by-zip-fiscal-year-2010-ab403.csv","60050","numbers","^(\d|,)*\.?\d*$"
"/data/datasets/datagov/data/data/datagovdata/health-hospitals-system-outpatient-registrations-by-zip-fiscal-year-2010-ab403.csv","60444","numbers","^(\d|,)*\.?\d*$"
"/data/datasets/datagov/data/data/datagovdata/health-hospitals-system-outpatient-registrations-by-zip-fiscal-year-2010-ab403.csv","60648","numbers","^(\d|,)*\.?\d*$"
"/data/datasets/datagov/data/data/datagovdata/health-hospitals-system-outpatient-registrations-by-zip-fiscal-year-2010-ab403.csv","60402","numbers","^(\d|,)*\.?\d*$"
"/data/datasets/datagov/data/data/datagovdata/health-hospitals-system-outpatient-registrations-by-zip-fiscal-year-2010-ab403.csv","46311","numbers","^(\d|,)*\.?\d*$"
"/data/datasets/datagov/data/data/datagovdata/health-hospitals-system-outpatient-registrations-by-zip-fiscal-year-2010-ab403.csv","60565","numbers","^(\d|,)*\.?\d*$"
"/data/datasets/datagov/data/data/datagovdata/health-hospitals-system-outpatient-registrations-by-zip-fiscal-year-2010-ab403.csv","60060","numbers","^(\d|,)*\.?\d*$"
"/data/datasets/datagov/data/data/datagovdata/health-hospitals-system-outpatient-registrations-by-zip-fiscal-year-2010-ab403.csv","66060","numbers","^(\d|,)*\.?\d*$"
