"file_name","column_name","label","regex"
"/data/datasets/datagov/data/data/datagovdata/tgr2006se_sanj_cdcu.csv","DISTRICT","numbers","^\d$"
"/data/datasets/datagov/data/data/datagovdata/tgr2006se_sanj_cdcu.csv","COUNTY","numbers","^\d$"
"/data/datasets/datagov/data/data/datagovdata/tgr2006se_sanj_cdcu.csv","GIST_ID","numbers","^\d$"
