"file_name","column_name","label","regex"
"/data/datasets/datagov/data/data/datagovdata/g20131tn.csv","Unnamed: 39","numbers","^(\d|,)*\.?\d*$"
"/data/datasets/datagov/data/data/datagovdata/g20131tn.csv","0000001","numbers","^(\d|,)*\.?\d*$"
"/data/datasets/datagov/data/data/datagovdata/g20131tn.csv","TN","uri",".*?$(?<!\.aspx)"
"/data/datasets/datagov/data/data/datagovdata/g20131tn.csv","040","numbers","^(\d|,)*\.?\d*$"
"/data/datasets/datagov/data/data/datagovdata/g20131tn.csv","Unnamed: 26","numbers","^(\d|,)*\.?\d*$"
"/data/datasets/datagov/data/data/datagovdata/g20131tn.csv","Unnamed: 40","numbers","^(\d|,)*\.?\d*$"
"/data/datasets/datagov/data/data/datagovdata/g20131tn.csv","Tennessee","uri",".*?$(?<!\.aspx)"
"/data/datasets/datagov/data/data/datagovdata/g20131tn.csv","Unnamed: 43","uri",".*?$(?<!\.aspx)"
"/data/datasets/datagov/data/data/datagovdata/g20131tn.csv","ACSSF","uri",".*?$(?<!\.aspx)"
"/data/datasets/datagov/data/data/datagovdata/g20131tn.csv","00","uri",".*?$(?<!\.aspx)"
"/data/datasets/datagov/data/data/datagovdata/g20131tn.csv","Unnamed: 41","numbers","^(\d|,)*\.?\d*$"
"/data/datasets/datagov/data/data/datagovdata/g20131tn.csv","Unnamed: 46","numbers","^(\d|,)*\.?\d*$"
"/data/datasets/datagov/data/data/datagovdata/g20131tn.csv","Unnamed: 22","numbers","^(\d|,)*\.?\d*$"
"/data/datasets/datagov/data/data/datagovdata/g20131tn.csv","Unnamed: 42","uri",".*?$(?<!\.aspx)"
"/data/datasets/datagov/data/data/datagovdata/g20131tn.csv","47","numbers","^(\d|,)*\.?\d*$"
"/data/datasets/datagov/data/data/datagovdata/g20131tn.csv","Unnamed: 12","numbers","^(\d|,)*\.?\d*$"
"/data/datasets/datagov/data/data/datagovdata/g20131tn.csv","Unnamed: 10","numbers","^(\d|,)*\.?\d*$"
"/data/datasets/datagov/data/data/datagovdata/g20131tn.csv","Unnamed: 32","numbers","^(\d|,)*\.?\d*$"
"/data/datasets/datagov/data/data/datagovdata/g20131tn.csv","04000US47","uri",".*?$(?<!\.aspx)"
