"file_name","column_name","label","regex"
"/data/datasets/datagov/data/data/datagovdata/law-enforcement-call-response-times-3bf2d.csv","Jurisdiction","uri",".*?$(?<!\.aspx)"
"/data/datasets/datagov/data/data/datagovdata/law-enforcement-call-response-times-3bf2d.csv","Year","numbers","^(\d|,)*\.?\d*$"
"/data/datasets/datagov/data/data/datagovdata/law-enforcement-call-response-times-3bf2d.csv","Number of calls","numbers","^(\d|,)*\.?\d*$"
"/data/datasets/datagov/data/data/datagovdata/law-enforcement-call-response-times-3bf2d.csv","Call type","uri",".*?$(?<!\.aspx)"
