"file_name","column_name","label","regex"
"/data/datasets/datagov/data/data/datagovdata/illinois-tuberculosis-cases-by-county-1990-2010-a4046.csv","2002","numbers","^(\d|,)*\.?\d*$"
"/data/datasets/datagov/data/data/datagovdata/illinois-tuberculosis-cases-by-county-1990-2010-a4046.csv","1992","numbers","^(\d|,)*\.?\d*$"
"/data/datasets/datagov/data/data/datagovdata/illinois-tuberculosis-cases-by-county-1990-2010-a4046.csv","1997","numbers","^(\d|,)*\.?\d*$"
"/data/datasets/datagov/data/data/datagovdata/illinois-tuberculosis-cases-by-county-1990-2010-a4046.csv","2010","numbers","^(\d|,)*\.?\d*$"
"/data/datasets/datagov/data/data/datagovdata/illinois-tuberculosis-cases-by-county-1990-2010-a4046.csv","2009","numbers","^(\d|,)*\.?\d*$"
"/data/datasets/datagov/data/data/datagovdata/illinois-tuberculosis-cases-by-county-1990-2010-a4046.csv","2007","numbers","^(\d|,)*\.?\d*$"
"/data/datasets/datagov/data/data/datagovdata/illinois-tuberculosis-cases-by-county-1990-2010-a4046.csv","1996","numbers","^(\d|,)*\.?\d*$"
"/data/datasets/datagov/data/data/datagovdata/illinois-tuberculosis-cases-by-county-1990-2010-a4046.csv","1990","numbers","^(\d|,)*\.?\d*$"
"/data/datasets/datagov/data/data/datagovdata/illinois-tuberculosis-cases-by-county-1990-2010-a4046.csv","1995","numbers","^(\d|,)*\.?\d*$"
"/data/datasets/datagov/data/data/datagovdata/illinois-tuberculosis-cases-by-county-1990-2010-a4046.csv","2003","numbers","^(\d|,)*\.?\d*$"
"/data/datasets/datagov/data/data/datagovdata/illinois-tuberculosis-cases-by-county-1990-2010-a4046.csv","1993","numbers","^(\d|,)*\.?\d*$"
"/data/datasets/datagov/data/data/datagovdata/illinois-tuberculosis-cases-by-county-1990-2010-a4046.csv","County","uri",".*?$(?<!\.aspx)"
"/data/datasets/datagov/data/data/datagovdata/illinois-tuberculosis-cases-by-county-1990-2010-a4046.csv","2000","numbers","^(\d|,)*\.?\d*$"
"/data/datasets/datagov/data/data/datagovdata/illinois-tuberculosis-cases-by-county-1990-2010-a4046.csv","1994","numbers","^(\d|,)*\.?\d*$"
"/data/datasets/datagov/data/data/datagovdata/illinois-tuberculosis-cases-by-county-1990-2010-a4046.csv","1999","numbers","^(\d|,)*\.?\d*$"
"/data/datasets/datagov/data/data/datagovdata/illinois-tuberculosis-cases-by-county-1990-2010-a4046.csv","2008","numbers","^(\d|,)*\.?\d*$"
"/data/datasets/datagov/data/data/datagovdata/illinois-tuberculosis-cases-by-county-1990-2010-a4046.csv","2001","numbers","^(\d|,)*\.?\d*$"
"/data/datasets/datagov/data/data/datagovdata/illinois-tuberculosis-cases-by-county-1990-2010-a4046.csv","2004","numbers","^(\d|,)*\.?\d*$"
"/data/datasets/datagov/data/data/datagovdata/illinois-tuberculosis-cases-by-county-1990-2010-a4046.csv","2005","numbers","^(\d|,)*\.?\d*$"
"/data/datasets/datagov/data/data/datagovdata/illinois-tuberculosis-cases-by-county-1990-2010-a4046.csv","1998","numbers","^(\d|,)*\.?\d*$"
"/data/datasets/datagov/data/data/datagovdata/illinois-tuberculosis-cases-by-county-1990-2010-a4046.csv","2006","numbers","^(\d|,)*\.?\d*$"
"/data/datasets/datagov/data/data/datagovdata/illinois-tuberculosis-cases-by-county-1990-2010-a4046.csv","1991","numbers","^(\d|,)*\.?\d*$"
