"file_name","column_name","label","regex"
"/data/datasets/datagov/data/data/datagovdata/precincts-4604b.csv","reporting_unit","numbers","^(\d|,)*\.?\d*$"
"/data/datasets/datagov/data/data/datagovdata/precincts-4604b.csv","trouble_shooter_id","numbers","^(\d|,)*\.?\d*$"
"/data/datasets/datagov/data/data/datagovdata/precincts-4604b.csv","reason_id","numbers","^(\d|,)*\.?\d*$"
"/data/datasets/datagov/data/data/datagovdata/precincts-4604b.csv","depot_id","numbers","^(\d|,)*\.?\d*$"
"/data/datasets/datagov/data/data/datagovdata/precincts-4604b.csv","portion","numbers","^(\d|,)*\.?\d*$"
"/data/datasets/datagov/data/data/datagovdata/precincts-4604b.csv","precinct_id","numbers","^(\d|,)*\.?\d*$"
"/data/datasets/datagov/data/data/datagovdata/precincts-4604b.csv","comment_id","numbers","^(\d|,)*\.?\d*$"
"/data/datasets/datagov/data/data/datagovdata/precincts-4604b.csv","poll_id","numbers","^(\d|,)*\.?\d*$"
"/data/datasets/datagov/data/data/datagovdata/precincts-4604b.csv","default_worker_id","numbers","^(\d|,)*\.?\d*$"
"/data/datasets/datagov/data/data/datagovdata/precincts-4604b.csv","users_id","numbers","^(\d|,)*\.?\d*$"
"/data/datasets/datagov/data/data/datagovdata/precincts-4604b.csv","sequence","numbers","^(\d|,)*\.?\d*$"
"/data/datasets/datagov/data/data/datagovdata/precincts-4604b.csv","precinct_trans_id","numbers","^(\d|,)*\.?\d*$"
"/data/datasets/datagov/data/data/datagovdata/precincts-4604b.csv","name","uri",".*?$(?<!\.aspx)"
"/data/datasets/datagov/data/data/datagovdata/precincts-4604b.csv","status","uri",".*?$(?<!\.aspx)"
"/data/datasets/datagov/data/data/datagovdata/precincts-4604b.csv","non_voter","uri",".*?$(?<!\.aspx)"
"/data/datasets/datagov/data/data/datagovdata/precincts-4604b.csv","map","numbers","^(\d|,)*\.?\d*$"
"/data/datasets/datagov/data/data/datagovdata/precincts-4604b.csv","vbm_flag","uri",".*?$(?<!\.aspx)"
"/data/datasets/datagov/data/data/datagovdata/precincts-4604b.csv","timestamp","address_or_phone","(\d{4,6})"
"/data/datasets/datagov/data/data/datagovdata/precincts-4604b.csv","ltd","strings","[^""\r\n]*"
"/data/datasets/datagov/data/data/datagovdata/precincts-4604b.csv","precinct","numbers","^(\d|,)*\.?\d*$"
"/data/datasets/datagov/data/data/datagovdata/precincts-4604b.csv","division","numbers","^(\d|,)*\.?\d*$"
