"file_name","column_name","label","regex"
"/data/datasets/datagov/data/data/datagovdata/odra-job-place-trends-59b3d.csv","New Hires","numbers","^(\d|,)*\.?\d*$"
"/data/datasets/datagov/data/data/datagovdata/odra-job-place-trends-59b3d.csv","Year","uri",".*?$(?<!\.aspx)"
"/data/datasets/datagov/data/data/datagovdata/odra-job-place-trends-59b3d.csv","Total Self reported","numbers","^(\d|,)*\.?\d*$"
"/data/datasets/datagov/data/data/datagovdata/odra-job-place-trends-59b3d.csv","Total job placements","strings","[^""\r\n]*"
"/data/datasets/datagov/data/data/datagovdata/odra-job-place-trends-59b3d.csv","Yearly Percent Change","uri",".*?$(?<!\.aspx)"
"/data/datasets/datagov/data/data/datagovdata/odra-job-place-trends-59b3d.csv","Month","numbers","^(\d|,)*\.?\d*$"
"/data/datasets/datagov/data/data/datagovdata/odra-job-place-trends-59b3d.csv","Monthly Percent Change","uri",".*?$(?<!\.aspx)"
