"file_name","column_name","label","regex"
"/data/datasets/datagov/data/data/datagovdata/revolving-funds-january-2015-ed424.csv","Agency Number","numbers","^(\d|,)*\.?\d*$"
"/data/datasets/datagov/data/data/datagovdata/revolving-funds-january-2015-ed424.csv","Class Description","uri",".*?$(?<!\.aspx)"
"/data/datasets/datagov/data/data/datagovdata/revolving-funds-january-2015-ed424.csv","Total Amount","numbers","^(\d|,)*\.?\d*$"
"/data/datasets/datagov/data/data/datagovdata/revolving-funds-january-2015-ed424.csv","Agency Name","uri",".*?$(?<!\.aspx)"
"/data/datasets/datagov/data/data/datagovdata/revolving-funds-january-2015-ed424.csv","Statutory Reference","uri",".*?$(?<!\.aspx)"
"/data/datasets/datagov/data/data/datagovdata/revolving-funds-january-2015-ed424.csv","Calendar Year","numbers","^(\d|,)*\.?\d*$"
"/data/datasets/datagov/data/data/datagovdata/revolving-funds-january-2015-ed424.csv","Month","numbers","^(\d|,)*\.?\d*$"
"/data/datasets/datagov/data/data/datagovdata/revolving-funds-january-2015-ed424.csv","Class Field","numbers","^(\d|,)*\.?\d*$"
