"file_name","column_name","label","regex"
"/data/datasets/datagov/data/data/datagovdata/seattle-zip-codes-ebab5.csv","ZIPCODE","numbers","^(\d|,)*\.?\d*$"
"/data/datasets/datagov/data/data/datagovdata/seattle-zip-codes-ebab5.csv","LEN","numbers","^(\d|,)*\.?\d*$"
"/data/datasets/datagov/data/data/datagovdata/seattle-zip-codes-ebab5.csv","OBJECTID","numbers","^(\d|,)*\.?\d*$"
"/data/datasets/datagov/data/data/datagovdata/seattle-zip-codes-ebab5.csv","COUNTY","numbers","^(\d|,)*\.?\d*$"
"/data/datasets/datagov/data/data/datagovdata/seattle-zip-codes-ebab5.csv","Shape_Area","numbers","^(\d|,)*\.?\d*$"
"/data/datasets/datagov/data/data/datagovdata/seattle-zip-codes-ebab5.csv","ZIP","numbers","^(\d|,)*\.?\d*$"
"/data/datasets/datagov/data/data/datagovdata/seattle-zip-codes-ebab5.csv","Shape_Length","numbers","^(\d|,)*\.?\d*$"
"/data/datasets/datagov/data/data/datagovdata/seattle-zip-codes-ebab5.csv","AREA_1","numbers","^(\d|,)*\.?\d*$"
"/data/datasets/datagov/data/data/datagovdata/seattle-zip-codes-ebab5.csv","Shape","uri",".*?$(?<!\.aspx)"
