"file_name","column_name","label","regex"
"/data/datasets/datagov/data/data/datagovdata/baltimore-city-public-school-system-elementary-school-boundaries.csv","NAME","strings","[^""\r\n]*"
"/data/datasets/datagov/data/data/datagovdata/baltimore-city-public-school-system-elementary-school-boundaries.csv","Shape_Leng","numbers","^\d*$"
"/data/datasets/datagov/data/data/datagovdata/baltimore-city-public-school-system-elementary-school-boundaries.csv","ADDRESS","uri",".*?$(?<!\.aspx)"
"/data/datasets/datagov/data/data/datagovdata/baltimore-city-public-school-system-elementary-school-boundaries.csv","Shape_Le_1","numbers","^\d*$"
"/data/datasets/datagov/data/data/datagovdata/baltimore-city-public-school-system-elementary-school-boundaries.csv","TYPE","uri",".*?$(?<!\.aspx)"
"/data/datasets/datagov/data/data/datagovdata/baltimore-city-public-school-system-elementary-school-boundaries.csv","x","numbers","^\d*$"
"/data/datasets/datagov/data/data/datagovdata/baltimore-city-public-school-system-elementary-school-boundaries.csv","CLASS","uri",".*?$(?<!\.aspx)"
"/data/datasets/datagov/data/data/datagovdata/baltimore-city-public-school-system-elementary-school-boundaries.csv","LUPDATE","numbers","^\d*$"
"/data/datasets/datagov/data/data/datagovdata/baltimore-city-public-school-system-elementary-school-boundaries.csv","ZIPCODE","numbers","^\d*$"
"/data/datasets/datagov/data/data/datagovdata/baltimore-city-public-school-system-elementary-school-boundaries.csv","OBJECTID","numbers","^\d*$"
"/data/datasets/datagov/data/data/datagovdata/baltimore-city-public-school-system-elementary-school-boundaries.csv","CATEGORY","uri",".*?$(?<!\.aspx)"
"/data/datasets/datagov/data/data/datagovdata/baltimore-city-public-school-system-elementary-school-boundaries.csv","y","numbers","^\d*$"
"/data/datasets/datagov/data/data/datagovdata/baltimore-city-public-school-system-elementary-school-boundaries.csv","the_geom","strings","[^""\r\n]*"
"/data/datasets/datagov/data/data/datagovdata/baltimore-city-public-school-system-elementary-school-boundaries.csv","ES_NO","numbers","^\d*$"
"/data/datasets/datagov/data/data/datagovdata/baltimore-city-public-school-system-elementary-school-boundaries.csv","GRADES","uri",".*?$(?<!\.aspx)"
