"file_name","column_name","label","regex"
"/data/datasets/datagov/data/data/datagovdata/contracts-esd-lbl-linn-benton-lincoln-fiscal-year-2014-92e48.csv","Contractor Address","uri",".*?$(?<!\.aspx)"
"/data/datasets/datagov/data/data/datagovdata/contracts-esd-lbl-linn-benton-lincoln-fiscal-year-2014-92e48.csv","ESD #","numbers","^\$?\d+(\.(\d{2}))?$"
"/data/datasets/datagov/data/data/datagovdata/contracts-esd-lbl-linn-benton-lincoln-fiscal-year-2014-92e48.csv","Award Number w/Amendments","numbers","^\$?\d+(\.(\d{2}))?$"
"/data/datasets/datagov/data/data/datagovdata/contracts-esd-lbl-linn-benton-lincoln-fiscal-year-2014-92e48.csv","Award Title","uri",".*?$(?<!\.aspx)"
"/data/datasets/datagov/data/data/datagovdata/contracts-esd-lbl-linn-benton-lincoln-fiscal-year-2014-92e48.csv","Type of Contract/Subcontract","uri",".*?$(?<!\.aspx)"
"/data/datasets/datagov/data/data/datagovdata/contracts-esd-lbl-linn-benton-lincoln-fiscal-year-2014-92e48.csv","Amendment Value","numbers","^\$?\d+(\.(\d{2}))?$"
"/data/datasets/datagov/data/data/datagovdata/contracts-esd-lbl-linn-benton-lincoln-fiscal-year-2014-92e48.csv","ESD NAME","uri",".*?$(?<!\.aspx)"
"/data/datasets/datagov/data/data/datagovdata/contracts-esd-lbl-linn-benton-lincoln-fiscal-year-2014-92e48.csv","Original Award Value","uri",".*?$(?<!\.aspx)"
"/data/datasets/datagov/data/data/datagovdata/contracts-esd-lbl-linn-benton-lincoln-fiscal-year-2014-92e48.csv","Contractor State","uri",".*?$(?<!\.aspx)"
"/data/datasets/datagov/data/data/datagovdata/contracts-esd-lbl-linn-benton-lincoln-fiscal-year-2014-92e48.csv","Contractor City","uri",".*?$(?<!\.aspx)"
"/data/datasets/datagov/data/data/datagovdata/contracts-esd-lbl-linn-benton-lincoln-fiscal-year-2014-92e48.csv","Award Type","uri",".*?$(?<!\.aspx)"
"/data/datasets/datagov/data/data/datagovdata/contracts-esd-lbl-linn-benton-lincoln-fiscal-year-2014-92e48.csv","Contractor Zip","address_or_phone","(\d{4,6})"
"/data/datasets/datagov/data/data/datagovdata/contracts-esd-lbl-linn-benton-lincoln-fiscal-year-2014-92e48.csv","Original Start/Amendment Date/Expiration Date","strings","[^""\r\n]*"
"/data/datasets/datagov/data/data/datagovdata/contracts-esd-lbl-linn-benton-lincoln-fiscal-year-2014-92e48.csv","Contractor Information","uri",".*?$(?<!\.aspx)"
"/data/datasets/datagov/data/data/datagovdata/contracts-esd-lbl-linn-benton-lincoln-fiscal-year-2014-92e48.csv","Total Award Value w/Amendments","uri",".*?$(?<!\.aspx)"
