"file_name","column_name","label","regex"
"/data/datasets/datagov/data/data/datagovdata/salary-ous-chancellors-office-fiscal-year-2012-d8639.csv","SERVICE TYPE","strings","[^""\r\n]*"
"/data/datasets/datagov/data/data/datagovdata/salary-ous-chancellors-office-fiscal-year-2012-d8639.csv","AGENCY TITLE","uri",".*?$(?<!\.aspx)"
"/data/datasets/datagov/data/data/datagovdata/salary-ous-chancellors-office-fiscal-year-2012-d8639.csv","FULL/PART-TIME","uri",".*?$(?<!\.aspx)"
"/data/datasets/datagov/data/data/datagovdata/salary-ous-chancellors-office-fiscal-year-2012-d8639.csv","CLASSIFICATION","strings","[^""\r\n]*"
"/data/datasets/datagov/data/data/datagovdata/salary-ous-chancellors-office-fiscal-year-2012-d8639.csv","AGENCY #","numbers","^\$?\d+(\.(\d{2}))?$"
"/data/datasets/datagov/data/data/datagovdata/salary-ous-chancellors-office-fiscal-year-2012-d8639.csv","ANNUAL SALARY","numbers","^\$?\d+(\.(\d{2}))?$"
