"file_name","column_name","label","regex"
"/data/datasets/datagov/data/data/datagovdata/2013-proposed-budget-general-fund-services-250b8.csv","Appropriation","uri",".*?$(?<!\.aspx)"
"/data/datasets/datagov/data/data/datagovdata/2013-proposed-budget-general-fund-services-250b8.csv","Service","uri",".*?$(?<!\.aspx)"
"/data/datasets/datagov/data/data/datagovdata/2013-proposed-budget-general-fund-services-250b8.csv","Budget","numbers","^\$?\d+(\.(\d{2}))?$"
"/data/datasets/datagov/data/data/datagovdata/2013-proposed-budget-general-fund-services-250b8.csv","Amount","numbers","^\$?\d+(\.(\d{2}))?$"
