"file_name","column_name","label","regex"
"/data/datasets/datagov/data/data/datagovdata/ssmma-epa-registered-facilities-4a2fe.csv","Location 1","uri",".*?$(?<!\.aspx)"
"/data/datasets/datagov/data/data/datagovdata/ssmma-epa-registered-facilities-4a2fe.csv","HUC_CODE","numbers","^\d$"
"/data/datasets/datagov/data/data/datagovdata/ssmma-epa-registered-facilities-4a2fe.csv","Side","uri",".*?$(?<!\.aspx)"
"/data/datasets/datagov/data/data/datagovdata/ssmma-epa-registered-facilities-4a2fe.csv","Match_addr","uri",".*?$(?<!\.aspx)"
"/data/datasets/datagov/data/data/datagovdata/ssmma-epa-registered-facilities-4a2fe.csv","Status","uri",".*?$(?<!\.aspx)"
"/data/datasets/datagov/data/data/datagovdata/ssmma-epa-registered-facilities-4a2fe.csv","CONVEYOR","uri",".*?$(?<!\.aspx)"
"/data/datasets/datagov/data/data/datagovdata/ssmma-epa-registered-facilities-4a2fe.csv","CONGRESSIO","numbers","^\d$"
"/data/datasets/datagov/data/data/datagovdata/ssmma-epa-registered-facilities-4a2fe.csv","FRS_FACILI","uri",".*?$(?<!\.aspx)"
"/data/datasets/datagov/data/data/datagovdata/ssmma-epa-registered-facilities-4a2fe.csv","EPA_REGION","numbers","^\d$"
"/data/datasets/datagov/data/data/datagovdata/ssmma-epa-registered-facilities-4a2fe.csv","OBJECTID","numbers","^\d$"
"/data/datasets/datagov/data/data/datagovdata/ssmma-epa-registered-facilities-4a2fe.csv","REGISTRY_I","numbers","^\d$"
"/data/datasets/datagov/data/data/datagovdata/ssmma-epa-registered-facilities-4a2fe.csv","Score","numbers","^\d$"
"/data/datasets/datagov/data/data/datagovdata/ssmma-epa-registered-facilities-4a2fe.csv","Y","numbers","^\d$"
"/data/datasets/datagov/data/data/datagovdata/ssmma-epa-registered-facilities-4a2fe.csv","CITY_NAME","uri",".*?$(?<!\.aspx)"
"/data/datasets/datagov/data/data/datagovdata/ssmma-epa-registered-facilities-4a2fe.csv","Match_type","uri",".*?$(?<!\.aspx)"
"/data/datasets/datagov/data/data/datagovdata/ssmma-epa-registered-facilities-4a2fe.csv","HDATUM_DES","uri",".*?$(?<!\.aspx)"
"/data/datasets/datagov/data/data/datagovdata/ssmma-epa-registered-facilities-4a2fe.csv","CREATE_DAT","strings","[^""\r\n]*"
"/data/datasets/datagov/data/data/datagovdata/ssmma-epa-registered-facilities-4a2fe.csv","FIPS_CODE","numbers","^\d$"
"/data/datasets/datagov/data/data/datagovdata/ssmma-epa-registered-facilities-4a2fe.csv","X","numbers","^\d$"
"/data/datasets/datagov/data/data/datagovdata/ssmma-epa-registered-facilities-4a2fe.csv","LOCATION_A","uri",".*?$(?<!\.aspx)"
"/data/datasets/datagov/data/data/datagovdata/ssmma-epa-registered-facilities-4a2fe.csv","Loc_name","uri",".*?$(?<!\.aspx)"
"/data/datasets/datagov/data/data/datagovdata/ssmma-epa-registered-facilities-4a2fe.csv","UPDATE_DAT","strings","[^""\r\n]*"
"/data/datasets/datagov/data/data/datagovdata/ssmma-epa-registered-facilities-4a2fe.csv","COUNTY_NAM","uri",".*?$(?<!\.aspx)"
"/data/datasets/datagov/data/data/datagovdata/ssmma-epa-registered-facilities-4a2fe.csv","STATE_CODE","uri",".*?$(?<!\.aspx)"
"/data/datasets/datagov/data/data/datagovdata/ssmma-epa-registered-facilities-4a2fe.csv","STATE_NAME","uri",".*?$(?<!\.aspx)"
"/data/datasets/datagov/data/data/datagovdata/ssmma-epa-registered-facilities-4a2fe.csv","POSTAL_COD","address_or_phone","(\d{4,6})"
"/data/datasets/datagov/data/data/datagovdata/ssmma-epa-registered-facilities-4a2fe.csv","PRIMARY_NA","uri",".*?$(?<!\.aspx)"
"/data/datasets/datagov/data/data/datagovdata/ssmma-epa-registered-facilities-4a2fe.csv","SUPPLEMENT","strings","[^""\r\n]*"
"/data/datasets/datagov/data/data/datagovdata/ssmma-epa-registered-facilities-4a2fe.csv","COLLECT_DE","uri",".*?$(?<!\.aspx)"
