"file_name","column_name","label","regex"
"/data/datasets/datagov/data/data/datagovdata/energy-star-certified-set-top-boxes.csv","ENERGY STAR Partner","uri",".*?$(?<!\.aspx)"
"/data/datasets/datagov/data/data/datagovdata/energy-star-certified-set-top-boxes.csv","Single-room Configuration Test Results On Mode Power (Watts)","numbers","^(\d|,)*\.?\d*$"
"/data/datasets/datagov/data/data/datagovdata/energy-star-certified-set-top-boxes.csv","Brand Name","uri",".*?$(?<!\.aspx)"
"/data/datasets/datagov/data/data/datagovdata/energy-star-certified-set-top-boxes.csv","CB Model Identifier","uri",".*?$(?<!\.aspx)"
"/data/datasets/datagov/data/data/datagovdata/energy-star-certified-set-top-boxes.csv","Multi-room STB Client Only Power (Watts)","numbers","^(\d|,)*\.?\d*$"
"/data/datasets/datagov/data/data/datagovdata/energy-star-certified-set-top-boxes.csv","Single-room Configuration Test Results Deep Sleep State Power (Watts)","numbers","^(\d|,)*\.?\d*$"
"/data/datasets/datagov/data/data/datagovdata/energy-star-certified-set-top-boxes.csv","Configuration","uri",".*?$(?<!\.aspx)"
"/data/datasets/datagov/data/data/datagovdata/energy-star-certified-set-top-boxes.csv","Single-room Configuration - Total Energy Consumption (kWh/yr)","numbers","^(\d|,)*\.?\d*$"
"/data/datasets/datagov/data/data/datagovdata/energy-star-certified-set-top-boxes.csv","Type","uri",".*?$(?<!\.aspx)"
"/data/datasets/datagov/data/data/datagovdata/energy-star-certified-set-top-boxes.csv"," Multi-room Configuration - Total Energy Consumption (kWh/yr)","numbers","^(\d|,)*\.?\d*$"
"/data/datasets/datagov/data/data/datagovdata/energy-star-certified-set-top-boxes.csv","ENERGY STAR Unique ID","numbers","^(\d|,)*\.?\d*$"
"/data/datasets/datagov/data/data/datagovdata/energy-star-certified-set-top-boxes.csv","Deep Sleep State Available","uri",".*?$(?<!\.aspx)"
"/data/datasets/datagov/data/data/datagovdata/energy-star-certified-set-top-boxes.csv","Technology","strings","[^""\r\n]*"
"/data/datasets/datagov/data/data/datagovdata/energy-star-certified-set-top-boxes.csv","Model Name","uri",".*?$(?<!\.aspx)"
"/data/datasets/datagov/data/data/datagovdata/energy-star-certified-set-top-boxes.csv","Enhanced Functionalities","strings","[^""\r\n]*"
"/data/datasets/datagov/data/data/datagovdata/energy-star-certified-set-top-boxes.csv","Multi-room Configuration Test Results On Mode Power (Watts)","numbers","^(\d|,)*\.?\d*$"
"/data/datasets/datagov/data/data/datagovdata/energy-star-certified-set-top-boxes.csv","Multi-room Configuration Test Results Sleep Mode Power (Watts)","numbers","^(\d|,)*\.?\d*$"
"/data/datasets/datagov/data/data/datagovdata/energy-star-certified-set-top-boxes.csv","Additional Model Information","uri",".*?$(?<!\.aspx)"
"/data/datasets/datagov/data/data/datagovdata/energy-star-certified-set-top-boxes.csv","Date Qualified","strings","[^""\r\n]*"
"/data/datasets/datagov/data/data/datagovdata/energy-star-certified-set-top-boxes.csv","Date Available on Market","strings","[^""\r\n]*"
"/data/datasets/datagov/data/data/datagovdata/energy-star-certified-set-top-boxes.csv","Markets","uri",".*?$(?<!\.aspx)"
"/data/datasets/datagov/data/data/datagovdata/energy-star-certified-set-top-boxes.csv","Auto-power Down Available","uri",".*?$(?<!\.aspx)"
"/data/datasets/datagov/data/data/datagovdata/energy-star-certified-set-top-boxes.csv","Model Number","uri",".*?$(?<!\.aspx)"
"/data/datasets/datagov/data/data/datagovdata/energy-star-certified-set-top-boxes.csv","Single-room Configuration Test Results Sleep Mode Power (Watts)","numbers","^(\d|,)*\.?\d*$"
