"file_name","column_name","label","regex"
"/data/datasets/datagov/data/data/datagovdata/bid-data-on-projects-for-the-past-10-years.csv","Contr Firm Legal Name","uri",".*?$(?<!\.aspx)"
"/data/datasets/datagov/data/data/datagovdata/bid-data-on-projects-for-the-past-10-years.csv","Phase","numbers","^\d*$"
"/data/datasets/datagov/data/data/datagovdata/bid-data-on-projects-for-the-past-10-years.csv","Bid Date","strings","[^""\r\n]*"
"/data/datasets/datagov/data/data/datagovdata/bid-data-on-projects-for-the-past-10-years.csv","Bid Amt","numbers","^\d*$"
"/data/datasets/datagov/data/data/datagovdata/bid-data-on-projects-for-the-past-10-years.csv","County Name","uri",".*?$(?<!\.aspx)"
"/data/datasets/datagov/data/data/datagovdata/bid-data-on-projects-for-the-past-10-years.csv","Project Number","uri",".*?$(?<!\.aspx)"
"/data/datasets/datagov/data/data/datagovdata/bid-data-on-projects-for-the-past-10-years.csv","Contr Firm Street Address Line 1","uri",".*?$(?<!\.aspx)"
"/data/datasets/datagov/data/data/datagovdata/bid-data-on-projects-for-the-past-10-years.csv","Contr Firm Minority Code Description","uri",".*?$(?<!\.aspx)"
"/data/datasets/datagov/data/data/datagovdata/bid-data-on-projects-for-the-past-10-years.csv","Contr Firm Street Zip Code","numbers","^\d*$"
"/data/datasets/datagov/data/data/datagovdata/bid-data-on-projects-for-the-past-10-years.csv","City Description","uri",".*?$(?<!\.aspx)"
"/data/datasets/datagov/data/data/datagovdata/bid-data-on-projects-for-the-past-10-years.csv","Awarded?","uri",".*?$(?<!\.aspx)"
"/data/datasets/datagov/data/data/datagovdata/bid-data-on-projects-for-the-past-10-years.csv","Project Description","strings","[^""\r\n]*"
"/data/datasets/datagov/data/data/datagovdata/bid-data-on-projects-for-the-past-10-years.csv","Contr Firm Street State ID","uri",".*?$(?<!\.aspx)"
