"file_name","column_name","label","regex"
"/data/datasets/datagov/data/data/datagovdata/dycd-after-school-programs-nda-youth-employment-programs-791a7.csv","Location 1","uri","^[^\\\/\?\*\""\'\>\<\:\|]*$"
"/data/datasets/datagov/data/data/datagovdata/dycd-after-school-programs-nda-youth-employment-programs-791a7.csv","BOROUGH / COMMUNITY","uri","^[^\\\/\?\*\""\'\>\<\:\|]*$"
"/data/datasets/datagov/data/data/datagovdata/dycd-after-school-programs-nda-youth-employment-programs-791a7.csv","Grade Level / Age Group ","strings","[^""\r\n]*"
"/data/datasets/datagov/data/data/datagovdata/dycd-after-school-programs-nda-youth-employment-programs-791a7.csv","PROGRAM","uri","^[^\\\/\?\*\""\'\>\<\:\|]*$"
"/data/datasets/datagov/data/data/datagovdata/dycd-after-school-programs-nda-youth-employment-programs-791a7.csv","PROGRAM TYPE","uri","^[^\\\/\?\*\""\'\>\<\:\|]*$"
"/data/datasets/datagov/data/data/datagovdata/dycd-after-school-programs-nda-youth-employment-programs-791a7.csv","AGENCY","strings","[^""\r\n]*"
"/data/datasets/datagov/data/data/datagovdata/dycd-after-school-programs-nda-youth-employment-programs-791a7.csv","SITE NAME","strings","[^""\r\n]*"
"/data/datasets/datagov/data/data/datagovdata/dycd-after-school-programs-nda-youth-employment-programs-791a7.csv","Contact Number","uri","^[^\\\/\?\*\""\'\>\<\:\|]*$"
