"file_name","column_name","label","regex"
"/data/datasets/datagov/data/data/datagovdata/dob-stalled-construction-sites-cb0d2.csv","Complaint Number","numbers","^\d*$"
"/data/datasets/datagov/data/data/datagovdata/dob-stalled-construction-sites-cb0d2.csv","Borough Name","uri",".*?$(?<!\.aspx)"
"/data/datasets/datagov/data/data/datagovdata/dob-stalled-construction-sites-cb0d2.csv","Community Board","numbers","^\d*$"
"/data/datasets/datagov/data/data/datagovdata/dob-stalled-construction-sites-cb0d2.csv","Date Complaint Received","strings","[^""\r\n]*"
"/data/datasets/datagov/data/data/datagovdata/dob-stalled-construction-sites-cb0d2.csv","Street Name","uri",".*?$(?<!\.aspx)"
"/data/datasets/datagov/data/data/datagovdata/dob-stalled-construction-sites-cb0d2.csv","House Number","uri",".*?$(?<!\.aspx)"
"/data/datasets/datagov/data/data/datagovdata/dob-stalled-construction-sites-cb0d2.csv","BIN","numbers","^\d*$"
"/data/datasets/datagov/data/data/datagovdata/dob-stalled-construction-sites-cb0d2.csv","DOBRunDate","strings","[^""\r\n]*"
