"file_name","column_name","label","regex"
"/data/datasets/datagov/data/data/datagovdata/us-patents-issued-to-health-research-inc-on-behalf-of-roswell-park-cancer-institute.csv","Patent Number","uri",".*?$(?<!\.aspx)"
"/data/datasets/datagov/data/data/datagovdata/us-patents-issued-to-health-research-inc-on-behalf-of-roswell-park-cancer-institute.csv","Issue Date","strings","[^""\r\n]*"
"/data/datasets/datagov/data/data/datagovdata/us-patents-issued-to-health-research-inc-on-behalf-of-roswell-park-cancer-institute.csv","Status","uri",".*?$(?<!\.aspx)"
"/data/datasets/datagov/data/data/datagovdata/us-patents-issued-to-health-research-inc-on-behalf-of-roswell-park-cancer-institute.csv","Patent Assignee/Owner","uri",".*?$(?<!\.aspx)"
"/data/datasets/datagov/data/data/datagovdata/us-patents-issued-to-health-research-inc-on-behalf-of-roswell-park-cancer-institute.csv","Country","uri",".*?$(?<!\.aspx)"
"/data/datasets/datagov/data/data/datagovdata/us-patents-issued-to-health-research-inc-on-behalf-of-roswell-park-cancer-institute.csv","Patent Title","uri",".*?$(?<!\.aspx)"
