"file_name","column_name","label","regex"
"/data/datasets/datagov/data/data/datagovdata/state-workforce-generational-breakdown-fy2014.csv","Gen X","numbers","^\d*$"
"/data/datasets/datagov/data/data/datagovdata/state-workforce-generational-breakdown-fy2014.csv","Boomer","numbers","^\d*$"
"/data/datasets/datagov/data/data/datagovdata/state-workforce-generational-breakdown-fy2014.csv","Agency","uri",".*?$(?<!\.aspx)"
"/data/datasets/datagov/data/data/datagovdata/state-workforce-generational-breakdown-fy2014.csv","Co","numbers","^\d*$"
"/data/datasets/datagov/data/data/datagovdata/state-workforce-generational-breakdown-fy2014.csv","Traditional","numbers","^\d*$"
"/data/datasets/datagov/data/data/datagovdata/state-workforce-generational-breakdown-fy2014.csv","Millennials","numbers","^\d*$"
"/data/datasets/datagov/data/data/datagovdata/state-workforce-generational-breakdown-fy2014.csv","Total Number","numbers","^\d*$"
