"file_name","column_name","label","regex"
"/data/datasets/datagov/data/data/datagovdata/division-of-water-biological-monitoring-sampling-locations-beginning-1994.csv","Location 1","uri",".*?$(?<!\.aspx)"
"/data/datasets/datagov/data/data/datagovdata/division-of-water-biological-monitoring-sampling-locations-beginning-1994.csv","Description","strings","[^""\r\n]*"
"/data/datasets/datagov/data/data/datagovdata/division-of-water-biological-monitoring-sampling-locations-beginning-1994.csv","Latitude","numbers","^\d*$"
"/data/datasets/datagov/data/data/datagovdata/division-of-water-biological-monitoring-sampling-locations-beginning-1994.csv","HUC 8","numbers","^\d*$"
"/data/datasets/datagov/data/data/datagovdata/division-of-water-biological-monitoring-sampling-locations-beginning-1994.csv","Longitude","numbers","^\d*$"
"/data/datasets/datagov/data/data/datagovdata/division-of-water-biological-monitoring-sampling-locations-beginning-1994.csv","Name","uri",".*?$(?<!\.aspx)"
"/data/datasets/datagov/data/data/datagovdata/division-of-water-biological-monitoring-sampling-locations-beginning-1994.csv","Status","uri",".*?$(?<!\.aspx)"
"/data/datasets/datagov/data/data/datagovdata/division-of-water-biological-monitoring-sampling-locations-beginning-1994.csv","County","uri",".*?$(?<!\.aspx)"
"/data/datasets/datagov/data/data/datagovdata/division-of-water-biological-monitoring-sampling-locations-beginning-1994.csv","Municipality","uri",".*?$(?<!\.aspx)"
"/data/datasets/datagov/data/data/datagovdata/division-of-water-biological-monitoring-sampling-locations-beginning-1994.csv","Year Last Sampled","numbers","^\d*$"
"/data/datasets/datagov/data/data/datagovdata/division-of-water-biological-monitoring-sampling-locations-beginning-1994.csv","Basin","numbers","^\d*$"
