"file_name","column_name","label","regex"
"/data/datasets/datagov/data/data/datagovdata/tax-collections-to-general-revenue-fund.csv","Historical Data","numbers","(^([0-9]+[.]+[0-9]+)|(0)$)"
"/data/datasets/datagov/data/data/datagovdata/tax-collections-to-general-revenue-fund.csv","Target","numbers","(^([0-9]+[.]+[0-9]+)|(0)$)"
"/data/datasets/datagov/data/data/datagovdata/tax-collections-to-general-revenue-fund.csv","Years","numbers","(^([0-9]+[.]+[0-9]+)|(0)$)"
