"file_name","column_name","label","regex"
"/data/datasets/datagov/data/data/datagovdata/arra-grant-revenues-as-of-cob-december-31-2014-40b99.csv"," Agency Name","uri",".*?$(?<!\.aspx)"
"/data/datasets/datagov/data/data/datagovdata/arra-grant-revenues-as-of-cob-december-31-2014-40b99.csv","Amount Received","numbers","^\$?\d+(\.(\d{2}))?$"
"/data/datasets/datagov/data/data/datagovdata/arra-grant-revenues-as-of-cob-december-31-2014-40b99.csv","Program Name","strings","[^""\r\n]*"
