"file_name","column_name","label","regex"
"/data/datasets/datagov/data/data/datagovdata/2013-state-expenditures-as-of-cob-august-31-2013-927de.csv","Vendor Name","uri",".*?$(?<!\.aspx)"
"/data/datasets/datagov/data/data/datagovdata/2013-state-expenditures-as-of-cob-august-31-2013-927de.csv","Category Description","uri",".*?$(?<!\.aspx)"
"/data/datasets/datagov/data/data/datagovdata/2013-state-expenditures-as-of-cob-august-31-2013-927de.csv","Agency Name","uri",".*?$(?<!\.aspx)"
"/data/datasets/datagov/data/data/datagovdata/2013-state-expenditures-as-of-cob-august-31-2013-927de.csv","  Fiscal Year","numbers","^\$?\d+(\.(\d{2}))?$"
"/data/datasets/datagov/data/data/datagovdata/2013-state-expenditures-as-of-cob-august-31-2013-927de.csv","Detail Description","strings","[^""\r\n]*"
"/data/datasets/datagov/data/data/datagovdata/2013-state-expenditures-as-of-cob-august-31-2013-927de.csv","Payments Total","numbers","^\$?\d+(\.(\d{2}))?$"
