"file_name","column_name","label","regex"
"/data/datasets/datagov/data/data/datagovdata/percentage-of-drivers-and-front-seat-passengers-wearing-seat-belts-2012-region-7-kansas-ci.csv","Location","uri","^[^\\\/\?\*\""\'\>\<\:\|]*$"
"/data/datasets/datagov/data/data/datagovdata/percentage-of-drivers-and-front-seat-passengers-wearing-seat-belts-2012-region-7-kansas-ci.csv","2012","numbers","^[-+]?\d+(\.\d+)?|[-+]?\.\d+?$"
"/data/datasets/datagov/data/data/datagovdata/percentage-of-drivers-and-front-seat-passengers-wearing-seat-belts-2012-region-7-kansas-ci.csv","State","uri","^[^\\\/\?\*\""\'\>\<\:\|]*$"
