"file_name","column_name","label","regex"
"/data/datasets/datagov/data/data/datagovdata/adoption-child-custody-advocacy-performance-measures-fingerprints-clearance-2010-5b485.csv","Statistics  ","uri",".*?$(?<!\.aspx)"
"/data/datasets/datagov/data/data/datagovdata/adoption-child-custody-advocacy-performance-measures-fingerprints-clearance-2010-5b485.csv"," Jan  ","numbers","^(\d|,)*\.?\d*$"
"/data/datasets/datagov/data/data/datagovdata/adoption-child-custody-advocacy-performance-measures-fingerprints-clearance-2010-5b485.csv"," Jul  ","numbers","^(\d|,)*\.?\d*$"
"/data/datasets/datagov/data/data/datagovdata/adoption-child-custody-advocacy-performance-measures-fingerprints-clearance-2010-5b485.csv"," Feb  ","numbers","^(\d|,)*\.?\d*$"
"/data/datasets/datagov/data/data/datagovdata/adoption-child-custody-advocacy-performance-measures-fingerprints-clearance-2010-5b485.csv"," May  ","numbers","^(\d|,)*\.?\d*$"
"/data/datasets/datagov/data/data/datagovdata/adoption-child-custody-advocacy-performance-measures-fingerprints-clearance-2010-5b485.csv"," Est. 2010 ","numbers","^(\d|,)*\.?\d*$"
"/data/datasets/datagov/data/data/datagovdata/adoption-child-custody-advocacy-performance-measures-fingerprints-clearance-2010-5b485.csv"," Apr  ","numbers","^(\d|,)*\.?\d*$"
"/data/datasets/datagov/data/data/datagovdata/adoption-child-custody-advocacy-performance-measures-fingerprints-clearance-2010-5b485.csv"," Mar  ","numbers","^(\d|,)*\.?\d*$"
"/data/datasets/datagov/data/data/datagovdata/adoption-child-custody-advocacy-performance-measures-fingerprints-clearance-2010-5b485.csv"," Oct  ","numbers","^(\d|,)*\.?\d*$"
"/data/datasets/datagov/data/data/datagovdata/adoption-child-custody-advocacy-performance-measures-fingerprints-clearance-2010-5b485.csv"," Aug  ","numbers","^(\d|,)*\.?\d*$"
"/data/datasets/datagov/data/data/datagovdata/adoption-child-custody-advocacy-performance-measures-fingerprints-clearance-2010-5b485.csv"," Sep  ","numbers","^(\d|,)*\.?\d*$"
"/data/datasets/datagov/data/data/datagovdata/adoption-child-custody-advocacy-performance-measures-fingerprints-clearance-2010-5b485.csv"," Dec  ","numbers","^(\d|,)*\.?\d*$"
"/data/datasets/datagov/data/data/datagovdata/adoption-child-custody-advocacy-performance-measures-fingerprints-clearance-2010-5b485.csv"," Nov  ","numbers","^(\d|,)*\.?\d*$"
"/data/datasets/datagov/data/data/datagovdata/adoption-child-custody-advocacy-performance-measures-fingerprints-clearance-2010-5b485.csv"," Jun  ","numbers","^(\d|,)*\.?\d*$"
