"file_name","column_name","label","regex"
"/data/datasets/datagov/data/data/datagovdata/cleanfuels-842af.csv","Email Address","email","^.+@[^\.].*\.[a-z]{2,}$"
"/data/datasets/datagov/data/data/datagovdata/cleanfuels-842af.csv","Comment","strings","[^""\r\n]*"
"/data/datasets/datagov/data/data/datagovdata/cleanfuels-842af.csv","First Name","uri",".*?$(?<!\.aspx)"
"/data/datasets/datagov/data/data/datagovdata/cleanfuels-842af.csv","Organization","uri",".*?$(?<!\.aspx)"
"/data/datasets/datagov/data/data/datagovdata/cleanfuels-842af.csv","Additional Document","uri",".*?$(?<!\.aspx)"
"/data/datasets/datagov/data/data/datagovdata/cleanfuels-842af.csv","Last Name","uri",".*?$(?<!\.aspx)"
"/data/datasets/datagov/data/data/datagovdata/cleanfuels-842af.csv","State","uri",".*?$(?<!\.aspx)"
