"file_name","column_name","label","regex"
"/data/datasets/datagov/data/data/datagovdata/facilities-management-electricity-usage-2121-euclid-av-facility-by-month-fiscal-year-200-2-bd509.csv","Cost","numbers","^\$?\d+(\.(\d{2}))?$"
"/data/datasets/datagov/data/data/datagovdata/facilities-management-electricity-usage-2121-euclid-av-facility-by-month-fiscal-year-200-2-bd509.csv","Location 1","address_or_phone","(\d{4,6})"
"/data/datasets/datagov/data/data/datagovdata/facilities-management-electricity-usage-2121-euclid-av-facility-by-month-fiscal-year-200-2-bd509.csv","Month","uri",".*?$(?<!\.aspx)"
"/data/datasets/datagov/data/data/datagovdata/facilities-management-electricity-usage-2121-euclid-av-facility-by-month-fiscal-year-200-2-bd509.csv","Fiscal Year","numbers","^\$?\d+(\.(\d{2}))?$"
"/data/datasets/datagov/data/data/datagovdata/facilities-management-electricity-usage-2121-euclid-av-facility-by-month-fiscal-year-200-2-bd509.csv","Usage (kWh)","numbers","^\$?\d+(\.(\d{2}))?$"
