"file_name","column_name","label","regex"
"/data/datasets/datagov/data/data/datagovdata/usepa-environmental-quality-index-eqi-air-water-land-built-and-sociodemographic-domains-transf.csv","rate_ent_env_log","numbers","^(\d|,)*\.?\d*$"
"/data/datasets/datagov/data/data/datagovdata/usepa-environmental-quality-index-eqi-air-water-land-built-and-sociodemographic-domains-transf.csv","stfips","numbers","^(\d|,)*\.?\d*$"
"/data/datasets/datagov/data/data/datagovdata/usepa-environmental-quality-index-eqi-air-water-land-built-and-sociodemographic-domains-transf.csv","work_out_co","numbers","^(\d|,)*\.?\d*$"
"/data/datasets/datagov/data/data/datagovdata/usepa-environmental-quality-index-eqi-air-water-land-built-and-sociodemographic-domains-transf.csv","a_diesel_ln","numbers","^(\d|,)*\.?\d*$"
"/data/datasets/datagov/data/data/datagovdata/usepa-environmental-quality-index-eqi-air-water-land-built-and-sociodemographic-domains-transf.csv","a_cumene_ln","numbers","^(\d|,)*\.?\d*$"
"/data/datasets/datagov/data/data/datagovdata/usepa-environmental-quality-index-eqi-air-water-land-built-and-sociodemographic-domains-transf.csv","rate_ed_env_log","numbers","^(\d|,)*\.?\d*$"
"/data/datasets/datagov/data/data/datagovdata/usepa-environmental-quality-index-eqi-air-water-land-built-and-sociodemographic-domains-transf.csv","a_hcb_ln","numbers","^(\d|,)*\.?\d*$"
"/data/datasets/datagov/data/data/datagovdata/usepa-environmental-quality-index-eqi-air-water-land-built-and-sociodemographic-domains-transf.csv","stormnpdesperkm","numbers","^(\d|,)*\.?\d*$"
"/data/datasets/datagov/data/data/datagovdata/usepa-environmental-quality-index-eqi-air-water-land-built-and-sociodemographic-domains-transf.csv","a_dehp_ln","numbers","^(\d|,)*\.?\d*$"
"/data/datasets/datagov/data/data/datagovdata/usepa-environmental-quality-index-eqi-air-water-land-built-and-sociodemographic-domains-transf.csv","indnpdesperkm","numbers","^(\d|,)*\.?\d*$"
"/data/datasets/datagov/data/data/datagovdata/usepa-environmental-quality-index-eqi-air-water-land-built-and-sociodemographic-domains-transf.csv","fips","numbers","^(\d|,)*\.?\d*$"
"/data/datasets/datagov/data/data/datagovdata/usepa-environmental-quality-index-eqi-air-water-land-built-and-sociodemographic-domains-transf.csv","w_stryene_ln","numbers","^(\d|,)*\.?\d*$"
"/data/datasets/datagov/data/data/datagovdata/usepa-environmental-quality-index-eqi-air-water-land-built-and-sociodemographic-domains-transf.csv","a_otoluidine_ln","numbers","^(\d|,)*\.?\d*$"
"/data/datasets/datagov/data/data/datagovdata/usepa-environmental-quality-index-eqi-air-water-land-built-and-sociodemographic-domains-transf.csv","pct_rent_occ","numbers","^(\d|,)*\.?\d*$"
"/data/datasets/datagov/data/data/datagovdata/usepa-environmental-quality-index-eqi-air-water-land-built-and-sociodemographic-domains-transf.csv","facilities_rate_log","numbers","^(\d|,)*\.?\d*$"
"/data/datasets/datagov/data/data/datagovdata/usepa-environmental-quality-index-eqi-air-water-land-built-and-sociodemographic-domains-transf.csv","a_cl4c2_ln","numbers","^(\d|,)*\.?\d*$"
"/data/datasets/datagov/data/data/datagovdata/usepa-environmental-quality-index-eqi-air-water-land-built-and-sociodemographic-domains-transf.csv","w_heptachlor_epox_ln","numbers","^(\d|,)*\.?\d*$"
"/data/datasets/datagov/data/data/datagovdata/usepa-environmental-quality-index-eqi-air-water-land-built-and-sociodemographic-domains-transf.csv","w_heptachlor_ln","numbers","^(\d|,)*\.?\d*$"
"/data/datasets/datagov/data/data/datagovdata/usepa-environmental-quality-index-eqi-air-water-land-built-and-sociodemographic-domains-transf.csv","w_pcb_ln","numbers","^(\d|,)*\.?\d*$"
"/data/datasets/datagov/data/data/datagovdata/usepa-environmental-quality-index-eqi-air-water-land-built-and-sociodemographic-domains-transf.csv","rate_food_env_pos_log","numbers","^(\d|,)*\.?\d*$"
"/data/datasets/datagov/data/data/datagovdata/usepa-environmental-quality-index-eqi-air-water-land-built-and-sociodemographic-domains-transf.csv","w_pdcb_ln","numbers","^(\d|,)*\.?\d*$"
"/data/datasets/datagov/data/data/datagovdata/usepa-environmental-quality-index-eqi-air-water-land-built-and-sociodemographic-domains-transf.csv","a_me2so4_ln","numbers","^(\d|,)*\.?\d*$"
"/data/datasets/datagov/data/data/datagovdata/usepa-environmental-quality-index-eqi-air-water-land-built-and-sociodemographic-domains-transf.csv","fungicides_ln","numbers","^(\d|,)*\.?\d*$"
"/data/datasets/datagov/data/data/datagovdata/usepa-environmental-quality-index-eqi-air-water-land-built-and-sociodemographic-domains-transf.csv","a_mecl_ln","numbers","^(\d|,)*\.?\d*$"
"/data/datasets/datagov/data/data/datagovdata/usepa-environmental-quality-index-eqi-air-water-land-built-and-sociodemographic-domains-transf.csv","a_edcl2_ln","numbers","^(\d|,)*\.?\d*$"
"/data/datasets/datagov/data/data/datagovdata/usepa-environmental-quality-index-eqi-air-water-land-built-and-sociodemographic-domains-transf.csv","a_etacrylate_ln","numbers","^(\d|,)*\.?\d*$"
"/data/datasets/datagov/data/data/datagovdata/usepa-environmental-quality-index-eqi-air-water-land-built-and-sociodemographic-domains-transf.csv","w_dinoseb_ln","numbers","^(\d|,)*\.?\d*$"
"/data/datasets/datagov/data/data/datagovdata/usepa-environmental-quality-index-eqi-air-water-land-built-and-sociodemographic-domains-transf.csv","w_hccpd_ln","numbers","^(\d|,)*\.?\d*$"
"/data/datasets/datagov/data/data/datagovdata/usepa-environmental-quality-index-eqi-air-water-land-built-and-sociodemographic-domains-transf.csv","a_glycol_ethers_ln","numbers","^(\d|,)*\.?\d*$"
"/data/datasets/datagov/data/data/datagovdata/usepa-environmental-quality-index-eqi-air-water-land-built-and-sociodemographic-domains-transf.csv","mean_as_ln","numbers","^(\d|,)*\.?\d*$"
"/data/datasets/datagov/data/data/datagovdata/usepa-environmental-quality-index-eqi-air-water-land-built-and-sociodemographic-domains-transf.csv","mean_ca_pct_ln","numbers","^(\d|,)*\.?\d*$"
"/data/datasets/datagov/data/data/datagovdata/usepa-environmental-quality-index-eqi-air-water-land-built-and-sociodemographic-domains-transf.csv","county_name","uri",".*?$(?<!\.aspx)"
"/data/datasets/datagov/data/data/datagovdata/usepa-environmental-quality-index-eqi-air-water-land-built-and-sociodemographic-domains-transf.csv","w_124tcib_ln","numbers","^(\d|,)*\.?\d*$"
"/data/datasets/datagov/data/data/datagovdata/usepa-environmental-quality-index-eqi-air-water-land-built-and-sociodemographic-domains-transf.csv","a_bromoform_ln","numbers","^(\d|,)*\.?\d*$"
"/data/datasets/datagov/data/data/datagovdata/usepa-environmental-quality-index-eqi-air-water-land-built-and-sociodemographic-domains-transf.csv","pct_au_ln","numbers","^(\d|,)*\.?\d*$"
"/data/datasets/datagov/data/data/datagovdata/usepa-environmental-quality-index-eqi-air-water-land-built-and-sociodemographic-domains-transf.csv","county_pop_2000","numbers","^(\d|,)*\.?\d*$"
"/data/datasets/datagov/data/data/datagovdata/usepa-environmental-quality-index-eqi-air-water-land-built-and-sociodemographic-domains-transf.csv","insecticides_ln","numbers","^(\d|,)*\.?\d*$"
"/data/datasets/datagov/data/data/datagovdata/usepa-environmental-quality-index-eqi-air-water-land-built-and-sociodemographic-domains-transf.csv","a_pahpom_ln","numbers","^(\d|,)*\.?\d*$"
"/data/datasets/datagov/data/data/datagovdata/usepa-environmental-quality-index-eqi-air-water-land-built-and-sociodemographic-domains-transf.csv","state_name","uri",".*?$(?<!\.aspx)"
"/data/datasets/datagov/data/data/datagovdata/usepa-environmental-quality-index-eqi-air-water-land-built-and-sociodemographic-domains-transf.csv","a_ccl4","numbers","^(\d|,)*\.?\d*$"
"/data/datasets/datagov/data/data/datagovdata/usepa-environmental-quality-index-eqi-air-water-land-built-and-sociodemographic-domains-transf.csv","numdays_rain_activity_tot","numbers","^(\d|,)*\.?\d*$"
"/data/datasets/datagov/data/data/datagovdata/usepa-environmental-quality-index-eqi-air-water-land-built-and-sociodemographic-domains-transf.csv","a_procl2_ln","numbers","^(\d|,)*\.?\d*$"
"/data/datasets/datagov/data/data/datagovdata/usepa-environmental-quality-index-eqi-air-water-land-built-and-sociodemographic-domains-transf.csv","a_etn_ln","numbers","^(\d|,)*\.?\d*$"
"/data/datasets/datagov/data/data/datagovdata/usepa-environmental-quality-index-eqi-air-water-land-built-and-sociodemographic-domains-transf.csv","w_sb_ln","numbers","^(\d|,)*\.?\d*$"
"/data/datasets/datagov/data/data/datagovdata/usepa-environmental-quality-index-eqi-air-water-land-built-and-sociodemographic-domains-transf.csv","w_hcb_ln","numbers","^(\d|,)*\.?\d*$"
"/data/datasets/datagov/data/data/datagovdata/usepa-environmental-quality-index-eqi-air-water-land-built-and-sociodemographic-domains-transf.csv","a_edc_ln","numbers","^(\d|,)*\.?\d*$"
"/data/datasets/datagov/data/data/datagovdata/usepa-environmental-quality-index-eqi-air-water-land-built-and-sociodemographic-domains-transf.csv","pct_unemp","numbers","^(\d|,)*\.?\d*$"
"/data/datasets/datagov/data/data/datagovdata/usepa-environmental-quality-index-eqi-air-water-land-built-and-sociodemographic-domains-transf.csv","a_teca_ln","numbers","^(\d|,)*\.?\d*$"
"/data/datasets/datagov/data/data/datagovdata/usepa-environmental-quality-index-eqi-air-water-land-built-and-sociodemographic-domains-transf.csv","w_dbcp_ln","numbers","^(\d|,)*\.?\d*$"
"/data/datasets/datagov/data/data/datagovdata/usepa-environmental-quality-index-eqi-air-water-land-built-and-sociodemographic-domains-transf.csv","mean_na__pct_ln","numbers","^(\d|,)*\.?\d*$"
"/data/datasets/datagov/data/data/datagovdata/usepa-environmental-quality-index-eqi-air-water-land-built-and-sociodemographic-domains-transf.csv","w_24d_ln","numbers","^(\d|,)*\.?\d*$"
"/data/datasets/datagov/data/data/datagovdata/usepa-environmental-quality-index-eqi-air-water-land-built-and-sociodemographic-domains-transf.csv","w_toluene_ln","numbers","^(\d|,)*\.?\d*$"
"/data/datasets/datagov/data/data/datagovdata/usepa-environmental-quality-index-eqi-air-water-land-built-and-sociodemographic-domains-transf.csv","mean_mg_pct_ln","numbers","^(\d|,)*\.?\d*$"
"/data/datasets/datagov/data/data/datagovdata/usepa-environmental-quality-index-eqi-air-water-land-built-and-sociodemographic-domains-transf.csv","a_dma_ln","numbers","^(\d|,)*\.?\d*$"
"/data/datasets/datagov/data/data/datagovdata/usepa-environmental-quality-index-eqi-air-water-land-built-and-sociodemographic-domains-transf.csv","a_meoh_ln","numbers","^(\d|,)*\.?\d*$"
"/data/datasets/datagov/data/data/datagovdata/usepa-environmental-quality-index-eqi-air-water-land-built-and-sociodemographic-domains-transf.csv","a_mtbe_ln","numbers","^(\d|,)*\.?\d*$"
"/data/datasets/datagov/data/data/datagovdata/usepa-environmental-quality-index-eqi-air-water-land-built-and-sociodemographic-domains-transf.csv","mean_cu_ln","numbers","^(\d|,)*\.?\d*$"
"/data/datasets/datagov/data/data/datagovdata/usepa-environmental-quality-index-eqi-air-water-land-built-and-sociodemographic-domains-transf.csv","a_mn_ln","numbers","^(\d|,)*\.?\d*$"
"/data/datasets/datagov/data/data/datagovdata/usepa-environmental-quality-index-eqi-air-water-land-built-and-sociodemographic-domains-transf.csv","w_no3_ln","numbers","^(\d|,)*\.?\d*$"
"/data/datasets/datagov/data/data/datagovdata/usepa-environmental-quality-index-eqi-air-water-land-built-and-sociodemographic-domains-transf.csv","w_picloram_ln","numbers","^(\d|,)*\.?\d*$"
"/data/datasets/datagov/data/data/datagovdata/usepa-environmental-quality-index-eqi-air-water-land-built-and-sociodemographic-domains-transf.csv","a_acrolein_ln","numbers","^(\d|,)*\.?\d*$"
"/data/datasets/datagov/data/data/datagovdata/usepa-environmental-quality-index-eqi-air-water-land-built-and-sociodemographic-domains-transf.csv","a_ch3cn_ln","numbers","^(\d|,)*\.?\d*$"
"/data/datasets/datagov/data/data/datagovdata/usepa-environmental-quality-index-eqi-air-water-land-built-and-sociodemographic-domains-transf.csv","w_benzoap_ln","numbers","^(\d|,)*\.?\d*$"
"/data/datasets/datagov/data/data/datagovdata/usepa-environmental-quality-index-eqi-air-water-land-built-and-sociodemographic-domains-transf.csv","a_dbp_ln","numbers","^(\d|,)*\.?\d*$"
"/data/datasets/datagov/data/data/datagovdata/usepa-environmental-quality-index-eqi-air-water-land-built-and-sociodemographic-domains-transf.csv","cl_ln_ave","numbers","^(\d|,)*\.?\d*$"
"/data/datasets/datagov/data/data/datagovdata/usepa-environmental-quality-index-eqi-air-water-land-built-and-sociodemographic-domains-transf.csv","w_hg_ln","numbers","^(\d|,)*\.?\d*$"
"/data/datasets/datagov/data/data/datagovdata/usepa-environmental-quality-index-eqi-air-water-land-built-and-sociodemographic-domains-transf.csv","w_cn_ln","numbers","^(\d|,)*\.?\d*$"
"/data/datasets/datagov/data/data/datagovdata/usepa-environmental-quality-index-eqi-air-water-land-built-and-sociodemographic-domains-transf.csv","cat_rucc","numbers","^(\d|,)*\.?\d*$"
"/data/datasets/datagov/data/data/datagovdata/usepa-environmental-quality-index-eqi-air-water-land-built-and-sociodemographic-domains-transf.csv","ryprop","numbers","^(\d|,)*\.?\d*$"
"/data/datasets/datagov/data/data/datagovdata/usepa-environmental-quality-index-eqi-air-water-land-built-and-sociodemographic-domains-transf.csv","hwyprop","numbers","^(\d|,)*\.?\d*$"
"/data/datasets/datagov/data/data/datagovdata/usepa-environmental-quality-index-eqi-air-water-land-built-and-sociodemographic-domains-transf.csv","a_pnp_ln","numbers","^(\d|,)*\.?\d*$"
"/data/datasets/datagov/data/data/datagovdata/usepa-environmental-quality-index-eqi-air-water-land-built-and-sociodemographic-domains-transf.csv","pct_vac_units","numbers","^(\d|,)*\.?\d*$"
"/data/datasets/datagov/data/data/datagovdata/usepa-environmental-quality-index-eqi-air-water-land-built-and-sociodemographic-domains-transf.csv","pct_hs_more","numbers","^(\d|,)*\.?\d*$"
"/data/datasets/datagov/data/data/datagovdata/usepa-environmental-quality-index-eqi-air-water-land-built-and-sociodemographic-domains-transf.csv","w_carbofuran_ln","numbers","^(\d|,)*\.?\d*$"
"/data/datasets/datagov/data/data/datagovdata/usepa-environmental-quality-index-eqi-air-water-land-built-and-sociodemographic-domains-transf.csv","a_mma_ln","numbers","^(\d|,)*\.?\d*$"
"/data/datasets/datagov/data/data/datagovdata/usepa-environmental-quality-index-eqi-air-water-land-built-and-sociodemographic-domains-transf.csv","pct_irrigated_acres_ln","numbers","^(\d|,)*\.?\d*$"
"/data/datasets/datagov/data/data/datagovdata/usepa-environmental-quality-index-eqi-air-water-land-built-and-sociodemographic-domains-transf.csv","a_toluene_ln","numbers","^(\d|,)*\.?\d*$"
"/data/datasets/datagov/data/data/datagovdata/usepa-environmental-quality-index-eqi-air-water-land-built-and-sociodemographic-domains-transf.csv","w_no2_ln","numbers","^(\d|,)*\.?\d*$"
"/data/datasets/datagov/data/data/datagovdata/usepa-environmental-quality-index-eqi-air-water-land-built-and-sociodemographic-domains-transf.csv","w_dalapon_ln","numbers","^(\d|,)*\.?\d*$"
"/data/datasets/datagov/data/data/datagovdata/usepa-environmental-quality-index-eqi-air-water-land-built-and-sociodemographic-domains-transf.csv","w_toxaphene_ln","numbers","^(\d|,)*\.?\d*$"
"/data/datasets/datagov/data/data/datagovdata/usepa-environmental-quality-index-eqi-air-water-land-built-and-sociodemographic-domains-transf.csv","w_oxamyl_ln","numbers","^(\d|,)*\.?\d*$"
"/data/datasets/datagov/data/data/datagovdata/usepa-environmental-quality-index-eqi-air-water-land-built-and-sociodemographic-domains-transf.csv","a_cs2_ln","numbers","^(\d|,)*\.?\d*$"
"/data/datasets/datagov/data/data/datagovdata/usepa-environmental-quality-index-eqi-air-water-land-built-and-sociodemographic-domains-transf.csv","a_pb_ln","numbers","^(\d|,)*\.?\d*$"
"/data/datasets/datagov/data/data/datagovdata/usepa-environmental-quality-index-eqi-air-water-land-built-and-sociodemographic-domains-transf.csv","w_deha_ln","numbers","^(\d|,)*\.?\d*$"
"/data/datasets/datagov/data/data/datagovdata/usepa-environmental-quality-index-eqi-air-water-land-built-and-sociodemographic-domains-transf.csv","w_cl1benz_ln","numbers","^(\d|,)*\.?\d*$"
"/data/datasets/datagov/data/data/datagovdata/usepa-environmental-quality-index-eqi-air-water-land-built-and-sociodemographic-domains-transf.csv","w_fl_ln","numbers","^(\d|,)*\.?\d*$"
"/data/datasets/datagov/data/data/datagovdata/usepa-environmental-quality-index-eqi-air-water-land-built-and-sociodemographic-domains-transf.csv","a_o3_mean_ln","numbers","^(\d|,)*\.?\d*$"
"/data/datasets/datagov/data/data/datagovdata/usepa-environmental-quality-index-eqi-air-water-land-built-and-sociodemographic-domains-transf.csv","fatal_rate_log","numbers","^(\d|,)*\.?\d*$"
"/data/datasets/datagov/data/data/datagovdata/usepa-environmental-quality-index-eqi-air-water-land-built-and-sociodemographic-domains-transf.csv","a_cl_ln","numbers","^(\d|,)*\.?\d*$"
"/data/datasets/datagov/data/data/datagovdata/usepa-environmental-quality-index-eqi-air-water-land-built-and-sociodemographic-domains-transf.csv","a_acetophenone_ln","numbers","^(\d|,)*\.?\d*$"
"/data/datasets/datagov/data/data/datagovdata/usepa-environmental-quality-index-eqi-air-water-land-built-and-sociodemographic-domains-transf.csv","a_etcl_ln","numbers","^(\d|,)*\.?\d*$"
"/data/datasets/datagov/data/data/datagovdata/usepa-environmental-quality-index-eqi-air-water-land-built-and-sociodemographic-domains-transf.csv","a_nitrobenzene_ln","numbers","^(\d|,)*\.?\d*$"
"/data/datasets/datagov/data/data/datagovdata/usepa-environmental-quality-index-eqi-air-water-land-built-and-sociodemographic-domains-transf.csv","state","uri",".*?$(?<!\.aspx)"
"/data/datasets/datagov/data/data/datagovdata/usepa-environmental-quality-index-eqi-air-water-land-built-and-sociodemographic-domains-transf.csv","a_2clacephen_ln","numbers","^(\d|,)*\.?\d*$"
"/data/datasets/datagov/data/data/datagovdata/usepa-environmental-quality-index-eqi-air-water-land-built-and-sociodemographic-domains-transf.csv","w_11dce_ln","numbers","^(\d|,)*\.?\d*$"
"/data/datasets/datagov/data/data/datagovdata/usepa-environmental-quality-index-eqi-air-water-land-built-and-sociodemographic-domains-transf.csv","w_pdc_ln","numbers","^(\d|,)*\.?\d*$"
"/data/datasets/datagov/data/data/datagovdata/usepa-environmental-quality-index-eqi-air-water-land-built-and-sociodemographic-domains-transf.csv","so4_mean_ave","numbers","^(\d|,)*\.?\d*$"
"/data/datasets/datagov/data/data/datagovdata/usepa-environmental-quality-index-eqi-air-water-land-built-and-sociodemographic-domains-transf.csv","a_tdi_ln","numbers","^(\d|,)*\.?\d*$"
"/data/datasets/datagov/data/data/datagovdata/usepa-environmental-quality-index-eqi-air-water-land-built-and-sociodemographic-domains-transf.csv","rate_al_pn_gm_env_log","numbers","^(\d|,)*\.?\d*$"
"/data/datasets/datagov/data/data/datagovdata/usepa-environmental-quality-index-eqi-air-water-land-built-and-sociodemographic-domains-transf.csv","a_vycl_ln","numbers","^(\d|,)*\.?\d*$"
"/data/datasets/datagov/data/data/datagovdata/usepa-environmental-quality-index-eqi-air-water-land-built-and-sociodemographic-domains-transf.csv","mean_fe_pct_ln","numbers","^(\d|,)*\.?\d*$"
"/data/datasets/datagov/data/data/datagovdata/usepa-environmental-quality-index-eqi-air-water-land-built-and-sociodemographic-domains-transf.csv","pct_manure_acres_ln","numbers","^(\d|,)*\.?\d*$"
"/data/datasets/datagov/data/data/datagovdata/usepa-environmental-quality-index-eqi-air-water-land-built-and-sociodemographic-domains-transf.csv","a_se_ln","numbers","^(\d|,)*\.?\d*$"
"/data/datasets/datagov/data/data/datagovdata/usepa-environmental-quality-index-eqi-air-water-land-built-and-sociodemographic-domains-transf.csv","a_mibk_ln","numbers","^(\d|,)*\.?\d*$"
"/data/datasets/datagov/data/data/datagovdata/usepa-environmental-quality-index-eqi-air-water-land-built-and-sociodemographic-domains-transf.csv","violent_rate_log","numbers","^(\d|,)*\.?\d*$"
"/data/datasets/datagov/data/data/datagovdata/usepa-environmental-quality-index-eqi-air-water-land-built-and-sociodemographic-domains-transf.csv","a_11dce_ln","numbers","^(\d|,)*\.?\d*$"
"/data/datasets/datagov/data/data/datagovdata/usepa-environmental-quality-index-eqi-air-water-land-built-and-sociodemographic-domains-transf.csv","pct_nematode_acres_ln","numbers","^(\d|,)*\.?\d*$"
"/data/datasets/datagov/data/data/datagovdata/usepa-environmental-quality-index-eqi-air-water-land-built-and-sociodemographic-domains-transf.csv","rate_civic_env_log","numbers","^(\d|,)*\.?\d*$"
"/data/datasets/datagov/data/data/datagovdata/usepa-environmental-quality-index-eqi-air-water-land-built-and-sociodemographic-domains-transf.csv","na_ln_ave","numbers","^(\d|,)*\.?\d*$"
"/data/datasets/datagov/data/data/datagovdata/usepa-environmental-quality-index-eqi-air-water-land-built-and-sociodemographic-domains-transf.csv","a_cd_ln","numbers","^(\d|,)*\.?\d*$"
"/data/datasets/datagov/data/data/datagovdata/usepa-environmental-quality-index-eqi-air-water-land-built-and-sociodemographic-domains-transf.csv","w_alpha_ln","numbers","^(\d|,)*\.?\d*$"
"/data/datasets/datagov/data/data/datagovdata/usepa-environmental-quality-index-eqi-air-water-land-built-and-sociodemographic-domains-transf.csv","k_ln_ave","numbers","^(\d|,)*\.?\d*$"
"/data/datasets/datagov/data/data/datagovdata/usepa-environmental-quality-index-eqi-air-water-land-built-and-sociodemographic-domains-transf.csv","mean_p_pct","numbers","^(\d|,)*\.?\d*$"
"/data/datasets/datagov/data/data/datagovdata/usepa-environmental-quality-index-eqi-air-water-land-built-and-sociodemographic-domains-transf.csv","a_c3h3n_ln","numbers","^(\d|,)*\.?\d*$"
"/data/datasets/datagov/data/data/datagovdata/usepa-environmental-quality-index-eqi-air-water-land-built-and-sociodemographic-domains-transf.csv","a_cn_ln","numbers","^(\d|,)*\.?\d*$"
"/data/datasets/datagov/data/data/datagovdata/usepa-environmental-quality-index-eqi-air-water-land-built-and-sociodemographic-domains-transf.csv","a_pcbs_ln","numbers","^(\d|,)*\.?\d*$"
"/data/datasets/datagov/data/data/datagovdata/usepa-environmental-quality-index-eqi-air-water-land-built-and-sociodemographic-domains-transf.csv","a_edb_ln","numbers","^(\d|,)*\.?\d*$"
"/data/datasets/datagov/data/data/datagovdata/usepa-environmental-quality-index-eqi-air-water-land-built-and-sociodemographic-domains-transf.csv","pct_defoliate_acres_ln","numbers","^(\d|,)*\.?\d*$"
"/data/datasets/datagov/data/data/datagovdata/usepa-environmental-quality-index-eqi-air-water-land-built-and-sociodemographic-domains-transf.csv","w_edb_ln","numbers","^(\d|,)*\.?\d*$"
"/data/datasets/datagov/data/data/datagovdata/usepa-environmental-quality-index-eqi-air-water-land-built-and-sociodemographic-domains-transf.csv","med_rooms","numbers","^(\d|,)*\.?\d*$"
"/data/datasets/datagov/data/data/datagovdata/usepa-environmental-quality-index-eqi-air-water-land-built-and-sociodemographic-domains-transf.csv","w_lindane_ln","numbers","^(\d|,)*\.?\d*$"
"/data/datasets/datagov/data/data/datagovdata/usepa-environmental-quality-index-eqi-air-water-land-built-and-sociodemographic-domains-transf.csv","a_co_mean_ln","numbers","^(\d|,)*\.?\d*$"
"/data/datasets/datagov/data/data/datagovdata/usepa-environmental-quality-index-eqi-air-water-land-built-and-sociodemographic-domains-transf.csv","pct_pub_transport_log","numbers","^(\d|,)*\.?\d*$"
"/data/datasets/datagov/data/data/datagovdata/usepa-environmental-quality-index-eqi-air-water-land-built-and-sociodemographic-domains-transf.csv","d303_percent","numbers","^(\d|,)*\.?\d*$"
"/data/datasets/datagov/data/data/datagovdata/usepa-environmental-quality-index-eqi-air-water-land-built-and-sociodemographic-domains-transf.csv","rate_rec_env_log","numbers","^(\d|,)*\.?\d*$"
"/data/datasets/datagov/data/data/datagovdata/usepa-environmental-quality-index-eqi-air-water-land-built-and-sociodemographic-domains-transf.csv","w_be_ln","numbers","^(\d|,)*\.?\d*$"
"/data/datasets/datagov/data/data/datagovdata/usepa-environmental-quality-index-eqi-air-water-land-built-and-sociodemographic-domains-transf.csv","a_hg_ln","numbers","^(\d|,)*\.?\d*$"
"/data/datasets/datagov/data/data/datagovdata/usepa-environmental-quality-index-eqi-air-water-land-built-and-sociodemographic-domains-transf.csv","w_xylenes_ln","numbers","^(\d|,)*\.?\d*$"
"/data/datasets/datagov/data/data/datagovdata/usepa-environmental-quality-index-eqi-air-water-land-built-and-sociodemographic-domains-transf.csv","rate_trans_env_log","numbers","^(\d|,)*\.?\d*$"
"/data/datasets/datagov/data/data/datagovdata/usepa-environmental-quality-index-eqi-air-water-land-built-and-sociodemographic-domains-transf.csv","w_edc_ln","numbers","^(\d|,)*\.?\d*$"
"/data/datasets/datagov/data/data/datagovdata/usepa-environmental-quality-index-eqi-air-water-land-built-and-sociodemographic-domains-transf.csv","w_cd_ln","numbers","^(\d|,)*\.?\d*$"
"/data/datasets/datagov/data/data/datagovdata/usepa-environmental-quality-index-eqi-air-water-land-built-and-sociodemographic-domains-transf.csv","w_ba_ln","numbers","^(\d|,)*\.?\d*$"
"/data/datasets/datagov/data/data/datagovdata/usepa-environmental-quality-index-eqi-air-water-land-built-and-sociodemographic-domains-transf.csv","w_atrazine_ln","numbers","^(\d|,)*\.?\d*$"
"/data/datasets/datagov/data/data/datagovdata/usepa-environmental-quality-index-eqi-air-water-land-built-and-sociodemographic-domains-transf.csv","a_dbcp_ln","numbers","^(\d|,)*\.?\d*$"
"/data/datasets/datagov/data/data/datagovdata/usepa-environmental-quality-index-eqi-air-water-land-built-and-sociodemographic-domains-transf.csv","w_odcb_ln","numbers","^(\d|,)*\.?\d*$"
"/data/datasets/datagov/data/data/datagovdata/usepa-environmental-quality-index-eqi-air-water-land-built-and-sociodemographic-domains-transf.csv","rate_food_env_neg","numbers","^(\d|,)*\.?\d*$"
"/data/datasets/datagov/data/data/datagovdata/usepa-environmental-quality-index-eqi-air-water-land-built-and-sociodemographic-domains-transf.csv","a_benzyl_cl_ln","numbers","^(\d|,)*\.?\d*$"
"/data/datasets/datagov/data/data/datagovdata/usepa-environmental-quality-index-eqi-air-water-land-built-and-sociodemographic-domains-transf.csv","farms_per_acre_ln","numbers","^(\d|,)*\.?\d*$"
"/data/datasets/datagov/data/data/datagovdata/usepa-environmental-quality-index-eqi-air-water-land-built-and-sociodemographic-domains-transf.csv","pct_mt_10units_log","numbers","^(\d|,)*\.?\d*$"
"/data/datasets/datagov/data/data/datagovdata/usepa-environmental-quality-index-eqi-air-water-land-built-and-sociodemographic-domains-transf.csv","a_isophorone_ln","numbers","^(\d|,)*\.?\d*$"
"/data/datasets/datagov/data/data/datagovdata/usepa-environmental-quality-index-eqi-air-water-land-built-and-sociodemographic-domains-transf.csv","mean_ti_pct_ln","numbers","^(\d|,)*\.?\d*$"
"/data/datasets/datagov/data/data/datagovdata/usepa-environmental-quality-index-eqi-air-water-land-built-and-sociodemographic-domains-transf.csv","w_ti_ln","numbers","^(\d|,)*\.?\d*$"
"/data/datasets/datagov/data/data/datagovdata/usepa-environmental-quality-index-eqi-air-water-land-built-and-sociodemographic-domains-transf.csv","a_quinoline_ln","numbers","^(\d|,)*\.?\d*$"
"/data/datasets/datagov/data/data/datagovdata/usepa-environmental-quality-index-eqi-air-water-land-built-and-sociodemographic-domains-transf.csv","a_hcbd_ln","numbers","^(\d|,)*\.?\d*$"
"/data/datasets/datagov/data/data/datagovdata/usepa-environmental-quality-index-eqi-air-water-land-built-and-sociodemographic-domains-transf.csv","mean_zn_ln","numbers","^(\d|,)*\.?\d*$"
"/data/datasets/datagov/data/data/datagovdata/usepa-environmental-quality-index-eqi-air-water-land-built-and-sociodemographic-domains-transf.csv","w_alachlor_ln","numbers","^(\d|,)*\.?\d*$"
"/data/datasets/datagov/data/data/datagovdata/usepa-environmental-quality-index-eqi-air-water-land-built-and-sociodemographic-domains-transf.csv","a_cresol_ln","numbers","^(\d|,)*\.?\d*$"
"/data/datasets/datagov/data/data/datagovdata/usepa-environmental-quality-index-eqi-air-water-land-built-and-sociodemographic-domains-transf.csv","a_ech_ln","numbers","^(\d|,)*\.?\d*$"
"/data/datasets/datagov/data/data/datagovdata/usepa-environmental-quality-index-eqi-air-water-land-built-and-sociodemographic-domains-transf.csv","a_acrylic_acid_ln","numbers","^(\d|,)*\.?\d*$"
"/data/datasets/datagov/data/data/datagovdata/usepa-environmental-quality-index-eqi-air-water-land-built-and-sociodemographic-domains-transf.csv","avgofd3_ave","numbers","^(\d|,)*\.?\d*$"
"/data/datasets/datagov/data/data/datagovdata/usepa-environmental-quality-index-eqi-air-water-land-built-and-sociodemographic-domains-transf.csv","a_vyac_ln","numbers","^(\d|,)*\.?\d*$"
"/data/datasets/datagov/data/data/datagovdata/usepa-environmental-quality-index-eqi-air-water-land-built-and-sociodemographic-domains-transf.csv","numdays_close_activity_tot","numbers","^(\d|,)*\.?\d*$"
"/data/datasets/datagov/data/data/datagovdata/usepa-environmental-quality-index-eqi-air-water-land-built-and-sociodemographic-domains-transf.csv","a_sb_ln","numbers","^(\d|,)*\.?\d*$"
"/data/datasets/datagov/data/data/datagovdata/usepa-environmental-quality-index-eqi-air-water-land-built-and-sociodemographic-domains-transf.csv","a_mehydrazine_ln","numbers","^(\d|,)*\.?\d*$"
"/data/datasets/datagov/data/data/datagovdata/usepa-environmental-quality-index-eqi-air-water-land-built-and-sociodemographic-domains-transf.csv","pct_pers_lt_pov","numbers","^(\d|,)*\.?\d*$"
"/data/datasets/datagov/data/data/datagovdata/usepa-environmental-quality-index-eqi-air-water-land-built-and-sociodemographic-domains-transf.csv","a_proo_ln","numbers","^(\d|,)*\.?\d*$"
"/data/datasets/datagov/data/data/datagovdata/usepa-environmental-quality-index-eqi-air-water-land-built-and-sociodemographic-domains-transf.csv","radon_zone","numbers","^(\d|,)*\.?\d*$"
"/data/datasets/datagov/data/data/datagovdata/usepa-environmental-quality-index-eqi-air-water-land-built-and-sociodemographic-domains-transf.csv","no3_mean_ave","numbers","^(\d|,)*\.?\d*$"
"/data/datasets/datagov/data/data/datagovdata/usepa-environmental-quality-index-eqi-air-water-land-built-and-sociodemographic-domains-transf.csv","a_112tca_ln","numbers","^(\d|,)*\.?\d*$"
"/data/datasets/datagov/data/data/datagovdata/usepa-environmental-quality-index-eqi-air-water-land-built-and-sociodemographic-domains-transf.csv","a_eox_ln","numbers","^(\d|,)*\.?\d*$"
"/data/datasets/datagov/data/data/datagovdata/usepa-environmental-quality-index-eqi-air-water-land-built-and-sociodemographic-domains-transf.csv","w_dce_ln","numbers","^(\d|,)*\.?\d*$"
"/data/datasets/datagov/data/data/datagovdata/usepa-environmental-quality-index-eqi-air-water-land-built-and-sociodemographic-domains-transf.csv","w_simazine_ln","numbers","^(\d|,)*\.?\d*$"
"/data/datasets/datagov/data/data/datagovdata/usepa-environmental-quality-index-eqi-air-water-land-built-and-sociodemographic-domains-transf.csv","sewagenpdesperkm","numbers","^(\d|,)*\.?\d*$"
"/data/datasets/datagov/data/data/datagovdata/usepa-environmental-quality-index-eqi-air-water-land-built-and-sociodemographic-domains-transf.csv","a_pm10_mean_ln","numbers","^(\d|,)*\.?\d*$"
"/data/datasets/datagov/data/data/datagovdata/usepa-environmental-quality-index-eqi-air-water-land-built-and-sociodemographic-domains-transf.csv","w_111trichlorane_ln","numbers","^(\d|,)*\.?\d*$"
"/data/datasets/datagov/data/data/datagovdata/usepa-environmental-quality-index-eqi-air-water-land-built-and-sociodemographic-domains-transf.csv","mg_ln_ave","numbers","^(\d|,)*\.?\d*$"
"/data/datasets/datagov/data/data/datagovdata/usepa-environmental-quality-index-eqi-air-water-land-built-and-sociodemographic-domains-transf.csv","mean_pb_ln","numbers","^(\d|,)*\.?\d*$"
"/data/datasets/datagov/data/data/datagovdata/usepa-environmental-quality-index-eqi-air-water-land-built-and-sociodemographic-domains-transf.csv","a_cs_ln","numbers","^(\d|,)*\.?\d*$"
"/data/datasets/datagov/data/data/datagovdata/usepa-environmental-quality-index-eqi-air-water-land-built-and-sociodemographic-domains-transf.csv","a_benzidine_ln","numbers","^(\d|,)*\.?\d*$"
"/data/datasets/datagov/data/data/datagovdata/usepa-environmental-quality-index-eqi-air-water-land-built-and-sociodemographic-domains-transf.csv","herbicides_ln","numbers","^(\d|,)*\.?\d*$"
"/data/datasets/datagov/data/data/datagovdata/usepa-environmental-quality-index-eqi-air-water-land-built-and-sociodemographic-domains-transf.csv","per_totpopss_ave","numbers","^(\d|,)*\.?\d*$"
"/data/datasets/datagov/data/data/datagovdata/usepa-environmental-quality-index-eqi-air-water-land-built-and-sociodemographic-domains-transf.csv","a_hcl_ln","numbers","^(\d|,)*\.?\d*$"
"/data/datasets/datagov/data/data/datagovdata/usepa-environmental-quality-index-eqi-air-water-land-built-and-sociodemographic-domains-transf.csv","a_no2_mean_ln","numbers","^(\d|,)*\.?\d*$"
"/data/datasets/datagov/data/data/datagovdata/usepa-environmental-quality-index-eqi-air-water-land-built-and-sociodemographic-domains-transf.csv","a_so2_mean_ln","numbers","^(\d|,)*\.?\d*$"
"/data/datasets/datagov/data/data/datagovdata/usepa-environmental-quality-index-eqi-air-water-land-built-and-sociodemographic-domains-transf.csv","a_cr_ln","numbers","^(\d|,)*\.?\d*$"
"/data/datasets/datagov/data/data/datagovdata/usepa-environmental-quality-index-eqi-air-water-land-built-and-sociodemographic-domains-transf.csv","w_t12dce_ln","numbers","^(\d|,)*\.?\d*$"
"/data/datasets/datagov/data/data/datagovdata/usepa-environmental-quality-index-eqi-air-water-land-built-and-sociodemographic-domains-transf.csv","w_methoxychlor_ln","numbers","^(\d|,)*\.?\d*$"
"/data/datasets/datagov/data/data/datagovdata/usepa-environmental-quality-index-eqi-air-water-land-built-and-sociodemographic-domains-transf.csv","a_pcp_ln","numbers","^(\d|,)*\.?\d*$"
"/data/datasets/datagov/data/data/datagovdata/usepa-environmental-quality-index-eqi-air-water-land-built-and-sociodemographic-domains-transf.csv","nh4_mean_ave","numbers","^(\d|,)*\.?\d*$"
"/data/datasets/datagov/data/data/datagovdata/usepa-environmental-quality-index-eqi-air-water-land-built-and-sociodemographic-domains-transf.csv","med_hh_inc","numbers","^(\d|,)*\.?\d*$"
"/data/datasets/datagov/data/data/datagovdata/usepa-environmental-quality-index-eqi-air-water-land-built-and-sociodemographic-domains-transf.csv","a_chloroprene_ln","numbers","^(\d|,)*\.?\d*$"
"/data/datasets/datagov/data/data/datagovdata/usepa-environmental-quality-index-eqi-air-water-land-built-and-sociodemographic-domains-transf.csv","w_112tca_ln","numbers","^(\d|,)*\.?\d*$"
"/data/datasets/datagov/data/data/datagovdata/usepa-environmental-quality-index-eqi-air-water-land-built-and-sociodemographic-domains-transf.csv","w_vcm_ln","numbers","^(\d|,)*\.?\d*$"
"/data/datasets/datagov/data/data/datagovdata/usepa-environmental-quality-index-eqi-air-water-land-built-and-sociodemographic-domains-transf.csv","a_me2_phthalate_ln","numbers","^(\d|,)*\.?\d*$"
"/data/datasets/datagov/data/data/datagovdata/usepa-environmental-quality-index-eqi-air-water-land-built-and-sociodemographic-domains-transf.csv","pct_no_eng","numbers","^(\d|,)*\.?\d*$"
"/data/datasets/datagov/data/data/datagovdata/usepa-environmental-quality-index-eqi-air-water-land-built-and-sociodemographic-domains-transf.csv","w_ccl4_ln","numbers","^(\d|,)*\.?\d*$"
"/data/datasets/datagov/data/data/datagovdata/usepa-environmental-quality-index-eqi-air-water-land-built-and-sociodemographic-domains-transf.csv","rate_hc_env_log","numbers","^(\d|,)*\.?\d*$"
"/data/datasets/datagov/data/data/datagovdata/usepa-environmental-quality-index-eqi-air-water-land-built-and-sociodemographic-domains-transf.csv","w_endrin_ln","numbers","^(\d|,)*\.?\d*$"
"/data/datasets/datagov/data/data/datagovdata/usepa-environmental-quality-index-eqi-air-water-land-built-and-sociodemographic-domains-transf.csv","w_as_ln","numbers","^(\d|,)*\.?\d*$"
"/data/datasets/datagov/data/data/datagovdata/usepa-environmental-quality-index-eqi-air-water-land-built-and-sociodemographic-domains-transf.csv","a_c2hcl3_ln","numbers","^(\d|,)*\.?\d*$"
"/data/datasets/datagov/data/data/datagovdata/usepa-environmental-quality-index-eqi-air-water-land-built-and-sociodemographic-domains-transf.csv","hg_ln_ave","numbers","^(\d|,)*\.?\d*$"
"/data/datasets/datagov/data/data/datagovdata/usepa-environmental-quality-index-eqi-air-water-land-built-and-sociodemographic-domains-transf.csv","countyname","uri",".*?$(?<!\.aspx)"
"/data/datasets/datagov/data/data/datagovdata/usepa-environmental-quality-index-eqi-air-water-land-built-and-sociodemographic-domains-transf.csv","pct_disease_acres_ln","numbers","^(\d|,)*\.?\d*$"
"/data/datasets/datagov/data/data/datagovdata/usepa-environmental-quality-index-eqi-air-water-land-built-and-sociodemographic-domains-transf.csv","w_cr_ln","numbers","^(\d|,)*\.?\d*$"
"/data/datasets/datagov/data/data/datagovdata/usepa-environmental-quality-index-eqi-air-water-land-built-and-sociodemographic-domains-transf.csv","a_hexane_ln","numbers","^(\d|,)*\.?\d*$"
"/data/datasets/datagov/data/data/datagovdata/usepa-environmental-quality-index-eqi-air-water-land-built-and-sociodemographic-domains-transf.csv","med_hh_value","numbers","^(\d|,)*\.?\d*$"
"/data/datasets/datagov/data/data/datagovdata/usepa-environmental-quality-index-eqi-air-water-land-built-and-sociodemographic-domains-transf.csv","numdays_cont_activity_tot","numbers","^(\d|,)*\.?\d*$"
"/data/datasets/datagov/data/data/datagovdata/usepa-environmental-quality-index-eqi-air-water-land-built-and-sociodemographic-domains-transf.csv","w_c2cl4_ln","numbers","^(\d|,)*\.?\d*$"
"/data/datasets/datagov/data/data/datagovdata/usepa-environmental-quality-index-eqi-air-water-land-built-and-sociodemographic-domains-transf.csv","a_dmf_ln","numbers","^(\d|,)*\.?\d*$"
"/data/datasets/datagov/data/data/datagovdata/usepa-environmental-quality-index-eqi-air-water-land-built-and-sociodemographic-domains-transf.csv","w_dehp_ln","numbers","^(\d|,)*\.?\d*$"
"/data/datasets/datagov/data/data/datagovdata/usepa-environmental-quality-index-eqi-air-water-land-built-and-sociodemographic-domains-transf.csv","w_se_ln","numbers","^(\d|,)*\.?\d*$"
"/data/datasets/datagov/data/data/datagovdata/usepa-environmental-quality-index-eqi-air-water-land-built-and-sociodemographic-domains-transf.csv","a_ph3_ln","numbers","^(\d|,)*\.?\d*$"
"/data/datasets/datagov/data/data/datagovdata/usepa-environmental-quality-index-eqi-air-water-land-built-and-sociodemographic-domains-transf.csv","w_silvex_ln","numbers","^(\d|,)*\.?\d*$"
"/data/datasets/datagov/data/data/datagovdata/usepa-environmental-quality-index-eqi-air-water-land-built-and-sociodemographic-domains-transf.csv","to_unit_rate_log","numbers","^(\d|,)*\.?\d*$"
"/data/datasets/datagov/data/data/datagovdata/usepa-environmental-quality-index-eqi-air-water-land-built-and-sociodemographic-domains-transf.csv","a_stryene_ln","numbers","^(\d|,)*\.?\d*$"
"/data/datasets/datagov/data/data/datagovdata/usepa-environmental-quality-index-eqi-air-water-land-built-and-sociodemographic-domains-transf.csv","w_benzene_ln","numbers","^(\d|,)*\.?\d*$"
"/data/datasets/datagov/data/data/datagovdata/usepa-environmental-quality-index-eqi-air-water-land-built-and-sociodemographic-domains-transf.csv","a_p_ln","numbers","^(\d|,)*\.?\d*$"
"/data/datasets/datagov/data/data/datagovdata/usepa-environmental-quality-index-eqi-air-water-land-built-and-sociodemographic-domains-transf.csv","a_hccpd_ln","numbers","^(\d|,)*\.?\d*$"
"/data/datasets/datagov/data/data/datagovdata/usepa-environmental-quality-index-eqi-air-water-land-built-and-sociodemographic-domains-transf.csv","ca_ln_ave","numbers","^(\d|,)*\.?\d*$"
"/data/datasets/datagov/data/data/datagovdata/usepa-environmental-quality-index-eqi-air-water-land-built-and-sociodemographic-domains-transf.csv","a_n2h2_ln","numbers","^(\d|,)*\.?\d*$"
"/data/datasets/datagov/data/data/datagovdata/usepa-environmental-quality-index-eqi-air-water-land-built-and-sociodemographic-domains-transf.csv","a_chloroform_ln","numbers","^(\d|,)*\.?\d*$"
"/data/datasets/datagov/data/data/datagovdata/usepa-environmental-quality-index-eqi-air-water-land-built-and-sociodemographic-domains-transf.csv","w_dcm_ln","numbers","^(\d|,)*\.?\d*$"
"/data/datasets/datagov/data/data/datagovdata/usepa-environmental-quality-index-eqi-air-water-land-built-and-sociodemographic-domains-transf.csv","mean_al_pct","numbers","^(\d|,)*\.?\d*$"
"/data/datasets/datagov/data/data/datagovdata/usepa-environmental-quality-index-eqi-air-water-land-built-and-sociodemographic-domains-transf.csv","per_pswithsw_ave","numbers","^(\d|,)*\.?\d*$"
"/data/datasets/datagov/data/data/datagovdata/usepa-environmental-quality-index-eqi-air-water-land-built-and-sociodemographic-domains-transf.csv","pct_harvest_acres","numbers","^(\d|,)*\.?\d*$"
"/data/datasets/datagov/data/data/datagovdata/usepa-environmental-quality-index-eqi-air-water-land-built-and-sociodemographic-domains-transf.csv","w_chlordane_ln","numbers","^(\d|,)*\.?\d*$"
"/data/datasets/datagov/data/data/datagovdata/usepa-environmental-quality-index-eqi-air-water-land-built-and-sociodemographic-domains-transf.csv","w_ethylbenz_ln","numbers","^(\d|,)*\.?\d*$"
"/data/datasets/datagov/data/data/datagovdata/usepa-environmental-quality-index-eqi-air-water-land-built-and-sociodemographic-domains-transf.csv","a_be_ln","numbers","^(\d|,)*\.?\d*$"
"/data/datasets/datagov/data/data/datagovdata/usepa-environmental-quality-index-eqi-air-water-land-built-and-sociodemographic-domains-transf.csv","a_2np_ln","numbers","^(\d|,)*\.?\d*$"
"/data/datasets/datagov/data/data/datagovdata/usepa-environmental-quality-index-eqi-air-water-land-built-and-sociodemographic-domains-transf.csv","mean_se_ln","numbers","^(\d|,)*\.?\d*$"
"/data/datasets/datagov/data/data/datagovdata/usepa-environmental-quality-index-eqi-air-water-land-built-and-sociodemographic-domains-transf.csv","a_biphenyl_ln","numbers","^(\d|,)*\.?\d*$"
"/data/datasets/datagov/data/data/datagovdata/usepa-environmental-quality-index-eqi-air-water-land-built-and-sociodemographic-domains-transf.csv","w_trichlorene_ln","numbers","^(\d|,)*\.?\d*$"
"/data/datasets/datagov/data/data/datagovdata/usepa-environmental-quality-index-eqi-air-water-land-built-and-sociodemographic-domains-transf.csv","w_pcp_ln","numbers","^(\d|,)*\.?\d*$"
"/data/datasets/datagov/data/data/datagovdata/usepa-environmental-quality-index-eqi-air-water-land-built-and-sociodemographic-domains-transf.csv","a_c6h5cl_ln","numbers","^(\d|,)*\.?\d*$"
"/data/datasets/datagov/data/data/datagovdata/usepa-environmental-quality-index-eqi-air-water-land-built-and-sociodemographic-domains-transf.csv","a_pm25_mean","numbers","^(\d|,)*\.?\d*$"
"/data/datasets/datagov/data/data/datagovdata/usepa-environmental-quality-index-eqi-air-water-land-built-and-sociodemographic-domains-transf.csv","a_egly_ln","numbers","^(\d|,)*\.?\d*$"
"/data/datasets/datagov/data/data/datagovdata/usepa-environmental-quality-index-eqi-air-water-land-built-and-sociodemographic-domains-transf.csv","mean_hg_ln","numbers","^(\d|,)*\.?\d*$"
