"file_name","column_name","label","regex"
"/data/datasets/datagov/data/data/datagovdata/local-development-corporations-bonds.csv","Expected Year Retired","numbers","^(\d|,)*\.?\d*$"
"/data/datasets/datagov/data/data/datagovdata/local-development-corporations-bonds.csv","Recipient City","uri",".*?$(?<!\.aspx)"
"/data/datasets/datagov/data/data/datagovdata/local-development-corporations-bonds.csv","Authority Name","uri",".*?$(?<!\.aspx)"
"/data/datasets/datagov/data/data/datagovdata/local-development-corporations-bonds.csv","Jobs Planned","numbers","^(\d|,)*\.?\d*$"
"/data/datasets/datagov/data/data/datagovdata/local-development-corporations-bonds.csv","Bond Purpose","strings","[^""\r\n]*"
"/data/datasets/datagov/data/data/datagovdata/local-development-corporations-bonds.csv","New Jobs","uri",".*?$(?<!\.aspx)"
"/data/datasets/datagov/data/data/datagovdata/local-development-corporations-bonds.csv","Recipient Postal Code","numbers","^(\d|,)*\.?\d*$"
"/data/datasets/datagov/data/data/datagovdata/local-development-corporations-bonds.csv","Principal Retired During Year","numbers","^(\d|,)*\.?\d*$"
"/data/datasets/datagov/data/data/datagovdata/local-development-corporations-bonds.csv","Recipient State","uri",".*?$(?<!\.aspx)"
"/data/datasets/datagov/data/data/datagovdata/local-development-corporations-bonds.csv","Date Issued","strings","[^""\r\n]*"
"/data/datasets/datagov/data/data/datagovdata/local-development-corporations-bonds.csv","Bonds","uri",".*?$(?<!\.aspx)"
"/data/datasets/datagov/data/data/datagovdata/local-development-corporations-bonds.csv","Amount Outstanding","numbers","^(\d|,)*\.?\d*$"
"/data/datasets/datagov/data/data/datagovdata/local-development-corporations-bonds.csv","Interest Rate","numbers","^(\d|,)*\.?\d*$"
"/data/datasets/datagov/data/data/datagovdata/local-development-corporations-bonds.csv","Fiscal Year End Date","strings","[^""\r\n]*"
"/data/datasets/datagov/data/data/datagovdata/local-development-corporations-bonds.csv","Amount Issued","numbers","^(\d|,)*\.?\d*$"
"/data/datasets/datagov/data/data/datagovdata/local-development-corporations-bonds.csv","Principal Retired at Start of Fiscal Year","numbers","^(\d|,)*\.?\d*$"
"/data/datasets/datagov/data/data/datagovdata/local-development-corporations-bonds.csv","Fully Retired","uri",".*?$(?<!\.aspx)"
"/data/datasets/datagov/data/data/datagovdata/local-development-corporations-bonds.csv","Jobs Created","numbers","^(\d|,)*\.?\d*$"
"/data/datasets/datagov/data/data/datagovdata/local-development-corporations-bonds.csv","Recipient Name","strings","[^""\r\n]*"
