"file_name","column_name","label","regex"
"/data/datasets/datagov/data/data/datagovdata/west-seattle-ridership-monthly-by-year-a0e6d.csv","2012","numbers","^(\d|,)*\.?\d*$"
"/data/datasets/datagov/data/data/datagovdata/west-seattle-ridership-monthly-by-year-a0e6d.csv","2013","numbers","^(\d|,)*\.?\d*$"
"/data/datasets/datagov/data/data/datagovdata/west-seattle-ridership-monthly-by-year-a0e6d.csv","Percent change from previous year","uri",".*?$(?<!\.aspx)"
"/data/datasets/datagov/data/data/datagovdata/west-seattle-ridership-monthly-by-year-a0e6d.csv","Month","uri",".*?$(?<!\.aspx)"
"/data/datasets/datagov/data/data/datagovdata/west-seattle-ridership-monthly-by-year-a0e6d.csv","2011","numbers","^(\d|,)*\.?\d*$"
