"file_name","column_name","label","regex"
"/data/datasets/datagov/data/data/datagovdata/summary-financial-information-for-industrial-development-agencies.csv","Other Assets (Noncurrent)","numbers","^\$?\d+(\.(\d{2}))?$"
"/data/datasets/datagov/data/data/datagovdata/summary-financial-information-for-industrial-development-agencies.csv","Authority Name","uri",".*?$(?<!\.aspx)"
"/data/datasets/datagov/data/data/datagovdata/summary-financial-information-for-industrial-development-agencies.csv","Accumulated Depreciation","numbers","^\$?\d+(\.(\d{2}))?$"
"/data/datasets/datagov/data/data/datagovdata/summary-financial-information-for-industrial-development-agencies.csv","Rental And Financing Income","numbers","^\$?\d+(\.(\d{2}))?$"
"/data/datasets/datagov/data/data/datagovdata/summary-financial-information-for-industrial-development-agencies.csv","Other Post-Employment Benefits (Noncurrent)","numbers","^\$?\d+(\.(\d{2}))?$"
"/data/datasets/datagov/data/data/datagovdata/summary-financial-information-for-industrial-development-agencies.csv","Other Assets (Current)","numbers","^\$?\d+(\.(\d{2}))?$"
"/data/datasets/datagov/data/data/datagovdata/summary-financial-information-for-industrial-development-agencies.csv","Total Operating Expenses","numbers","^\$?\d+(\.(\d{2}))?$"
"/data/datasets/datagov/data/data/datagovdata/summary-financial-information-for-industrial-development-agencies.csv","Receivables, Net","numbers","^\$?\d+(\.(\d{2}))?$"
"/data/datasets/datagov/data/data/datagovdata/summary-financial-information-for-industrial-development-agencies.csv","Other Non-Operating Expenses","numbers","^\$?\d+(\.(\d{2}))?$"
"/data/datasets/datagov/data/data/datagovdata/summary-financial-information-for-industrial-development-agencies.csv","Income (Loss) Before Contributions","uri",".*?$(?<!\.aspx)"
"/data/datasets/datagov/data/data/datagovdata/summary-financial-information-for-industrial-development-agencies.csv","Grants And Donations","numbers","^\$?\d+(\.(\d{2}))?$"
"/data/datasets/datagov/data/data/datagovdata/summary-financial-information-for-industrial-development-agencies.csv","Total Assets","numbers","^\$?\d+(\.(\d{2}))?$"
"/data/datasets/datagov/data/data/datagovdata/summary-financial-information-for-industrial-development-agencies.csv","Invested In Capital Assets, Net Of Related Debt","uri",".*?$(?<!\.aspx)"
"/data/datasets/datagov/data/data/datagovdata/summary-financial-information-for-industrial-development-agencies.csv","Other Long-Term Obligations Due Within One Year","numbers","^\$?\d+(\.(\d{2}))?$"
"/data/datasets/datagov/data/data/datagovdata/summary-financial-information-for-industrial-development-agencies.csv","Other Employee Benefits","numbers","^\$?\d+(\.(\d{2}))?$"
"/data/datasets/datagov/data/data/datagovdata/summary-financial-information-for-industrial-development-agencies.csv","Net Capital Assets","numbers","^\$?\d+(\.(\d{2}))?$"
"/data/datasets/datagov/data/data/datagovdata/summary-financial-information-for-industrial-development-agencies.csv","Restricted Net Assets","numbers","^\$?\d+(\.(\d{2}))?$"
"/data/datasets/datagov/data/data/datagovdata/summary-financial-information-for-industrial-development-agencies.csv","Operating Income (Loss)","uri",".*?$(?<!\.aspx)"
"/data/datasets/datagov/data/data/datagovdata/summary-financial-information-for-industrial-development-agencies.csv","Other Operating Expenses","numbers","^\$?\d+(\.(\d{2}))?$"
"/data/datasets/datagov/data/data/datagovdata/summary-financial-information-for-industrial-development-agencies.csv","Bonds And Notes Payable (Current)","numbers","^\$?\d+(\.(\d{2}))?$"
"/data/datasets/datagov/data/data/datagovdata/summary-financial-information-for-industrial-development-agencies.csv","Professional services contracts","numbers","^\$?\d+(\.(\d{2}))?$"
"/data/datasets/datagov/data/data/datagovdata/summary-financial-information-for-industrial-development-agencies.csv","Total Non-Operating Revenue","numbers","^\$?\d+(\.(\d{2}))?$"
"/data/datasets/datagov/data/data/datagovdata/summary-financial-information-for-industrial-development-agencies.csv","Other Non-operating Revenues","numbers","^\$?\d+(\.(\d{2}))?$"
"/data/datasets/datagov/data/data/datagovdata/summary-financial-information-for-industrial-development-agencies.csv","Total Operating Revenue","numbers","^\$?\d+(\.(\d{2}))?$"
"/data/datasets/datagov/data/data/datagovdata/summary-financial-information-for-industrial-development-agencies.csv","Cash And Cash Equivalents","numbers","^\$?\d+(\.(\d{2}))?$"
"/data/datasets/datagov/data/data/datagovdata/summary-financial-information-for-industrial-development-agencies.csv","Total Liabilities","numbers","^\$?\d+(\.(\d{2}))?$"
"/data/datasets/datagov/data/data/datagovdata/summary-financial-information-for-industrial-development-agencies.csv","Pension Contribution Payable (Noncurrent)","numbers","^\$?\d+(\.(\d{2}))?$"
"/data/datasets/datagov/data/data/datagovdata/summary-financial-information-for-industrial-development-agencies.csv","Interest And Other Financing Charges","numbers","^\$?\d+(\.(\d{2}))?$"
"/data/datasets/datagov/data/data/datagovdata/summary-financial-information-for-industrial-development-agencies.csv","Total Noncurrent Assets","numbers","^\$?\d+(\.(\d{2}))?$"
"/data/datasets/datagov/data/data/datagovdata/summary-financial-information-for-industrial-development-agencies.csv","Long-Term Leases","numbers","^\$?\d+(\.(\d{2}))?$"
"/data/datasets/datagov/data/data/datagovdata/summary-financial-information-for-industrial-development-agencies.csv","Other Long-Term Obligations","numbers","^\$?\d+(\.(\d{2}))?$"
"/data/datasets/datagov/data/data/datagovdata/summary-financial-information-for-industrial-development-agencies.csv","Other Post-Employment Benefits (Current)","numbers","^\$?\d+(\.(\d{2}))?$"
"/data/datasets/datagov/data/data/datagovdata/summary-financial-information-for-industrial-development-agencies.csv","Buildings And Equipment","numbers","^\$?\d+(\.(\d{2}))?$"
"/data/datasets/datagov/data/data/datagovdata/summary-financial-information-for-industrial-development-agencies.csv","Federal Subsidies / Grants","numbers","^\$?\d+(\.(\d{2}))?$"
"/data/datasets/datagov/data/data/datagovdata/summary-financial-information-for-industrial-development-agencies.csv","Net Assets (Deficit) Beginning Of Year","uri",".*?$(?<!\.aspx)"
"/data/datasets/datagov/data/data/datagovdata/summary-financial-information-for-industrial-development-agencies.csv","Pension Contribution Payable (Current)","numbers","^\$?\d+(\.(\d{2}))?$"
"/data/datasets/datagov/data/data/datagovdata/summary-financial-information-for-industrial-development-agencies.csv","Bonds And Notes Payable (Noncurrent)","numbers","^\$?\d+(\.(\d{2}))?$"
"/data/datasets/datagov/data/data/datagovdata/summary-financial-information-for-industrial-development-agencies.csv","Supplies and materials","numbers","^\$?\d+(\.(\d{2}))?$"
"/data/datasets/datagov/data/data/datagovdata/summary-financial-information-for-industrial-development-agencies.csv","Subsidies To Other Public Authorities","numbers","^\$?\d+(\.(\d{2}))?$"
"/data/datasets/datagov/data/data/datagovdata/summary-financial-information-for-industrial-development-agencies.csv","Total Current Assets","numbers","^\$?\d+(\.(\d{2}))?$"
"/data/datasets/datagov/data/data/datagovdata/summary-financial-information-for-industrial-development-agencies.csv","Infrastructure","numbers","^\$?\d+(\.(\d{2}))?$"
"/data/datasets/datagov/data/data/datagovdata/summary-financial-information-for-industrial-development-agencies.csv","Restricted Cash And Investments","numbers","^\$?\d+(\.(\d{2}))?$"
"/data/datasets/datagov/data/data/datagovdata/summary-financial-information-for-industrial-development-agencies.csv","Capital Contributions","numbers","^\$?\d+(\.(\d{2}))?$"
"/data/datasets/datagov/data/data/datagovdata/summary-financial-information-for-industrial-development-agencies.csv","Total Net Assets","uri",".*?$(?<!\.aspx)"
"/data/datasets/datagov/data/data/datagovdata/summary-financial-information-for-industrial-development-agencies.csv","Total Noncurrent Liabilities","numbers","^\$?\d+(\.(\d{2}))?$"
"/data/datasets/datagov/data/data/datagovdata/summary-financial-information-for-industrial-development-agencies.csv","Accrued Liabilities","numbers","^\$?\d+(\.(\d{2}))?$"
"/data/datasets/datagov/data/data/datagovdata/summary-financial-information-for-industrial-development-agencies.csv","Total Non-Operating Expenses","numbers","^\$?\d+(\.(\d{2}))?$"
"/data/datasets/datagov/data/data/datagovdata/summary-financial-information-for-industrial-development-agencies.csv","Deferred Revenues","numbers","^\$?\d+(\.(\d{2}))?$"
"/data/datasets/datagov/data/data/datagovdata/summary-financial-information-for-industrial-development-agencies.csv","Long-Term Receivables, Net","numbers","^\$?\d+(\.(\d{2}))?$"
"/data/datasets/datagov/data/data/datagovdata/summary-financial-information-for-industrial-development-agencies.csv","Accounts Payable","numbers","^\$?\d+(\.(\d{2}))?$"
"/data/datasets/datagov/data/data/datagovdata/summary-financial-information-for-industrial-development-agencies.csv","Municipal Subsidies / Grants","numbers","^\$?\d+(\.(\d{2}))?$"
"/data/datasets/datagov/data/data/datagovdata/summary-financial-information-for-industrial-development-agencies.csv","Depreciation and amortization","numbers","^\$?\d+(\.(\d{2}))?$"
"/data/datasets/datagov/data/data/datagovdata/summary-financial-information-for-industrial-development-agencies.csv","Total Current Liabilities","numbers","^\$?\d+(\.(\d{2}))?$"
"/data/datasets/datagov/data/data/datagovdata/summary-financial-information-for-industrial-development-agencies.csv","Net Assets (Deficit) At End Of Year","uri",".*?$(?<!\.aspx)"
"/data/datasets/datagov/data/data/datagovdata/summary-financial-information-for-industrial-development-agencies.csv","Salaries And Wages","numbers","^\$?\d+(\.(\d{2}))?$"
"/data/datasets/datagov/data/data/datagovdata/summary-financial-information-for-industrial-development-agencies.csv","Change In Net Assets","uri",".*?$(?<!\.aspx)"
"/data/datasets/datagov/data/data/datagovdata/summary-financial-information-for-industrial-development-agencies.csv","Charges for services","numbers","^\$?\d+(\.(\d{2}))?$"
"/data/datasets/datagov/data/data/datagovdata/summary-financial-information-for-industrial-development-agencies.csv","Public Authority Subsidies","numbers","^\$?\d+(\.(\d{2}))?$"
"/data/datasets/datagov/data/data/datagovdata/summary-financial-information-for-industrial-development-agencies.csv","State Subsidies / Grants","numbers","^\$?\d+(\.(\d{2}))?$"
"/data/datasets/datagov/data/data/datagovdata/summary-financial-information-for-industrial-development-agencies.csv","Investments","numbers","^\$?\d+(\.(\d{2}))?$"
"/data/datasets/datagov/data/data/datagovdata/summary-financial-information-for-industrial-development-agencies.csv","Other Operating Revenues","numbers","^\$?\d+(\.(\d{2}))?$"
"/data/datasets/datagov/data/data/datagovdata/summary-financial-information-for-industrial-development-agencies.csv","Other Net Assets Changes","uri",".*?$(?<!\.aspx)"
"/data/datasets/datagov/data/data/datagovdata/summary-financial-information-for-industrial-development-agencies.csv","Unrestricted Net Assets","uri",".*?$(?<!\.aspx)"
"/data/datasets/datagov/data/data/datagovdata/summary-financial-information-for-industrial-development-agencies.csv","Fiscal Year End Date","strings","[^""\r\n]*"
"/data/datasets/datagov/data/data/datagovdata/summary-financial-information-for-industrial-development-agencies.csv","Investment Earnings","numbers","^\$?\d+(\.(\d{2}))?$"
"/data/datasets/datagov/data/data/datagovdata/summary-financial-information-for-industrial-development-agencies.csv","Land And Other Non-Depreciable Property","numbers","^\$?\d+(\.(\d{2}))?$"
