"file_name","column_name","label","regex"
"/data/datasets/datagov/data/data/datagovdata/2013-campaign-expenditures-e8c6d.csv","SEG_IND","uri","^[^\\\/\?\*\""\'\>\<\:\|]*$"
"/data/datasets/datagov/data/data/datagovdata/2013-campaign-expenditures-e8c6d.csv","PAGENO","uri","^[^\\\/\?\*\""\'\>\<\:\|]*$"
"/data/datasets/datagov/data/data/datagovdata/2013-campaign-expenditures-e8c6d.csv","Location 1","uri","^[^\\\/\?\*\""\'\>\<\:\|]*$"
"/data/datasets/datagov/data/data/datagovdata/2013-campaign-expenditures-e8c6d.csv","PURPOSE","strings","[^""\r\n]*"
"/data/datasets/datagov/data/data/datagovdata/2013-campaign-expenditures-e8c6d.csv","ORG_IND","uri","^[^\\\/\?\*\""\'\>\<\:\|]*$"
"/data/datasets/datagov/data/data/datagovdata/2013-campaign-expenditures-e8c6d.csv","SEQUENCENO","uri","^[^\\\/\?\*\""\'\>\<\:\|]*$"
"/data/datasets/datagov/data/data/datagovdata/2013-campaign-expenditures-e8c6d.csv","CANDMI","uri","^[^\\\/\?\*\""\'\>\<\:\|]*$"
"/data/datasets/datagov/data/data/datagovdata/2013-campaign-expenditures-e8c6d.csv","EXPLAIN","strings","[^""\r\n]*"
"/data/datasets/datagov/data/data/datagovdata/2013-campaign-expenditures-e8c6d.csv","PAY_METHOD","uri","^[^\\\/\?\*\""\'\>\<\:\|]*$"
"/data/datasets/datagov/data/data/datagovdata/2013-campaign-expenditures-e8c6d.csv","REFNO","uri","^[^\\\/\?\*\""\'\>\<\:\|]*$"
"/data/datasets/datagov/data/data/datagovdata/2013-campaign-expenditures-e8c6d.csv","NAME","uri","^[^\\\/\?\*\""\'\>\<\:\|]*$"
"/data/datasets/datagov/data/data/datagovdata/2013-campaign-expenditures-e8c6d.csv","SCHEDULE","uri","^[^\\\/\?\*\""\'\>\<\:\|]*$"
"/data/datasets/datagov/data/data/datagovdata/2013-campaign-expenditures-e8c6d.csv","C_CODE","uri","^[^\\\/\?\*\""\'\>\<\:\|]*$"
"/data/datasets/datagov/data/data/datagovdata/2013-campaign-expenditures-e8c6d.csv","COMMITTEE","uri","^[^\\\/\?\*\""\'\>\<\:\|]*$"
"/data/datasets/datagov/data/data/datagovdata/2013-campaign-expenditures-e8c6d.csv","PURPOSECD","uri","^[^\\\/\?\*\""\'\>\<\:\|]*$"
"/data/datasets/datagov/data/data/datagovdata/2013-campaign-expenditures-e8c6d.csv","CANDID","numbers","^(\d|,)*\.?\d*$"
"/data/datasets/datagov/data/data/datagovdata/2013-campaign-expenditures-e8c6d.csv","CANCLASS","uri","^[^\\\/\?\*\""\'\>\<\:\|]*$"
"/data/datasets/datagov/data/data/datagovdata/2013-campaign-expenditures-e8c6d.csv","CANDLAST","uri","^[^\\\/\?\*\""\'\>\<\:\|]*$"
"/data/datasets/datagov/data/data/datagovdata/2013-campaign-expenditures-e8c6d.csv","EXEMPTCD","uri","^[^\\\/\?\*\""\'\>\<\:\|]*$"
"/data/datasets/datagov/data/data/datagovdata/2013-campaign-expenditures-e8c6d.csv","FILING","numbers","^(\d|,)*\.?\d*$"
"/data/datasets/datagov/data/data/datagovdata/2013-campaign-expenditures-e8c6d.csv","INV_DATE","strings","[^""\r\n]*"
"/data/datasets/datagov/data/data/datagovdata/2013-campaign-expenditures-e8c6d.csv","CANDFIRST","uri","^[^\\\/\?\*\""\'\>\<\:\|]*$"
"/data/datasets/datagov/data/data/datagovdata/2013-campaign-expenditures-e8c6d.csv","APARTMENT","uri","^[^\\\/\?\*\""\'\>\<\:\|]*$"
"/data/datasets/datagov/data/data/datagovdata/2013-campaign-expenditures-e8c6d.csv","STRNO","numbers","^(\d|,)*\.?\d*$"
"/data/datasets/datagov/data/data/datagovdata/2013-campaign-expenditures-e8c6d.csv","STRNAME","uri","^[^\\\/\?\*\""\'\>\<\:\|]*$"
"/data/datasets/datagov/data/data/datagovdata/2013-campaign-expenditures-e8c6d.csv","OFFICECD","numbers","^(\d|,)*\.?\d*$"
"/data/datasets/datagov/data/data/datagovdata/2013-campaign-expenditures-e8c6d.csv","RR_IND","uri","^[^\\\/\?\*\""\'\>\<\:\|]*$"
"/data/datasets/datagov/data/data/datagovdata/2013-campaign-expenditures-e8c6d.csv","AMNT","numbers","^(\d|,)*\.?\d*$"
"/data/datasets/datagov/data/data/datagovdata/2013-campaign-expenditures-e8c6d.csv","ELECTION","numbers","^(\d|,)*\.?\d*$"
"/data/datasets/datagov/data/data/datagovdata/2013-campaign-expenditures-e8c6d.csv","DATE","strings","[^""\r\n]*"
