"file_name","column_name","label","regex"
"/data/datasets/datagov/data/data/datagovdata/dpd-eca-wetlands-b4dae.csv","DECODE","uri",".*?$(?<!\.aspx)"
"/data/datasets/datagov/data/data/datagovdata/dpd-eca-wetlands-b4dae.csv","LEN","numbers","^(\d|,)*\.?\d*$"
"/data/datasets/datagov/data/data/datagovdata/dpd-eca-wetlands-b4dae.csv","ATTRIBUTE","strings","[^""\r\n]*"
"/data/datasets/datagov/data/data/datagovdata/dpd-eca-wetlands-b4dae.csv","Shape_Area","numbers","^(\d|,)*\.?\d*$"
"/data/datasets/datagov/data/data/datagovdata/dpd-eca-wetlands-b4dae.csv","OBJECTID","numbers","^(\d|,)*\.?\d*$"
"/data/datasets/datagov/data/data/datagovdata/dpd-eca-wetlands-b4dae.csv","Shape_Length","numbers","^(\d|,)*\.?\d*$"
"/data/datasets/datagov/data/data/datagovdata/dpd-eca-wetlands-b4dae.csv","HGM_CODE","uri",".*?$(?<!\.aspx)"
"/data/datasets/datagov/data/data/datagovdata/dpd-eca-wetlands-b4dae.csv","AREA","numbers","^(\d|,)*\.?\d*$"
"/data/datasets/datagov/data/data/datagovdata/dpd-eca-wetlands-b4dae.csv","Shape","uri",".*?$(?<!\.aspx)"
