"file_name","column_name","label","regex"
"/data/datasets/datagov/data/data/datagovdata/first-in-nation-per-capita-top-ten-u-s-states-ranked-by-grid-connected-pv-cumulative-insta-09fa1.csv","Per Capita Solar PV Installed (Watts-DC/Person)","numbers","^\d*$"
"/data/datasets/datagov/data/data/datagovdata/first-in-nation-per-capita-top-ten-u-s-states-ranked-by-grid-connected-pv-cumulative-insta-09fa1.csv","City","uri",".*?$(?<!\.aspx)"
"/data/datasets/datagov/data/data/datagovdata/first-in-nation-per-capita-top-ten-u-s-states-ranked-by-grid-connected-pv-cumulative-insta-09fa1.csv","Total Solar PV Installed (MW-DC)","numbers","^\d*$"
