"file_name","column_name","label","regex"
"/data/datasets/datagov/data/data/datagovdata/comptroller-annual-salaries-2014-august-28-05d68.csv","Job Code","numbers","^\$?\d+(\.(\d{2}))?$"
"/data/datasets/datagov/data/data/datagovdata/comptroller-annual-salaries-2014-august-28-05d68.csv","Title","strings","[^""\r\n]*"
"/data/datasets/datagov/data/data/datagovdata/comptroller-annual-salaries-2014-august-28-05d68.csv","Employee Status","numbers","^\$?\d+(\.(\d{2}))?$"
"/data/datasets/datagov/data/data/datagovdata/comptroller-annual-salaries-2014-august-28-05d68.csv","Department Name","strings","[^""\r\n]*"
"/data/datasets/datagov/data/data/datagovdata/comptroller-annual-salaries-2014-august-28-05d68.csv","Original Hire Date","strings","[^""\r\n]*"
"/data/datasets/datagov/data/data/datagovdata/comptroller-annual-salaries-2014-august-28-05d68.csv","Department Number","uri",".*?$(?<!\.aspx)"
"/data/datasets/datagov/data/data/datagovdata/comptroller-annual-salaries-2014-august-28-05d68.csv","Name","uri",".*?$(?<!\.aspx)"
"/data/datasets/datagov/data/data/datagovdata/comptroller-annual-salaries-2014-august-28-05d68.csv","Start Date","strings","[^""\r\n]*"
"/data/datasets/datagov/data/data/datagovdata/comptroller-annual-salaries-2014-august-28-05d68.csv","Employee Number","numbers","^\$?\d+(\.(\d{2}))?$"
"/data/datasets/datagov/data/data/datagovdata/comptroller-annual-salaries-2014-august-28-05d68.csv","Grade","uri",".*?$(?<!\.aspx)"
"/data/datasets/datagov/data/data/datagovdata/comptroller-annual-salaries-2014-august-28-05d68.csv","Step","uri",".*?$(?<!\.aspx)"
"/data/datasets/datagov/data/data/datagovdata/comptroller-annual-salaries-2014-august-28-05d68.csv","Annual Salary","numbers","^\$?\d+(\.(\d{2}))?$"
"/data/datasets/datagov/data/data/datagovdata/comptroller-annual-salaries-2014-august-28-05d68.csv","Bureau","uri",".*?$(?<!\.aspx)"
