"file_name","column_name","label","regex"
"/data/datasets/datagov/data/data/datagovdata/tl_2010_35035_cousub10.csv","FUNCSTAT10","uri",".*?$(?<!\.aspx)"
"/data/datasets/datagov/data/data/datagovdata/tl_2010_35035_cousub10.csv","LSAD10","numbers","^-?\d*(\.\d+)?$"
"/data/datasets/datagov/data/data/datagovdata/tl_2010_35035_cousub10.csv","NAMELSAD10","uri",".*?$(?<!\.aspx)"
"/data/datasets/datagov/data/data/datagovdata/tl_2010_35035_cousub10.csv","INTPTLON10","numbers","^-?\d*(\.\d+)?$"
"/data/datasets/datagov/data/data/datagovdata/tl_2010_35035_cousub10.csv","STATEFP10","numbers","^-?\d*(\.\d+)?$"
"/data/datasets/datagov/data/data/datagovdata/tl_2010_35035_cousub10.csv","ALAND10","numbers","^-?\d*(\.\d+)?$"
"/data/datasets/datagov/data/data/datagovdata/tl_2010_35035_cousub10.csv","MTFCC10","uri",".*?$(?<!\.aspx)"
"/data/datasets/datagov/data/data/datagovdata/tl_2010_35035_cousub10.csv","GEOID10","numbers","^-?\d*(\.\d+)?$"
"/data/datasets/datagov/data/data/datagovdata/tl_2010_35035_cousub10.csv","NAME10","uri",".*?$(?<!\.aspx)"
"/data/datasets/datagov/data/data/datagovdata/tl_2010_35035_cousub10.csv","COUSUBNS10","numbers","^-?\d*(\.\d+)?$"
"/data/datasets/datagov/data/data/datagovdata/tl_2010_35035_cousub10.csv","INTPTLAT10","numbers","^-?\d*(\.\d+)?$"
"/data/datasets/datagov/data/data/datagovdata/tl_2010_35035_cousub10.csv","COUSUBFP10","numbers","^-?\d*(\.\d+)?$"
"/data/datasets/datagov/data/data/datagovdata/tl_2010_35035_cousub10.csv","AWATER10","numbers","^-?\d*(\.\d+)?$"
"/data/datasets/datagov/data/data/datagovdata/tl_2010_35035_cousub10.csv","COUNTYFP10","numbers","^-?\d*(\.\d+)?$"
"/data/datasets/datagov/data/data/datagovdata/tl_2010_35035_cousub10.csv","CLASSFP10","uri",".*?$(?<!\.aspx)"
