"file_name","column_name","label","regex"
"/data/datasets/datagov/data/data/datagovdata/disposition-of-offensive-language-allegations-2008-00223.csv","Unsubstantiated rate","uri",".*?$(?<!\.aspx)"
"/data/datasets/datagov/data/data/datagovdata/disposition-of-offensive-language-allegations-2008-00223.csv","Sunstantiated rate","numbers","^[-+]?\d+(\.\d+)?|[-+]?\.\d+?$"
"/data/datasets/datagov/data/data/datagovdata/disposition-of-offensive-language-allegations-2008-00223.csv","Substantiated Number","numbers","^[-+]?\d+(\.\d+)?|[-+]?\.\d+?$"
"/data/datasets/datagov/data/data/datagovdata/disposition-of-offensive-language-allegations-2008-00223.csv","Unsubstantiated number","numbers","^[-+]?\d+(\.\d+)?|[-+]?\.\d+?$"
"/data/datasets/datagov/data/data/datagovdata/disposition-of-offensive-language-allegations-2008-00223.csv","Miscellaneous rate","numbers","^[-+]?\d+(\.\d+)?|[-+]?\.\d+?$"
"/data/datasets/datagov/data/data/datagovdata/disposition-of-offensive-language-allegations-2008-00223.csv","Unfounded number","numbers","^[-+]?\d+(\.\d+)?|[-+]?\.\d+?$"
"/data/datasets/datagov/data/data/datagovdata/disposition-of-offensive-language-allegations-2008-00223.csv","Miscellaneous","numbers","^[-+]?\d+(\.\d+)?|[-+]?\.\d+?$"
"/data/datasets/datagov/data/data/datagovdata/disposition-of-offensive-language-allegations-2008-00223.csv","Exonerated rate","numbers","^[-+]?\d+(\.\d+)?|[-+]?\.\d+?$"
"/data/datasets/datagov/data/data/datagovdata/disposition-of-offensive-language-allegations-2008-00223.csv","Exonerated number","numbers","^[-+]?\d+(\.\d+)?|[-+]?\.\d+?$"
"/data/datasets/datagov/data/data/datagovdata/disposition-of-offensive-language-allegations-2008-00223.csv","Type of Abuse of Authority Allegation","uri",".*?$(?<!\.aspx)"
"/data/datasets/datagov/data/data/datagovdata/disposition-of-offensive-language-allegations-2008-00223.csv","Officer Unidentified number","numbers","^[-+]?\d+(\.\d+)?|[-+]?\.\d+?$"
"/data/datasets/datagov/data/data/datagovdata/disposition-of-offensive-language-allegations-2008-00223.csv","Officer Unidentified rate","numbers","^[-+]?\d+(\.\d+)?|[-+]?\.\d+?$"
"/data/datasets/datagov/data/data/datagovdata/disposition-of-offensive-language-allegations-2008-00223.csv","Unfounded rate","numbers","^[-+]?\d+(\.\d+)?|[-+]?\.\d+?$"
