"file_name","column_name","label","regex"
"/data/datasets/datagov/data/data/datagovdata/equity-and-social-justice-inter-branch-team-roster-e70a2.csv","Telephone","uri",".*?$(?<!\.aspx)"
"/data/datasets/datagov/data/data/datagovdata/equity-and-social-justice-inter-branch-team-roster-e70a2.csv","Email","email","^.+@[^\.].*\.[a-z]{2,}$"
"/data/datasets/datagov/data/data/datagovdata/equity-and-social-justice-inter-branch-team-roster-e70a2.csv","Department","uri",".*?$(?<!\.aspx)"
"/data/datasets/datagov/data/data/datagovdata/equity-and-social-justice-inter-branch-team-roster-e70a2.csv","Delegate/Alternate","uri",".*?$(?<!\.aspx)"
