"file_name","column_name","label","regex"
"/data/datasets/datagov/data/data/datagovdata/waterway-obstructions-ba12c.csv","Location","uri",".*?$(?<!\.aspx)"
"/data/datasets/datagov/data/data/datagovdata/waterway-obstructions-ba12c.csv","County","uri",".*?$(?<!\.aspx)"
"/data/datasets/datagov/data/data/datagovdata/waterway-obstructions-ba12c.csv","Recommendation","uri",".*?$(?<!\.aspx)"
"/data/datasets/datagov/data/data/datagovdata/waterway-obstructions-ba12c.csv","Icon","uri",".*?$(?<!\.aspx)"
"/data/datasets/datagov/data/data/datagovdata/waterway-obstructions-ba12c.csv","Description","strings","[^""\r\n]*"
"/data/datasets/datagov/data/data/datagovdata/waterway-obstructions-ba12c.csv","Photo","uri",".*?$(?<!\.aspx)"
"/data/datasets/datagov/data/data/datagovdata/waterway-obstructions-ba12c.csv","Waterbody","uri",".*?$(?<!\.aspx)"
