"file_name","column_name","label","regex"
"/data/datasets/chemical/chembl_21/csvdata/public.patent_use_codes.csv","definition","strings","[^""\r\n]*"
"/data/datasets/chemical/chembl_21/csvdata/public.patent_use_codes.csv","patent_use_code","uri",".*?$(?<!\.aspx)"
