"file_name","column_name","label","regex"
"/data/datasets/datagov/data/data/datagovdata/cgdb-contour1993-ln-c0f02.csv","CL93_LNGTH","numbers","^(\d|,)*\.?\d*$"
"/data/datasets/datagov/data/data/datagovdata/cgdb-contour1993-ln-c0f02.csv","CL93_SRC","numbers","^(\d|,)*\.?\d*$"
"/data/datasets/datagov/data/data/datagovdata/cgdb-contour1993-ln-c0f02.csv","OBJECTID","numbers","^(\d|,)*\.?\d*$"
"/data/datasets/datagov/data/data/datagovdata/cgdb-contour1993-ln-c0f02.csv","Shape_Length","numbers","^(\d|,)*\.?\d*$"
"/data/datasets/datagov/data/data/datagovdata/cgdb-contour1993-ln-c0f02.csv","CL93_TYPE","uri",".*?$(?<!\.aspx)"
"/data/datasets/datagov/data/data/datagovdata/cgdb-contour1993-ln-c0f02.csv","CL93_ELEV","numbers","^(\d|,)*\.?\d*$"
"/data/datasets/datagov/data/data/datagovdata/cgdb-contour1993-ln-c0f02.csv","Shape","uri",".*?$(?<!\.aspx)"
