"file_name","column_name","label","regex"
"/data/datasets/datagov/data/data/datagovdata/life-insurance-in-force-in-the-state-of-new-york-beginning-1996.csv","Year","numbers","^\$?\d+(\.(\d{2}))?$"
"/data/datasets/datagov/data/data/datagovdata/life-insurance-in-force-in-the-state-of-new-york-beginning-1996.csv","Insurance In Force (dollar amount  in billions)","numbers","^\$?\d+(\.(\d{2}))?$"
