"file_name","column_name","label","regex"
"/data/datasets/datagov/data/data/datagovdata/2011-net-grand-list-by-town.csv","2011 ASSESSMENT TOTAL GROSS MV","numbers","^\$?\d+(\.(\d{2}))?$"
"/data/datasets/datagov/data/data/datagovdata/2011-net-grand-list-by-town.csv","2011 TOTAL NET GRAND LIST","numbers","^\$?\d+(\.(\d{2}))?$"
"/data/datasets/datagov/data/data/datagovdata/2011-net-grand-list-by-town.csv","2011 GROSS ASSESSMENT -      700-Ten Mill Forest","numbers","^\$?\d+(\.(\d{2}))?$"
"/data/datasets/datagov/data/data/datagovdata/2011-net-grand-list-by-town.csv","2011 GROSS ASSESSMENT - 500-Vacant","numbers","^\$?\d+(\.(\d{2}))?$"
"/data/datasets/datagov/data/data/datagovdata/2011-net-grand-list-by-town.csv","2011 GROSS ASSESSMENT - 800-Apartments","numbers","^\$?\d+(\.(\d{2}))?$"
"/data/datasets/datagov/data/data/datagovdata/2011-net-grand-list-by-town.csv","2011 ALL PP EXEMPTIONS","numbers","^\$?\d+(\.(\d{2}))?$"
"/data/datasets/datagov/data/data/datagovdata/2011-net-grand-list-by-town.csv","2011 TOTAL NET REAL","numbers","^\$?\d+(\.(\d{2}))?$"
"/data/datasets/datagov/data/data/datagovdata/2011-net-grand-list-by-town.csv","2011 GROSS ASSESSMENT - TOTAL REAL","numbers","^\$?\d+(\.(\d{2}))?$"
"/data/datasets/datagov/data/data/datagovdata/2011-net-grand-list-by-town.csv","2011 ALL REAL - EXEMPTIONS","numbers","^\$?\d+(\.(\d{2}))?$"
"/data/datasets/datagov/data/data/datagovdata/2011-net-grand-list-by-town.csv","2011 GROSS ASSESSMENT -    200-Commercial","numbers","^\$?\d+(\.(\d{2}))?$"
"/data/datasets/datagov/data/data/datagovdata/2011-net-grand-list-by-town.csv","2011 GROSS ASSESSMENT - 300-Industrial","numbers","^\$?\d+(\.(\d{2}))?$"
"/data/datasets/datagov/data/data/datagovdata/2011-net-grand-list-by-town.csv","2011 GROSS ASSESSMENT -  100-Residential","numbers","^\$?\d+(\.(\d{2}))?$"
"/data/datasets/datagov/data/data/datagovdata/2011-net-grand-list-by-town.csv","2011 GROSS ASSESSMENT - 600-Land Use","numbers","^\$?\d+(\.(\d{2}))?$"
"/data/datasets/datagov/data/data/datagovdata/2011-net-grand-list-by-town.csv","CODE","numbers","^\$?\d+(\.(\d{2}))?$"
"/data/datasets/datagov/data/data/datagovdata/2011-net-grand-list-by-town.csv","TOWN","uri",".*?$(?<!\.aspx)"
"/data/datasets/datagov/data/data/datagovdata/2011-net-grand-list-by-town.csv","2011 ASSESSMENT GROSS PERSONAL PROP","numbers","^\$?\d+(\.(\d{2}))?$"
"/data/datasets/datagov/data/data/datagovdata/2011-net-grand-list-by-town.csv","2011 ALL MV EXEMPTIONS","numbers","^\$?\d+(\.(\d{2}))?$"
"/data/datasets/datagov/data/data/datagovdata/2011-net-grand-list-by-town.csv","2011 GROSS ASSESSMENT - 400-Public Utility","numbers","^\$?\d+(\.(\d{2}))?$"
"/data/datasets/datagov/data/data/datagovdata/2011-net-grand-list-by-town.csv","2011 ASSESSMENT TOTAL NET MV","numbers","^\$?\d+(\.(\d{2}))?$"
"/data/datasets/datagov/data/data/datagovdata/2011-net-grand-list-by-town.csv","2011 PP          TOTAL NET PP","numbers","^\$?\d+(\.(\d{2}))?$"
