"file_name","column_name","label","regex"
"/data/datasets/datagov/data/data/datagovdata/budget-management-department-special-purpose-funds-2012-year-end-expenses-and-2013-prelimi-80d2a.csv","Description","strings","[^""\r\n]*"
"/data/datasets/datagov/data/data/datagovdata/budget-management-department-special-purpose-funds-2012-year-end-expenses-and-2013-prelimi-80d2a.csv","Available Fund Balance","numbers","^-?\d*(\.\d+)?$"
"/data/datasets/datagov/data/data/datagovdata/budget-management-department-special-purpose-funds-2012-year-end-expenses-and-2013-prelimi-80d2a.csv"," Total 2012 Projected YE Expenditures","numbers","^-?\d*(\.\d+)?$"
"/data/datasets/datagov/data/data/datagovdata/budget-management-department-special-purpose-funds-2012-year-end-expenses-and-2013-prelimi-80d2a.csv","Projected Total 2013 Surplus (Deficit)*","numbers","^-?\d*(\.\d+)?$"
"/data/datasets/datagov/data/data/datagovdata/budget-management-department-special-purpose-funds-2012-year-end-expenses-and-2013-prelimi-80d2a.csv","2013 Revenue Estimate","numbers","^-?\d*(\.\d+)?$"
"/data/datasets/datagov/data/data/datagovdata/budget-management-department-special-purpose-funds-2012-year-end-expenses-and-2013-prelimi-80d2a.csv","2012 Fund Balance Used","numbers","^-?\d*(\.\d+)?$"
"/data/datasets/datagov/data/data/datagovdata/budget-management-department-special-purpose-funds-2012-year-end-expenses-and-2013-prelimi-80d2a.csv","Approved & Adopted Appropriation","numbers","^-?\d*(\.\d+)?$"
"/data/datasets/datagov/data/data/datagovdata/budget-management-department-special-purpose-funds-2012-year-end-expenses-and-2013-prelimi-80d2a.csv","2012  Revenue Estimate","numbers","^-?\d*(\.\d+)?$"
"/data/datasets/datagov/data/data/datagovdata/budget-management-department-special-purpose-funds-2012-year-end-expenses-and-2013-prelimi-80d2a.csv","2012 YE Revenue Revised Estimate","numbers","^-?\d*(\.\d+)?$"
"/data/datasets/datagov/data/data/datagovdata/budget-management-department-special-purpose-funds-2012-year-end-expenses-and-2013-prelimi-80d2a.csv"," Department 2013 Expenditure Estimate","numbers","^-?\d*(\.\d+)?$"
"/data/datasets/datagov/data/data/datagovdata/budget-management-department-special-purpose-funds-2012-year-end-expenses-and-2013-prelimi-80d2a.csv","Department No.","numbers","^-?\d*(\.\d+)?$"
"/data/datasets/datagov/data/data/datagovdata/budget-management-department-special-purpose-funds-2012-year-end-expenses-and-2013-prelimi-80d2a.csv","Executive 2013 Expenditure Estimate","numbers","^-?\d*(\.\d+)?$"
