"file_name","column_name","label","regex"
"/data/datasets/datagov/data/data/datagovdata/unemployment-rate-honolulu-monthly-seasonally-adjusted-df271.csv","Unemployment Rate","numbers","^[-+]?\d+(\.\d+)?|[-+]?\.\d+?$"
"/data/datasets/datagov/data/data/datagovdata/unemployment-rate-honolulu-monthly-seasonally-adjusted-df271.csv","Employed","numbers","^[-+]?\d+(\.\d+)?|[-+]?\.\d+?$"
"/data/datasets/datagov/data/data/datagovdata/unemployment-rate-honolulu-monthly-seasonally-adjusted-df271.csv","Civilian Labor Force","numbers","^[-+]?\d+(\.\d+)?|[-+]?\.\d+?$"
"/data/datasets/datagov/data/data/datagovdata/unemployment-rate-honolulu-monthly-seasonally-adjusted-df271.csv","Month/Year","strings","[^""\r\n]*"
"/data/datasets/datagov/data/data/datagovdata/unemployment-rate-honolulu-monthly-seasonally-adjusted-df271.csv","Unemployed","numbers","^[-+]?\d+(\.\d+)?|[-+]?\.\d+?$"
"/data/datasets/datagov/data/data/datagovdata/unemployment-rate-honolulu-monthly-seasonally-adjusted-df271.csv","Notes","uri",".*?$(?<!\.aspx)"
