"file_name","column_name","label","regex"
"/data/datasets/datagov/data/data/datagovdata/nepa-public-comments.csv","Type of Comment","uri",".*?$(?<!\.aspx)"
"/data/datasets/datagov/data/data/datagovdata/nepa-public-comments.csv","Attachment","uri",".*?$(?<!\.aspx)"
"/data/datasets/datagov/data/data/datagovdata/nepa-public-comments.csv","Comment","strings","[^""\r\n]*"
"/data/datasets/datagov/data/data/datagovdata/nepa-public-comments.csv","State or Country","uri",".*?$(?<!\.aspx)"
"/data/datasets/datagov/data/data/datagovdata/nepa-public-comments.csv","Home Town","uri",".*?$(?<!\.aspx)"
"/data/datasets/datagov/data/data/datagovdata/nepa-public-comments.csv","Name","uri",".*?$(?<!\.aspx)"
"/data/datasets/datagov/data/data/datagovdata/nepa-public-comments.csv","Affiliation","strings","[^""\r\n]*"
