"file_name","column_name","label","regex"
"/data/datasets/datagov/data/data/datagovdata/enrollment-capacity-and-utilization-reports-regular-hs-93adf.csv","Bldg
I.D.","uri",".*?$(?<!\.aspx)"
"/data/datasets/datagov/data/data/datagovdata/enrollment-capacity-and-utilization-reports-regular-hs-93adf.csv","Organization Name","strings","[^""\r\n]*"
"/data/datasets/datagov/data/data/datagovdata/enrollment-capacity-and-utilization-reports-regular-hs-93adf.csv","Org Utilization
(Target)","numbers","^\d*$"
"/data/datasets/datagov/data/data/datagovdata/enrollment-capacity-and-utilization-reports-regular-hs-93adf.csv","Org Utilization
(Historical)","numbers","^\d*$"
"/data/datasets/datagov/data/data/datagovdata/enrollment-capacity-and-utilization-reports-regular-hs-93adf.csv","Org Over Under
(Target)","numbers","^\d*$"
"/data/datasets/datagov/data/data/datagovdata/enrollment-capacity-and-utilization-reports-regular-hs-93adf.csv","Bldg Over/Under
Historical","numbers","^\d*$"
"/data/datasets/datagov/data/data/datagovdata/enrollment-capacity-and-utilization-reports-regular-hs-93adf.csv","District","numbers","^\d*$"
"/data/datasets/datagov/data/data/datagovdata/enrollment-capacity-and-utilization-reports-regular-hs-93adf.csv","Inclusionary","uri",".*?$(?<!\.aspx)"
"/data/datasets/datagov/data/data/datagovdata/enrollment-capacity-and-utilization-reports-regular-hs-93adf.csv","Bldg Adjusted Capacity
(Historical)","numbers","^\d*$"
"/data/datasets/datagov/data/data/datagovdata/enrollment-capacity-and-utilization-reports-regular-hs-93adf.csv","Building Name","strings","[^""\r\n]*"
"/data/datasets/datagov/data/data/datagovdata/enrollment-capacity-and-utilization-reports-regular-hs-93adf.csv","Bldg
Enroll","numbers","^\d*$"
"/data/datasets/datagov/data/data/datagovdata/enrollment-capacity-and-utilization-reports-regular-hs-93adf.csv","Bldg Capacity
(Target)","numbers","^\d*$"
"/data/datasets/datagov/data/data/datagovdata/enrollment-capacity-and-utilization-reports-regular-hs-93adf.csv","Bldg Over/Under
(Target)","numbers","^\d*$"
"/data/datasets/datagov/data/data/datagovdata/enrollment-capacity-and-utilization-reports-regular-hs-93adf.csv","Org Over/Under
(Historical)","numbers","^\d*$"
"/data/datasets/datagov/data/data/datagovdata/enrollment-capacity-and-utilization-reports-regular-hs-93adf.csv","No. of Spec rooms used","numbers","^\d*$"
"/data/datasets/datagov/data/data/datagovdata/enrollment-capacity-and-utilization-reports-regular-hs-93adf.csv","Org Adjusted Capacity
(Historical)","numbers","^\d*$"
"/data/datasets/datagov/data/data/datagovdata/enrollment-capacity-and-utilization-reports-regular-hs-93adf.csv","Org
ID","uri",".*?$(?<!\.aspx)"
"/data/datasets/datagov/data/data/datagovdata/enrollment-capacity-and-utilization-reports-regular-hs-93adf.csv","Org Adjusted Capacity
(Target)","numbers","^\d*$"
"/data/datasets/datagov/data/data/datagovdata/enrollment-capacity-and-utilization-reports-regular-hs-93adf.csv","Org
Enroll","numbers","^\d*$"
"/data/datasets/datagov/data/data/datagovdata/enrollment-capacity-and-utilization-reports-regular-hs-93adf.csv","Bldg Utilization
(Historical)","numbers","^\d*$"
"/data/datasets/datagov/data/data/datagovdata/enrollment-capacity-and-utilization-reports-regular-hs-93adf.csv","Bldg Utilization
(Target)","numbers","^\d*$"
