"file_name","column_name","label","regex"
"/data/datasets/mitdwh/All_olap_descriptor_types.csv","Descriptor Type","uri",".*?$(?<!\.aspx)"
"/data/datasets/mitdwh/All_olap_descriptor_types.csv","Entity Type","uri",".*?$(?<!\.aspx)"
