"file_name","column_name","label","regex"
"/data/datasets/datagov/data/data/datagovdata/council-districts.csv","COUNCIL","numbers","^(\d|,)*\.?\d*$"
"/data/datasets/datagov/data/data/datagovdata/council-districts.csv","SHAPE_LEN","numbers","^(\d|,)*\.?\d*$"
"/data/datasets/datagov/data/data/datagovdata/council-districts.csv","LABEL","strings","[^""\r\n]*"
"/data/datasets/datagov/data/data/datagovdata/council-districts.csv","SHAPE_AREA","numbers","^(\d|,)*\.?\d*$"
"/data/datasets/datagov/data/data/datagovdata/council-districts.csv","OBJECTID","numbers","^(\d|,)*\.?\d*$"
"/data/datasets/datagov/data/data/datagovdata/council-districts.csv","NAME","uri",".*?$(?<!\.aspx)"
"/data/datasets/datagov/data/data/datagovdata/council-districts.csv","the_geom","strings","[^""\r\n]*"
