"file_name","column_name","label","regex"
"/data/datasets/datagov/data/data/datagovdata/state-of-oklahoma-vendor-payments-fiscal-year-2011-83b2e.csv","Invoice Date","uri",".*?$(?<!\.aspx)"
"/data/datasets/datagov/data/data/datagovdata/state-of-oklahoma-vendor-payments-fiscal-year-2011-83b2e.csv","Transaction Type","uri",".*?$(?<!\.aspx)"
"/data/datasets/datagov/data/data/datagovdata/state-of-oklahoma-vendor-payments-fiscal-year-2011-83b2e.csv","Calendar Year","numbers","^\d*$"
"/data/datasets/datagov/data/data/datagovdata/state-of-oklahoma-vendor-payments-fiscal-year-2011-83b2e.csv","Voucher ID","numbers","^\d*$"
"/data/datasets/datagov/data/data/datagovdata/state-of-oklahoma-vendor-payments-fiscal-year-2011-83b2e.csv","Voucher Type","uri",".*?$(?<!\.aspx)"
"/data/datasets/datagov/data/data/datagovdata/state-of-oklahoma-vendor-payments-fiscal-year-2011-83b2e.csv","City","uri",".*?$(?<!\.aspx)"
"/data/datasets/datagov/data/data/datagovdata/state-of-oklahoma-vendor-payments-fiscal-year-2011-83b2e.csv","State","uri",".*?$(?<!\.aspx)"
"/data/datasets/datagov/data/data/datagovdata/state-of-oklahoma-vendor-payments-fiscal-year-2011-83b2e.csv","Payment Amount","numbers","^\d*$"
"/data/datasets/datagov/data/data/datagovdata/state-of-oklahoma-vendor-payments-fiscal-year-2011-83b2e.csv","Cancel Date","uri",".*?$(?<!\.aspx)"
"/data/datasets/datagov/data/data/datagovdata/state-of-oklahoma-vendor-payments-fiscal-year-2011-83b2e.csv","Department Description","strings","[^""\r\n]*"
"/data/datasets/datagov/data/data/datagovdata/state-of-oklahoma-vendor-payments-fiscal-year-2011-83b2e.csv","Vendor Name","strings","[^""\r\n]*"
"/data/datasets/datagov/data/data/datagovdata/state-of-oklahoma-vendor-payments-fiscal-year-2011-83b2e.csv","Agency Name","uri",".*?$(?<!\.aspx)"
"/data/datasets/datagov/data/data/datagovdata/state-of-oklahoma-vendor-payments-fiscal-year-2011-83b2e.csv","Month","numbers","^\d*$"
"/data/datasets/datagov/data/data/datagovdata/state-of-oklahoma-vendor-payments-fiscal-year-2011-83b2e.csv","Payment Date","uri",".*?$(?<!\.aspx)"
"/data/datasets/datagov/data/data/datagovdata/state-of-oklahoma-vendor-payments-fiscal-year-2011-83b2e.csv","Effective Date","uri",".*?$(?<!\.aspx)"
"/data/datasets/datagov/data/data/datagovdata/state-of-oklahoma-vendor-payments-fiscal-year-2011-83b2e.csv","Purchase Order/ Contract Item Description","strings","[^""\r\n]*"
"/data/datasets/datagov/data/data/datagovdata/state-of-oklahoma-vendor-payments-fiscal-year-2011-83b2e.csv","Expenditure Description","strings","[^""\r\n]*"
"/data/datasets/datagov/data/data/datagovdata/state-of-oklahoma-vendor-payments-fiscal-year-2011-83b2e.csv","Agency Number","numbers","^\d*$"
"/data/datasets/datagov/data/data/datagovdata/state-of-oklahoma-vendor-payments-fiscal-year-2011-83b2e.csv","Class Description","uri",".*?$(?<!\.aspx)"
"/data/datasets/datagov/data/data/datagovdata/state-of-oklahoma-vendor-payments-fiscal-year-2011-83b2e.csv","Purchase Order/ Contract Number","uri",".*?$(?<!\.aspx)"
"/data/datasets/datagov/data/data/datagovdata/state-of-oklahoma-vendor-payments-fiscal-year-2011-83b2e.csv","Fund Description","uri",".*?$(?<!\.aspx)"
"/data/datasets/datagov/data/data/datagovdata/state-of-oklahoma-vendor-payments-fiscal-year-2011-83b2e.csv","Fund Code","numbers","^\d*$"
"/data/datasets/datagov/data/data/datagovdata/state-of-oklahoma-vendor-payments-fiscal-year-2011-83b2e.csv","Account","numbers","^\d*$"
"/data/datasets/datagov/data/data/datagovdata/state-of-oklahoma-vendor-payments-fiscal-year-2011-83b2e.csv","Zip Code","address_or_phone","(\d{4,6})"
"/data/datasets/datagov/data/data/datagovdata/state-of-oklahoma-vendor-payments-fiscal-year-2011-83b2e.csv","Class Field","numbers","^\d*$"
"/data/datasets/datagov/data/data/datagovdata/state-of-oklahoma-vendor-payments-fiscal-year-2011-83b2e.csv","Invoice ID","strings","[^""\r\n]*"
"/data/datasets/datagov/data/data/datagovdata/state-of-oklahoma-vendor-payments-fiscal-year-2011-83b2e.csv","Department ID","numbers","^\d*$"
"/data/datasets/datagov/data/data/datagovdata/state-of-oklahoma-vendor-payments-fiscal-year-2011-83b2e.csv","Update Date","uri",".*?$(?<!\.aspx)"
"/data/datasets/datagov/data/data/datagovdata/state-of-oklahoma-vendor-payments-fiscal-year-2011-83b2e.csv","Voucher Description","uri",".*?$(?<!\.aspx)"
