c2f03ae0-7519-47b2-866e-9481cec5309d
913694eb-cb76-4c5e-95ad-47a53357e44f
34686dac-5507-4b5f-9974-697b8ab07fc6
cba3dc15-7c9b-4c1c-a378-c18635797c14
3f7ef54a-c514-42ac-a491-2b64a4a48e73
ea10647b-7bde-409d-946e-f3bbfe7c29ba
c464df4e-0db0-4d9e-8a45-91b6d216f5ae
f5576109-0e04-4669-90c7-a1740087b340
1ab14e87-b831-44cc-b167-835063fbbe40
b80c55d2-13bc-47a6-96d8-e39c2abd1d20
fdfbf82d-ad2a-478b-ada8-11ded8bc0fc1
154b7ddd-379a-4aab-acdc-b8cecb77784d
e4574ed1-3dd4-4609-9cde-20f7993c486e
07e97507-fddd-4081-a590-ae596d00e4f6
b4463523-e24c-4eab-b270-87117a7dce13
b346c7ec-86c4-4138-8594-03229b130ed9
18f779a0-d22e-4594-8fe1-02a320849299
a7a984a2-371f-4107-8b2a-f2df6c80713a
ddc31caa-765b-4cf1-abd3-876f401f2a6a
d908077b-a555-48fe-bb4d-82cf19abe243
faf361a2-63b4-4a37-82fc-edf3322a0565
01ceff6d-944b-4591-b1fb-45f5f6f13e28
311a8a92-6f5c-4620-8f03-5dcc6455c73f
328b4263-e299-47e1-8b45-544f870158cc
d112937d-e9ea-440c-aa8b-e7fb2e5fd79b
6b8d5be8-c4f3-40e4-a2d1-77871576486f
1ed4a0fa-07ab-47a4-8353-221fb1ea64b8
43ec7dd6-3221-4490-ae76-c8d74bcfda91
3a1f81d4-3c3f-435b-98ab-9fbca4205283
a63600ed-ed22-4dd1-a84b-ae9acd00885c
e306f26d-55c4-4183-b54d-790e21544bb0
58e32db5-6606-4366-b8f6-077497c60ef5
7d27c821-eeb2-4458-a71b-ffc3c0bf3e3c
5a88653c-1be5-45ff-9009-760442300b54
0678a596-0e56-4263-aeeb-9d552ed2a5a5
a2e8b3a4-a034-4dac-a212-567d7b9e151a
7a243a92-53fe-45c7-ae69-516622ac2b70
cf7fcbbd-f706-43d4-bc10-f2f86aa1df04
c78ad184-07ae-4b33-919a-53210dd65a18
11edbea8-e14c-435e-b307-8f2caf74a9b7
4838d3a1-913b-4e5b-b6b8-9dae2eb7d8fe
ee092f62-53d5-495c-90a1-fec42ed1bc7f
6e7ed7dd-af7a-42e6-87db-97afd270ee48
9c16a4e9-368d-4f99-8403-19cec523907f
9b681cc7-0e76-4eac-94bf-8895a59f0b36
93a27c44-5bce-4f28-8ae0-e3d62c094a53
2125cfce-2857-4829-9c71-b88b1ae23509
d950ecd5-25a6-43fb-8854-f323509b3d8c
e8859057-e2fa-47ca-b946-247e8cf39b40
ec1e05df-4f34-4f86-aee5-41a6f88df23c
36a4fd2f-de65-43ce-8c37-e8669f15a6f4
d1dc296d-7000-4737-8238-521fa0399d88
8177d29d-4218-45ee-96d0-8a6ad797c74a
10fbde24-ce14-4a73-a990-bbfec068f252
c11d0c31-ba09-4246-851a-42b22b866034
7a24f15a-52ec-4769-908e-dbf1afa0ffbd
338b10e2-cba1-4ddb-8336-3df52aec66d5
15ad72af-3eae-4547-be1a-3c221eb547ad
614656d6-4282-4134-9521-95f5b81303f0
ed37ea56-9c95-42ab-9e83-717c34428a66
3eb734f9-22f6-48ab-b43b-2ed45d1b8f60
7ff2ebed-b9bf-4d44-8413-0135c68f646d
412eff96-9944-4a23-9cff-06e48d7df1c7
f617cc61-8a84-4707-ad3b-c2fbe3447723
2ac07f87-13de-4101-9315-e2a987cf51ed
020cdde9-e320-499e-99fd-9f129be8de48
ad109b99-a230-42e6-ad71-d9b05eac23c4
314e82b2-e84a-4efb-8612-c9b5c6b73797
992e0ea4-fe4e-4a6a-a49a-fa4ca7ce9672
04207598-087a-4b9f-8831-65bd752bb78f
0adb7e6b-fbf8-4945-9e97-7b51f784a243
54ad2a1b-ced9-4767-936c-893f2119b630
5d53be88-6c01-4798-aebf-18ecc35779c0
3bfe1063-cdab-41a5-a9c8-301c5781aa07
7dc0475a-1a41-4a29-8eb8-775bb32535a6
debe181c-b74b-4c5d-a1dd-367351eca92e
3d03788a-35a0-4388-9912-119a4318b2a3
de60ebb6-cef0-41b9-ad63-c3987db01ca0
e24439c2-84a5-41d6-b15b-afba2f718c5d
ae7f16bf-9e9e-4a24-89c8-3eb280e14655
0ee1c3ab-395b-4b45-bd87-c977c874eee2
6b794884-df21-4799-903b-63eb839782fe
239f2009-5420-414c-a70a-1d9ff08c69f1
e9207fad-763d-4a29-b621-ca71522056ee
d8740cfa-95a4-4d84-9ce9-f6323ef5b8aa
e3f2d0ed-e97a-495d-aa2e-d45b4e275fe1
cd63c007-6644-41ea-81ee-390552656d08
3d876ad6-4fa0-4fe7-b09c-a08f25b8f001
43795ba2-6339-4027-a55f-683355661ba9
e44f12bf-8a04-4005-beba-50d5ad6bf0c9
62cff9f9-6d4e-4489-88fd-27b90f879eed
f016956c-8e3f-4be2-a944-1bba272779fd
c8c3e969-191e-48bd-a2b1-f08d225dd6bb
40f8e4f5-9269-41e6-825d-19d480ee9af2
7b781948-81c5-4fe7-a5b6-013750beb432
eadb4827-0b26-4243-83fc-ada50b356ec5
324ddda6-f3dc-46b9-8c9a-63e8161b1a93
f5ea61f3-b38c-47cb-bc7d-577c2f102839
5029f523-f232-4dbb-8039-595254755145
7d6eaa17-6a0f-4116-a409-14ca9bfb2a67
75bc89d9-7da0-42bb-b5e2-fd41578053be
7feabbae-c919-49a1-978e-592aa5cbad85
c602c7cd-5256-4787-abb8-d2333b6e2a08
3d6aff3b-fa70-46e9-a51e-70004717a4f1
045f7f19-ff1d-49a5-830b-e7e3e003b6ae
e2c467e4-4971-492d-8a5b-df6ad9829a95
662cd393-7772-4f30-8f51-c706885a7e88
ad80acfe-a4d8-4a28-9dc1-48dde0f928d2
fd46be0a-ca42-4c8e-9c78-9d573ff4b8ff
fcfd248c-6dc6-425d-bfa5-4a8547d46443
5febdd35-0799-48c3-a2f7-ec18db100dcc
544e1f6a-62bc-4d55-92c1-cbb9ca635d3f
738fbb1c-d027-4eb7-9704-11b908e51114
86d7d936-0f87-4b32-8c25-2f4d650ae3c5
f053da28-3997-4a8d-b074-51bba461bfa6
2acc7b13-56ec-40a5-b87a-7ba3f8f30d5d
c28fa14a-ef83-42c8-a0d5-c972c8a2161f
3451d6dc-d93e-44d5-bca5-d5d131d507db
168984ad-c111-43b7-94e2-5c9279bbc979
cf7b6de7-dd15-456a-a1dd-0fe1c90a38bf
ecfdc634-70be-4d85-94bf-633445ce5753
65008f5c-7944-4268-82e4-ce105f993b7c
1aff4241-6eda-48f1-9536-d67f846b375c
4876d41a-63aa-4e5d-aee6-f436bb1b09d2
b5b44811-3729-42c0-a818-6fe18703bce7
ff3ed368-dc3f-4927-8a27-ee268bab0c13
723c4df4-f895-4169-af79-72ffd3c781ab
5820f7b0-1a09-420e-b0b4-dd6a2f6b42bf
54b600af-7e56-449c-9080-8a3f7e12d817
efd070d3-b457-413b-8b35-203541bf7522
491bb5fd-7402-4659-b0ff-6b56532c439e
04af24de-5983-4f2f-ad08-3c60ff96c1f9
fbf20726-ad67-4aa4-9738-ff6a16762017
5d7f8e6d-5a0c-4535-b995-c5d09e9d1277
1c61149a-70dc-43e6-b68c-dd996df34f79
2ebf4f04-f9a9-45b6-a34c-1a14bbffb3a9
a6592f9a-cb7d-40e1-8a75-80ec69ff20b1
6079656d-8843-4cd9-9860-d6423d9acb67
fb2687ea-cf35-4acc-9805-9381f3a19fb6
889a9cc1-af0a-4439-aced-164b376a45e3
188928fa-a925-4b2f-89ac-a157eeec5188
530f47ff-a9e7-4ff2-a740-6b211f560489
d7dc5088-7c77-4a1e-b41d-49de15aaa74a
e9742c8f-0834-4f59-9ecb-f40115fada9c
25799d61-8cdf-4e83-885a-213a71ee1074
b788439e-2174-47c6-923e-1025f3a327ab
fa7b5918-d224-4f86-b62d-55b255c221ef
b68c1cda-6476-4265-89ec-11d9145454e8
e68a3a88-3ea1-4e31-8f35-68940f571f27
18eebf0b-3d6f-4932-b541-59e872a28550
322b0914-362d-4ae0-9ed5-9aafe6ed2543
3e217bff-d86c-4666-83e9-22befdd5451c
fb481b25-5950-4ea2-af20-f4f28e31ea55
4ad50b10-e5b9-4504-a46a-aaee31b87b2d
e229994d-0162-4702-9f9a-537473aa8b73
bfabfc8c-cc41-4ed3-ab6d-9c4e2325e233
23b63476-c57c-4c45-bbdc-8190331a6898
d61d6c7e-2384-4103-8119-8aa9a69fd2aa
d606e3ae-26e7-4beb-8648-943d43712c4d
fb46aaf0-a4ba-42c4-a4fe-838b84e22d68
f2d5cd40-3237-409e-b922-25f3e0900cad
c11f3cea-f97f-4f78-beb5-b993a263511c
48fb91fd-96bb-4960-bea7-5524664d8a75
d1fcbc27-89a4-4565-9a2e-b5184a7c64a5
8581b51c-f87e-491c-9ea0-a754744b6f7f
f62a0979-8c91-462e-a965-3086ef256bdb
68da3e29-4953-49fb-8092-3442ffc98d9b
91bee3be-38aa-46d7-8596-d9aaca295860
e8586632-f9fe-482a-a9c3-0cc7a65df676
f1b797a6-b010-4e90-944a-d444dfe6a64b
faea3e2f-3fcb-46b6-be95-1588c7975097
f147f5cc-81a2-4a46-a3dd-548f5e3b10de
4495c31c-82a4-41fe-81ee-485eac0fc2da
640af734-6dc1-4242-aefc-e4696b6ae88a
1295a326-834f-4470-80f6-95ddcd98d518
43a85d5e-6403-4f58-8e5e-d78208c202ec
260d6a1e-8260-4a05-b325-83c30bc889c6
57e4b591-c764-428f-9511-e7e837cc0c88
21225293-c78b-4994-907b-3bacbb0d16e2
66116144-8a67-46c9-b028-bae8878a6424
f9554e81-a016-42c3-9cf0-ee6910db2644
aee5d704-7538-4b8d-b458-e68d97a5316b
bf1f39a4-c5ce-415b-8f1f-2d60fcecf2f4
47306c40-5ebe-4472-894a-8d30251d2f40
8bb4ed5b-feaf-470c-b65a-117c63ce777c
408db2fe-2bfc-461e-924d-8dd440a39a05
4b03e8c1-539b-4952-8ab6-dec6ba68edfd
90543866-aa67-4a70-932c-30dd0bd4466b
7541789a-56d6-4043-a81c-d27407476d1c
2dc28e7f-d46c-45f4-bcea-7f19d9e95a65
d7e81e58-5efe-46a7-9cb5-ee6e3679cf75
95a7d23b-5ecb-4c56-868c-3d1da193db48
ec7b58ba-bda3-40f4-b753-0397168f4d53
06c82cf4-c653-4ffa-8158-269178cef3da
e604bf9c-753c-4e01-addc-329b8196cda5
d898db12-a34e-4d10-9028-1330ecefa1b2
765dfe61-353b-41a5-95c4-fc8b03a84822
c54ab85d-ff7c-44d4-be1b-7d10371bf8cd
dbbf3bb7-1190-4627-812e-530ed82f1dd4
679241ce-daca-4186-8710-a0bd5fffe900
827320d6-715c-4a1b-861d-adab31b9b925
d3afee94-92cf-4dee-9451-eeb041cbc462
5e3009a4-5ca4-4c5b-93fe-0d4175ff54eb
0cddaadb-142d-4149-bc5f-2b911148d1a7
15e0d5ca-8839-43d2-8e98-b9a769623a6d
9cdb9031-2d25-4538-a66c-2919642ed266
799606cf-14c6-4ce5-a267-f542c7a6766b
3fa18d73-e26f-40bb-96e7-95b106ff0b8d
f45dc954-f699-42b5-b0dd-3e74baae7a6a
67adbd51-620b-42ee-907f-cfa4efe8d3fb
a2956dac-f86d-4e80-98b9-0517e4c48c0a
dbaf7cd9-0671-4313-889e-920e0cb0777d
2809ccb7-2094-45f3-a381-9df934855247
76530aca-bd47-47dd-b278-eb6e353ad5a0
e0d0a160-81c2-4e63-bbfa-1cb60f0842c6
30969e7f-22a5-43a5-b916-0fa4fcfe9e8c
41f2d0dd-ec74-48d7-9907-31b5da529c2f
e068a396-e0f9-4976-b55d-b18eefbcdfbd
d4beab5a-cd10-426e-8654-0efcabc367d2
368df92e-b473-4f74-9fb7-d54c7d18a15f
557fa62d-5c9a-470c-9e24-cb9c581d4101
36466ea3-6dd4-4bf6-a5be-c96f3f85127d
64b7ddc2-e8d7-4fe6-b10f-080808c3f94c
35b7d934-3d95-405f-a71c-0ed317a1df4e
c080938a-2fdd-4c85-8507-d14b2760508a
669868bb-d51c-4943-80a9-9dfe977e4529
85129977-fcad-4612-afe8-19887e3cee24
feb62c40-0f89-48be-b589-637469f08388
0e044b5f-b9c2-4dce-aa57-f1767533bbc4
721691ed-ea89-4171-8d81-ff4fcc898432
d63b4cd6-fdce-4b37-bdf7-5d149cfbe87c
6908828e-fcdd-4229-ba8d-c1338d247816
3f0a4810-2a4f-4724-a80f-c02132d3ddae
11451ad7-5528-42f0-a53c-cbab7a73fc70
08aedcc8-98bd-431f-9cbd-9f0cf2a7a872
06bc9375-554b-45d5-a19b-be60713e8a6d
22b59fb7-27ce-406e-9df8-8f3b0cb678dc
7b043256-ff0d-456a-a981-d13b972e24e2
46dab79f-9046-4641-ba70-2307a74c1725
f7feb2b8-68d0-461a-af48-228c0d4c27c2
330952bd-bb55-4e51-bfc4-fccc49a59563
8a54f16d-3737-483d-9cdc-d7e6a0765dac
e6cc6f81-1805-4522-abf7-e0a8eb0f39fb
9fc40a47-302b-4e76-9b73-3e5705f76267
8fb0a06c-1a74-4bd6-b56d-8b8b9542752a
bee5240e-c8b2-46df-81d2-63aed4dd08a8
e4e00a65-b584-4a32-94dd-a9808a986401
2c9122d6-56aa-4bb2-87bc-aa9fa5732b54
cd039c67-7a97-464d-9b4d-03db3e5108ca
c37a7120-9515-4129-8f8a-b63de2f0a053
a9b65c16-af46-404c-9f93-c91cbd600617
5226c3a3-a922-4bb8-a573-cf78794babc2
d340acd0-f7f9-4a43-bd24-83f241f66842
3aa5af4b-b18b-4aee-bc11-7696ac7ebfe0
7bd6ed43-719f-45f5-b3bb-45233a165aa0
e6db9913-ae22-4859-882b-407a0e59a00d
3ac10181-2dff-45c4-9ee0-2e163b9b4363
78859cb3-37ec-4316-b9f4-b4755408dfa9
437b9db7-5c77-4d27-b7ba-d0e70549409d
7df09996-0bd9-46fd-b660-7fc52582531e
b1632134-f8a1-4347-92e7-cecb78960025
699cbaaf-fe26-4c20-a139-96a90a8649da
ef1d646d-4960-436d-adb5-d31a42f4fc9d
927ea0ce-0764-4fbb-bd55-de22d6c196c0
96e8de6c-248e-47e2-8dcd-985703890cef
001b2b02-b2b9-4cab-a57e-e316b79d355c
604c05c1-9124-419c-b752-39f5eb8df1e6
0f252a1a-066a-4873-aca5-69e2c8d6a334
42ba484d-a5f7-4a15-bf19-11450f291d62
aa270fe4-4662-4a24-843b-c496751f2798
08114776-cd18-427d-996f-1a4a777780fd
ed24eae5-dbb0-4031-96de-56d5d6682107
b6d70d06-6381-4759-8e97-3b0ce0c812b5
878f9bb2-9f20-4133-bf6c-7589b8452748
ee8aa3a3-8a9a-490c-adb8-6b7cb5a9706f
703370c6-b3f1-4e99-bf26-5412384f73e8
76849cb9-0be0-4428-8a7a-6489705de7e0
1c97f9e2-3acc-458a-b5df-ba24b0ee545f
93c57f6b-601f-4f4d-b8c5-b169f3e4700c
3d43decb-7b52-4f7b-b5f3-23983cb9f869
e07ab25d-5120-4f80-897d-81ae9ef93b87
a3d44dbc-7453-4770-8264-c66a2269e854
4f680230-9154-491f-9146-799afc230876
79244254-8e62-4bc4-a659-2cbf4f2ef0f0
f5e53614-de7b-4ecb-9565-d7f0503f40f7
51537854-fb8c-45b0-8749-758414e16e71
c9576819-8fbf-4aea-a096-ef823e507696
201f06bb-1834-4462-b5bf-ca5723f912ec
fae6371c-e60c-4f40-ab9d-73933c9b3552
fcc52320-ef20-43b2-b02c-0c2a5ed7a4e7
23776b6b-c77a-4b9b-adab-b596e25a8752
d5c29a37-daad-4c3f-b5c3-3c5872ac8044
0f342d43-1a91-446f-992f-407f1de71912
cec81cca-20cb-4528-a2c5-803891395550
d9ca7ea6-3ff6-4f72-a6da-c8817213bfb8
616aa2cb-8a32-4981-a5d9-b395a07936be
113e8be6-7104-47a7-a9c1-2353d8229565
64c7b344-0be4-42e0-bfcd-5183aff97e80
62ff9abc-d382-47ff-b139-412a3767a68f
8af3765e-d061-4f34-8aa2-d4626c8658c1
a09f6864-3ca4-4dbb-a894-3349a9108baf
f5701236-90be-464d-ae39-8075fdac419b
b9b639dd-dd7c-4dc6-acad-0a87470ba68c
ca0b859f-c628-44aa-a73f-984ed7fb1a29
d6c018f6-6e6b-4231-85e7-ed621da11496
96ae1457-18fb-473f-86f1-16901b089848
fcdacc93-e58e-410c-ba40-476317a4bf39
302fca89-9b49-4d54-9864-75d0b8ca54eb
7d93720c-ecb0-40cb-8fd3-3340740b4f40
78362a18-45ef-48d3-9be6-f63a641c90bb
684d5c39-2542-4609-be48-02429905bfa8
ce989d3d-61ea-41d5-b369-96c3c2258812
4b67bf9a-f5ee-4f00-849f-6267f825dc4e
3d1bce83-f170-4b7e-96c9-0d3831418451
98d3a2e1-dc0d-41a3-ae5e-488a93a518c4
7d099d57-ec6d-4bb6-9a95-14170257d742
75502ecf-65d3-4629-8e0e-4a94d8fa9fa5
bb6546e4-ae0c-4da8-b872-73631103673e
7472e9a5-69a6-48ec-a067-8c937dc26449
5895f309-c702-4c8f-a9fd-cb1c156a4809
e6f213f4-c2c6-4a6b-a51f-bd7bb899bef3
7c82bb94-9aef-4a64-85bd-a86b9a3dd477
c4080808-c982-4118-8f56-83df9862d206
03b6af46-be58-44a8-85fd-fad4eb443d59
335754b1-e561-4e69-9fa7-c11cbd5b1778
83224a67-1cc7-401b-83a1-3af369245798
a2eb8980-b08c-473d-842f-abc8922ccf10
c333863b-2e7f-46eb-83b0-888859a4cd19
6135562d-fcc8-470c-a629-6f54e9da5450
9743f831-92c5-49fe-a140-adadeff74ea6
f10c2371-97a4-4c84-a6bf-5f3b19d424b7
38310031-1f5c-4865-b9d5-fb32b5fb7eda
c9196265-a5b3-461d-8ffa-e846c4bdcd06
ced3858f-98b7-4784-9c7a-342d146260cf
1feb62c6-2854-4b0e-82c0-0bc06a92be5e
053100f6-76b9-410c-8a11-9d58d2cfbfe2
201de652-9cfe-4335-ab71-b6235f3e24e9
df273e1a-fab9-483d-a661-2e7cbc117a15
a67dd300-d746-4f88-b2f2-2f5bd9fec6e7
c8c9aaaa-b5cd-4543-8be5-ad3ba7e4b40b
e3d31e08-4430-4ae7-85fd-1ea318b84129
a0aa9b89-501c-4999-8978-4a1c20ef6025
e114c5e2-d4d4-4eb1-ad91-3b2f7bd0f02e
630ca821-cfb8-4110-b744-2e673b6cfb23
dd48033b-f632-43cc-87f3-332f5831acf1
534bae36-42e1-4a13-91cc-72b963d1c992
5dbf64f4-f48d-449c-8ae9-0a65db7037ed
37f91c6b-7d42-497a-8bd9-e974d04dd2c0
8e7e3467-b5e7-493b-bdcc-59f43fa8bfed
923fabde-9800-4b4c-b48f-a57403ba9e8e
4614e71d-ceb3-47b2-8260-c9738ed03972
b27cce09-1006-42eb-ab5f-2063bd4353e0
f76e5c94-284e-4705-936b-f7025837fbab
1e60ee50-fd3d-4feb-90d6-bb2e1eb398e6
d97d99d5-d7f9-429b-8f3a-2fd1f4b6cb97
3ef9d128-7e00-4e5e-b17c-210d9ec5d428
3345e0ad-0038-4ac9-8296-d732f8be4d35
3789e699-42f8-4a45-87b5-6d957df4c023
6cff74b5-9b68-4745-8089-e25b07fc5046
2c9fa96e-6541-44a8-a7f5-dd788c83d362
dcc70df8-4acb-4fab-85c5-fa2751299876
e5b4395c-6685-4c70-9688-b67cc60f4e2d
3f2a682f-f486-4f52-aad1-0fa40cf77bc4
3da5505b-a925-4712-9ee4-2e4b9d4996e8
432aec70-6e97-4dd1-93f5-0caab661c457
74b64bd6-234f-4f1f-96ee-4d73703a0cd1
62b0e111-7aa7-4890-b7fa-c3b4f04b954c
89fe2a14-41c2-421e-8a0a-a6f7abd6e107
1e83ddab-d2da-4608-a1f8-80de74b1bf93
661674d9-064c-4bd2-9a46-fe9ede55ee50
3eb91b7f-c74d-4439-ac1c-02675f55f4c6
b010e5ac-4be6-41c6-b0dd-3a16066c21d0
8fc58845-3c3e-4e69-bfda-655df50adfc0
b89cc25c-87dd-4d20-bd33-38df92b59d74
e1af8a2c-65b4-4c9a-a93c-208f747b6e09
c42d6aba-f2b1-481a-98ff-530403cdbbc9
20c492bc-1668-4ff9-a39e-7a7464920708
a8d1cdb7-6f81-4675-986c-590149e77d18
cb94de60-ff16-4e51-b579-dabecbed9c17
7c30320c-840d-461a-b106-5df5e3da3295
11fa7631-00c6-431e-b71f-e6a01b9cce13
f38268e6-0ddc-4f1c-95d7-132d1da2e8dd
1223580a-82e8-4bff-881c-c8b8645189d5
dda59002-b6f5-4d8d-8dd7-1c3fa790c72f
92201079-4244-4d06-9daf-ea39bf2ff85a
edff226f-30d3-406d-80f0-3209c7f0fa16
65cd9dc1-74d2-44aa-9b14-d2f581650f0e
0b3150ce-c95c-4645-b42e-97588f1e54df
ac81e06e-8285-419e-980b-922fe727d785
3c8cef6d-534d-40cb-982f-46c9483eab6d
e82fe148-29c6-4c99-bf2b-2b2e315b85b5
6e45826b-2d47-430f-94a3-bc3bdbf65bdd
023962fe-cb29-42e1-ac0e-8f79288e3d61
9c87330a-abb9-436c-a146-224017a3a28c
e869820d-1a88-48d1-9f34-36aeb9e8f404
95b3bc09-b28a-4d36-93b6-259dbda1e670
3b118db3-a025-4f77-b065-04da4382b279
565d5f4c-7872-424f-8dbe-9611f31ece61
36c11f26-e195-49b5-8549-7a3481270193
68a46d7d-2771-4828-a93a-85a4c9b41e0b
e009857b-dcd8-4ba6-b1d7-aca83926ea29
c87ecd25-6c9e-456a-be3a-135f961b8cfa
1b803f93-542e-402c-9bdf-e271d71fa9f0
03ed28c3-9e3d-4cc3-9085-11844e60dc4c
d0df4e97-d3d2-4e44-a23a-693eea9547d4
a80c9d9d-75a3-483d-a7e7-c35861bdd8d9
f5581cf9-9fc2-4bfc-97a6-ab60d6882e97
4e9527a7-421e-4090-9c65-c8e8cd6f08f4
efcbc908-55be-4903-ae8f-25226d938ec2
1e4861b1-8a1e-4dce-9478-5fbb4630bd96
6bbd94bf-f338-4354-ab5e-76ace0971ea0
05cf6413-ed67-42dc-8fa1-1690c43a62c5
c91e2620-9674-438c-a490-aab491482e90
4d48bd97-d62c-4977-ad95-c830699d30db
bbba0a15-8793-4d52-8bee-b7420821d8d7
accce3c4-e02d-46e6-8a26-8b17f5272898
e21e1a5f-efac-4c92-b3ff-6a09b5b774a7
0003c3fb-085a-4291-a81d-901111c4bd2d
146fe920-335b-4bc4-9c58-85ace4b2cf35
20afae34-084c-4de6-89ed-9c7db614ba81
7ec9ecdb-cea9-47a1-baee-3947364aab95
374d504b-3126-413a-b4d6-60d07f71faf1
73e96e2f-13ae-4826-9273-9c7d0d3226aa
02e6dc73-9be6-4aa5-85f4-be7f47252ad3
37429774-c2b5-404c-a6ce-cb888001bb91
692c9be4-d1d8-4ab8-b6e3-452c4cea9c37
a4ccdae0-9a8e-490e-85d1-1ab96c894d99
cc9d4cde-2de2-4be5-97a0-fed0e0676a3d
f4e10097-dcdf-40c2-810d-702392709eda
a1b12e73-fd77-429e-8698-6d870e5f2457
f85456c3-0bc5-4400-a7e3-315fcf1bdd72
6c53280e-6178-4b64-a40a-81cd861f2682
674ce190-bcc9-4b40-ac63-4f2979a4a956
c7d850e3-2ad6-4ceb-9f20-823f170390f3
e3e8f10d-41b1-4acd-82b9-4b2cdbf61f41
032ebbf7-b931-4afc-9a72-520029b5bbbe
9a673b6f-1bcd-4772-b51c-fd8af2233277
5e2f0688-b9b9-4544-9de9-81d33a9b37aa
8424a2f5-7be8-487c-845b-0071a651f313
a846d88c-5130-4221-8105-8b31bbadabd3
d1197b4e-9995-4fa0-aee6-3aec7f2f94ce
a32439e5-e01a-47b6-b633-e944f97b6785
c359acc4-0b4f-4dc4-9717-ed9da6d55396
f754b986-f04e-4c44-bedf-58b018f27007
7baa44fc-7e03-449a-9e6b-6d65ccc48208
3672361a-2e1a-4e94-a3b8-9029b181b42e
fd1a0b9b-2af0-4ea1-b846-c4cdaae5ead8
b6242caf-0a77-470f-a8f6-3febcfbbea47
a484ac90-c5ce-47ad-a142-6d393f579ad3
be0faeaf-709d-406c-8db9-6297bc021f66
8e7768d0-3328-41da-aec9-2e74ea772f03
2a9904a6-87b6-4b38-b1c3-05d938272a4c
33cb5eda-cd69-47ff-af84-48dfdc79304f
98484e81-9114-4bd0-86e7-58b55d55edda
087ca832-89f3-4bd4-aa5c-36154f0684e5
dc619f4a-4873-453c-bfa0-449e60d2cdf0
aa3a9571-64a8-4bc6-954b-d031087e027a
75f4f831-e48a-4c6b-86ac-a9d5cbed3afb
6da11576-5d7e-4074-9ce4-5870659efd49
74d24f1a-48e8-4950-b894-ba0b29702462
afd86020-6759-42e9-bdaf-61bb69cabacf
30aec6c4-a839-4a39-9e4b-265418cc39f6
10120e51-6907-43eb-8351-2ab323775f85
b23331ef-04b3-42a0-a47d-afba4103c1a4
6878a1a9-d4a9-4212-abef-1df439a85ee1
39d83315-fcf0-41fc-91a1-feac521538e8
0f4f443c-9554-4ed3-8954-32df5414112c
ef6de90d-ada2-46be-a6b8-31f6611d1e7d
e960c417-fc0a-492e-8e31-3425e3663a2a
2deb73b5-12fe-4bde-9e49-cc77d5c40c73
17965846-2548-46fd-a1b0-7d13a2f46313
753cdaa3-b81b-4188-bb2e-d408e4391ed3
460c244a-ab97-4627-8140-4b006d41b95d
0757f515-8fcb-4ce3-b683-3fb779f6688d
77115135-6ff5-43c6-9f44-6e4f5db4015e
3ee5203b-0fec-4cdd-a356-7476ff71afd2
352d41a0-f094-4040-a69f-c00d96dc87ff
ac38fcce-aef8-4419-b28e-9cfdb614e1a3
31a9a224-d896-43a3-b749-b52200c3966d
9065eb03-e472-44f1-b5df-c8d05277a030
fca460dd-bf86-4db9-aed7-b8ba85e903be
f9b62b96-e855-4d4d-8c90-a83c2a860976
b1e85a4a-cb8f-4f2f-bc66-287e9d071e33
7ab3dc4e-8ef7-4978-85d5-d33eb193476d
3afd808a-2cff-491f-b982-b8ae95e5351c
13898f28-9371-4ce1-a1e8-c845f283335a
b5e07090-2c41-48d5-bc94-18d510ac45ab
8e434507-c9ca-48eb-bdf6-5446dc37e213
4eed87be-dec1-4c9d-ad5e-c55cdf507d04
1c009429-715a-4707-a416-a1e9daa7c426
fe9658ca-7c8f-4444-8287-16dc80664d12
8b235f9f-ab09-4592-95b5-b72acb661ecb
e0d716e5-8fb6-4f42-ad56-fe8c1173f13e
3b2486c9-2200-43f8-ad03-f9e39aeaad2d
c31e202d-c36d-4aa6-bada-57d351eb17fe
8430549b-2036-4232-a094-8f84f36c3ad9
3cd068b2-c1be-456f-8c36-d4f5100f840f
1c3cbea5-e5c1-4b65-be43-a537533a0f7c
b375297b-87b5-4e0a-a7b8-b4c7e2f83e0b
b5b64ace-1707-41e8-9208-4d7d7ca19d4c
5ae67eb2-e89b-4263-af38-6184afed5498
0b13fb35-0304-4345-8e99-627574054463
1910e335-08bd-40b5-8fba-8aa54aead266
53fd1c08-b793-4806-80d1-da3fa7ce13eb
c29f4f35-5bde-4f40-abc3-faf8a24ab668
69a4f33c-f10d-46f4-a83a-e71c1a774833
1656a4bb-b0f1-4d03-9fd3-dedec797d85d
b515edd2-e615-466a-884b-af9e400de560
3306a835-5556-4c23-848d-f633c707b90c
da91db8e-b429-4ce6-9e6a-e7aaba387e72
8ae3978b-cc2d-42c0-9896-282c0dea0bc8
2a3f39b9-721a-4e73-af2e-0b12542a40ba
e7ff5a73-cbea-4ec8-9a81-740646aef18c
5bdc9f1f-08c7-4d09-abd5-b3939d622cf9
90e3e946-9047-48aa-a095-7360e882cb48
499e9cc9-1336-473b-a639-c2be5f24d96d
a7628176-1fea-4f71-8257-642bc6edb89f
2bcba13c-09ac-4223-8887-87afd26428b8
b0a8b062-e300-4981-908f-f66e50a038aa
730a81b6-79ef-4b50-9c27-0df611100cd2
f39bd29c-1540-4003-826f-81332bd27eb5
807d9dec-b70c-4fc7-9884-5f6150a7f782
916970da-4a34-45ad-aa88-80bed7b46ef0
5d1cb518-3d0d-4c33-b5f9-d826bd695aef
a31411b8-3dec-4240-8a9c-cda468f4dd63
97dc1ee0-c041-4ce2-bf4d-8f73f81b3c4d
198a58df-56c9-4592-b3d7-c0de71940185
f4682813-0418-4f36-9fce-db1278dac5b7
e0a1d779-46b6-4da7-aebd-30d2bbed7787
aa63f659-1960-4e7a-9959-e27d72a2b854
446c5dbe-5bab-412c-95cb-7fac605e5440
7ecbab7a-ca79-4562-ba25-f5945d0f9df6
3cc6e1db-17b9-404d-bc1f-73402bc529fa
b35a4a59-f27e-4418-8922-3dd9bfa94233
65220326-27be-4ca5-9d60-7e1f38970278
f6d9c410-21cc-478b-9c40-4305104bfd5a
7c45fa83-4337-46db-8581-2e2882e487f9
4ea931f4-cac1-4529-88bb-011ca080928a
7cf5c208-30e6-4a79-9358-8bf3026d381d
879c4e5c-7592-4e02-9a10-1689d807790c
f911494a-b4b4-4334-aee0-029d8d1969c6
909fbbbf-eca0-4368-a77c-486132b0c9cb
5e60de2a-2cc8-44aa-aebb-9841258388f2
2a7c2e58-4c85-4989-9ae0-04325fac747d
641610c4-bf27-4deb-a94a-153b5a6dcb31
3f0c699b-e930-4385-b814-eda31d555b20
32ff9b2f-5b56-4ea3-83cd-e455cd493394
5f4c48cb-bb58-43d0-ab8e-126f6ca01e83
948c2ad8-0ff8-4d29-94ff-7e4097481e64
6ec98dd6-830a-4242-93de-569fb6cce1bf
eae12b09-831a-42a5-8107-1b32d0788648
04e64e42-eebb-4fa5-9d2b-d501fb48082f
5a3e981b-ff32-40ee-b081-9a8720b00caa
045c50bb-fce6-4c7f-9cda-f194232ae252
5cc95013-97b5-433e-aabb-c148082a4bb6
3aaf019f-f31f-4f7b-9eb3-e01ffe328423
d714201e-a08d-4af8-ad0a-4f12ac4d5bb4
acba76c8-9775-44cb-b902-8d2b230d0762
4d84e648-0865-49bb-821d-2a696b1760ca
606c3705-cfe4-411e-9855-5577a6d67396
fd104689-d97c-4dc6-878c-75ebe6159cc2
8d771515-733b-4427-8c8d-a2a9bcd88bc6
750a7f4b-4389-4383-9e83-ff1f96cbbe59
cfd557d5-0609-4018-a77c-0e8fff716801
723f1b68-95d5-473b-aa95-82f6ae64df25
4f53eb3e-574f-47ec-b5ba-9fc5ece83304
3cab4cee-9cf0-42a5-9a81-a359e38aef77
9475afa3-9974-4a8f-b8e0-4abb896fec3f
a6ab316c-c0ae-42c8-821b-bdb4fb82dc85
48c0c2dc-a8cd-48d5-8388-88831ea1608d
9287507e-a1ba-43fe-9104-b0de3c465c07
8ced6793-e5af-4485-9437-877f98333cf4
14988711-883e-4d96-9585-c2f9e747d4ee
8dab2683-9fb6-44c1-b3be-8c639da0c847
b4cb4df2-9ea1-480d-ba10-dd7ab75fb71d
3e6d5c0c-568e-4ff2-a4ed-6fdc59c9308d
a25fa7fa-dc89-40ec-bdb0-d516d20f11bd
83f3ce90-d772-4846-9e14-f4fc73861be5
a2ca61d7-ef9c-4a06-a187-68533ca4339e
70b4bdf9-aaea-4326-8e84-dc45b8eed2dc
9498690b-17e7-4420-802c-dd5e4e6c7f24
e54d71ff-25bd-49d2-95d5-5ed0e441dfe2
9bd5603a-6a85-4f67-8d8e-c84aa05398b5
98d687da-22db-41b2-bfa7-55065c327552
d78268c8-a314-441b-8134-e3a952744423
72391ddf-1491-4c8c-a99d-4753b2aa87f5
e56069e5-6111-495e-8ac8-3b7edb070ab1
fc6256ad-c717-437e-8071-7f7ac6606809
887f9fde-a1e6-4fdc-95c5-f6c8c724f35a
15774db3-3a75-40d2-b851-9551e3cfaaf8
20dd2efb-4bd6-474d-96e9-8efcbca0659e
926506a0-76cf-486d-ba5b-55ae80dd9b6a
7f1c800c-72cd-4d2f-aecc-9540d1385a22
5e6e5af9-d45b-47b4-9fff-99368d70110c
257f868e-aa54-4804-8345-f8299e210e96
41425f91-b68e-4260-b4ea-92c2b812a230
7c984163-de25-4d9b-8efd-f54dc33d6743
8aeee5ed-b0a3-4204-b492-c76383e7f09e
eb286af5-c80f-4866-82d2-666030234a58
50040409-420b-4d31-a226-f68ad5badfe7
39d4a1ef-c792-4739-9f49-8f22bcedd253
e98b3ec4-659a-4e00-a631-380ecc4d3bbe
0ac491fd-e34e-4d51-8ed1-3e94fb21fa24
81055eb9-ed6b-4d6c-bc79-1b8357c8e119
592ae208-d3f2-43a0-98bf-d763111f1413
e3c19fc1-13cd-4ad5-9cf1-1edbadeb5be4
7a49868c-880c-4e7c-ae1d-6e3527868081
3382d730-3de2-4c90-91ac-d1ef8043e038
105c4dd5-3027-4002-90df-69cd247163d8
cd58083f-2e37-489f-87b0-bac27c9479af
0ba7ed13-0465-46ab-a489-0c4275d44b17
116fbd79-67e0-4410-bdf4-f81be57fbfab
fbe9c5ad-791d-4053-bd9e-f3792380e78e
7e9ef1d4-65d3-467c-b62d-6f0c8e8547a5
cc98e14a-7642-45a6-8782-abec3db6797b
126f0e01-fc29-4a48-8138-80b6c60b9800
f12b351a-46d3-4771-a8c4-8ba7462bbc73
3d428d87-6597-4875-8b2b-33d3c7d69adc
0e29abf9-7a6c-4b27-9e75-69d60cc3a7c8
ee84e57e-5845-4f05-9f70-ba50c1d347d4
721bc72b-6432-4b8f-ac71-4e3fa28fe6b3
56b61426-bf95-4c1f-823a-1193d03fa4b1
d18e0023-f110-445b-8f4c-ade14ac910cd
45fd7e30-fef3-4002-960e-895b2792e236
08b920c6-f569-4623-ac33-ca843b2c6728
24e900bb-1ef2-4f1b-a7cb-4dc4869ace3d
18cdbe35-da87-459f-84ae-ca1c66898b05
a671cb31-4c53-4e16-a014-4a5e3ebf060a
212a97c4-7dd7-4a9d-88af-0ed194e963a9
8ce60192-8a68-404b-bf1e-e859cf8dffc5
08b99c86-8ad4-48ab-ae11-945175f54814
e30a53d3-147e-4bd1-bada-54d68cd4837d
301bc5af-f62d-48be-b6ed-a8580630aaff
5016a7e7-7add-4c68-a154-ea41d92542fc
cec1cb05-1ed3-401a-8f68-62ad6f574e88
dd35a5bf-c846-4d51-b331-b90e9ee0a83f
c0b5b068-52d1-472b-b57e-aba321da29fb
84179c45-2bfa-41e4-81ad-98a1f05f5ccb
0ba6b5df-db1e-4a15-a8b0-3e296eed09ff
01cfde7a-87e6-4da0-9244-5bf433ccae87
bdaa9343-947a-43fd-9cb7-d1348539105d
49e5e83a-7269-4157-8183-704798fe641f
9f9e3a84-628c-4135-aa61-c92ff103858f
eb789c5c-30bb-421b-8051-e6a77f2e760e
f5ed66ba-b21c-4051-9331-34056ff6c2c5
c9f82a9c-a8f5-4bcb-afd5-36b006ce36ae
aa31269c-796e-442f-9028-6fc03acab8c9
0ab4f15e-7b91-4592-89ee-1484ff78e173
e0695532-eaa4-4972-9574-9a97326c0191
d4599e4f-2246-402f-9bb1-1dd89e833a55
b8b61d9b-2f46-4162-a102-d90b124ac7ca
e8fcebf7-c049-4310-8fe8-858529a8f859
0303fef7-edfa-4873-bbae-98a38c897254
3cf4bb7c-a925-4240-a3d8-7eea378fe27b
059164c7-6b2b-4524-a2ec-91d20b505f82
f29ff30b-d4a5-4abb-a68e-d1ab84767e64
5f1fdf99-c648-4141-8dac-247cc829c7e3
b1dc8865-1733-471c-8273-5ccb99d23eb9
6bed027f-0c6d-4d6a-ae06-211e90955df0
21b7944e-43fe-4d76-b76d-ca519dc5b9e2
451b4ba9-bb48-4596-9227-9b655004e462
c606e0db-7eab-4bc6-97a0-5b16db8c2c32
d81297e0-7846-4997-b213-5f876c396425
7cf78a42-23f3-42f8-913d-146bad92d6fc
17986380-1456-416e-980f-f93269265447
29aa6558-6ee6-440a-bf91-a86b1b5a394e
c3d5dfc2-a9d6-4390-a07a-b1f1eab66059
88a4dd88-3cab-4481-969d-8ef828f04f3c
057104a5-da14-4465-adb7-a6b71567ccee
74d139bd-8287-4ef9-83be-6731ed68bbcd
286a33d5-233d-426f-876c-1c7ab672e3a8
a6c861e4-2d7e-4fed-8943-133c5aa2eafb
ddf591f1-e023-4756-b173-578470c20a97
bec0252e-64d2-4f93-914a-2555c335a15f
c618c49b-800c-4570-af51-2e15f47c42d6
41170ec4-f57c-4333-97c2-c56b70718713
8fbeed40-e649-4fd7-8534-ea991a1269a7
c7c27d1c-f62e-49b0-8a67-3b68792aa784
c28036b0-1344-40dc-a948-e07a33ee23b5
90e1e751-acde-43d3-b9b9-81a1a9acae30
9e95edcb-b199-4f05-b26f-844de4cdcc63
73b1c826-f34f-486b-ab28-c4da85cd96be
50ded7c8-cc62-4b26-b8fc-838e868991fe
75d0e7f7-f144-45ab-adee-26dbe523e438
009b4af6-d991-45d7-af27-328088001c2a
6a794a16-cfe4-4656-90cc-c4428458b168
cc86d71c-7a2c-47a5-b3e7-3f469e79a9d6
d4d4ce07-5d24-4a48-9597-fe6936f6f7f8
be382158-35c0-4d3b-8081-b09845045841
648e7736-b3ae-448f-8553-b27485fb57f2
547a215d-f3da-470d-a021-424a4a057c2a
b014332c-8dcc-4bb4-a274-5dc12fedf119
b48a27a6-b8cf-472b-a5be-6a4a2e4f98d1
d179ecca-21d1-488c-9a0f-6eefcdfb24f4
115797f3-01c9-478d-90a2-8a5681d9804f
8a404304-84a4-401f-9112-b720e4f3659e
adca562b-0cf0-4517-be14-cbbf60f51446
560c7eea-8fc5-49be-a386-850a76555f61
68bd851a-f0fe-44f6-b300-1fc8e3414485
b0e4e660-4844-4c8d-99c0-81796cb87e3e
09b8b66c-286e-4f77-ac8a-945f370658c4
ba77d425-bce6-4543-bb04-aa7a6d4d6866
961e3cce-eef4-46f7-b96c-1b244e124049
3ecde35c-ec6c-49aa-a927-3f81b5b38619
0263057a-7306-4a9c-9940-a158f0e2592c
f27fbd3b-45d5-42f5-99bb-73149eda31f6
b065fde7-bfa5-4dcd-be61-c1486ab014df
aa3da55e-be0a-4179-a379-08c0d2b479b1
99360dc7-e477-496b-b779-c0a16e5d675c
877faced-509a-4cc0-8531-81c878ac2867
2a268b2f-7d64-4e86-a180-12243e40c023
e2b90752-f1b8-4837-9d3d-e8899c861707
ff56da9e-f68d-4948-9825-9cba081da346
322be989-e23a-4bd3-aba0-f71924364824
baf51e31-e4df-4eee-92e3-cc341c379a33
9ccb0eb0-bf0f-4d10-9856-68ee9fba40f3
a8b4195e-e6b9-4098-8ec7-e67bd3e91aca
63ab6f01-181d-4562-bbb7-03140744e5ee
76582c59-1f84-4d73-8bb1-cf4ffd90d4cc
6583e778-78c5-4dd4-9d1d-fe32d77005b0
5739d388-4944-4407-883a-7f7207e047b4
e2340f6a-30bd-43af-9d4f-f28bc575c2dd
a46cb32a-59b3-4d73-ad63-9dcb8fc18526
63ae0f6f-020c-4a53-9b28-789aa73f8b22
f48280d7-954e-4ccb-a00d-cc2024235128
5ed882be-8301-43e0-9bc6-62046b62db23
19e28cbe-28ba-4a94-9a8c-fccae47aeb82
9d363e70-1efd-4037-ac4a-147f1f452d16
283b0a61-89d1-4bb9-ae00-a70ead8e4335
881caa0a-bd0a-4e87-a5d3-faa188da9274
111cf829-8f5c-4c67-9163-5d750ad00e16
6896ad54-6c57-4474-87ed-bff3a8e569a2
5705523f-8d7a-43e3-8be4-71912d8c35ba
47999e85-06fd-4c7a-9b37-9fd6a3692d4b
e28d169a-e387-4b3c-abca-c820df290182
b9e77bb7-67aa-468c-8acc-34b748658bd1
56831c21-3d14-4bfa-a782-8b46f40a0674
dce3b82c-ea61-4809-8111-4062ec25881e
b1914280-7b9b-43fb-8856-659e2dbcc78f
56b6c9d0-d300-4900-93e3-ebebcd3a86e5
4f9a5141-e163-4a35-a024-6e18a1fbff69
fcc085d9-be08-4673-9974-55e80af092bc
d9f5833d-6c9f-43ef-9707-abf83200c8e2
f3e819ab-655c-48ef-8ad4-925d3a17a0c3
2f18a2ce-c5ad-4552-b3fb-8ae739c9be5b
f07e0aa8-37e0-4eaf-8b27-511496c95f3d
7aceb52a-e88f-46be-8d1b-0b56f6c3bc4d
87ea9f69-c4d8-4ebc-a0a5-dd8b19cbaf42
1d9803b7-1520-44bd-ba79-1dcda1fe2396
a4073309-764b-46ad-a2d6-72ba6a4c2ddd
beea516a-e482-48e1-8105-7a0626b48bcb
99b6c743-9df5-4f45-b807-4332be8ec19f
197a03db-e0fe-4eac-b91f-8ff0d921fb63
454ba774-fc84-473a-b6e9-32860e86c86d
94a8e554-fd85-4cfc-8bae-d3fe5b9a2b83
d68164ea-cd55-437f-8f8a-fe6fb74c882d
2511e3f8-1ace-41cd-81e8-2d4ab01cc957
4b4077d9-037c-4882-8713-364473c61ac9
2114bb58-d270-4603-94a2-552b80bcbbbb
ff3439d2-347c-4064-8a9e-b739b92034e4
817a9889-ab44-45cd-bbba-40e7acebbfba
f62c40e2-1d2a-4161-b3a2-51489ca268bc
bff529b0-be11-4d41-9136-a7c7a74a1a4d
1b2f380a-af9d-4831-9090-4551c479443d
112a923f-81e7-4548-857e-45bf5365e53f
7f5a295b-cc81-4484-ad20-eac685b59668
c0abcf0f-422e-4349-9933-9e2ee05e9e00
cfbeb4ea-eae6-41c6-b0fd-e2505c79865d
59ad7129-73ae-4703-89e6-c5d39ecd2126
40943544-39d0-4111-a28c-cf03f6240a6c
c86d5a27-6aa3-4d61-82e0-917eab12bbd9
3e8176b8-fd84-4a0d-9b3a-bd88de2899d5
99b6e729-06b9-4d33-83b6-ea70ca3704d7
7c59c52f-d688-4ace-830d-566b265d2544
cb91748b-d604-4e60-817c-8c2761f8eeba
7b28be76-0428-4f35-b551-761e5aa23aa6
59ff1a9a-44de-4838-805b-c563412cf6f0
263ad07a-d7d1-4bca-95ec-25d145be79cb
26c3bd88-70c7-4c24-830b-a54ef6ea1a5b
7e665682-4ca6-40b3-9ea5-b49d356c3468
c02dc847-b7cd-4571-8cc3-b4d0e92c8119
e0b84048-66ef-4307-92b1-260e8372ab29
3da10f91-71fe-4b75-8ba4-04e169bc8f51
084d05d5-48a8-48e0-802b-e63c70b18b90
36832a92-f47e-425e-a820-f8a9b157eb60
e645a5db-6acf-451e-abc0-6e5970067a48
9b1b5570-5e9c-49f3-a93c-d0f9a7481b37
d01f8f82-3b11-46b7-a4ef-9a2f78164ca7
0e8b94ce-28a7-489a-af2b-ae54e8de33e2
025ac63a-bac6-48d7-b861-47a7b57290e1
6a26991f-015e-4335-8242-aabb1ad4500f
116a1553-0c48-4291-9e60-acd27c1fb631
643f635e-a56c-4696-8fa0-4efe6b7dc0a5
f9b6160f-93da-4320-ae48-15371e2349cf
fec789a2-7b1f-4b4b-b446-5ead1bbe38ce
d388237a-d905-4227-b211-863e85ff16be
dbd8f97d-4a52-4300-bac6-576fa2ff698d
06db6827-fa76-4de5-b846-564176ee4134
947db38c-14b8-4e80-9313-a46d550699ca
720e5052-e778-43f8-8446-03a0c5ef5d7b
396f52f6-90f4-4944-af53-5a09a92eecb1
5a776e95-4b8e-4a7d-9c9b-ba1b446b2674
53f2896d-8d4c-4bd6-8f38-8ace1f7539f4
0bd7e027-6810-4ca7-a31b-7326b37d5c97
9deb6b5d-8567-4387-aa6c-4920923cf51d
c8838657-93c5-48f3-8d9b-a0162b4d31e4
1434c0c9-284f-4d80-8106-db7e8712ef47
cc567925-a91c-4dc7-8d03-cd2e572fc172
9e6196cb-77ef-40b9-ac7e-5fffc3d67659
7491dbde-e8ad-4f4d-9c49-76959d9e2bbe
f6ec914b-eae1-4c94-a9cb-fb25c825ef74
69050957-4194-417a-8295-208c1d0064cb
b3beddf7-a612-494c-ac23-5832f35ae401
b611e54c-5bad-460b-9958-f53be10abe27
b811bf8a-7591-4ce9-b014-124f0067d710
a9dec65b-33f3-4be6-abd8-cccf1b381518
e758b87d-701e-4c4b-a1e1-ae55ee10ab50
99bc8656-a00a-4c1c-9857-de48937773ca
f4cf38b0-de1c-4a6c-b0e1-808cf48be870
d2218ed1-5fbd-49c7-a785-950e3f0d13c1
30c2e0a9-0acb-4554-af5e-8d1c2f5aeb55
d4cae488-9545-41aa-bc2b-828ac07dc623
adaa26f4-df7d-404f-bca0-542e5a1edb07
9781cb7c-dad0-4f83-b0f8-d13b104df6c5
e371ec26-42a0-47f0-90fb-2e54301c5409
6a5df0c2-40c5-43e3-9d47-ab956e0fc14b
cef1bec0-36ba-433c-9ea7-c408d6924e99
15f7b10c-7c49-4bfb-a459-5316be002b33
8cefd0bb-33b7-4f10-bbea-b5c22837861b
74a4ee0c-be8c-4d41-af30-29b0fe24a80d
d9282bad-d69a-46fa-908f-ba0144a8d4f2
94bb7f39-b1d7-4a6f-848c-fba069425ee3
e506fb77-8974-4a8c-b774-6debbb5db1bf
7d235a16-d079-4cba-a1db-15fbf1b8b8d6
29fb6b12-466d-4a30-9f2b-177d79a3d275
fc760463-2b66-40a1-b359-121d0905b604
035d14a6-82ec-4a85-ab6e-11422e7c9bbb
ec7dd61a-11ac-42b9-85a8-7f8ebf9fb83c
cc604aaf-8c55-46c1-8d90-b4b87c9228d2
b1b13b9e-7f9e-4dfd-b47d-73f4e88b8dde
f9f5fde8-9921-4bf1-afb8-ac0100fdc42e
f4a3e924-3b3e-4229-b01a-faa17e2cdbbf
2d608f8b-3ce9-4408-afbc-9dc11b7d715d
68172449-34a2-4f40-985a-687b62b3aa9b
70dc5e93-4ca9-4e3d-a38d-fe4ddcf23362
58730233-4368-4f1f-a9f9-c7d9790d6e8a
d6f9d2a8-2fb3-46c2-b977-af4ae315a08c
0bfa7dbd-a9a7-4aec-96a7-c56bbeeac557
9653cc1d-d067-434b-86b2-060f95ed5e61
6f8faab1-f276-48ba-8e76-94da01a3e64d
da614a6a-1160-4e2d-b4c6-29fb16f19efb
d5a05ad6-b59e-4c4c-85b9-8f3c58cebcca
b745f3a9-0921-416d-ba29-193fef895560
b2837287-0813-4579-a00f-63a218b25f11
e05c71f3-2a9e-4eff-bb3e-a43e6bb25851
d0811630-ae48-46ca-a3c5-b28dbfaff595
1872b17d-2fa6-4962-98ae-903277094c0c
52e59902-a720-4aca-b7d8-9831f74f07f6
fb618ca1-d331-40a5-8a16-a37487da1db5
47664291-cbf8-42ad-ad4f-24134f4373a1
25eee6c2-86d6-413f-b950-2e0e977a889e
2d49db3f-6468-4f74-8513-be40b7215151
e9cba39f-4d97-4930-9dc9-f5fa5fae496f
3fa3094c-e109-4754-8e7f-74e84cbfa405
24c7d09e-a53d-4275-b028-a1499ef5a143
79f15825-6d6f-46c4-becf-ddaaae093b4b
1a765014-6084-4f91-b40b-78da4d4803f7
74e1fbca-499f-4bd8-a2db-357ef525522d
e4573464-1b5a-45c7-819f-8470706ecf82
ca83277d-6495-4360-9ac4-8bdf5d74ecae
ffbd0cf1-27e2-4171-89f5-a5a8ee575171
2b196a76-89ac-4437-ac28-644f66f825c6
424c50e1-dbb1-4256-88de-43fc616b601a
e96394cf-9012-49b2-abb1-32ce7a644c8b
26bcb114-9bd1-4ab2-b3d1-f8a6ab969c6d
42294968-902a-4b58-bfbd-a84aa54754d3
aeddcec6-300f-4efb-b3ea-a68497e7a66c
3a0c7b42-9c22-4695-93d1-691b07c8b1ae
8a0a9951-a33a-48e6-a5fe-2c1b818d6f7f
b32192eb-9d80-4cad-a8a2-0494c51a6aab
e8bdd00d-43bc-4224-b7e3-8975da49df9f
b1d2d4b1-9b83-4b91-bd34-9ce36270c5a8
ccd5ba59-2716-4e44-b92e-bae29d59069b
b29d60ad-04a7-4c98-ab15-1cf3f5b7972f
5e84b4a4-6d27-4f29-ba34-41fe36811081
de445515-0df5-42c5-8be6-5e49c2e7eac4
289ddb54-eb1b-415f-98aa-b5668de9698a
088247e7-1f40-4a28-9835-72ceba45e6f2
a2879124-efa7-462a-bd09-fa80efa84ec6
0346ffef-12c2-4d6b-894d-3509541742f9
0bc49ef2-8af2-4a68-b87b-bef1a9bf017a
1c20f33a-67cb-4c62-b7e5-e42a85fe3f57
ee33f652-8086-4823-8795-cfadda379b42
4736598c-88ff-40d6-8876-09656d9cf82b
7f113930-5aa8-4c7f-ae14-2b160870d5ae
efe051ce-d298-43b3-ab4a-89fa9a771489
01616905-0971-479e-a09a-b2c92313f2ed
c55dba35-226a-4c1c-b2e3-e75e2c8201fb
1589978e-0e64-4b64-ad6c-a5ed3b3f4040
40d54fff-0a88-4c3b-9d29-13c52d87a52a
840be21c-8ed6-4ae1-854f-5a3664543a31
5ca8301d-77a0-4f1e-b5c2-bbdf14cbd9c2
790a1118-85d4-45bb-a808-e8acd43e0510
bc52f20b-19a2-4082-9ecb-3620c05d8050
bc19d588-b94b-4893-9806-17a8e1a85a1a
6f0caf69-9ac5-45f7-bcde-ee8e243d6f28
dcf4e4ca-2da6-4a81-ab3a-03590fc35604
1e9f169d-950d-462e-9437-06f2ffea62fc
c9278630-dec4-4015-9253-00ed39e89a66
3d020586-bba2-45a8-adfd-56eabfc05d02
224fe962-c58e-4b2f-a1f3-8d2b4fadf231
b3366c92-62db-49c1-8be4-4f29d35dd553
2595e9e2-69b3-4391-8d36-7c58438ec83c
237eaa93-6f5d-4db9-b41d-73e2511627ab
300c6bff-e9b8-48a0-9240-bf28577f3bef
f70567dc-1ac1-49d4-9308-08e856c6ecf6
4b676cf3-e56a-4c1c-8c58-f9304601e8b2
2122a1b9-d015-40cf-ba6f-1a95adf12a58
1588f699-ad46-4bf1-9342-8243370866e8
1e1f0275-e044-404b-b92c-d02eea063d94
11c7ec50-f989-4bc7-81bf-e3d4be472c2a
43eef6a7-3d2a-4773-9bd5-44c0bde04931
ad709f05-eb7f-4f2f-886a-828fa2040633
3522f513-cf89-4424-9a39-6492cfb0e821
68c5046a-634b-4f7f-a11d-695cf5e2ce3c
ef575673-1bb7-46d5-ab84-4ddecde30dfd
7d98535d-d17a-469e-8a3f-940f4446ec92
f8610765-a0c9-45a6-895b-31117da0d6c3
cd02500a-6584-46f1-a24d-646470879b29
548a4f8f-ba8a-4db9-9407-1b7a6c9f1d10
8442d5d0-7f10-4090-a2cc-d6a3fa7dc20d
7cda6e85-70a8-4e35-85c1-03e8ac6eaacd
ec173289-d01b-48b9-8d92-77c7ee725d55
3a5ea740-63f1-43d2-8951-640b7ea80fa1
0a96379f-bcfa-4f44-bbfb-0723824eafbf
f2a057e2-1a65-4496-845e-6a044fe21b54
4ea5fa4d-1558-4691-89cb-a4a8f7d0ca62
eb4bf42b-604b-4826-a087-c0b31349b62f
398c4774-4faa-45df-be20-be4ecc350d4a
16d26336-b036-47e6-8a70-15ebb127dc93
b4db6bb0-2727-40a7-9630-c7e23793717c
b9a6c17f-5da6-443f-894c-7b42bdbf6ecd
5c07591f-4e71-4c5f-b459-482219aa0b73
f1c6aec3-6761-4111-87b3-c55a4804b305
6f4bce3d-1b1d-4e70-896a-cb65d712dc06
a99366d4-f345-45cd-a518-f06c74593ac0
90694b83-d0dc-412c-8c34-30f17da26747
b5952d0b-f021-4b70-ba68-114af89ce444
a6c00ce9-5028-42a9-b04f-de4a156211bd
ea9900e2-b605-4004-bbcd-fcb17bc07b28
fdab67b5-e4c6-4b2f-b29b-3b20df477b56
5ffaa522-a5bd-4c39-9eca-93faa32bfac6
8f7b7efd-6cd6-4056-b660-236e9c891237
30ef9595-99bb-4582-bc5c-e6fcf49b5217
f167a119-06f3-4274-8aaf-27ba768d8bd7
1c6d20f1-a110-475d-ac7b-278fe859fb4c
e39c2848-902e-415a-a231-bbdc08e7e3dc
28d418f6-47b2-4ed0-9516-36e228820e6d
18b4c33f-e661-4c26-ae57-2e9f4de9ef69
c189c6b2-a030-40af-acb1-52352172e5a3
1c1ab1d9-627f-4d24-bc19-9818116e998d
d0898f2a-2ea8-4055-8db5-fdcc10828c23
ab6f2ef9-9f1e-435a-8199-1c7682a2902e
590276a6-3672-49af-ba4b-b3461fe98394
044c6e91-672f-4298-b9f0-195f6bb86cb0
f5a52d24-e106-4aaf-a44a-6f0ad5759fcf
722d6204-3bf5-4ee0-bc65-06299a7cb2b0
e30a7571-60f3-4833-94fc-060c265289bc
595c9616-b903-4a4c-939b-96d30949ec5b
8bd30ab4-9c50-4802-b861-fc3337ec7949
582f921b-287d-473a-a103-5b16a2625080
897a7184-f008-42b2-9c5d-fb7cc8c929a9
dc4fb967-d7c3-4b9b-816b-27b9f7543a8e
86c6d8f8-04be-4fa9-92cd-9a9fc7854549
c5bdf349-34e3-404d-b004-96a2e5a1f2ae
8f5132cb-dd47-4370-ac29-9fc3e5d36d2c
5a834f41-3217-4eac-80a1-2f371140cd79
66a7995c-a746-4777-8f7c-4ff3c57fe04d
72ef2e73-0b00-4d67-a40e-b1a442b91bd7
59118661-5a8b-4459-9657-e235aca62a34
cbacbb6a-e8ca-4084-bf2e-2520fa44daf4
d8c06bc9-295b-4829-901c-2692047f82a0
aba2d8a1-1b93-4551-8cec-9e404a665f4d
6ae4f76e-5372-48db-b067-8cd8f48b0ce3
0ec415cd-58a6-4acb-8c88-5ca0d2c89c35
0afdd4b5-29b5-4a94-afac-50f5b5a22082
c011e62f-5755-4828-8b38-ea0f235fde81
4b9a599c-5213-4860-92d5-7d5c23159d24
5c911f2d-b445-4ed3-9254-2c705713d363
46ae2cc2-2a66-4727-b499-14b21feab83d
6d16f0ba-603f-40e6-b91f-32023181ec06
9393170d-7cd3-4326-8e46-7c11be58aac9
d98a91a2-1f0a-4e66-a77d-297716be2db2
da1139f0-acfd-4070-af4a-a3bcb2c3b4c3
7b4c2b6c-f3f6-4a96-a9cc-7d790a2adbcd
958b7040-9b39-43fe-9d1d-13ee4819789b
4124e610-4247-4e8a-a0ed-6d022358ec41
f156b01d-8c18-4ff8-ba31-31cfe29d5747
a11fdb43-a2e8-4840-88e2-e709cb7fcc0b
b3bd0dd7-085e-4ec4-8b19-11227bfcfb80
020aeaf9-cde7-450a-845d-66318783e60d