function,runtime_seconds,column_length,avg_row_length,avg_num_hinges,max_num_hinges,num_branches
learn_structures_for_single_column,0.819995880127,1000,10.0,2,2,1
learn_structures_for_single_column,0.800805091858,1000,10.0,2,2,1
learn_structures_for_single_column,0.771586894989,1000,10.0,2,2,1
learn_structures_for_single_column,1.37586593628,1000,21.0,5,5,1
learn_structures_for_single_column,1.28125,1000,21.0,5,5,1
learn_structures_for_single_column,1.41790986061,1000,21.0,5,5,1
learn_structures_for_single_column,2.04896187782,1000,32.0,8,8,1
learn_structures_for_single_column,1.91431999207,1000,32.0,8,8,1
learn_structures_for_single_column,2.78480601311,1000,32.0,8,8,1
learn_structures_for_single_column,0.762050151825,1000,10.0,2,2,1
learn_structures_for_single_column,0.772145032883,1000,10.0,2,2,1
learn_structures_for_single_column,0.881675958633,1000,10.0,2,2,1
learn_structures_for_single_column,1.35419797897,1000,21.0,5,5,1
learn_structures_for_single_column,1.31592011452,1000,21.0,5,5,1
learn_structures_for_single_column,1.29366803169,1000,21.0,5,5,1
learn_structures_for_single_column,2.01203107834,1000,32.0,8,8,1
learn_structures_for_single_column,2.05255699158,1000,32.0,8,8,1
learn_structures_for_single_column,1.93011307716,1000,32.0,8,8,1
learn_structures_for_single_column,0.802097082138,1000,10.0,2,2,1
learn_structures_for_single_column,0.821995973587,1000,10.0,2,2,1
learn_structures_for_single_column,0.820940971375,1000,10.0,2,2,1
learn_structures_for_single_column,1.42962503433,1000,21.0,5,5,1
learn_structures_for_single_column,1.40381979942,1000,21.0,5,5,1
learn_structures_for_single_column,1.32401990891,1000,21.0,5,5,1
learn_structures_for_single_column,1.92666602135,1000,32.0,8,8,1
learn_structures_for_single_column,2.30917406082,1000,32.0,8,8,1
learn_structures_for_single_column,1.84375786781,1000,32.0,8,8,1
learn_structures_for_single_column,0.681407928467,1000,10.0,2,2,1
learn_structures_for_single_column,0.705194950104,1000,10.0,2,2,1
learn_structures_for_single_column,0.979882955551,1000,10.0,2,2,1
learn_structures_for_single_column,1.56590509415,1000,21.0,5,5,1
learn_structures_for_single_column,1.55538606644,1000,21.0,5,5,1
learn_structures_for_single_column,2.18973708153,1000,21.0,5,5,1
learn_structures_for_single_column,2.94341301918,1000,32.0,8,8,1
learn_structures_for_single_column,2.19421410561,1000,32.0,8,8,1
learn_structures_for_single_column,2.15497207642,1000,32.0,8,8,1
learn_structures_for_single_column,0.797562122345,1000,10.0,2,2,1
learn_structures_for_single_column,1.04060697556,1000,10.0,2,2,1
learn_structures_for_single_column,0.934091091156,1000,10.0,2,2,1
learn_structures_for_single_column,1.69493198395,1000,21.0,5,5,1
learn_structures_for_single_column,1.63564419746,1000,21.0,5,5,1
learn_structures_for_single_column,1.96198415756,1000,21.0,5,5,1
learn_structures_for_single_column,2.16758203506,1000,32.0,8,8,1
learn_structures_for_single_column,2.18469285965,1000,32.0,8,8,1
learn_structures_for_single_column,2.01120781898,1000,32.0,8,8,1
learn_structures_for_single_column,0.865978956223,1000,10.0,2,2,1
learn_structures_for_single_column,0.875516891479,1000,10.0,2,2,1
learn_structures_for_single_column,1.05301094055,1000,10.0,2,2,1
learn_structures_for_single_column,1.33015608788,1000,21.0,5,5,1
learn_structures_for_single_column,1.37718987465,1000,21.0,5,5,1
learn_structures_for_single_column,1.28956484795,1000,21.0,5,5,1
learn_structures_for_single_column,1.93587899208,1000,32.0,8,8,1
learn_structures_for_single_column,2.01177406311,1000,32.0,8,8,1
learn_structures_for_single_column,1.72993397713,1000,32.0,8,8,1
learn_structures_for_single_column,0.7783639431,1000,10.0,2,2,1
learn_structures_for_single_column,0.92197394371,1000,10.0,2,2,1
learn_structures_for_single_column,0.670745134354,1000,10.0,2,2,1
learn_structures_for_single_column,1.62606906891,1000,21.0,5,5,1
learn_structures_for_single_column,1.25470900536,1000,21.0,5,5,1
learn_structures_for_single_column,1.40527796745,1000,21.0,5,5,1
learn_structures_for_single_column,1.99294996262,1000,32.0,8,8,1
learn_structures_for_single_column,1.97424888611,1000,32.0,8,8,1
learn_structures_for_single_column,2.77064204216,1000,32.0,8,8,1
learn_structures_for_single_column,0.986253976822,1000,10.0,2,2,1
learn_structures_for_single_column,0.911980867386,1000,10.0,2,2,1
learn_structures_for_single_column,0.829957008362,1000,10.0,2,2,1
learn_structures_for_single_column,1.42527604103,1000,21.0,5,5,1
learn_structures_for_single_column,1.71158409119,1000,21.0,5,5,1
learn_structures_for_single_column,1.61555409431,1000,21.0,5,5,1
learn_structures_for_single_column,1.95802211761,1000,32.0,8,8,1
learn_structures_for_single_column,1.98283195496,1000,32.0,8,8,1
learn_structures_for_single_column,2.40022087097,1000,32.0,8,8,1
learn_structures_for_single_column,0.862350940704,1000,10.0,2,2,1
learn_structures_for_single_column,0.917662143707,1000,10.0,2,2,1
learn_structures_for_single_column,0.743515968323,1000,10.0,2,2,1
learn_structures_for_single_column,1.3310739994,1000,21.0,5,5,1
learn_structures_for_single_column,1.36700701714,1000,21.0,5,5,1
learn_structures_for_single_column,1.31863379478,1000,21.0,5,5,1
learn_structures_for_single_column,2.10055398941,1000,32.0,8,8,1
learn_structures_for_single_column,2.32158708572,1000,32.0,8,8,1
learn_structures_for_single_column,2.05680704117,1000,32.0,8,8,1
learn_structures_for_single_column,0.702435970306,1000,10.0,2,2,1
learn_structures_for_single_column,0.738414049149,1000,10.0,2,2,1
learn_structures_for_single_column,0.988734960556,1000,10.0,2,2,1
learn_structures_for_single_column,1.57397294044,1000,21.0,5,5,1
learn_structures_for_single_column,1.775867939,1000,21.0,5,5,1
learn_structures_for_single_column,1.55322408676,1000,21.0,5,5,1
learn_structures_for_single_column,2.0850880146,1000,32.0,8,8,1
learn_structures_for_single_column,2.0580599308,1000,32.0,8,8,1
learn_structures_for_single_column,1.8517768383,1000,32.0,8,8,1
