1983-06-24-1971-09-21-1983-06-24
2011-06-27-2005-08-31-2011-06-27
2009-01-28-1974-02-15-2009-01-28
1979-09-10-2015-01-26-1979-09-10
1996-07-27-1984-07-28-1996-07-27
2006-04-17-1981-08-04-2006-04-17
2007-12-09-2010-03-25-2007-12-09
1974-05-14-1975-10-31-1974-05-14
2002-09-06-1994-08-18-2002-09-06
1998-07-01-1996-09-03-1998-07-01
2015-12-19-1979-05-11-2015-12-19
2004-01-22-1979-01-16-2004-01-22
1973-01-28-2003-04-18-1973-01-28
2012-09-19-1987-12-24-2012-09-19
1984-11-26-1973-01-08-1984-11-26
1974-01-13-1970-01-30-1974-01-13
2005-01-28-1996-07-07-2005-01-28
1986-10-09-1988-08-21-1986-10-09
2012-06-26-1988-08-15-2012-06-26
2002-03-23-1980-12-29-2002-03-23
1981-09-09-2008-04-03-1981-09-09
1974-02-14-1976-04-10-1974-02-14
1984-12-28-1977-04-29-1984-12-28
1992-02-01-1995-09-16-1992-02-01
1975-09-23-2013-12-01-1975-09-23
1973-07-06-2014-07-10-1973-07-06
1991-12-06-2013-09-30-1991-12-06
1991-04-09-1987-04-08-1991-04-09
1977-08-06-1995-03-03-1977-08-06
1992-10-20-1993-03-26-1992-10-20
2005-09-11-1984-05-01-2005-09-11
1982-10-04-1992-05-19-1982-10-04
1992-11-06-1982-04-29-1992-11-06
1989-01-06-1999-05-29-1989-01-06
1981-08-24-1982-02-16-1981-08-24
1981-06-29-1974-03-21-1981-06-29
2010-07-31-1995-03-19-2010-07-31
1989-07-19-1983-04-27-1989-07-19
1991-08-07-1998-09-05-1991-08-07
1996-06-09-1974-08-22-1996-06-09
2012-01-15-1988-11-04-2012-01-15
2007-01-05-2001-06-05-2007-01-05
2002-10-01-1979-03-21-2002-10-01
2005-05-08-1991-11-02-2005-05-08
1982-03-03-1997-06-15-1982-03-03
1997-09-10-2007-08-07-1997-09-10
1981-02-03-2015-06-06-1981-02-03
1985-11-10-2010-04-04-1985-11-10
1977-05-18-1986-12-06-1977-05-18
2007-12-26-1983-11-05-2007-12-26
1975-04-10-2012-04-29-1975-04-10
1972-12-06-1977-10-12-1972-12-06
1981-07-31-1995-12-19-1981-07-31
1973-04-06-1991-01-31-1973-04-06
1987-07-06-1982-04-20-1987-07-06
2014-12-31-1993-02-14-2014-12-31
1975-10-01-2001-12-08-1975-10-01
1980-04-29-2010-06-01-1980-04-29
1972-01-23-1996-02-20-1972-01-23
1973-04-14-1987-06-01-1973-04-14
1990-11-10-2005-06-10-1990-11-10
2006-07-28-1979-09-09-2006-07-28
1995-05-19-1988-06-04-1995-05-19
1977-07-09-1975-01-09-1977-07-09
1996-03-22-2011-01-10-1996-03-22
1987-08-19-1998-04-12-1987-08-19
1986-09-09-2002-10-31-1986-09-09
1991-08-20-2007-05-25-1991-08-20
1991-10-28-2011-08-02-1991-10-28
1990-12-04-2006-03-12-1990-12-04
1970-11-17-1998-05-02-1970-11-17
1972-10-28-2010-03-24-1972-10-28
1998-01-15-1975-08-27-1998-01-15
1991-07-06-1993-06-12-1991-07-06
1994-07-03-1970-05-18-1994-07-03
1981-11-02-1970-08-23-1981-11-02
1992-10-16-2011-10-08-1992-10-16
1990-06-04-1988-09-20-1990-06-04
1978-07-20-2005-10-20-1978-07-20
2001-07-30-2015-09-30-2001-07-30
1985-01-19-2005-05-23-1985-01-19
2002-04-17-2004-08-29-2002-04-17
1985-01-07-2009-01-22-1985-01-07
1972-10-15-2014-05-17-1972-10-15
1984-03-10-1987-12-20-1984-03-10
1991-11-30-2014-07-12-1991-11-30
1998-09-23-1973-01-19-1998-09-23
1999-04-13-2009-07-30-1999-04-13
1983-08-05-1972-10-09-1983-08-05
1984-04-15-2014-06-24-1984-04-15
1995-06-26-1980-10-26-1995-06-26
1987-04-10-2014-03-14-1987-04-10
1989-06-17-2003-06-06-1989-06-17
1989-02-03-1977-01-17-1989-02-03
2016-01-21-1982-07-01-2016-01-21
2002-03-01-1982-10-21-2002-03-01
1977-06-19-1983-06-30-1977-06-19
1983-01-16-2010-03-16-1983-01-16
1979-11-16-2011-03-04-1979-11-16
2006-03-18-1981-03-29-2006-03-18
1970-08-27-1999-03-25-1970-08-27
1992-11-19-2014-09-25-1992-11-19
1982-02-04-2009-09-08-1982-02-04
2014-06-22-1971-07-11-2014-06-22
1981-05-02-2014-06-24-1981-05-02
1980-10-11-1987-09-07-1980-10-11
1979-09-18-1975-12-11-1979-09-18
1987-03-14-1971-08-15-1987-03-14
2005-10-07-1979-11-03-2005-10-07
1989-04-20-1992-01-03-1989-04-20
2001-09-18-1999-12-08-2001-09-18
1973-06-11-1979-03-07-1973-06-11
2005-09-27-1983-06-13-2005-09-27
2005-12-04-1981-04-23-2005-12-04
1979-12-02-1972-12-04-1979-12-02
2000-02-22-1977-09-13-2000-02-22
1971-03-08-1982-08-06-1971-03-08
1978-01-26-1990-12-01-1978-01-26
1978-06-20-2009-10-14-1978-06-20
1986-11-09-1986-01-02-1986-11-09
2005-08-13-2006-07-09-2005-08-13
1973-07-21-2009-07-23-1973-07-21
1999-11-27-1984-03-13-1999-11-27
1989-09-04-2007-02-19-1989-09-04
1988-10-02-1983-12-20-1988-10-02
1995-12-01-1993-08-13-1995-12-01
1978-04-27-2004-07-11-1978-04-27
2014-12-10-1974-12-01-2014-12-10
2001-11-01-2007-09-16-2001-11-01
1975-09-18-2005-04-21-1975-09-18
2004-08-21-1982-08-12-2004-08-21
1975-07-08-1999-05-08-1975-07-08
1972-09-07-1978-08-25-1972-09-07
2008-06-06-1990-06-13-2008-06-06
1976-12-27-1980-02-21-1976-12-27
1998-11-16-2005-04-05-1998-11-16
1975-06-26-2016-03-05-1975-06-26
1979-12-26-2011-07-21-1979-12-26
1992-03-17-2001-04-04-1992-03-17
2009-04-09-1972-03-24-2009-04-09
2001-11-22-1987-03-02-2001-11-22
2012-11-29-1972-07-12-2012-11-29
2000-01-15-2013-05-15-2000-01-15
1975-03-16-1988-12-08-1975-03-16
1999-08-24-1975-10-31-1999-08-24
1988-09-03-1998-07-22-1988-09-03
2000-01-27-1984-04-20-2000-01-27
2001-06-16-1997-04-29-2001-06-16
1990-02-14-1998-11-02-1990-02-14
1986-06-19-1984-11-08-1986-06-19
1986-12-01-1981-09-20-1986-12-01
1994-08-03-2004-05-22-1994-08-03
1990-09-30-2009-05-03-1990-09-30
1973-09-13-1984-07-18-1973-09-13
2006-10-12-2007-07-26-2006-10-12
2000-07-02-1995-12-09-2000-07-02
1990-11-27-1991-09-15-1990-11-27
1974-06-21-2016-01-03-1974-06-21
1983-03-15-2006-03-07-1983-03-15
1987-05-17-2011-07-05-1987-05-17
1972-07-23-1977-04-15-1972-07-23
2005-04-09-1978-10-10-2005-04-09
1984-06-09-1997-03-22-1984-06-09
2013-12-11-1990-03-18-2013-12-11
1994-07-14-2016-07-29-1994-07-14
1988-12-03-2000-12-24-1988-12-03
1973-08-07-1980-08-16-1973-08-07
2014-06-05-1981-11-28-2014-06-05
2008-03-03-1974-05-14-2008-03-03
1999-10-24-1991-12-16-1999-10-24
1984-04-30-1997-03-14-1984-04-30
2016-09-08-1979-05-14-2016-09-08
1998-11-03-1972-11-04-1998-11-03
2001-05-19-1979-02-28-2001-05-19
2015-03-14-2000-10-26-2015-03-14
2012-10-13-1995-12-13-2012-10-13
1981-02-13-1978-04-06-1981-02-13
2000-08-23-2013-06-24-2000-08-23
1986-11-26-1979-10-23-1986-11-26
1992-12-24-2005-04-14-1992-12-24
1983-01-27-1987-05-15-1983-01-27
2003-03-12-2005-05-28-2003-03-12
2012-06-30-1982-11-27-2012-06-30
1989-05-17-1993-07-24-1989-05-17
2012-01-10-2000-05-02-2012-01-10
2003-03-04-1994-04-15-2003-03-04
1992-08-02-2007-05-10-1992-08-02
1989-11-06-1973-04-01-1989-11-06
1977-06-01-2011-02-28-1977-06-01
1981-12-01-1993-03-08-1981-12-01
1979-02-26-1993-09-22-1979-02-26
1975-03-27-1991-09-10-1975-03-27
1999-04-22-1993-02-16-1999-04-22
1980-07-09-1981-07-12-1980-07-09
1980-10-24-2011-11-29-1980-10-24
1975-07-15-1980-01-19-1975-07-15
2015-04-02-1981-07-11-2015-04-02
1997-03-21-2016-05-06-1997-03-21
1976-07-11-2009-03-30-1976-07-11
2005-11-29-2004-04-19-2005-11-29
1990-03-10-1970-02-07-1990-03-10
2012-10-31-1972-05-21-2012-10-31
1989-06-05-1989-01-11-1989-06-05
1972-08-09-1980-07-06-1972-08-09
1971-07-25-1980-10-16-1971-07-25
1970-12-04-2002-07-02-1970-12-04
1994-06-30-2007-06-10-1994-06-30
2007-05-18-2003-08-06-2007-05-18
2010-11-27-1979-12-30-2010-11-27
2006-11-30-2012-01-09-2006-11-30
1984-08-06-2012-11-05-1984-08-06
2015-12-11-1996-08-27-2015-12-11
2007-02-07-1974-06-01-2007-02-07
1985-03-02-1984-06-02-1985-03-02
1986-12-18-1980-02-29-1986-12-18
2010-06-23-1990-05-01-2010-06-23
1981-03-05-1985-09-29-1981-03-05
1988-05-04-1991-07-30-1988-05-04
2016-06-15-2015-06-06-2016-06-15
1996-11-12-1996-01-23-1996-11-12
1986-11-11-2009-10-03-1986-11-11
2016-07-20-1970-05-15-2016-07-20
1996-05-05-2012-08-26-1996-05-05
2011-04-13-1984-04-07-2011-04-13
1974-03-19-2006-08-26-1974-03-19
2008-03-17-1989-02-23-2008-03-17
1996-02-01-1990-08-12-1996-02-01
2014-12-08-1975-10-15-2014-12-08
1975-06-10-1989-05-10-1975-06-10
2016-08-02-1976-11-29-2016-08-02
1991-11-30-1988-04-09-1991-11-30
1985-09-10-1976-10-05-1985-09-10
1987-07-10-1974-12-10-1987-07-10
1971-08-30-1981-04-27-1971-08-30
2007-05-20-2005-08-20-2007-05-20
1973-03-29-1994-11-05-1973-03-29
1997-02-08-2013-09-05-1997-02-08
1981-03-14-1985-12-08-1981-03-14
1976-07-18-2013-02-05-1976-07-18
1977-04-15-2000-03-15-1977-04-15
1995-08-18-2010-05-22-1995-08-18
2009-12-03-1971-04-09-2009-12-03
1979-02-19-1972-05-13-1979-02-19
1971-04-21-1994-05-26-1971-04-21
1975-02-04-1970-03-15-1975-02-04
1996-08-29-2013-08-30-1996-08-29
1977-05-29-1987-07-30-1977-05-29
2004-12-06-2010-01-14-2004-12-06
2008-01-13-2007-04-14-2008-01-13
1982-11-28-1974-09-29-1982-11-28
2007-05-01-1972-04-28-2007-05-01
1971-12-17-1991-03-12-1971-12-17
1999-06-01-1996-02-15-1999-06-01
1990-09-10-1977-09-22-1990-09-10
2004-06-01-1980-02-14-2004-06-01
1987-07-21-1979-11-06-1987-07-21
2011-07-12-2014-08-27-2011-07-12
2009-06-17-1981-02-16-2009-06-17
1980-10-13-2012-12-05-1980-10-13
2008-12-27-2013-08-04-2008-12-27
1996-07-19-2001-11-07-1996-07-19
1975-10-03-2008-12-04-1975-10-03
1994-12-31-2002-09-09-1994-12-31
1988-01-30-2016-08-04-1988-01-30
1983-12-11-1994-03-03-1983-12-11
1974-03-21-2010-07-07-1974-03-21
1996-11-04-2007-03-12-1996-11-04
2011-08-11-2006-09-09-2011-08-11
1981-09-14-2008-02-16-1981-09-14
1980-07-03-2001-09-07-1980-07-03
2016-08-06-1976-08-14-2016-08-06
2009-07-18-2016-06-27-2009-07-18
1975-07-20-1989-09-07-1975-07-20
2006-04-14-1976-02-05-2006-04-14
1997-03-08-1993-09-21-1997-03-08
1978-05-08-1992-02-05-1978-05-08
1999-09-22-1997-06-27-1999-09-22
2007-04-17-1972-06-07-2007-04-17
2005-03-14-2006-11-11-2005-03-14
2010-11-15-1972-11-21-2010-11-15
2006-03-12-1974-03-13-2006-03-12
1983-11-15-2006-04-08-1983-11-15
1979-11-25-2013-05-23-1979-11-25
2004-04-17-1971-07-07-2004-04-17
1975-06-04-1978-02-12-1975-06-04
1993-09-29-2003-01-01-1993-09-29
2002-05-11-1984-03-28-2002-05-11
1988-12-27-2013-02-07-1988-12-27
1977-03-03-2014-01-01-1977-03-03
1975-06-16-1999-02-01-1975-06-16
1989-11-13-1979-05-03-1989-11-13
1999-03-08-1993-10-02-1999-03-08
1982-05-30-1990-08-25-1982-05-30
1972-03-05-1977-11-14-1972-03-05
1975-11-12-1982-06-11-1975-11-12
1993-05-25-2006-08-28-1993-05-25
1982-04-23-1973-08-22-1982-04-23
1978-03-12-1974-11-06-1978-03-12
1982-06-19-1992-10-11-1982-06-19
1973-08-02-1994-11-09-1973-08-02
2000-12-22-1987-08-17-2000-12-22
1998-11-21-1976-03-25-1998-11-21
1977-04-26-2004-08-23-1977-04-26
2006-04-11-1988-12-23-2006-04-11
1998-11-01-2001-01-23-1998-11-01
2009-04-30-1989-12-15-2009-04-30
1977-02-04-2015-02-27-1977-02-04
1992-12-24-2011-10-17-1992-12-24
1992-11-02-2000-05-25-1992-11-02
1972-05-27-1979-12-01-1972-05-27
1990-06-22-1971-06-09-1990-06-22
2011-12-28-1997-11-23-2011-12-28
1995-11-16-1994-07-02-1995-11-16
2000-02-02-2006-04-10-2000-02-02
1983-04-15-2008-11-04-1983-04-15
2003-03-05-1986-01-17-2003-03-05
1981-02-21-1993-07-27-1981-02-21
1976-10-07-1998-09-22-1976-10-07
2016-01-07-1999-07-04-2016-01-07
2000-04-12-1972-06-25-2000-04-12
2009-06-29-1973-10-16-2009-06-29
1972-12-16-1995-05-12-1972-12-16
1996-07-04-1975-02-12-1996-07-04
1984-08-16-1970-12-23-1984-08-16
1974-05-04-1972-09-15-1974-05-04
1971-06-12-1985-04-17-1971-06-12
2002-05-13-2006-11-25-2002-05-13
1981-02-09-2006-09-12-1981-02-09
1990-09-14-2007-06-07-1990-09-14
1979-11-01-1978-10-23-1979-11-01
2010-02-18-2010-06-10-2010-02-18
2006-07-11-1972-07-14-2006-07-11
2015-06-03-1981-05-09-2015-06-03
1981-01-02-1989-02-23-1981-01-02
2010-12-25-1985-02-25-2010-12-25
2006-08-21-1975-07-07-2006-08-21
1990-10-30-1988-10-08-1990-10-30
2002-05-17-1976-02-21-2002-05-17
2002-04-13-1991-12-22-2002-04-13
1986-05-13-1975-01-19-1986-05-13
2001-04-16-1994-09-25-2001-04-16
2009-09-23-2002-12-10-2009-09-23
2007-09-26-1997-12-26-2007-09-26
2016-07-10-1990-08-11-2016-07-10
2004-02-06-1991-01-13-2004-02-06
1987-04-11-2006-06-03-1987-04-11
1996-06-21-1990-12-07-1996-06-21
1985-11-15-1991-05-02-1985-11-15
1994-02-26-1989-02-26-1994-02-26
1984-01-18-1988-11-17-1984-01-18
2001-09-24-1999-03-21-2001-09-24
2010-08-29-1985-11-22-2010-08-29
1993-12-14-1993-07-15-1993-12-14
1982-06-09-1985-04-21-1982-06-09
1986-02-15-1987-02-02-1986-02-15
1972-04-10-2000-01-08-1972-04-10
2009-04-07-1977-05-14-2009-04-07
1994-04-19-1982-08-07-1994-04-19
1979-04-03-1989-04-05-1979-04-03
1981-12-19-1997-08-09-1981-12-19
2011-02-24-2016-03-26-2011-02-24
2012-11-27-1984-04-14-2012-11-27
1991-01-23-1982-02-22-1991-01-23
2010-11-22-2015-07-29-2010-11-22
1974-03-06-1979-05-24-1974-03-06
1975-03-28-1999-05-17-1975-03-28
2003-05-23-1990-04-17-2003-05-23
2009-10-31-2008-08-19-2009-10-31
2008-04-22-1993-07-18-2008-04-22
1995-02-09-2016-06-20-1995-02-09
2003-01-22-1996-04-25-2003-01-22
2014-04-08-2006-11-03-2014-04-08
2012-02-25-1986-10-28-2012-02-25
1989-10-11-1993-06-14-1989-10-11
1985-09-02-1977-12-08-1985-09-02
2003-12-06-1994-12-15-2003-12-06
2002-02-08-1978-05-12-2002-02-08
1994-12-27-2003-04-10-1994-12-27
1992-04-14-1974-02-21-1992-04-14
2006-03-29-1994-08-03-2006-03-29
1981-06-18-1994-01-10-1981-06-18
2004-03-17-1998-11-08-2004-03-17
1980-07-19-1988-10-07-1980-07-19
2012-09-07-2005-07-03-2012-09-07
1971-09-01-2013-08-02-1971-09-01
1975-09-20-1973-03-09-1975-09-20
1976-12-20-1980-11-07-1976-12-20
1989-08-12-2001-02-05-1989-08-12
1993-12-19-2013-11-21-1993-12-19
1988-01-22-1976-03-14-1988-01-22
1972-03-31-1998-06-20-1972-03-31
1993-06-23-1994-10-02-1993-06-23
1996-06-04-1999-02-12-1996-06-04
2006-07-11-1981-03-11-2006-07-11
2016-01-05-1971-05-14-2016-01-05
1981-02-23-1983-12-27-1981-02-23
1993-05-26-2003-05-24-1993-05-26
1971-09-04-2004-08-10-1971-09-04
2011-08-27-1973-02-09-2011-08-27
2011-04-20-2009-07-29-2011-04-20
1974-06-11-2014-07-15-1974-06-11
1995-01-28-1983-08-15-1995-01-28
2010-03-12-2003-12-09-2010-03-12
1995-07-26-2004-04-05-1995-07-26
1977-05-22-1997-02-28-1977-05-22
2005-10-16-1972-03-08-2005-10-16
1976-02-05-1971-10-01-1976-02-05
1976-01-29-1998-06-16-1976-01-29
1983-07-24-1979-05-02-1983-07-24
1994-02-06-2009-02-14-1994-02-06
1984-07-12-2004-02-16-1984-07-12
2011-06-05-1979-11-24-2011-06-05
1997-09-26-1975-09-14-1997-09-26
2005-12-18-1997-11-19-2005-12-18
1982-04-16-1993-02-27-1982-04-16
1976-08-28-1982-07-15-1976-08-28
1996-04-02-1970-04-21-1996-04-02
2011-12-03-1974-06-07-2011-12-03
1993-08-23-2012-02-07-1993-08-23
1990-01-09-1992-07-02-1990-01-09
1996-02-26-1982-08-28-1996-02-26
1999-03-07-1972-09-27-1999-03-07
1994-11-14-1987-03-10-1994-11-14
1979-12-08-1994-09-13-1979-12-08
2011-11-06-2000-01-13-2011-11-06
1979-12-07-1975-10-14-1979-12-07
1986-01-06-1978-02-02-1986-01-06
1982-12-15-1976-01-21-1982-12-15
2000-11-29-1995-05-29-2000-11-29
2014-07-17-1982-04-10-2014-07-17
1974-04-19-2002-12-01-1974-04-19
1988-07-23-1981-01-16-1988-07-23
1992-03-09-1971-01-08-1992-03-09
2002-01-30-1974-10-06-2002-01-30
1993-03-25-2013-04-09-1993-03-25
2014-02-22-1976-05-04-2014-02-22
1978-09-12-2002-05-18-1978-09-12
1974-04-15-2013-04-11-1974-04-15
1988-01-21-1979-01-03-1988-01-21
1987-06-07-1985-09-10-1987-06-07
2001-06-02-2006-10-05-2001-06-02
1976-10-28-2000-04-26-1976-10-28
1990-11-29-2001-04-02-1990-11-29
1970-04-16-1998-06-24-1970-04-16
1978-08-07-1997-04-07-1978-08-07
1977-03-21-1975-02-16-1977-03-21
2007-08-24-2004-11-18-2007-08-24
1997-06-14-2000-09-28-1997-06-14
1986-06-11-1975-09-11-1986-06-11
1989-09-28-2015-06-08-1989-09-28
1973-12-05-2012-07-13-1973-12-05
1980-06-06-1994-04-17-1980-06-06
1994-09-08-1994-03-25-1994-09-08
1985-07-01-1995-03-12-1985-07-01
2010-11-07-1996-07-26-2010-11-07
1971-05-05-1993-02-17-1971-05-05
1986-11-09-2012-05-31-1986-11-09
1991-11-10-2012-02-02-1991-11-10
2015-12-28-1989-06-19-2015-12-28
1974-09-09-2006-05-25-1974-09-09
2015-08-29-1998-06-28-2015-08-29
1984-12-29-1978-04-07-1984-12-29
2001-05-24-2015-10-13-2001-05-24
2005-09-20-2016-03-08-2005-09-20
1998-05-25-1979-09-01-1998-05-25
2002-02-02-1990-08-07-2002-02-02
1989-12-08-2004-11-30-1989-12-08
2011-10-25-1977-05-09-2011-10-25
1996-01-29-1984-01-07-1996-01-29
1994-02-06-2014-05-06-1994-02-06
1983-05-09-1986-03-22-1983-05-09
2008-12-07-1990-01-16-2008-12-07
2000-04-20-1987-01-22-2000-04-20
2008-02-12-2007-05-02-2008-02-12
1972-07-04-1977-10-17-1972-07-04
1982-06-27-2004-08-01-1982-06-27
1971-11-24-1986-03-29-1971-11-24
2003-11-30-1984-01-09-2003-11-30
1983-12-04-1974-09-24-1983-12-04
1977-05-24-2001-11-18-1977-05-24
1982-10-05-1980-05-18-1982-10-05
1975-11-24-1990-06-14-1975-11-24
1999-06-09-1983-05-14-1999-06-09
1999-08-02-2015-10-20-1999-08-02
2013-07-07-2001-05-22-2013-07-07
2011-11-12-1985-02-10-2011-11-12
2015-04-09-1977-05-11-2015-04-09
1994-04-19-2012-10-09-1994-04-19
2012-03-30-2009-02-14-2012-03-30
1990-03-21-1975-11-11-1990-03-21
1996-02-03-1973-05-06-1996-02-03
1973-08-07-1972-02-04-1973-08-07
1992-05-05-2010-04-12-1992-05-05
2001-10-12-1991-01-01-2001-10-12
2001-08-19-2012-02-11-2001-08-19
2000-12-21-2008-03-16-2000-12-21
1978-06-18-2001-07-17-1978-06-18
2005-02-28-1988-09-22-2005-02-28
1980-06-28-2003-03-14-1980-06-28
2011-03-14-1990-05-09-2011-03-14
1983-06-22-2006-05-02-1983-06-22
1970-01-02-1997-06-29-1970-01-02
1983-10-02-1996-05-24-1983-10-02
1993-08-11-1989-05-21-1993-08-11
1998-02-16-1980-08-12-1998-02-16
1991-10-07-1970-10-18-1991-10-07
2016-08-17-1979-02-09-2016-08-17
2010-05-02-2009-12-23-2010-05-02
2001-11-28-1980-06-06-2001-11-28
1972-07-23-1984-02-16-1972-07-23
1980-07-21-2002-11-08-1980-07-21
1986-12-25-2007-06-25-1986-12-25
1994-11-04-1984-12-19-1994-11-04
1979-09-26-1986-06-12-1979-09-26
2006-11-01-1996-10-14-2006-11-01
1982-08-24-2006-07-20-1982-08-24
2013-02-16-2012-09-29-2013-02-16
2013-05-30-1982-07-16-2013-05-30
1976-01-26-1985-04-05-1976-01-26
1981-01-19-1989-09-12-1981-01-19
2010-05-31-2013-10-09-2010-05-31
1980-11-09-1982-12-07-1980-11-09
2001-07-12-1982-02-19-2001-07-12
1974-04-04-2014-10-28-1974-04-04
2011-04-17-1986-10-08-2011-04-17
1990-02-01-1991-10-14-1990-02-01
1970-06-10-1974-08-09-1970-06-10
1971-04-25-2004-11-12-1971-04-25
1990-05-27-1974-09-27-1990-05-27
1970-12-29-1977-04-01-1970-12-29
2002-04-19-1981-12-08-2002-04-19
2002-01-11-2014-11-07-2002-01-11
2006-05-25-1998-08-09-2006-05-25
2010-03-26-1985-11-08-2010-03-26
2001-02-15-1974-04-30-2001-02-15
2000-02-15-1997-12-05-2000-02-15
2006-06-06-1987-10-19-2006-06-06
1979-06-07-1996-07-12-1979-06-07
2005-01-23-1996-11-17-2005-01-23
2012-03-01-1988-09-10-2012-03-01
2011-10-21-2007-03-05-2011-10-21
2000-04-30-1995-02-19-2000-04-30
2010-10-09-1985-02-16-2010-10-09
2009-10-16-1971-07-30-2009-10-16
1990-08-23-1974-12-25-1990-08-23
1988-07-12-2001-04-06-1988-07-12
1981-12-04-2007-11-02-1981-12-04
1975-07-01-2016-08-30-1975-07-01
1972-11-28-2004-03-21-1972-11-28
2003-06-16-1984-04-23-2003-06-16
1986-02-25-1980-05-30-1986-02-25
2008-07-31-2000-10-20-2008-07-31
1984-10-06-2009-12-28-1984-10-06
1976-08-23-1984-06-26-1976-08-23
1985-12-14-1979-05-29-1985-12-14
1983-09-19-2000-08-06-1983-09-19
2003-01-30-2007-02-20-2003-01-30
2012-11-26-1971-05-27-2012-11-26
2011-12-21-2001-09-23-2011-12-21
2006-05-27-1979-02-25-2006-05-27
1995-09-02-1992-11-21-1995-09-02
1974-02-27-2002-01-06-1974-02-27
1974-02-16-2001-08-19-1974-02-16
1985-07-18-1970-12-11-1985-07-18
2013-01-05-2006-07-31-2013-01-05
1976-01-16-1976-09-02-1976-01-16
2005-06-25-2014-07-08-2005-06-25
1982-04-07-1989-02-24-1982-04-07
1972-09-08-1974-04-01-1972-09-08
2008-02-19-1972-09-26-2008-02-19
1978-05-08-2004-02-15-1978-05-08
2002-05-19-1977-12-28-2002-05-19
2015-07-06-2011-01-10-2015-07-06
2015-09-12-1979-10-12-2015-09-12
1997-07-04-1992-02-05-1997-07-04
2014-08-06-1974-01-18-2014-08-06
1989-01-28-1991-05-16-1989-01-28
2015-12-25-2009-04-27-2015-12-25
1974-03-21-1973-04-26-1974-03-21
1994-02-24-1970-01-09-1994-02-24
1970-02-18-1993-02-24-1970-02-18
2001-09-18-1999-01-01-2001-09-18
2008-10-08-1989-02-02-2008-10-08
1996-09-21-1990-07-11-1996-09-21
1973-09-23-2011-01-26-1973-09-23
2014-02-22-1972-07-10-2014-02-22
1997-12-05-2007-01-09-1997-12-05
1992-07-26-1990-03-17-1992-07-26
1990-10-05-2009-05-16-1990-10-05
2004-02-15-1985-10-02-2004-02-15
1989-12-08-1998-06-16-1989-12-08
2010-08-20-1986-04-26-2010-08-20
2002-03-29-1977-03-08-2002-03-29
1990-12-31-1979-05-26-1990-12-31
2010-11-03-1973-10-19-2010-11-03
1970-09-24-1980-05-05-1970-09-24
1988-03-30-1983-12-16-1988-03-30
1982-03-06-1970-08-07-1982-03-06
2016-02-07-2005-06-26-2016-02-07
2004-03-31-1983-10-13-2004-03-31
1977-12-20-1999-06-01-1977-12-20
1975-10-24-2003-07-29-1975-10-24
1984-01-21-2000-03-22-1984-01-21
2003-01-09-2004-09-26-2003-01-09
2010-07-20-1980-07-24-2010-07-20
1992-08-13-1995-03-13-1992-08-13
1987-01-31-1995-12-24-1987-01-31
1980-05-24-2013-07-02-1980-05-24
1993-09-01-1992-11-17-1993-09-01
2005-03-18-1982-12-02-2005-03-18
1995-05-13-2005-05-31-1995-05-13
1979-12-09-1991-01-16-1979-12-09
1976-12-27-1976-06-08-1976-12-27
1976-01-24-2006-01-23-1976-01-24
1989-09-10-1986-01-11-1989-09-10
2009-06-25-1993-09-28-2009-06-25
1983-07-14-1975-07-09-1983-07-14
1991-11-05-1988-12-11-1991-11-05
2013-05-01-2005-03-13-2013-05-01
2008-09-07-1976-09-26-2008-09-07
1972-06-18-1994-12-08-1972-06-18
2007-05-10-1975-01-16-2007-05-10
1998-12-07-1995-02-10-1998-12-07
1979-05-04-2013-09-21-1979-05-04
1996-11-06-1976-01-07-1996-11-06
1973-01-10-1991-08-22-1973-01-10
2008-02-27-1986-01-13-2008-02-27
1992-11-19-1996-04-07-1992-11-19
2015-03-03-1992-02-24-2015-03-03
1985-04-06-1987-06-22-1985-04-06
1999-09-10-2009-01-31-1999-09-10
1998-08-24-1994-04-08-1998-08-24
1996-06-01-1975-08-21-1996-06-01
1973-06-02-2003-08-09-1973-06-02
2011-11-06-1993-10-17-2011-11-06
1988-03-01-1979-08-21-1988-03-01
2012-10-07-1996-09-22-2012-10-07
1995-04-04-2014-02-02-1995-04-04
1981-04-26-1995-12-15-1981-04-26
2000-10-22-1994-03-05-2000-10-22
2003-06-07-1994-03-28-2003-06-07
1999-08-21-1991-10-06-1999-08-21
1973-02-19-1998-06-02-1973-02-19
2009-09-10-1982-10-21-2009-09-10
1978-12-27-2004-04-04-1978-12-27
2005-04-11-1993-08-10-2005-04-11
1987-12-11-1990-02-13-1987-12-11
1991-03-26-1992-07-09-1991-03-26
1985-04-04-2003-04-30-1985-04-04
1979-11-01-1990-10-01-1979-11-01
1995-02-12-1982-05-19-1995-02-12
2012-09-19-2006-04-07-2012-09-19
1986-03-10-1972-03-07-1986-03-10
1991-08-09-1974-01-03-1991-08-09
1999-10-04-1972-09-21-1999-10-04
1997-03-28-1970-02-02-1997-03-28
2004-05-06-1982-06-20-2004-05-06
1977-05-26-2003-08-21-1977-05-26
1987-06-04-1975-07-17-1987-06-04
2011-05-16-2013-11-17-2011-05-16
1978-11-17-1989-10-06-1978-11-17
2008-11-12-1972-05-16-2008-11-12
1979-04-28-1978-09-29-1979-04-28
2012-06-27-1980-04-16-2012-06-27
2001-10-25-1990-08-07-2001-10-25
1974-07-19-1991-05-15-1974-07-19
1981-02-26-2000-07-25-1981-02-26
1999-10-15-2016-01-20-1999-10-15
1973-05-04-1992-06-04-1973-05-04
2000-05-17-1970-04-02-2000-05-17
1982-01-26-1992-07-08-1982-01-26
2013-08-07-1994-02-12-2013-08-07
2015-02-07-1974-08-24-2015-02-07
1983-09-15-1994-08-03-1983-09-15
1974-08-15-1979-08-27-1974-08-15
1994-10-09-2002-11-20-1994-10-09
1971-04-25-1989-03-04-1971-04-25
1994-08-21-1997-08-14-1994-08-21
1975-02-13-1985-11-16-1975-02-13
2000-11-26-1986-09-15-2000-11-26
1982-09-15-1977-09-24-1982-09-15
1994-05-20-1987-11-17-1994-05-20
1981-03-28-1993-08-29-1981-03-28
2009-05-21-1993-03-11-2009-05-21
2014-09-05-2007-09-08-2014-09-05
1983-11-20-2015-12-24-1983-11-20
1973-07-31-1994-03-27-1973-07-31
1995-08-02-1991-10-03-1995-08-02
1970-02-12-1988-07-18-1970-02-12
1976-07-18-1998-06-18-1976-07-18
1980-09-08-1995-05-09-1980-09-08
1989-02-21-1984-07-21-1989-02-21
1981-04-28-1999-03-05-1981-04-28
1983-06-06-2001-08-10-1983-06-06
1975-06-13-1976-03-30-1975-06-13
1985-08-21-2008-09-29-1985-08-21
1999-02-27-1973-10-29-1999-02-27
1975-10-18-1996-08-15-1975-10-18
1978-11-23-1995-11-14-1978-11-23
2009-03-12-1987-07-14-2009-03-12
1980-05-26-2002-11-02-1980-05-26
1971-12-04-2005-07-02-1971-12-04
1970-04-27-1990-06-15-1970-04-27
2009-05-05-1985-11-15-2009-05-05
2007-12-18-1998-11-29-2007-12-18
1972-07-18-2009-01-02-1972-07-18
1973-08-10-2001-11-05-1973-08-10
1997-06-02-1992-09-28-1997-06-02
1998-02-14-2014-03-09-1998-02-14
1995-11-13-1988-04-15-1995-11-13
2011-12-20-2002-05-26-2011-12-20
1974-01-10-1992-10-22-1974-01-10
1989-03-17-2000-08-25-1989-03-17
2000-08-10-1982-12-05-2000-08-10
1981-02-20-1989-06-03-1981-02-20
2016-07-03-1995-12-26-2016-07-03
1973-10-30-1984-03-17-1973-10-30
2009-08-05-1970-05-21-2009-08-05
2003-05-25-2008-06-19-2003-05-25
1998-06-10-1974-11-07-1998-06-10
1972-03-30-1988-11-27-1972-03-30
2002-01-24-2016-04-08-2002-01-24
1987-06-27-1986-02-18-1987-06-27
1974-03-18-1989-09-23-1974-03-18
1976-05-15-1982-05-27-1976-05-15
1980-02-14-1972-12-17-1980-02-14
2014-05-04-1979-12-01-2014-05-04
2000-07-27-1975-05-21-2000-07-27
2001-11-13-1980-04-06-2001-11-13
1987-09-05-1991-10-25-1987-09-05
1982-07-14-1980-11-07-1982-07-14
1971-03-25-1971-12-01-1971-03-25
2009-08-22-2004-11-21-2009-08-22
1977-08-29-2005-01-27-1977-08-29
1999-05-15-1975-01-03-1999-05-15
1984-08-23-1983-12-27-1984-08-23
2000-04-12-1999-04-21-2000-04-12
1992-03-08-1990-10-19-1992-03-08
1979-10-02-2003-08-20-1979-10-02
1991-01-21-1981-10-16-1991-01-21
1998-11-07-1994-07-17-1998-11-07
2014-02-25-1996-06-22-2014-02-25
1993-01-07-1991-02-26-1993-01-07
2012-06-10-1993-09-30-2012-06-10
1985-05-17-2000-10-06-1985-05-17
1976-04-23-2013-03-01-1976-04-23
1980-06-06-1973-10-30-1980-06-06
2006-04-13-1996-03-10-2006-04-13
2010-01-20-2003-02-27-2010-01-20
1993-10-07-1974-10-13-1993-10-07
1982-11-14-1989-03-24-1982-11-14
1980-11-29-2014-08-08-1980-11-29
1988-03-08-1971-09-25-1988-03-08
1974-04-15-2008-09-10-1974-04-15
1992-04-30-1983-02-03-1992-04-30
1997-05-16-1982-03-17-1997-05-16
2013-05-09-1985-12-07-2013-05-09
1970-09-03-2011-04-14-1970-09-03
2012-02-24-1981-08-11-2012-02-24
1976-09-14-1981-03-06-1976-09-14
1994-04-02-1992-07-03-1994-04-02
1995-01-23-2000-08-01-1995-01-23
1974-04-24-1997-03-11-1974-04-24
2005-11-14-2003-01-24-2005-11-14
1974-01-30-1997-10-09-1974-01-30
2011-09-28-2009-11-11-2011-09-28
2013-12-28-2004-01-05-2013-12-28
2016-04-14-2000-02-08-2016-04-14
2003-06-11-2008-08-03-2003-06-11
1990-11-13-1982-11-28-1990-11-13
1971-06-10-1970-10-08-1971-06-10
1982-06-24-2001-02-09-1982-06-24
1997-10-02-1998-02-12-1997-10-02
2002-04-06-1980-09-22-2002-04-06
1998-12-23-1986-09-16-1998-12-23
1986-10-24-1992-11-22-1986-10-24
1989-03-07-1987-10-16-1989-03-07
1978-04-10-1999-10-27-1978-04-10
1991-02-23-2013-07-15-1991-02-23
1994-03-05-1989-11-17-1994-03-05
1977-11-14-1985-03-20-1977-11-14
1983-10-26-1997-11-04-1983-10-26
1979-08-22-1987-07-09-1979-08-22
1971-11-28-1974-05-14-1971-11-28
2003-11-05-1973-09-09-2003-11-05
2010-09-20-1973-07-14-2010-09-20
2011-11-29-2010-03-06-2011-11-29
1996-03-29-1977-04-18-1996-03-29
2014-02-11-1983-12-22-2014-02-11
2010-05-17-2000-12-22-2010-05-17
2003-01-16-2011-03-17-2003-01-16
1987-05-03-2014-06-13-1987-05-03
2010-02-22-1991-11-10-2010-02-22
2008-12-22-2004-04-03-2008-12-22
1986-04-03-2011-11-21-1986-04-03
1981-11-23-2007-11-04-1981-11-23
1989-11-14-1980-01-12-1989-11-14
2010-05-21-1973-03-24-2010-05-21
1980-10-22-2000-12-13-1980-10-22
2013-10-07-2005-11-05-2013-10-07
1995-07-24-1992-03-19-1995-07-24
2005-10-24-1989-07-28-2005-10-24
1997-09-07-1987-08-01-1997-09-07
2006-06-09-1994-09-29-2006-06-09
2004-01-31-2001-09-14-2004-01-31
2000-06-05-1987-03-31-2000-06-05
2005-05-07-1995-09-17-2005-05-07
1980-03-29-1980-02-20-1980-03-29
1977-07-31-2002-11-29-1977-07-31
1989-07-29-2014-05-21-1989-07-29
1986-01-12-1983-03-10-1986-01-12
1998-11-01-1982-09-08-1998-11-01
1998-09-08-1976-06-14-1998-09-08
1972-06-13-2014-03-16-1972-06-13
2009-08-30-1976-05-17-2009-08-30
1998-05-14-1971-02-04-1998-05-14
2007-12-06-2007-10-13-2007-12-06
2000-05-12-1993-04-21-2000-05-12
1977-05-19-1997-04-24-1977-05-19
1985-08-15-1982-05-20-1985-08-15
2005-11-28-1997-06-02-2005-11-28
1984-11-22-1985-04-11-1984-11-22
1988-07-22-2010-05-15-1988-07-22
1983-12-13-1990-09-19-1983-12-13
2015-03-31-1996-01-16-2015-03-31
2007-01-27-1982-12-27-2007-01-27
2002-06-29-2012-07-18-2002-06-29
2006-08-20-2008-05-25-2006-08-20
1977-03-22-2004-07-18-1977-03-22
2000-02-03-1981-05-12-2000-02-03
1984-04-01-2009-05-29-1984-04-01
1988-06-27-2009-07-13-1988-06-27
1980-10-16-1976-09-21-1980-10-16
1997-03-28-2005-09-13-1997-03-28
1978-11-13-1995-06-19-1978-11-13
1985-04-30-1986-05-09-1985-04-30
2004-01-07-1983-03-16-2004-01-07
2014-07-09-1998-05-12-2014-07-09
1974-10-22-1987-04-09-1974-10-22
2008-10-01-1996-04-10-2008-10-01
2005-11-29-1990-04-02-2005-11-29
1991-08-26-2008-10-18-1991-08-26
1998-03-05-1980-01-16-1998-03-05
1982-12-11-1988-10-08-1982-12-11
2007-02-05-1986-12-29-2007-02-05
2013-02-24-1996-03-16-2013-02-24
1988-06-05-2000-06-04-1988-06-05
1970-12-28-1970-04-14-1970-12-28
1997-10-15-2016-03-24-1997-10-15
2009-09-14-1971-06-25-2009-09-14
1980-01-24-1971-10-19-1980-01-24
1970-12-20-2013-01-24-1970-12-20
1991-06-25-1979-05-15-1991-06-25
1985-11-21-2015-02-01-1985-11-21
2005-09-30-1994-07-21-2005-09-30
1970-09-11-1978-10-20-1970-09-11
2001-10-26-1979-05-07-2001-10-26
2010-04-07-2013-06-26-2010-04-07
1970-04-24-1993-09-03-1970-04-24
1988-07-23-1982-08-06-1988-07-23
1998-10-10-1971-05-13-1998-10-10
2008-12-01-1985-03-23-2008-12-01
2014-03-29-1995-12-24-2014-03-29
2009-10-29-1987-07-04-2009-10-29
1987-05-31-1977-06-20-1987-05-31
1991-05-20-2004-05-28-1991-05-20
1982-03-10-2001-12-05-1982-03-10
1979-05-19-1987-12-10-1979-05-19
2000-01-28-2004-07-26-2000-01-28
2015-07-23-1995-08-17-2015-07-23
2010-03-24-2010-12-22-2010-03-24
1978-02-23-2005-11-03-1978-02-23
2014-09-15-2008-02-21-2014-09-15
2014-03-10-1976-12-18-2014-03-10
1986-12-21-2010-02-16-1986-12-21
2007-01-16-2006-12-21-2007-01-16
1984-01-19-1990-09-11-1984-01-19
1986-02-09-1972-06-19-1986-02-09
1984-04-15-1994-01-14-1984-04-15
2008-05-09-1971-07-08-2008-05-09
2015-01-11-1986-11-29-2015-01-11
1991-06-11-2004-03-10-1991-06-11
1995-05-15-1991-12-12-1995-05-15
2008-04-21-1975-05-24-2008-04-21
2003-11-24-1999-02-14-2003-11-24
2014-10-26-2002-05-03-2014-10-26
1989-01-29-1970-02-21-1989-01-29
2002-05-18-1991-07-31-2002-05-18
2015-06-21-1972-03-27-2015-06-21
1970-08-16-1984-05-29-1970-08-16
1995-04-10-2014-05-11-1995-04-10
2000-06-09-2000-09-10-2000-06-09
2002-11-24-1979-05-07-2002-11-24
1999-08-05-2003-01-17-1999-08-05
1972-11-23-1977-02-27-1972-11-23
1970-09-26-2001-02-19-1970-09-26
1990-05-30-1999-05-21-1990-05-30
1994-11-10-1988-07-22-1994-11-10
1995-02-08-1999-01-27-1995-02-08
2011-06-27-1985-09-26-2011-06-27
2002-11-27-2007-08-29-2002-11-27
2008-04-19-2006-08-05-2008-04-19
2015-12-25-1979-06-05-2015-12-25
1980-08-31-1998-09-18-1980-08-31
1996-06-15-1982-01-31-1996-06-15
1975-02-09-2004-10-10-1975-02-09
2011-11-11-2000-04-24-2011-11-11
1978-01-31-2015-08-03-1978-01-31
2006-02-28-2001-12-15-2006-02-28
2013-06-21-2000-12-07-2013-06-21
1983-04-10-1974-11-11-1983-04-10
2002-10-13-1996-08-21-2002-10-13
1997-04-16-1985-06-27-1997-04-16
1990-04-05-1979-08-21-1990-04-05
1980-10-11-1973-02-11-1980-10-11
2005-08-01-2013-04-23-2005-08-01
2009-01-07-2004-02-22-2009-01-07
1985-11-23-1970-03-02-1985-11-23
2005-07-25-1993-11-18-2005-07-25
1972-09-12-2003-12-13-1972-09-12
1996-11-20-1976-05-07-1996-11-20
2002-04-04-2015-11-14-2002-04-04
1984-03-01-1970-05-02-1984-03-01
1988-08-03-2015-10-05-1988-08-03
1979-04-01-1990-10-16-1979-04-01
2013-03-13-1985-02-04-2013-03-13
1974-01-09-1974-05-30-1974-01-09
1970-10-14-1978-06-26-1970-10-14
1976-05-03-1992-01-27-1976-05-03
2015-05-24-1976-11-12-2015-05-24
1991-03-18-1978-09-23-1991-03-18
2004-07-13-1977-12-13-2004-07-13
2011-09-11-2001-07-23-2011-09-11
1995-11-06-1989-11-02-1995-11-06
2013-12-24-2008-05-28-2013-12-24
1994-07-22-2008-02-17-1994-07-22
2001-06-13-2016-09-08-2001-06-13
2014-08-30-1991-03-03-2014-08-30
1986-10-13-1994-10-29-1986-10-13
1992-09-10-1982-05-22-1992-09-10
1994-12-13-2000-08-11-1994-12-13
2007-01-06-1998-09-10-2007-01-06
1974-01-29-2008-07-02-1974-01-29
1979-07-30-1978-07-21-1979-07-30
1975-12-26-1993-11-28-1975-12-26
2013-11-13-1991-05-16-2013-11-13
2015-03-19-1989-07-03-2015-03-19
1984-10-06-1991-02-28-1984-10-06
1979-07-29-1989-01-08-1979-07-29
1972-12-11-2012-07-30-1972-12-11
2004-06-21-1996-12-05-2004-06-21
1976-12-30-2012-07-06-1976-12-30
1992-01-10-1993-10-14-1992-01-10
2012-07-12-2009-02-21-2012-07-12
1993-07-23-1996-08-29-1993-07-23
2002-02-10-2014-08-31-2002-02-10
1982-07-01-2003-11-10-1982-07-01
1992-12-21-1996-11-08-1992-12-21
1998-07-31-2012-01-27-1998-07-31
1977-02-27-2011-12-30-1977-02-27
1994-08-23-2003-10-12-1994-08-23
1971-10-12-1989-02-11-1971-10-12
2010-06-05-1970-04-29-2010-06-05
2000-12-17-1975-01-02-2000-12-17
2015-12-09-2007-07-22-2015-12-09
1991-10-11-2007-06-03-1991-10-11
1970-12-02-1985-01-09-1970-12-02
2014-01-27-1996-09-26-2014-01-27
2003-06-07-1982-12-25-2003-06-07
2004-10-19-1988-08-02-2004-10-19
1985-05-23-2008-03-23-1985-05-23
2011-10-24-1973-05-14-2011-10-24
1989-11-07-1994-07-02-1989-11-07
1986-07-13-2006-01-16-1986-07-13
1974-06-08-2015-02-17-1974-06-08
2007-09-21-2012-10-19-2007-09-21
1980-03-18-1997-09-28-1980-03-18
1984-06-05-1990-07-14-1984-06-05
1999-06-17-1973-06-12-1999-06-17
1976-02-20-1998-06-03-1976-02-20
1991-04-14-1998-02-04-1991-04-14
1986-02-07-2010-09-18-1986-02-07
1974-03-16-1986-09-26-1974-03-16
1976-11-18-1982-05-30-1976-11-18
2001-09-10-2013-01-28-2001-09-10
2003-01-03-1987-02-09-2003-01-03
1995-09-25-1987-11-28-1995-09-25
2005-05-23-2008-09-04-2005-05-23
1977-05-16-2009-03-26-1977-05-16
2011-11-27-1993-05-24-2011-11-27
1982-09-16-1989-02-02-1982-09-16
1998-05-26-1999-03-24-1998-05-26
1995-03-16-1991-07-01-1995-03-16
2015-08-18-2002-11-03-2015-08-18
1991-12-08-1998-07-26-1991-12-08
1975-10-12-1998-06-21-1975-10-12
1980-09-24-1978-06-16-1980-09-24
1978-10-07-2002-09-10-1978-10-07
2012-07-24-1992-03-26-2012-07-24
1985-02-27-1977-03-01-1985-02-27
1992-05-08-2007-05-31-1992-05-08
