2014-09-20
1978-09-17
1991-05-24
1980-03-09
1979-03-11
1986-09-11
1974-10-29
1974-05-31
1990-04-07
2005-06-12
1996-03-31
1986-01-14
2003-01-31
1974-12-17
2009-06-22
2007-08-21
2013-05-12
1977-07-09
2016-02-16
1991-10-28
1990-11-23
2002-01-03
1995-11-27
1971-01-20
1979-12-15
1993-12-30
2007-08-03
1975-11-08
2011-10-02
2012-08-31
1977-04-17
2001-06-28
1975-03-08
1976-10-04
1994-11-17
1994-04-10
1971-07-06
2002-10-20
1996-12-24
1997-08-01
1979-01-22
1989-03-30
2002-03-06
1993-12-29
1992-02-12
2014-09-04
1970-09-07
2007-04-25
2005-04-03
1998-05-14
2015-12-26
1979-03-21
1976-07-14
1975-10-14
1991-04-23
2013-10-03
1990-02-10
2000-01-05
2005-06-12
1997-04-04
1994-05-29
2012-11-24
2015-03-01
1976-11-21
1979-01-13
1975-03-11
1983-11-07
1989-08-06
2010-02-08
1997-01-21
1984-06-29
1999-11-23
2008-03-13
2013-04-05
2015-01-12
1997-01-11
1989-04-12
2015-10-31
1994-06-01
1994-10-19
1984-07-23
1981-05-26
1980-01-14
2016-07-23
1972-11-09
1981-02-18
1993-10-30
1973-01-31
1981-05-16
1983-06-30
1992-05-16
2000-11-15
2006-10-22
1976-04-16
2013-03-16
1991-12-19
1997-12-13
2012-10-29
1973-04-20
1979-06-01
1997-06-28
2003-11-11
2015-12-26
1988-10-24
2005-05-12
2003-01-20
2009-06-15
2013-05-24
1981-11-23
1993-02-07
2011-11-05
1999-10-27
2002-01-24
1984-01-30
2014-03-13
1992-02-13
2011-08-26
1993-02-10
1976-05-08
2006-10-15
1981-12-14
1975-05-06
2002-03-29
1980-07-22
1982-10-16
1974-02-20
2000-02-08
1982-03-21
1977-05-27
1976-03-25
2005-02-03
1971-07-27
1981-03-20
1972-11-10
1988-06-03
1991-04-06
1985-04-10
1970-04-02
1988-03-02
1996-04-23
1984-01-15
1998-07-04
1980-07-02
1973-08-08
2011-06-25
1991-06-04
2003-03-17
2006-10-10
2004-12-03
1979-04-22
1982-07-04
2005-04-14
1990-06-12
1986-05-20
1983-01-09
1987-11-11
1983-10-01
1987-04-25
2003-02-28
1971-07-12
1973-01-29
1983-12-13
2013-03-20
1999-10-13
1980-12-08
1985-11-23
1976-02-23
1980-05-16
1999-06-25
2009-07-24
1986-05-27
2000-06-07
2004-04-14
2012-04-04
1988-09-01
1992-05-15
1991-04-19
1991-06-12
1984-08-14
1980-07-06
1997-08-07
1998-10-16
2008-09-07
1998-08-20
2000-04-04
1976-05-15
2012-10-03
1987-12-11
1995-04-12
2007-03-14
2010-10-26
1993-09-13
2006-10-21
1996-05-05
1975-05-20
1983-07-05
1990-10-13
1997-07-29
2004-06-21
1979-08-03
1985-11-09
2010-05-26
1987-09-26
1990-06-25
1981-06-03
1970-09-05
1996-02-18
1987-01-03
1977-11-09
2014-01-22
1994-12-18
1978-07-29
1970-08-26
1973-07-15
1983-11-24
2005-01-27
1979-05-31
1996-12-23
1982-04-15
1985-10-16
1988-12-14
1971-05-10
2013-03-15
1991-09-01
1996-10-05
2011-03-31
1992-12-20
1986-10-30
1979-02-06
1980-05-20
1985-02-10
1981-10-17
2006-08-11
1970-09-11
1981-09-21
2006-07-23
2002-07-06
2009-12-03
2000-08-03
1994-04-25
1978-02-20
1977-01-10
1983-08-18
1985-05-04
2007-09-15
1992-05-27
1971-11-18
2011-10-19
2009-08-21
2011-09-15
2013-04-28
2008-02-04
1982-09-03
1978-08-02
1982-08-26
2013-06-20
2014-05-07
1984-12-05
1999-12-01
2005-06-17
1974-06-14
2007-11-14
1995-02-06
1971-05-27
2006-10-19
1978-04-20
1995-02-13
1989-12-27
1974-09-06
1977-01-01
1980-03-28
1994-04-06
2011-01-29
1987-10-15
1992-06-12
2009-12-06
1996-11-13
1991-07-11
1990-04-12
2001-03-28
1995-08-31
1979-08-19
2005-04-30
1999-11-19
1987-07-11
1979-12-27
2016-07-09
1974-09-05
1976-06-07
2007-03-18
1992-02-21
2014-01-11
2007-12-31
1980-06-06
1975-08-30
1978-11-28
1979-08-06
1995-01-23
1995-09-03
1982-01-16
1982-06-08
2005-03-15
2007-11-11
2005-02-13
2013-09-01
2011-01-31
1985-11-14
2009-06-18
1994-03-30
1984-09-24
1994-02-19
2007-08-01
2011-06-11
2016-08-07
2008-02-07
2011-05-26
1974-01-25
1973-10-31
2002-11-13
1979-09-09
1976-02-19
1991-03-30
2011-12-16
1972-05-04
2002-12-30
1977-04-28
1981-10-18
1978-04-12
1985-12-13
1982-03-08
2000-03-07
1988-03-18
1984-01-29
1995-10-08
1974-11-13
2009-06-27
2011-12-17
2004-07-29
2010-10-17
1980-12-20
1991-08-07
2005-08-22
1995-07-01
1974-01-26
2005-02-09
2014-01-04
2015-04-04
2005-02-21
1970-04-30
2007-04-24
2000-04-26
2010-01-03
1989-02-08
1983-01-03
1980-09-22
1977-12-06
2011-12-24
2003-04-15
2016-05-05
1975-09-18
2010-03-16
1981-07-27
2000-01-03
2014-06-08
2010-03-09
1999-10-08
2014-06-09
2015-04-12
1987-12-25
1975-02-26
1981-11-19
1970-08-24
1975-02-06
1985-08-08
2004-03-21
2015-07-06
1997-09-10
2012-09-16
2012-10-16
2006-07-22
1994-10-11
2005-10-14
1989-04-08
2011-07-31
1997-05-16
2004-01-06
1985-07-04
2000-08-02
1986-03-05
1971-07-21
1989-05-15
2013-06-05
1985-04-20
1971-09-24
1982-12-16
1982-02-12
1974-12-22
1970-10-21
1979-04-15
1997-05-20
1990-03-16
1997-11-11
1998-12-28
1990-04-12
1971-10-19
2009-05-15
2002-06-02
2013-11-01
1999-02-25
1989-07-24
2014-01-25
1974-10-17
1983-02-18
1973-09-03
2004-07-13
2007-01-19
1971-11-25
1982-05-02
2000-06-24
1976-11-28
2016-07-07
1991-10-28
1989-02-06
1973-08-24
2003-02-01
2003-09-22
2003-05-12
2013-05-15
2015-02-28
1977-06-22
1981-01-28
1987-04-11
1983-06-08
2007-07-24
1970-02-05
1993-07-12
1980-06-30
1990-01-04
2003-05-26
1991-08-19
1970-03-14
2013-11-24
1971-03-17
2009-04-12
2002-01-11
1993-06-14
1988-02-29
1994-01-02
1980-09-27
2014-11-27
1991-10-01
2003-01-07
2015-10-24
1989-08-13
1984-08-11
2009-08-19
1996-07-17
2003-02-13
2013-10-01
2012-10-26
2004-03-12
1987-10-12
1989-11-06
2007-07-29
1974-01-03
1977-10-07
2012-06-28
1976-10-11
1988-05-03
2013-03-19
1995-01-18
2010-01-19
1983-08-03
2007-03-05
1971-10-04
1987-10-25
1998-07-01
2008-05-14
1972-04-12
1993-02-25
1998-04-07
1988-01-02
2003-06-20
1977-01-12
2008-02-14
1989-02-22
1974-02-21
2011-08-08
2008-01-05
1970-04-17
1987-11-03
1993-11-25
1970-06-10
2013-07-27
1974-07-25
1988-08-16
2000-12-17
2005-10-12
2011-12-02
2006-11-18
2006-04-24
2015-07-27
2009-01-04
2011-01-03
1981-09-26
1977-02-22
1994-09-01
1974-05-19
1992-05-31
2003-10-24
1990-01-20
2009-10-15
2000-01-31
2010-08-26
1979-01-01
2009-09-10
1987-12-05
2008-02-29
2012-07-25
2014-12-12
2013-06-16
2014-06-21
1975-11-28
1985-02-12
2005-08-15
1995-05-07
1988-10-22
2010-04-11
1999-01-12
1993-10-16
2001-12-02
1976-01-03
1981-08-05
2013-12-12
1983-05-16
1977-07-10
1975-07-06
1981-12-04
2010-11-16
2005-02-18
2002-08-21
1976-07-14
2001-12-04
2011-01-19
1970-05-08
1976-10-15
1981-03-11
1986-07-20
1988-07-29
1970-06-08
1998-09-18
2001-03-14
2014-02-11
2012-12-09
1999-04-30
1996-08-11
1982-08-11
1991-09-18
1994-07-13
2002-08-26
1971-12-25
2001-09-17
1973-05-11
2014-09-24
1997-09-11
1975-03-23
1977-04-20
1970-09-13
1995-09-22
1996-12-06
1996-09-26
2008-07-01
1995-01-27
2010-02-15
2001-06-16
2011-01-25
1992-09-06
2010-06-30
1977-10-05
1993-01-19
1994-05-16
1980-05-18
1992-03-26
1993-11-19
1974-12-26
1976-09-07
1998-04-24
2010-03-02
1972-09-03
1982-07-12
1979-08-06
1994-08-23
1979-02-21
1989-10-31
2010-07-14
1973-03-24
1978-11-15
2008-05-24
1999-09-12
1991-12-13
1988-12-13
1971-07-20
1971-10-31
1986-08-28
1987-09-05
1972-11-13
1980-11-21
1996-09-24
1974-10-15
1978-03-10
1995-10-26
1999-08-10
1974-11-28
1991-07-03
2000-01-27
1993-08-01
1987-09-06
1977-04-21
1980-05-22
1983-11-27
1985-03-03
1993-02-20
2015-03-07
2012-04-05
2004-07-25
1994-03-29
1988-03-04
2014-03-01
1973-10-02
2007-01-26
1985-11-28
1995-06-22
2016-06-18
1993-01-19
1974-01-19
1986-06-15
1982-03-08
2015-04-17
2016-01-27
2014-05-28
1979-04-11
1978-01-16
2008-05-08
1996-02-08
2004-02-23
1970-08-01
1985-11-18
1972-12-06
1972-04-26
2008-08-05
1982-11-01
1987-05-22
1995-06-09
2002-11-16
1977-04-05
1985-08-16
1983-07-14
2003-12-21
1978-02-22
1989-02-05
1973-10-30
2004-10-10
2016-07-09
1980-09-23
2016-01-30
1995-07-19
1988-07-28
1984-04-29
1984-12-18
1981-05-26
2007-09-15
2012-06-15
2000-07-15
1992-04-15
1973-08-27
1973-11-08
1998-07-27
1984-01-22
1970-08-06
2015-08-06
1989-03-29
1971-09-24
2016-04-15
1982-08-23
2001-10-25
1972-02-26
1981-12-10
1999-08-20
1998-09-19
1995-04-04
1972-06-18
1973-07-31
1991-03-22
1996-12-10
1980-08-18
1975-04-24
1988-12-03
1983-04-26
1982-02-22
2000-12-20
1980-07-27
2014-02-08
2016-08-27
1980-01-28
1998-01-27
1986-06-28
1987-11-27
2015-09-02
1998-08-23
1976-08-23
2007-10-23
1980-08-14
1989-05-14
1977-10-07
2010-11-24
2014-05-07
1999-11-28
1991-12-12
1986-08-06
2016-05-18
2004-05-21
2003-03-04
2007-09-28
1998-07-28
2008-04-22
1974-12-03
1993-11-20
1989-05-03
1971-11-17
1977-06-09
2002-11-30
2012-12-22
2014-09-22
2005-06-04
2003-07-12
2015-11-24
1994-02-20
1984-03-06
1975-03-21
1983-01-11
2004-08-31
1985-05-25
2000-06-25
1979-01-15
1979-02-18
2015-07-17
1971-01-01
1997-12-16
1990-01-13
2014-01-03
1981-08-30
1983-09-10
1983-02-24
2005-06-13
2012-03-23
1983-07-19
1987-06-24
1998-04-22
1975-08-31
1985-09-13
1986-05-13
1983-07-19
2012-02-27
1972-12-27
2008-01-27
1987-12-18
2001-07-05
1992-06-02
1976-01-26
2002-03-31
2015-02-14
1996-07-25
1992-01-21
1983-02-25
1990-03-09
2007-11-10
1992-12-16
1984-02-25
1985-07-01
2015-07-07
1987-11-21
2014-04-29
1988-12-24
1989-05-10
1995-12-04
1983-01-23
2000-02-17
2014-03-05
2007-12-19
1990-02-21
1978-09-18
2004-02-24
2000-10-03
1978-02-10
1975-02-18
1981-06-05
1984-04-03
2005-03-19
1982-06-30
1974-07-26
1981-12-08
1978-04-01
1983-10-01
1997-08-22
1971-01-26
1972-12-10
1999-12-23
2002-07-12
2012-10-02
2015-12-17
1988-08-06
1978-03-29
1994-06-16
1978-08-26
2000-03-24
1993-04-24
1983-01-26
1983-04-21
1971-06-01
1973-01-09
1990-05-09
1983-04-08
1989-11-27
1977-07-15
1986-04-08
2007-03-02
1988-09-08
1999-12-03
1985-02-03
1999-06-17
2015-05-15
1992-05-12
1974-05-08
1979-04-13
1973-04-03
1980-04-25
1988-11-24
1970-01-16
1991-12-06
1998-08-14
2010-04-19
2008-10-10
1980-01-09
2006-03-15
2013-11-11
2011-06-05
1975-09-14
2008-10-27
2008-08-20
2012-07-31
2005-03-08
1988-08-07
2009-03-31
1994-10-09
1970-08-07
2015-08-31
1971-04-02
1980-01-20
1994-11-01
1989-06-16
2000-04-15
1998-12-18
1984-07-23
1985-06-16
1989-09-10
1970-06-08
1978-06-13
1985-12-25
1979-07-28
1980-07-25
2014-06-08
1987-11-20
1970-12-28
2008-12-28
1992-03-24
1987-06-14
1984-12-28
1974-05-07
1983-11-10
2000-12-17
2013-07-10
1978-12-17
1989-06-15
1974-12-29
2012-12-01
1970-12-03
1988-09-18
1982-01-25
2003-07-20
2003-07-17
1974-07-06
1970-04-25
1994-02-16
1995-11-17
2013-07-23
1990-02-24
1971-12-25
2011-03-19
1979-11-27
1984-08-04
1991-01-31
2004-10-14
1975-10-09
2002-05-08
2007-07-31
1971-11-23
2007-08-21
1998-01-05
1988-09-16
2008-06-03
2000-06-01
1986-07-18
1988-03-09
1988-10-28
1978-11-15
1991-09-04
2016-05-04
2001-05-25
1975-06-03
1999-07-25
1984-03-18
2013-07-19
1995-11-09
2009-07-18
1972-09-02
2005-11-11
2016-07-04
1993-09-22
1990-11-23
2005-11-29
1971-07-26
1999-02-10
1999-08-06
2009-03-05
1983-03-15
2004-02-06
1998-01-03
1977-02-14
1989-10-21
1992-11-11
1975-10-02
2015-11-01
1997-03-30
1970-06-21
1996-11-11
1978-04-03
1987-06-08
2014-09-17
1998-06-29
1997-01-27
2011-11-25
1997-06-26
2003-10-10
1990-05-18
1990-01-23
1997-08-11
1974-06-03
1999-08-09
2000-11-06
1971-07-09
1986-12-01
2008-10-21
2008-11-28
2002-03-26
1972-08-26
2000-06-05
2012-01-31
2000-08-05
1975-03-05
2015-10-21
1975-05-21
1974-08-07
2006-06-26
1971-05-26
1979-10-24
1985-05-02
2000-07-01
2005-12-03
1977-02-19
1989-02-05
1995-07-09
2003-09-11
1985-05-29
1995-06-03
1975-05-20
2003-05-24
1986-03-14
1977-05-28
1980-10-16
2009-04-12
1988-06-30
1973-05-09
1995-07-02
1977-10-11
2010-09-22
1975-01-02
1971-09-20
2004-12-16
1994-02-16
2012-04-16
1982-08-16