"category","regex","weight"
"chem_InChI","InChI=1S/([^/]+)(?:/[^/]+)*\S","999999"
"chem_InChIKey","[A-Z]{14}-[A-Z]{10}-[A-Z,0-9]","999999"
"chem_KEGG","C\d{5}","999999"
"chem_LipidMaps","LMFA[0-9]{8}","999999"
"chem_HMDB","HMDB[0-9]*","999999"
"numbers","^[1]$|^[3]$|^[4]$|^[6]$|^[1]0$","1"
"numbers","^\$?\d+(\.(\d{2}))?$","1"
"numbers","^\$[0-9]+(\.[0-9][0-9])?$","1"
"numbers","(?!^0*$)(?!^0*\.0*$)^\d{1,5}(\.\d{1,3})?$","1"
"numbers","^\$?(\d{1,3}(\,\d{3})*|(\d+))(\.\d{0,2})?$","1"
"numbers","^[0-9]+$","1"
"numbers","^[1-5]$","1"
"numbers","^\d*$","1"
"numbers","^[12345]$","1"
"numbers","^(\+|-)?\d+$","1"
"numbers","(^[0-9]{1,8}|(^[0-9]{1,8}\.{0,1}[0-9]{1,2}))$","1"
"numbers","(^-\d*\.?\d*[1-9]+\d*$)|(^-[1-9]+\d*\.\d*$)","1"
"numbers","^\d{0,2}(\.\d{1,4})?*%?$","1"
"numbers","^(\d|,)*\.?\d*$","1"
"numbers","(^\d*\.?\d*[1-9]+\d*$)|(^[1-9]+\d*\.\d*$)","1"
"numbers","^[1-9]+[0-9]*$","1"
"numbers","^\d*\d*\/{1}\d*$|^\d*$","1"
"numbers","^\$?(\d{1,3},?(\d{3},?)*\d{3}(\.\d{0,2})?|\d{1,3}(\.\d{0,2})?|\.\d{1,2}?)$","1"
"numbers","^((4\d{3})|(5[1-5]\d{2}))(-?|\040?)(\d{4}(-?|\040?)){3}|^(3[4,7]\d{2})(-?|\040?)\d{6}(-?|\040?)\d{5}","1"
"numbers","^(\d|-)?(\d|,)*\.?\d*$","1"
"email","^[\w\.=-]+@[\w\.-]+\.[\w]{2,3}$","1"
"email","[\w-]+@([\w-]+\.)+[\w-]+","1"
"email","^[\w-\.]+@([\w-]+\.)+[\w-]{2,4}$","1"
"email","^((?<DRIVE>[a-z]:)|(\\\\(?<SERVER>[0-9]*[a-z\-][a-z0-9\-]*)\\(?<VOLUME>[^\.\x01-\x1F\\""""\*\?<>:|\\/][^\x01-\x1F\\""""\*\?|><:\\/]*)))?(?<FOLDERS>(?<FOLDER1>(\.|(\.\.)|([^\.\x01-\x1F\\""""\*\?|><:\\/][^\x01-\x1F\\""""\*\?<>:|\\/]*)))?(?<FOLDERm>[\\/](\.|(\.\.)|([^\.\x01-\x1F\\""""\*\?|><:\\/][^\x01-\x1F\\""""\*\?<>:|\\/]*)))*)?[\\/]?$","1"
"email","^[A-Za-z0-9](([_\.\-]?[a-zA-Z0-9]+)*)@([A-Za-z0-9]+)(([\.\-]?[a-zA-Z0-9]+)*)\.([A-Za-z]{2,})$","1"
"email","^(?:[a-zA-Z0-9_'^&/+-])+(?:\.(?:[a-zA-Z0-9_'^&/+-])+)*@(?:(?:\[?(?:(?:25[0-5]|2[0-4][0-9]|[01]?[0-9][0-9]?))\.){3}(?:(?:25[0-5]|2[0-4][0-9]|[01]?[0-9][0-9]?)\]?)|(?:[a-zA-Z0-9-]+\.)+(?:[a-zA-Z]){2,}\.?)$","1"
"email","^((\""[^\""\f\n\r\t\v\b]+\"")|([\w\!\#\$\%\&\'\*\+\-\~\/\^\`\|\{\}]+(\.[\w\!\#\$\%\&\'\*\+\-\~\/\^\`\|\{\}]+)*))@((\[(((25[0-5])|(2[0-4][0-9])|([0-1]?[0-9]?[0-9]))\.((25[0-5])|(2[0-4][0-9])|([0-1]?[0-9]?[0-9]))\.((25[0-5])|(2[0-4][0-9])|([0-1]?[0-9]?[0-9]))\.((25[0-5])|(2[0-4][0-9])|([0-1]?[0-9]?[0-9])))\])|(((25[0-5])|(2[0-4][0-9])|([0-1]?[0-9]?[0-9]))\.((25[0-5])|(2[0-4][0-9])|([0-1]?[0-9]?[0-9]))\.((25[0-5])|(2[0-4][0-9])|([0-1]?[0-9]?[0-9]))\.((25[0-5])|(2[0-4][0-9])|([0-1]?[0-9]?[0-9])))|((([A-Za-z0-9\-])+\.)+[A-Za-z\-]+))$","1"
"email","^([\w\-\.]+)@((\[([0-9]{1,3}\.){3}[0-9]{1,3}\])|(([\w\-]+\.)+)([a-zA-Z]{2,4}))$","1"
"email","^[a-z0-9][a-z0-9_\.-]{0,}[a-z0-9]@[a-z0-9][a-z0-9_\.-]{0,}[a-z0-9][\.][a-z0-9]{2,4}$","1"
"email","^([a-zA-Z0-9_\-\.]+)@([a-zA-Z0-9_\-\.]+)\.([a-zA-Z]{2,5})$","1"
"email","^.+@[^\.].*\.[a-z]{2,}$","1"
"email","^[\w-]+(\.[\w-]+)*@([a-z0-9-]+(\.[a-z0-9-]+)*?\.[a-z]{2,6}|(\d{1,3}\.){3}\d{1,3})(:\d{4})?$","1"
"email","(\w+?@\w+?\x2E.+)","1"
"email","\w+[\w-\.]*\@\w+((-\w+)|(\w*))\.[a-z]{2,3}$|^([0-9a-zA-Z'\.]{3,40})\*|([0-9a-zA-Z'\.]+)@([0-9a-zA-Z']+)\.([0-9a-zA-Z']+)$|([0-9a-zA-Z'\.]+)@([0-9a-zA-Z']+)\*+$|^$","1"
"email","^([0-9a-zA-Z]([-.\w]*[0-9a-zA-Z])*@(([0-9a-zA-Z])+([-\w]*[0-9a-zA-Z])*\.)+[a-zA-Z]{2,9})$","1"
"email","(?<email>(?![])(\w|[.])*@(\w|[.])*)","1"
"email","^\W{0,5}[Rr]e:\W[a-zA-Z0-9]{1,10},\W[a-z]{1,10}\W[a-z]{1,10}\W[a-z]{1,10}","1"
"email","^((([a-zA-Z\'\.\-]+)?)((,\s*([a-zA-Z]+))?)|([A-Za-z0-9](([_\.\-]?[a-zA-Z0-9]+)*)@([A-Za-z0-9]+)(([\.\-]?[a-zA-Z0-9]+)*)\.([A-Za-z]{2,})))(;{1}(((([a-zA-Z\'\.\-]+){1})((,\s*([a-zA-Z]+))?))|([A-Za-z0-9](([_\.\-]?[a-zA-Z0-9]+)*)@([A-Za-z0-9]+)(([\.\-]?[a-zA-Z0-9]+)*)\.([A-Za-z]{2,})){1}))*$","1"
"numbers","^\d*\.?((25)|(50)|(5)|(75)|(0)|(00))?$","1"
"numbers","^(((\d{1,3})(,\d{3})*)|(\d+))(.\d+)?$","1"
"numbers","^\$?([0-9]{1,3},([0-9]{3},)*[0-9]{3}|[0-9]+)(\.[0-9][0-9])?$","1"
"numbers","(^(\+?\-?*[0-9]+)([,0-9]*)([0-9])*$)|(^*$)","1"
"numbers","^[+-]?([0-9]*\.?[0-9]+|[0-9]+\.?[0-9]*)([eE][+-]?[0-9]+)?$","1"
"numbers","^-?\d*(\.\d+)?$","1"
"numbers","(^\d*\.?\d*[0-9]+\d*$)|(^[0-9]+\d*\.\d*$)","1"
"numbers","^([1-9]{0,1})([0-9]{1})(\.[0-9])?$","1"
"numbers","^\d$","1"
"numbers","(^\d{3,5}\,\d{2}$)|(^\d{3,5}$)","1"
"numbers","(^[+]?\d*\.?\d*[1-9]+\d*$)|(^[+]?[1-9]+\d*\.\d*$)","1"
"numbers","^(\$|)([1-9]\d{0,2}(\,\d{3})*|([1-9]\d*))(\.\d{2})?$","1"
"numbers","([0-9]+\.[0-9]*)|([0-9]*\.[0-9]+)|([0-9]+)","1"
"numbers","^\$?\-?([1-9]{1}[0-9]{0,2}(\,\d{3})*(\.\d{0,2})?|[1-9]{1}\d{0,}(\.\d{0,2})?|0(\.\d{0,2})?|(\.\d{1,2}))$|^\-?\$?([1-9]{1}\d{0,2}(\,\d{3})*(\.\d{0,2})?|[1-9]{1}\d{0,}(\.\d{0,2})?|0(\.\d{0,2})?|(\.\d{1,2}))$|^\(\$?([1-9]{1}\d{0,2}(\,\d{3})*(\.\d{0,2})?|[1-9]{1}\d{0,}(\.\d{0,2})?|0(\.\d{0,2})?|(\.\d{1,2}))\)$","1"
"numbers","^\d{1,5}(\.\d{1,2})?$","1"
"numbers","^\d+$","1"
"numbers","^([0-5]?\d?\d?\d?\d|6[0-4]\d\d\d|65[0-4]\d\d|655[0-2]\d|6553[0-5])$","1"
"numbers","(^[0-9]*[1-9]+[0-9]*\.[0-9]*$)|(^[0-9]*\.[0-9]*[1-9]+[0-9]*$)|(^[0-9]*[1-9]+[0-9]*$)","1"
"email","^((?>[a-zA-Z\d!#$%&'*+\-/=?^_`{|}~]+\x20*|""((?=[\x01-\x7f])[^""\\]|\\[\x01-\x7f])*""\x20*)*(?<angle><))?((?!\.)(?>\.?[a-zA-Z\d!#$%&'*+\-/=?^_`{|}~]+)+|""((?=[\x01-\x7f])[^""\\]|\\[\x01-\x7f])*"")@(((?!-)[a-zA-Z\d\-]+(?<!-)\.)+[a-zA-Z]{2,}|\[(((?(?<!\[)\.)(25[0-5]|2[0-4]\d|[01]?\d?\d)){4}|[a-zA-Z\d\-]*[a-zA-Z\d]:((?=[\x01-\x7f])[^\\\[\]]|\\[\x01-\x7f])+)\])(?(angle)>)$","1"
"email","^[A-Za-z0-9](([_\.\-]?[a-zA-Z0-9]+)*)@([A-Za-z0-9]+)(([\.\-]?[a-zA-Z0-9]+)*)\.([A-Za-z]{2,})$","1"
"email","\w+([-+.]\w+)*@\w+([-.]\w+)*\.\w+([-.]\w+)*([,;]\s*\w+([-+.]\w+)*@\w+([-.]\w+)*\.\w+([-.]\w+)*)*","1"
"email","(?<user>(?:(?:[^\t\(\)\<\>@,;\:\\\""\.\[\]\r\n]+)|(?:\""(?:(?:[^\""\\\r\n])|(?:\\.))*\""))(?:\.(?:(?:[^\t\(\)\<\>@,;\:\\\""\.\[\]\r\n]+)|(?:\""(?:(?:[^\""\\\r\n])|(?:\\.))*\"")))*)@(?<domain>(?:(?:[^\t\(\)\<\>@,;\:\\\""\.\[\]\r\n]+)|(?:\[(?:(?:[^\[\]\\\r\n])|(?:\\.))*\]))(?:\.(?:(?:[^\t\(\)\<\>@,;\:\\\""\.\[\]\r\n]+)|(?:\[(?:(?:[^\[\]\\\r\n])|(?:\\.))*\])))*)","1"
"email","^[a-zA-Z]+(([\'\,\.\-][a-zA-Z])?[a-zA-Z]*)*\s+<(\w[-._\w]*\w@\w[-._\w]*\w\.\w{2,3})>$|^(\w[-._\w]*\w@\w[-._\w]*\w\.\w{2,3})$","1"
"email","^([\w\d\-\.]+)@{1}(([\w\d\-]{1,67})|([\w\d\-]+\.[\w\d\-]{1,67}))\.(([a-zA-Z\d]{2,4})(\.[a-zA-Z\d]{2})?)$","1"
"email","^\w+@[a-zA-Z_]+?\.[a-zA-Z]{2,3}$","1"
"email","^([a-zA-Z0-9_\-\.]+)@((\[[0-9]{1,3}\.[0-9]{1,3}\.[0-9]{1,3}\.)|(([a-zA-Z0-9\-]+\.)+))([a-zA-Z]{2,4}|[0-9]{1,3})(\]?)$","1"
"email","^[\w-]+(?:\.[\w-]+)*@(?:[\w-]+\.)+[a-zA-Z]{2,7}$","1"
"email","^((?:(?:(?:[a-zA-Z0-9][\.\-\+_]?)*)[a-zA-Z0-9])+)\@((?:(?:(?:[a-zA-Z0-9][\.\-_]?){0,62})[a-zA-Z0-9])+)\.([a-zA-Z0-9]{2,6})$","1"
"email","^([0-9a-zA-Z]([-.\w]*[0-9a-zA-Z])*@([0-9a-zA-Z][-\w]*[0-9a-zA-Z]\.)+[a-zA-Z]{2,9})$","1"
"email","^([0-9a-zA-Z]+[-._+&])*[0-9a-zA-Z]+@([-0-9a-zA-Z]+[.])+[a-zA-Z]{2,6}$","1"
"email","^(([a-zA-Z0-9_\-\.]+)@([a-zA-Z0-9_\-\.]+)\.([a-zA-Z]{2,5}){1,25})+([;.](([a-zA-Z0-9_\-\.]+)@([a-zA-Z0-9_\-\.]+)\.([a-zA-Z]{2,5}){1,25})+)*$","1"
"email","(\w[-._\w]*\w@\w[-._\w]*\w\.\w{2,3})","1"
"email","^[_a-zA-Z0-9-]+(\.[_a-zA-Z0-9-]+)*@[a-zA-Z0-9-]+(\.[a-zA-Z0-9-]+)*\.(([0-9]{1,3})|([a-zA-Z]{2,3})|(aero|coop|info|museum|name))$","1"
"email","^(([A-Za-z0-9]+_+)|([A-Za-z0-9]+\-+)|([A-Za-z0-9]+\.+)|([A-Za-z0-9]+\++))*[A-Za-z0-9]+@((\w+\-+)|(\w+\.))*\w{1,63}\.[a-zA-Z]{2,6}$","1"
"email","^[\n<""']*([a-zA-Z0-9._-]+@[a-zA-Z0-9._-]+)","1"
"email","^(([-\w\.]+)|(""""[-\w\.]+""""))?<([\w\-\.]+)@((\[([0-9]{1,3}\.){3}[0-9]{1,3}\])|(([\w\-]+\.)+)([a-zA-Z]{2,4}))>$","1"
"email","^[\w-]+(\.[\w-]+)*@([a-z0-9-]+(\.[a-z0-9-]+)*?\.[a-z]{2,6}|(\d{1,3}\.){3}\d{1,3})(:\d{4})?$","1"
"email","(\w+?@\w+?\x2E.+)","1"
"numbers","^([0-9]*\,?[0-9]+|[0-9]+\,?[0-9]*)?$","1"
"numbers","(?n:(^\$?(?!0,?\d)\d{1,3}(?=(?<1>,)|(?<1>))(\k<1>\d{3})*(\.\d\d)?)$)","1"
"numbers","^(0)$|^([1-9][0-9]*)$","1"
"numbers","^[-+]?\d+(\.\d+)?|[-+]?\.\d+?$","1"
"numbers","^\d{1,7}$","1"
"numbers","^[+]?\d*$","1"
"numbers","^\$?(\d{1,3},?(\d{3},?)*\d{3}(\.\d{1,3})?|\d{1,3}(\.\d{2})?)$","1"
"numbers","^\d+(?:\.\d{0,2})?$","1"
"numbers","^((\d?)|(([-+]?\d+\.?\d*)|([-+]?\d*\.?\d+))|(([-+]?\d+\.?\d*\,\?)*([-+]?\d+\.?\d*))|(([-+]?\d*\.?\d+\,\?)*([-+]?\d*\.?\d+))|(([-+]?\d+\.?\d*\,\?)*([-+]?\d*\.?\d+))|(([-+]?\d*\.?\d+\,\?)*([-+]?\d+\.?\d*)))$","1"
"numbers","^\$?([1-9]{1}[0-9]{0,2}(\,[0-9]{3})*(\.[0-9]{0,2})?|[1-9]{1}[0-9]{0,}(\.[0-9]{0,2})?|0(\.[0-9]{0,2})?|(\.[0-9]{1,2})?)$","1"
"numbers","^\-?\(?([0-9]{0,3}(\,?[0-9]{3})*(\.?[0-9]*))\)?$","1"
"numbers","^\d{1,8}$|^\d{1,3},\d{3}$|^\d{1,2},\d{3},\d{3}$","1"
"numbers","(^\$(\d{1,3},?(\d{3},?)*\d{3}(\.\d{1,3})?|\d{1,3}(\.\d{2})?)$|^\d{1,2}(\.\d{1,2})?*%$|^100%$)","1"
"numbers","^(0|(\+)?[1-9]{1}[0-9]{0,8}|(\+)?[1-3]{1}[0-9]{1,9}|(\+)?[4]{1}([0-1]{1}[0-9]{8}|[2]{1}([0-8]{1}[0-9]{7}|[9]{1}([0-3]{1}[0-9]{6}|[4]{1}([0-8]{1}[0-9]{5}|[9]{1}([0-5]{1}[0-9]{4}|[6]{1}([0-6]{1}[0-9]{3}|[7]{1}([0-1]{1}[0-9]{2}|[2]{1}([0-8]{1}[0-9]{1}|[9]{1}[0-5]{1})))))))))$","1"
"numbers","^(0|[-]{1}([1-9]{1}[0-9]{0,3}|[1-2]{1}[0-9]{1,4}|[3]{1}([0-1]{1}[0-9]{3}|[2]{1}([0-6]{1}[0-9]{2}|[7]{1}([0-5]{1}[0-9]{1}|([6]{1}[0-8]{1})))))|(\+)?([1-9]{1}[0-9]{0,3}|[1-2]{1}[0-9]{1,4}|[3]{1}([0-1]{1}[0-9]{3}|[2]{1}([0-6]{1}[0-9]{2}|[7]{1}([0-5]{1}[0-9]{1}|([6]{1}[0-7]{1}))))))$","1"
"numbers","^\-?[0-9]{1,3}(\,[0-9]{3})*(\.[0-9]+)?$|^[0-9]+(\.[0-9]+)?$","1"
"numbers","(^(((\d)|(\d\d)|(\d\d\d))(\xA0|\x20))*((\d)|(\d\d)|(\d\d\d))([,.]\d*)?$)","1"
"numbers","^[-+]?[0-9]\d{0,2}(\.\d{1,2})?%?$","1"
"numbers","^((\d{1,2})?([.][\d]{1,2})?){1}[%]{1}$","1"
"uri","^[a-zA-Z0-9]+([a-zA-Z0-9\-\.]+)?\.(aero|biz|com|coop|edu|gov|info|int|mil|museum|name|net|org|ac|ad|ae|af|ag|ai|al|am|an|ao|aq|ar|as|at|au|aw|az|ba|bb|bd|be|bf|bg|bh|bi|bj|bm|bn|bo|br|bs|bt|bv|bw|by|bz|ca|cc|cd|cf|cg|ch|ci|ck|cl|cm|cn|co|cr|cs|cu|cv|cx|cy|cz|de|dj|dk|dm|do|dz|ec|ee|eg|eh|er|es|et|fi|fj|fk|fm|fo|fr|ga|gb|gd|ge|gf|gg|gh|gi|gl|gm|gn|gp|gq|gr|gs|gt|gu|gw|gy|hk|hm|hn|hr|ht|hu|id|ie|il|im|in|io|iq|ir|is|it|je|jm|jo|jp|ke|kg|kh|ki|km|kn|kp|kr|kw|ky|kz|la|lb|lc|li|lk|lr|ls|lt|lu|lv|ly|ma|mc|md|mg|mh|mk|ml|mm|mn|mo|mp|mq|mr|ms|mt|mu|mv|mw|mx|my|mz|na|nc|ne|nf|ng|ni|nl|no|np|nr|nu|nz|om|pa|pe|pf|pg|ph|pk|pl|pm|pn|pr|ps|pt|pw|py|qa|re|ro|ru|rw|sa|sb|sc|sd|se|sg|sh|si|sj|sk|sl|sm|sn|so|sr|st|su|sv|sy|sz|tc|td|tf|tg|th|tj|tk|tm|tn|to|tp|tr|tt|tv|tw|tz|ua|ug|uk|um|us|uy|uz|va|vc|ve|vg|vi|vn|vu|wf|ws|ye|yt|yu|za|zm|zr|zw|AERO|BIZ|COM|COOP|EDU|GOV|INFO|INT|MIL|MUSEUM|NAME|NET|ORG|AC|","1"
"uri","wsrp_rewrite\?(?<wsrp_uri>[\w%:&\\/;.]*)/wsrp_rewrite","1"
"uri","\.com/(\d+)$","1"
"uri",".*?$(?<!\.aspx)","1"
"uri","^\[assembly:AssemblyVersion\(\""([0-9]+)\.([0-9]+)\.([0-9]+)\.([0-9]+)","1"
"uri","(^[a-zA-Z0-9]+://)","1"
"uri","^\\{2}[\w-]+\\(([\w-][\w-\s]*[\w-]+[$$]?$)|([\w-][$$]?$))","1"
"uri","^http://([a-zA-Z0-9_\-]+)([\.][a-zA-Z0-9_\-]+)+([/][a-zA-Z0-9\~\(\)_\-]*)+([\.][a-zA-Z0-9\(\)_\-]+)*$","1"
"uri","(mailto\:|(news|(ht|f)tp(s?))\://)(([^[:space:]]+)|([^[:space:]]+)(#([^#]+)#)?)","1"
"uri","^(?:(?:25[0-5]|2[0-4]\d|[01]\d\d|\d?\d)(?(?=\.?\d)\.)){4}$","1"
"uri","\b(((\S+)?)(@|mailto\:|(news|(ht|f)tp(s?))\://)\S+)\b","1"
"uri","href\s*=\s*(?:(?:\""(?<url>[^\""]*)\"")|(?<url>[^\s*]))>(?<title>[^<]+)</\w>","1"
"uri","^(ht|f)tp((?<=http)s)?://((?<=http://)www|(?<=https://)www|(?<=ftp://)ftp)\.(([a-z][0-9])|([0-9][a-z])|([a-z0-9][a-z0-9\-]{1,2}[a-z0-9])|([a-z0-9][a-z0-9\-](([a-z0-9\-][a-z0-9])|([a-z0-9][a-z0-9\-]))[a-z0-9\-]*[a-z0-9]))\.(co|me|org|ltd|plc|net|sch|ac|mod|nhs|police|gov)\.uk$","1"
"uri","^[a-z]+([a-z0-9-]*[a-z0-9]+)?(\.([a-z]+([a-z0-9-]*[a-z0-9]+)?)+)*$","1"
"uri","(((ht|f)tp(s?):\/\/)|(www\.[^\[\]\(\)\n\r\t]+)|(([012]?[0-9]{1,2}\.){3}[012]?[0-9]{1,2})\/)([^\[\]\(\),;""'<>\n\r\t]+)([^\.\[\]\(\),;""'<>\n\r\t])|(([012]?[0-9]{1,2}\.){3}[012]?[0-9]{1,2})","1"
"uri","^\\([^\\]+\\)*[^\/:*?""<>|]?$","1"
"uri","([^\=&]+)(?<!param1|param2|param3)\=([^\=&]+)(&)?","1"
"uri","[a-zA-Z]{3,}://[a-zA-Z0-9\.]+/*[a-zA-Z0-9/\\%_.]*\?*[a-zA-Z0-9/\\%_.=&]*","1"
"uri","((http\://|https\://|ftp\://)|(www.))+(([a-zA-Z0-9\.-]+\.[a-zA-Z]{2,4})|([0-9]{1,3}\.[0-9]{1,3}\.[0-9]{1,3}\.[0-9]{1,3}))(/[a-zA-Z0-9%:/-_\?\.'~]*)?","1"
"uri","9[0-9]","1"
"uri","^http\://[a-zA-Z0-9\-\.]+\.[a-zA-Z]{2,3}(/\S*)?$","1"
"uri","^(?<link>((?<prot>http:\/\/)*(?<subdomain>(www|[^\-\n]*)*)(\.)*(?<domain>[^\-\n]+)\.(?<after>[a-zA-Z]{2,3}[^>\n]*)))$","1"
"uri","\b([\d\w\.\/\+\-\?\:]*)((ht|f)tp(s|)\:\/\/|[\d\d\d|\d\d]\.[\d\d\d|\d\d]\.|www\.|\.tv|\.ac|\.com|\.edu|\.gov|\.int|\.mil|\.net|\.org|\.biz|\.info|\.name|\.pro|\.museum|\.co)([\d\w\.\/\%\+\-\=\&\?\:\\\""\'\,\|\~\;]*)\b","1"
"uri","^(((ht|f)tp(s?))\://)?((([a-zA-Z0-9_\-]{2,}\.)+[a-zA-Z]{2,})|((?:(?:25[0-5]|2[0-4]\d|[01]\d\d|\d?\d)(?(\.?\d)\.)){4}))(:[a-zA-Z0-9]+)?(/[a-zA-Z0-9\-\._\?\,\'/\\\+&%\$#\=~]*)?$","1"
"uri","^[^\\\/\?\*\""\'\>\<\:\|]*$","1"
"uri","^(25[0-5]|2[0-4][0-9]|[0-1]{1}[0-9]{2}|[1-9]{1}[0-9]{1}|[1-9])\.(25[0-5]|2[0-4][0-9]|[0-1]{1}[0-9]{2}|[1-9]{1}[0-9]{1}|[1-9]|0)\.(25[0-5]|2[0-4][0-9]|[0-1]{1}[0-9]{2}|[1-9]{1}[0-9]{1}|[1-9]|0)\.(25[0-5]|2[0-4][0-9]|[0-1]{1}[0-9]{2}|[1-9]{1}[0-9]{1}|[0-9])$","1"
"uri","^(ht|f)tp(s?)\:\/\/[a-zA-Z0-9\-\._]+(\.[a-zA-Z0-9\-\._]+){2,}(\/?)([a-zA-Z0-9\-\.\?\,\'\/\\\+&%\$#_]*)?$","1"
"uri","^([a-zA-Z0-9]([a-zA-Z0-9\-]{0,61}[a-zA-Z0-9])?\.)+[a-zA-Z]{2,6}$","1"
"uri","^((([0-9A-Fa-f]{1,4}:){7}[0-9A-Fa-f]{1,4})|(([0-9A-Fa-f]{1,4}:){6}:[0-9A-Fa-f]{1,4})|(([0-9A-Fa-f]{1,4}:){5}:([0-9A-Fa-f]{1,4}:)?[0-9A-Fa-f]{1,4})|(([0-9A-Fa-f]{1,4}:){4}:([0-9A-Fa-f]{1,4}:){0,2}[0-9A-Fa-f]{1,4})|(([0-9A-Fa-f]{1,4}:){3}:([0-9A-Fa-f]{1,4}:){0,3}[0-9A-Fa-f]{1,4})|(([0-9A-Fa-f]{1,4}:){2}:([0-9A-Fa-f]{1,4}:){0,4}[0-9A-Fa-f]{1,4})|(([0-9A-Fa-f]{1,4}:){6}((\b((25[0-5])|(1\d{2})|(2[0-4]\d)|(\d{1,2}))\b)\.){3}(\b((25[0-5])|(1\d{2})|(2[0-4]\d)|(\d{1,2}))\b))|(([0-9A-Fa-f]{1,4}:){0,5}:((\b((25[0-5])|(1\d{2})|(2[0-4]\d)|(\d{1,2}))\b)\.){3}(\b((25[0-5])|(1\d{2})|(2[0-4]\d)|(\d{1,2}))\b))|(::([0-9A-Fa-f]{1,4}:){0,5}((\b((25[0-5])|(1\d{2})|(2[0-4]\d)|(\d{1,2}))\b)\.){3}(\b((25[0-5])|(1\d{2})|(2[0-4]\d)|(\d{1,2}))\b))|([0-9A-Fa-f]{1,4}::([0-9A-Fa-f]{1,4}:){0,5}[0-9A-Fa-f]{1,4})|(::([0-9A-Fa-f]{1,4}:){0,6}[0-9A-Fa-f]{1,4})|(([0-9A-Fa-f]{1,4}:){1,7}:))$","1"
"uri","^(([a-zA-Z]:)|(\\{2}\w+)\$?)(\\(\w[\w]*.*))+\.(jpg|JPG)$","1"
"uri","(http|ftp|https):\/\/[\w\-_]+(\.[\w\-_]+)+([\w\-\.,@?^=%&:/~\+#]*[\w\-\@?^=%&/~\+#])?","1"
"uri","^([a-zA-Z]\:)(\\{1}|((\\{1})[^\\]([^/:*?<>""|]*(?<![])))+)$","1"
"uri","^(([a-zA-Z]:)|(\\{2}\w+)\$?)(\\(\w[\w]*.*))+\.(txt|TXT)$","1"
"uri","(?!\.)[a-z]{1,4}$","1"
"uri","(\s|\n|^)(\w+://[^\s\n]+)","1"
"uri","^(\$)?(([1-9]\d{0,2}(\,\d{3})*)|([1-9]\d*)|(0))(\.\d{2})?$","1"
"uri","(a(?:[cdefgilmnoqrstuwxz]|ero|(?:rp|si)a)|b(?:[abdefghijmnorstvwyz]iz)|c(?:[acdfghiklmnoruvxyz]|at|o(?:m|op))|d[ejkmoz]|e(?:[ceghrstu]|du)|f[ijkmor]|g(?:[abdefghilmnpqrstuwy]|ov)|h[kmnrtu]|i(?:[delmnoqrst]|n(?:fo|t))|j(?:[emop]|obs)|k[eghimnprwyz]|l[abcikrstuvy]|m(?:[acdeghklmnopqrstuvwxyz]|il|obi|useum)|n(?:[acefgilopruz]|ame|et)|o(?:m|rg)|p(?:[aefghklmnrstwy]|ro)|qa|r[eosuw]|s[abcdeghijklmnortuvyz]|t(?:[cdfghjklmnoprtvwz]|(?:rav)?el)|u[agkmsyz]|v[aceginu]|w[fs]|y[etu]|z[amw])","1"
"uri","^(((ht|f)tp(s?))\://)?(www.|[a-zA-Z].)[a-zA-Z0-9\-\.]+\.(com|edu|gov|mil|net|org|biz|info|name|museum|us|ca|uk)(\:[0-9]+)*(/($|[a-zA-Z0-9\.\,\;\?\'\\\+&%\$#\=~_\-]+))*$","1"
"uri","(?<http>(http:[/][/]|www.)([a-z]|[A-Z]|[0-9]|[/.]|[~])*)","1"
"uri","^[a-zA-Z0-9\-\.]+\.(com|org|net|mil|edu|COM|ORG|NET|MIL|EDU)$","1"
"uri","([\d\w-.]+?\.(a[cdefgilmnoqrstuwz]|b[abdefghijmnorstvwyz]|c[acdfghiklmnoruvxyz]|d[ejkmnoz]|e[ceghrst]|f[ijkmnor]|g[abdefghilmnpqrstuwy]|h[kmnrtu]|i[delmnoqrst]|j[emop]|k[eghimnprwyz]|l[abcikrstuvy]|m[acdghklmnopqrstuvwxyz]|n[acefgilopruz]|om|p[aefghklmnrstwy]|qa|r[eouw]|s[abcdeghijklmnortuvyz]|t[cdfghjkmnoprtvwz]|u[augkmsyz]|v[aceginu]|w[fs]|y[etu]|z[amw]|aero|arpa|biz|com|coop|edu|info|int|gov|mil|museum|name|net|org|pro)(\b|\W(?<!&|=)(?!\.\s|\.{3}).*?))(\s|$)","1"
"uri","(^\d{3}\x2E\d{3}\x2E\d{3}\x2D\d{2}$)","1"
"uri","(((file|gopher|news|nntp|telnet|http|ftp|https|ftps|sftp)://)|(www\.))+(([a-zA-Z0-9\._-]+\.[a-zA-Z]{2,6})|([0-9]{1,3}\.[0-9]{1,3}\.[0-9]{1,3}\.[0-9]{1,3}))(/[a-zA-Z0-9\&%_\./-~-]*)?","1"
"uri","[0-9]{1,3}\.[0-9]{1,3}\.[0-9]{1,3}\.[0-9]{1,3}","1"
"uri","^(((((25[0-5]|2[0-4][0-9]|[0-1]{1}[0-9]{2}|[1-9]{1}[0-9]{1}|[1-9])\.(25[0-5]|2[0-4][0-9]|[0-1]{1}[0-9]{2}|[1-9]{1}[0-9]{1}|[1-9]|0)\.(25[0-5]|2[0-4][0-9]|[0-1]{1}[0-9]{2}|[1-9]{1}[0-9]{1}|[1-9]|0)\.(25[0-5]|2[0-4][0-9]|[0-1]{1}[0-9]{2}|[1-9]{1}[0-9]{1}|[0-9])-(25[0-5]|2[0-4][0-9]|[0-1]{1}[0-9]{2}|[1-9]{1}[0-9]{1}|[1-9])\.(25[0-5]|2[0-4][0-9]|[0-1]{1}[0-9]{2}|[1-9]{1}[0-9]{1}|[1-9]|0)\.(25[0-5]|2[0-4][0-9]|[0-1]{1}[0-9]{2}|[1-9]{1}[0-9]{1}|[1-9]|0)\.(25[0-5]|2[0-4][0-9]|[0-1]{1}[0-9]{2}|[1-9]{1}[0-9]{1}|[0-9]))|((25[0-5]|2[0-4][0-9]|[0-1]{1}[0-9]{2}|[1-9]{1}[0-9]{1}|[1-9])\.(25[0-5]|2[0-4][0-9]|[0-1]{1}[0-9]{2}|[1-9]{1}[0-9]{1}|[1-9]|0)\.(25[0-5]|2[0-4][0-9]|[0-1]{1}[0-9]{2}|[1-9]{1}[0-9]{1}|[1-9]|0)\.(25[0-5]|2[0-4][0-9]|[0-1]{1}[0-9]{2}|[1-9]{1}[0-9]{1}|[0-9]))),)*)(((25[0-5]|2[0-4][0-9]|[0-1]{1}[0-9]{2}|[1-9]{1}[0-9]{1}|[1-9])\.(25[0-5]|2[0-4][0-9]|[0-1]{1}[0-9]{2}|[1-9]{1}[0-9]{1}|[1-","1"
"uri","((http\://|https\://|ftp\://)|(www.))+(([a-zA-Z0-9\.-]+\.[a-zA-Z]{2,4})|([0-9]{1,3}\.[0-9]{1,3}\.[0-9]{1,3}\.[0-9]{1,3}))(/[a-zA-Z0-9%:/-_\?\.'~]*)?","1"
"uri","[a-zA-Z]{3,}://[a-zA-Z0-9\.]+/*[a-zA-Z0-9/\\%_.]*\?*[a-zA-Z0-9/\\%_.=&]*","1"
"uri","9[0-9]","1"
"uri","^([a-zA-Z].*|[1-9].*)\.(((j|J)(p|P)(g|G))|((g|G)(i|I)(f|F)))$","1"
"uri","([^\=&]+)(?<!param1|param2|param3)\=([^\=&]+)(&)?","1"
"uri","^(ht|f)tp((?<=http)s)?://((?<=http://)www|(?<=https://)www|(?<=ftp://)ftp)\.(([a-z][0-9])|([0-9][a-z])|([a-z0-9][a-z0-9\-]{1,2}[a-z0-9])|([a-z0-9][a-z0-9\-](([a-z0-9\-][a-z0-9])|([a-z0-9][a-z0-9\-]))[a-z0-9\-]*[a-z0-9]))\.(co|me|org|ltd|plc|net|sch|ac|mod|nhs|police|gov)\.uk$","1"
"uri","href\s*=\s*(?:(?:\""(?<url>[^\""]*)\"")|(?<url>[^\s*]))>(?<title>[^<]+)</\w>","1"
"uri","^[a-z]+([a-z0-9-]*[a-z0-9]+)?(\.([a-z]+([a-z0-9-]*[a-z0-9]+)?)+)*$","1"
"uri","^\\([^\\]+\\)*[^\/:*?""<>|]?$","1"
"uri","(((ht|f)tp(s?):\/\/)|(www\.[^\[\]\(\)\n\r\t]+)|(([012]?[0-9]{1,2}\.){3}[012]?[0-9]{1,2})\/)([^\[\]\(\),;""'<>\n\r\t]+)([^\.\[\]\(\),;""'<>\n\r\t])|(([012]?[0-9]{1,2}\.){3}[012]?[0-9]{1,2})","1"
"uri","^(\$|)([1-9]+\d{0,2}(\,\d{3})*|([1-9]+\d*))(\.\d{2})?$","1"
"uri","^[^\\\./:\*\?\""<>\|]{1}[^\\/:\*\?\""<>\|]{0,254}$","1"
"uri","^([a-zA-Z].*|[1-9].*)\.(((j|J)(p|P)(g|G))|((g|G)(i|I)(f|F)))$","1"
"uri","^(\$|)([1-9]+\d{0,2}(\,\d{3})*|([1-9]+\d*))(\.\d{2})?$","1"
"uri","^((https?|ftp)\://((\[?(\d{1,3}\.){3}\d{1,3}\]?)|(([-a-zA-Z0-9]+\.)+[a-zA-Z]{2,4}))(\:\d+)?(/[-a-zA-Z0-9._?,'+&%$#=~\\]+)*/?)$","1"
"uri","^([a-zA-Z]\:|\\)\\([^\\]+\\)*[^\/:*?""<>|]+\.htm(l)?$","1"
"uri","^(http|https|ftp)\://[a-zA-Z0-9\-\.]+\.[a-zA-Z]{2,3}(:[a-zA-Z0-9]*)?/?([a-zA-Z0-9\-\._\?\,\'/\\\+&%\$#\=~])*[^\.\,\)\(\s]$","1"
"uri","^([a-zA-Z]\:)(\\[^\\/:*?<>""|]*(?<![]))*(\.[a-zA-Z]{2,6})$","1"
"uri","^(http|https|ftp)\://(((25[0-5]|2[0-4][0-9]|1[0-9][0-9]|[1-9][0-9]|[0-9])\.){3}(25[0-5]|2[0-4][0-9]|1[0-9][0-9]|[1-9][0-9]|[0-9])|([a-zA-Z0-9_\-\.])+\.(com|net|org|edu|int|mil|gov|arpa|biz|aero|name|coop|info|pro|museum|uk|me))((:[a-zA-Z0-9]*)?/?([a-zA-Z0-9\-\._\?\,\'/\\\+&%\$#\=~])*)$","1"
"uri","^(([a-z][0-9])|([0-9][a-z])|([a-z0-9][a-z0-9\-]{1,2}[a-z0-9])|([a-z0-9][a-z0-9\-](([a-z0-9\-][a-z0-9])|([a-z0-9][a-z0-9\-]))[a-z0-9\-]*[a-z0-9]))\.(co|me|org|ltd|plc|net|sch|ac|mod|nhs|police|gov)\.uk$","1"
"uri","^(([a-zA-Z0-9]([a-zA-Z0-9\-]{0,61}[a-zA-Z0-9])?\.)+[a-zA-Z]{2,6}/(DC=['\w\d\s\-\&]+[,]*){2,})|((\d{1,2}|1\d\d|2[0-4]\d|25[0-5])\.(\d{1,2}|1\d\d|2[0-4]\d|25[0-5])\.(\d{1,2}|1\d\d|2[0-4]\d|25[0-5])\.(\d{1,2}|1\d\d|2[0-4]\d|25[0-5])/(DC=['\w\d\s\-\&]+[,]*){2,})|((DC=['\w\d\s\-\&]+[,]*){2,})$","1"
"uri","^[^\\\./:\*\?\""<>\|]{1}[^\\/:\*\?\""<>\|]{0,254}$","1"
"uri","^(ht|f)tp((?<=http)s)?://((?<=http://)www|(?<=https://)www|(?<=ftp://)ftp)\.(([a-z][0-9])|([0-9][a-z])|([a-z0-9][a-z0-9\-]{1,2}[a-z0-9])|([a-z0-9][a-z0-9\-](([a-z0-9\-][a-z0-9])|([a-z0-9][a-z0-9\-]))[a-z0-9\-]*[a-z0-9]))\.(co|me|org|ltd|plc|net|sch|ac|mod|nhs|police|gov)\.uk(:\d+)?\/?$","1"
"uri","^((?:2[0-5]{2}|1\d{2}|[1-9]\d|[1-9])\.(?:(?:2[0-5]{2}|1\d{2}|[1-9]\d|\d)\.){2}(?:2[0-5]{2}|1\d{2}|[1-9]\d|\d)):(\d|[1-9]\d|[1-9]\d{2,3}|[1-5]\d{4}|6[0-4]\d{3}|654\d{2}|655[0-2]\d|6553[0-5])$","1"
"uri","<a\s*.*?href\s*=\s*['""](?!http:\/\/).*?>(.*?)<\/a>","1"
"numbers","^(0|[-]{1}([1-9]{1}[0-9]{0,1}|[1]{1}([0-1]{1}[0-9]{1}|[2]{1}[0-8]{1}))|(\+)?([1-9]{1}[0-9]{0,1}|[1]{1}([0-1]{1}[0-9]{1}|[2]{1}[0-7]{1})))$","1"
"numbers","^\$(\d{1,3}(\,\d{3})*|(\d+))(\.\d{2})?$","1"
"numbers","^0$|^[1-9][0-9]*$|^[1-9][0-9]{0,2}(,[0-9]{3})$","1"
"numbers","^[-]?([1-9]{1}[0-9]{0,}(\.[0-9]{0,2})?|0(\.[0-9]{0,2})?|\.[0-9]{1,2})$","1"
"numbers","^[-+]?[1-9]\d*\.?[0]*$","1"
"numbers","^\d+$","1"
"numbers","^([0-9]*|\d*\.\d{1}?\d*)$","1"
"numbers","^(([+]\d{2}[][1-9]\d{0,2}[])|([0]\d{1,3}[-]))((\d{2}([]\d{2}){2})|(\d{3}([]\d{3})*([]\d{2})+))$","1"
"numbers","^(0*100{1,1}\.?((?<=\.)0*)?%?$)|(^0*\d{0,2}\.?((?<=\.)\d*)?%?)$","1"
"numbers","^(\d|,)*\d*$","1"
"numbers","^\$?([0-9]{1,3},([0-9]{3},)*[0-9]{3}|[0-9]+)(.[0-9][0-9])?$","1"
"numbers","^[0-9]*(\.)?[0-9]+$","1"
"numbers","^1000([.][0]{1,3})?$|^\d{1,3}$|^\d{1,3}([.]\d{1,3})$|^([.]\d{1,3})$","1"
"numbers","^(\-)?1000([.][0]{1,3})?$|^(\-)?\d{1,3}$|^(\-)?\d{1,3}([.]\d{1,3})$|^(\-)?([.]\d{1,3})$","1"
"numbers","^((\d{1,2})?([.][\d]{1,2})?){1}[%]{1}$","1"
"numbers","^([1-9]|[1-9]\d|100)$","1"
"numbers","(^N/A$)|(^[-]?(\d+)(\.\d{0,3})?$)|(^[-]?(\d{1,3},(\d{3},)*\d{3}(\.\d{1,3})?|\d{1,3}(\.\d{1,3})?)$)","1"
"numbers","^([1-9]{1}[0-9]{0,7})+((,[1-9]{1}[0-9]{0,7}){0,1})+$","1"
"numbers","^(\$)?((\d+)|(\d{1,3})(\,\d{3})*)(\.\d{2,})?$","1"
"numbers","(^([0-9]+[.]+[0-9]+)|(0)$)","1"
"numbers","^([1-9]|[1-9]\d|100)$","1"
"numbers","^1000([.][0]{1,3})?$|^\d{1,3}$|^\d{1,3}([.]\d{1,3})$|^([.]\d{1,3})$","1"
"numbers","^(\-)?1000([.][0]{1,3})?$|^(\-)?\d{1,3}$|^(\-)?\d{1,3}([.]\d{1,3})$|^(\-)?([.]\d{1,3})$","1"
"numbers","(^N/A$)|(^[-]?(\d+)(\.\d{0,3})?$)|(^[-]?(\d{1,3},(\d{3},)*\d{3}(\.\d{1,3})?|\d{1,3}(\.\d{1,3})?)$)","1"
"numbers","(^([0-9]+[.]+[0-9]+)|(0)$)","1"
"numbers","^(\$\|\$)?((0|00|[1-9]\d*|([1-9]\d{0,2}(\,\d{3})*))(\.\d{1,4})?|(\.\d{1,4}))$","1"
"numbers","^([1-9]{1}[0-9]{0,7})+((,[1-9]{1}[0-9]{0,7}){0,1})+$","1"
"numbers","^(\$)?((\d+)|(\d{1,3})(\,\d{3})*)(\.\d{2,})?$","1"
"numbers","(0|[1-9]{1}[0-9]{0,8}|[1]{1}[0-9]{1,9}|[-]{1}[2]{1}([0]{1}[0-9]{8}|[1]{1}([0-3]{1}[0-9]{7}|[4]{1}([0-6]{1}[0-9]{6}|[7]{1}([0-3]{1}[0-9]{5}|[4]{1}([0-7]{1}[0-9]{4}|[8]{1}([0-2]{1}[0-9]{3}|[3]{1}([0-5]{1}[0-9]{2}|[6]{1}([0-3]{1}[0-9]{1}|[4]{1}[0-8]{1}))))))))|(\+)?[2]{1}([0]{1}[0-9]{8}|[1]{1}([0-3]{1}[0-9]{7}|[4]{1}([0-6]{1}[0-9]{6}|[7]{1}([0-3]{1}[0-9]{5}|[4]{1}([0-7]{1}[0-9]{4}|[8]{1}([0-2]{1}[0-9]{3}|[3]{1}([0-5]{1}[0-9]{2}|[6]{1}([0-3]{1}[0-9]{1}|[4]{1}[0-7]{1})))))))))","1"
"numbers","\$[0-9]?[0-9]?[0-9]?((\,[0-9][0-9][0-9])*)?(\.[0-9][0-9]?)?$","1"
"numbers","^100$|^[0-9]{1,2}$|^[0-9]{1,2}\,[0-9]{1,3}$","1"
"numbers","^(?=.*[1-9].*$)\d{0,7}(?:\.\d{0,9})?$","1"
"numbers","(\d{1,3},(\d{3},)*\d{3}(\.\d{1,3})?|\d{1,3}(\.\d{3})?)$","1"
"numbers","^[-+]?[0-9]+[.]?[0-9]*([eE][-+]?[0-9]+)?$","1"
"numbers","^\d*[0-9](|.\d*[0-9]|,\d*[0-9])?$","1"
"numbers","^[1-9]{1}$|^[1-4]{1}[0-9]{1}$|^50$","1"
"numbers","^\d{0,2}(\.\d{1,2})?$","1"
"numbers","\$[0-9]?[0-9]?[0-9]?((\,[0-9][0-9][0-9])*)?(\.[0-9][0-9])?$","1"
"numbers","(^-\d*\.?\d*[1-9]+\d*$)|(^-[1-9]+\d*\.\d*$)","1"
"numbers","^\d{0,2}(\.\d{1,4})?*%?$","1"
"numbers","^[1-9]+[0-9]*$","1"
"numbers","^((4\d{3})|(5[1-5]\d{2}))(-?|\040?)(\d{4}(-?|\040?)){3}|^(3[4,7]\d{2})(-?|\040?)\d{6}(-?|\040?)\d{5}","1"
"numbers","^(\d|-)?(\d|,)*\.?\d*$","1"
"numbers","^\d*\d*\/{1}\d*$|^\d*$","1"
"numbers","^\$?(\d{1,3},?(\d{3},?)*\d{3}(\.\d{0,2})?|\d{1,3}(\.\d{0,2})?|\.\d{1,2}?)$","1"
"strings","[^""\r\n]*","1"
"strings","(\w(\s)?)+","1"
"dates_and_times","^(?=\d)(?:(?!(?:1582(?:\.|-|\/)10(?:\.|-|\/)(?:0?[5-9]|1[0-4]))|(?:1752(?:\.|-|\/)0?9(?:\.|-|\/)(?:0?[3-9]|1[0-3])))(?=(?:(?!000[04]|(?:(?:1[^0-6]|[2468][^048]|[3579][^26])00))(?:(?:\d\d)(?:[02468][048]|[13579][26]))\D0?2\D29)|(?:\d{4}\D(?!(?:0?[2469]|11)\D31)(?!0?2(?:\.|-|\/)(?:29|30))))(\d{4})([-\/.])(0?\d|1[012])\2((?!00)[012]?\d|3[01])(?:$|(?=\x20\d)\x20))?((?:(?:0?[1-9]|1[012])(?::[0-5]\d){0,2}(?:\x20[aApP][mM]))|(?:[01]\d|2[0-3])(?::[0-5]\d){1,2})?$","1"
"dates_and_times","^([0-1][0-9]|[2][0-3]):([0-5][0-9])$","1"
"dates_and_times","^\d{1,2}\/\d{1,2}\/\d{4}$","1"
"dates_and_times","^((((0[13578])|(1[02]))[\/]?(([0-2][0-9])|(3[01])))|(((0[469])|(11))[\/]?(([0-2][0-9])|(30)))|(02[\/]?[0-2][0-9]))[\/]?\d{4}$","1"
"dates_and_times","^(((((0[13578])|([13578])|(1[02]))[\-\/\s]?((0[1-9])|([1-9])|([1-2][0-9])|(3[01])))|((([469])|(11))[\-\/\s]?((0[1-9])|([1-9])|([1-2][0-9])|(30)))|((02|2)[\-\/\s]?((0[1-9])|([1-9])|([1-2][0-9]))))[\-\/\s]?\d{4})(\s(((0[1-9])|([1-9])|(1[0-2]))\:([0-5][0-9])((\s)|(\:([0-5][0-9])\s))([AM|PM|am|pm]{2,2})))?$","1"
"dates_and_times","^(([0-1]?[0-9])|([2][0-3])):([0-5]?[0-9])(:([0-5]?[0-9]))?$","1"
"dates_and_times","^(?=\d)(?:(?:31(?!.(?:0?[2469]|11))|(?:30|29)(?!.0?2)|29(?=.0?2.(?:(?:(?:1[6-9]|[2-9]\d)?(?:0[48]|[2468][048]|[13579][26])|(?:(?:16|[2468][048]|[3579][26])00)))(?:\x20|$))|(?:2[0-8]|1\d|0?[1-9]))([-./])(?:1[012]|0?[1-9])\1(?:1[6-9]|[2-9]\d)?\d\d(?:(?=\x20\d)\x20|$))?(((0?[1-9]|1[012])(:[0-5]\d){0,2}(\x20[AP]M))|([01]\d|2[0-3])(:[0-5]\d){1,2})?$","1"
"dates_and_times","^(((0[1-9]|[12]\d|3[01])\/(0[13578]|1[02])\/((1[6-9]|[2-9]\d)\d{2}))|((0[1-9]|[12]\d|30)\/(0[13456789]|1[012])\/((1[6-9]|[2-9]\d)\d{2}))|((0[1-9]|1\d|2[0-8])\/02\/((1[6-9]|[2-9]\d)\d{2}))|(29\/02\/((1[6-9]|[2-9]\d)(0[48]|[2468][048]|[13579][26])|((16|[2468][048]|[3579][26])00))))$","1"
"dates_and_times","^(?ni:(?=\d)((?'year'((1[6-9])|([2-9]\d))\d\d)(?'sep'[/.-])(?'month'0?[1-9]|1[012])\2(?'day'((?<!(\2((0?[2469])|11)\2))31)|(?<!\2(0?2)\2)(29|30)|((?<=((1[6-9]|[2-9]\d)(0[48]|[2468][048]|[13579][26])|(16|[2468][048]|[3579][26])00)\2\3\2)29)|((0?[1-9])|(1\d)|(2[0-8])))(?:(?=\x20\d)\x20|$))?((?<time>((0?[1-9]|1[012])(:[0-5]\d){0,2}(\x20[AP]M))|([01]\d|2[0-3])(:[0-5]\d){1,2}))?)$","1"
"dates_and_times","^(?=\d)(?:(?!(?:(?:0?[5-9]|1[0-4])(?:\.|-|\/)10(?:\.|-|\/)(?:1582))|(?:(?:0?[3-9]|1[0-3])(?:\.|-|\/)0?9(?:\.|-|\/)(?:1752)))(31(?!(?:\.|-|\/)(?:0?[2469]|11))|30(?!(?:\.|-|\/)0?2)|(?:29(?:(?!(?:\.|-|\/)0?2(?:\.|-|\/))|(?=\D0?2\D(?:(?!000[04]|(?:(?:1[^0-6]|[2468][^048]|[3579][^26])00))(?:(?:(?:\d\d)(?:[02468][048]|[13579][26])(?!\x20BC))|(?:00(?:42|3[0369]|2[147]|1[258]|09)\x20BC))))))|2[0-8]|1\d|0?[1-9])([-.\/])(1[012]|(?:0?[1-9]))\2((?=(?:00(?:4[0-5]|[0-3]?\d)\x20BC)|(?:\d{4}(?:$|(?=\x20\d)\x20)))\d{4}(?:\x20BC)?)(?:$|(?=\x20\d)\x20))?((?:(?:0?[1-9]|1[012])(?::[0-5]\d){0,2}(?:\x20[aApP][mM]))|(?:[01]\d|2[0-3])(?::[0-5]\d){1,2})?$","1"
"dates_and_times","^(((0?[1-9]|1[012])/(0?[1-9]|1\d|2[0-8])|(0?[13456789]|1[012])/(29|30)|(0?[13578]|1[02])/31)/(19|[2-9]\d)\d{2}|0?2/29/((19|[2-9]\d)(0[48]|[2468][048]|[13579][26])|(([2468][048]|[3579][26])00)))$","1"
"dates_and_times","(0?[1-9]|[12][0-9]|3[01])[/-](0?[1-9]|1[12])[/-](19[0-9]{2}|[2][0-9][0-9]{2})","1"
"dates_and_times","^((((0?[1-9]|[12]\d|3[01])[\.\-\/](0?[13578]|1[02])[\.\-\/]((1[6-9]|[2-9]\d)?\d{2}))|((0?[1-9]|[12]\d|30)[\.\-\/](0?[13456789]|1[012])[\.\-\/]((1[6-9]|[2-9]\d)?\d{2}))|((0?[1-9]|1\d|2[0-8])[\.\-\/]0?2[\.\-\/]((1[6-9]|[2-9]\d)?\d{2}))|(29[\.\-\/]0?2[\.\-\/]((1[6-9]|[2-9]\d)?(0[48]|[2468][048]|[13579][26])|((16|[2468][048]|[3579][26])00)|00)))|(((0[1-9]|[12]\d|3[01])(0[13578]|1[02])((1[6-9]|[2-9]\d)?\d{2}))|((0[1-9]|[12]\d|30)(0[13456789]|1[012])((1[6-9]|[2-9]\d)?\d{2}))|((0[1-9]|1\d|2[0-8])02((1[6-9]|[2-9]\d)?\d{2}))|(2902((1[6-9]|[2-9]\d)?(0[48]|[2468][048]|[13579][26])|((16|[2468][048]|[3579][26])00)|00))))$","1"
"dates_and_times","^((\d{2}((0[13578]|1[02])(0[1-9]|[12]\d|3[01])|(0[13456789]|1[012])(0[1-9]|[12]\d|30)|02(0[1-9]|1\d|2[0-8])))|([02468][048]|[13579][26])0229)$","1"
"dates_and_times","^((31(?!(FEB|APR|JUN|SEP|NOV)))|((30|29)(?!FEB))|(29(?=FEB(((1[6-9]|[2-9]\d)(0[48]|[2468][048]|[13579][26])|((16|[2468][048]|[3579][26])00)))))|(0?[1-9])|1\d|2[0-8])-(JAN|FEB|MAR|MAY|APR|JUL|JUN|AUG|OCT|SEP|NOV|DEC)-((1[6-9]|[2-9]\d)\d{2})$","1"
"dates_and_times","(((0[1-9]|[12][0-9]|3[01])([/])(0[13578]|10|12)([/])([1-2][0,9][0-9][0-9]))|(([0][1-9]|[12][0-9]|30)([/])(0[469]|11)([/])([1-2][0,9][0-9][0-9]))|((0[1-9]|1[0-9]|2[0-8])([/])(02)([/])([1-2][0,9][0-9][0-9]))|((29)(\.|-|\/)(02)([/])([02468][048]00))|((29)([/])(02)([/])([13579][26]00))|((29)([/])(02)([/])([0-9][0-9][0][48]))|((29)([/])(02)([/])([0-9][0-9][2468][048]))|((29)([/])(02)([/])([0-9][0-9][13579][26])))","1"
"dates_and_times","(((0[123456789]|10|11|12)([/])(([1][9][0-9][0-9])|([2][0-9][0-9][0-9]))))","1"
"dates_and_times","((0?[13578]|10|12)(-|\/)((0[0-9])|([12])([0-9]?)|(3[01]?))(-|\/)((\d{4})|(\d{2}))|(0?[2469]|11)(-|\/)((0[0-9])|([12])([0-9]?)|(3[0]?))(-|\/)((\d{4}|\d{2})))","1"
"dates_and_times","^([0]?[1-9]|[1][0-2])[./-]([0]?[1-9]|[1|2][0-9]|[3][0|1])[./-]([0-9]{4}|[0-9]{2})$","1"
"dates_and_times","^([0]?[1-9]|[1|2][0-9]|[3][0|1])[./-]([0]?[1-9]|[1][0-2])[./-]([0-9]{4}|[0-9]{2})$","1"
"dates_and_times","^(((0[1-9]|1[012])/(0[1-9]|1\d|2[0-8])|(0[13456789]|1[012])/(29|30)|(0[13578]|1[02])/31)/[2-9]\d{3}|02/29/(([2-9]\d)(0[48]|[2468][048]|[13579][26])|(([2468][048]|[3579][26])00)))$","1"
"dates_and_times","^([01]\d|2[0123])([0-5]\d){2}$","1"
"dates_and_times","^((0[1-9])|(1[0-2]))\/(\d{4})$","1"
"dates_and_times","^([2-9]\d{3}((0[1-9]|1[012])(0[1-9]|1\d|2[0-8])|(0[13456789]|1[012])(29|30)|(0[13578]|1[02])31)|(([2-9]\d)(0[48]|[2468][048]|[13579][26])|(([2468][048]|[3579][26])00))0229)$","1"
"dates_and_times","^(\d{2}((0[1-9]|1[012])(0[1-9]|1\d|2[0-8])|(0[13456789]|1[012])(29|30)|(0[13578]|1[02])31)|([02468][048]|[13579][26])0229)$","1"
"dates_and_times","^((((31\/(0?[13578]|1[02]))|((29|30)\/(0?[1,3-9]|1[0-2])))\/(1[6-9]|[2-9]\d)?\d{2})|(29\/0?2\/(((1[6-9]|[2-9]\d)?(0[48]|[2468][048]|[13579][26])|((16|[2468][048]|[3579][26])00))))|(0?[1-9]|1\d|2[0-8])\/((0?[1-9])|(1[0-2]))\/((1[6-9]|[2-9]\d)?\d{2}))(20|21|22|23|[0-1]?\d):[0-5]?\d:[0-5]?\d$","1"
"dates_and_times","^([1-9]|1[0-2]|0[1-9]){1}(:[0-5][0-9][aApP][mM]){1}$","1"
"dates_and_times","^((0[1-9])|(1[0-2]))$","1"
"dates_and_times","^(?:\s*(Sun|Mon|Tue|Wed|Thu|Fri|Sat),\s*)?(0?[1-9]|[1-2][0-9]|3[01])\s+(Jan|Feb|Mar|Apr|May|Jun|Jul|Aug|Sep|Oct|Nov|Dec)\s+(19[0-9]{2}|[2-9][0-9]{3}|[0-9]{2})\s+(2[0-3]|[0-1][0-9]):([0-5][0-9])(?::(60|[0-5][0-9]))?\s+([-\+][0-9]{2}[0-5][0-9]|(?:UT|GMT|(?:E|C|M|P)(?:ST|DT)|[A-IK-Z]))(\s*\((\\\(|\\\)|(?<=[^\\])\((?<C>)|(?<=[^\\])\)(?<-C>)|[^\(\)]*)*(?(C)(?!))\))*\s*$","1"
"dates_and_times","(?<Time>^(?:0?[1-9]:[0-5]|1(?=[012])\d:[0-5])\d(?:[ap]m)?)","1"
"dates_and_times","((0?[13578]|10|12)(-|\/)((0[0-9])|([12])([0-9]?)|(3[01]?))(-|\/)((\d{4})|(\d{2}))|(0?[2469]|11)(-|\/)((0[0-9])|([12])([0-9]?)|(3[0]?))(-|\/)((\d{4}|\d{2})))","1"
"dates_and_times","(((0[123456789]|10|11|12)([/])(([1][9][0-9][0-9])|([2][0-9][0-9][0-9]))))","1"
"dates_and_times","^([0]?[1-9]|[1|2][0-9]|[3][0|1])[./-]([0]?[1-9]|[1][0-2])[./-]([0-9]{4}|[0-9]{2})$","1"
"dates_and_times","^([0]?[1-9]|[1][0-2])[./-]([0]?[1-9]|[1|2][0-9]|[3][0|1])[./-]([0-9]{4}|[0-9]{2})$","1"
"dates_and_times","(((0[1-9]|[12][0-9]|3[01])([/])(0[13578]|10|12)([/])([1-2][0,9][0-9][0-9]))|(([0][1-9]|[12][0-9]|30)([/])(0[469]|11)([/])([1-2][0,9][0-9][0-9]))|((0[1-9]|1[0-9]|2[0-8])([/])(02)([/])([1-2][0,9][0-9][0-9]))|((29)(\.|-|\/)(02)([/])([02468][048]00))|((29)([/])(02)([/])([13579][26]00))|((29)([/])(02)([/])([0-9][0-9][0][48]))|((29)([/])(02)([/])([0-9][0-9][2468][048]))|((29)([/])(02)([/])([0-9][0-9][13579][26])))","1"
"dates_and_times","^((((0?[1-9]|[12]\d|3[01])[\.\-\/](0?[13578]|1[02])[\.\-\/]((1[6-9]|[2-9]\d)?\d{2}))|((0?[1-9]|[12]\d|30)[\.\-\/](0?[13456789]|1[012])[\.\-\/]((1[6-9]|[2-9]\d)?\d{2}))|((0?[1-9]|1\d|2[0-8])[\.\-\/]0?2[\.\-\/]((1[6-9]|[2-9]\d)?\d{2}))|(29[\.\-\/]0?2[\.\-\/]((1[6-9]|[2-9]\d)?(0[48]|[2468][048]|[13579][26])|((16|[2468][048]|[3579][26])00)|00)))|(((0[1-9]|[12]\d|3[01])(0[13578]|1[02])((1[6-9]|[2-9]\d)?\d{2}))|((0[1-9]|[12]\d|30)(0[13456789]|1[012])((1[6-9]|[2-9]\d)?\d{2}))|((0[1-9]|1\d|2[0-8])02((1[6-9]|[2-9]\d)?\d{2}))|(2902((1[6-9]|[2-9]\d)?(0[48]|[2468][048]|[13579][26])|((16|[2468][048]|[3579][26])00)|00))))$","1"
"dates_and_times","(0?[1-9]|[12][0-9]|3[01])[/-](0?[1-9]|1[12])[/-](19[0-9]{2}|[2][0-9][0-9]{2})","1"
"dates_and_times","^((31(?!(FEB|APR|JUN|SEP|NOV)))|((30|29)(?!FEB))|(29(?=FEB(((1[6-9]|[2-9]\d)(0[48]|[2468][048]|[13579][26])|((16|[2468][048]|[3579][26])00)))))|(0?[1-9])|1\d|2[0-8])-(JAN|FEB|MAR|MAY|APR|JUL|JUN|AUG|OCT|SEP|NOV|DEC)-((1[6-9]|[2-9]\d)\d{2})$","1"
"dates_and_times","^((\d{2}((0[13578]|1[02])(0[1-9]|[12]\d|3[01])|(0[13456789]|1[012])(0[1-9]|[12]\d|30)|02(0[1-9]|1\d|2[0-8])))|([02468][048]|[13579][26])0229)$","1"
"dates_and_times","((([0][1-9]|[12][\d])|[3][01])[-/]([0][13578]|[1][02])[-/][1-9]\d\d\d)|((([0][1-9]|[12][\d])|[3][0])[-/]([0][13456789]|[1][012])[-/][1-9]\d\d\d)|(([0][1-9]|[12][\d])[-/][0][2][-/][1-9]\d([02468][048]|[13579][26]))|(([0][1-9]|[12][0-8])[-/][0][2][-/][1-9]\d\d\d)","1"
"dates_and_times","^((((31\/(0?[13578]|1[02]))|((29|30)\/(0?[1,3-9]|1[0-2])))\/(1[6-9]|[2-9]\d)?\d{2})|(29\/0?2\/(((1[6-9]|[2-9]\d)?(0[48]|[2468][048]|[13579][26])|((16|[2468][048]|[3579][26])00))))|(0?[1-9]|1\d|2[0-8])\/((0?[1-9])|(1[0-2]))\/((1[6-9]|[2-9]\d)?\d{2}))(20|21|22|23|[0-1]?\d):[0-5]?\d:[0-5]?\d$","1"
"dates_and_times","^(?:\s*(Sun|Mon|Tue|Wed|Thu|Fri|Sat),\s*)?(0?[1-9]|[1-2][0-9]|3[01])\s+(Jan|Feb|Mar|Apr|May|Jun|Jul|Aug|Sep|Oct|Nov|Dec)\s+(19[0-9]{2}|[2-9][0-9]{3}|[0-9]{2})\s+(2[0-3]|[0-1][0-9]):([0-5][0-9])(?::(60|[0-5][0-9]))?\s+([-\+][0-9]{2}[0-5][0-9]|(?:UT|GMT|(?:E|C|M|P)(?:ST|DT)|[A-IK-Z]))(\s*\((\\\(|\\\)|(?<=[^\\])\((?<C>)|(?<=[^\\])\)(?<-C>)|[^\(\)]*)*(?(C)(?!))\))*\s*$","1"
"dates_and_times","^((0[1-9])|(1[0-2]))$","1"
"dates_and_times","^(\d{2}((0[1-9]|1[012])(0[1-9]|1\d|2[0-8])|(0[13456789]|1[012])(29|30)|(0[13578]|1[02])31)|([02468][048]|[13579][26])0229)$","1"
"dates_and_times","^([01]\d|2[0123])([0-5]\d){2}$","1"
"dates_and_times","^(((0[1-9]|1[012])/(0[1-9]|1\d|2[0-8])|(0[13456789]|1[012])/(29|30)|(0[13578]|1[02])/31)/[2-9]\d{3}|02/29/(([2-9]\d)(0[48]|[2468][048]|[13579][26])|(([2468][048]|[3579][26])00)))$","1"
"dates_and_times","^([2-9]\d{3}((0[1-9]|1[012])(0[1-9]|1\d|2[0-8])|(0[13456789]|1[012])(29|30)|(0[13578]|1[02])31)|(([2-9]\d)(0[48]|[2468][048]|[13579][26])|(([2468][048]|[3579][26])00))0229)$","1"
"dates_and_times","^((0[1-9])|(1[0-2]))\/(\d{4})$","1"
"dates_and_times","^\d{4}[\-\/\s]?((((0[13578])|(1[02]))[\-\/\s]?(([0-2][0-9])|(3[01])))|(((0[469])|(11))[\-\/\s]?(([0-2][0-9])|(30)))|(02[\-\/\s]?[0-2][0-9]))$","1"
"dates_and_times","^(((\d{4})(0[13578]|10|12)(0[1-9]|[12][0-9]|3[01]))|((\d{4})(0[469]|11)([0][1-9]|[12][0-9]|30))|((\d{4})(02)(0[1-9]|1[0-9]|2[0-8]))|(([02468][048]00)(02)(29))|(([13579][26]00)(02)(29))|(([0-9][0-9][0][48])(02)(29))|(([0-9][0-9][2468][048])(02)(29))|(([0-9][0-9][13579][26])(02)(29))|(00000000)|(88888888)|(19))?$","1"
"dates_and_times","20\d{2}(-|\/)((0[1-9])|(1[0-2]))(-|\/)((0[1-9])|([1-2][0-9])|(3[0-1]))(T|\s)(([0-1][0-9])|(2[0-3])):([0-5][0-9]):([0-5][0-9])","1"
"dates_and_times","^((0?[1-9]|1[012])(:[0-5]\d){0,2}(\[AP]M))$|^([01]\d|2[0-3])(:[0-5]\d){0,2}$","1"
"dates_and_times","(^([0-9]|[0-1][0-9]|[2][0-3]):([0-5][0-9])$)|(^([0-9]|[1][0-9]|[2][0-3])$)","1"
"dates_and_times","^(([0-2]\d|[3][0-1])\/([0]\d|[1][0-2])\/[2][0]\d{2})$|^(([0-2]\d|[3][0-1])\/([0]\d|[1][0-2])\/[2][0]\d{2}\s([0-1]\d|[2][0-3])\:[0-5]\d\:[0-5]\d)$","1"
"dates_and_times","(([0-1][0-9])|([2][0-3])):([0-5][0-9]):([0-5][0-9])","1"
"dates_and_times","^(?:(?:(?:(?:(?:1[6-9]|[2-9]\d)?(?:0[48]|[2468][048]|[13579][26])|(?:(?:16|[2468][048]|[3579][26])00)))(\/|-|\.)(?:0?2\1(?:29)))|(?:(?:(?:1[6-9]|[2-9]\d)?\d{2})(\/|-|\.)(?:(?:(?:0?[13578]|1[02])\2(?:31))|(?:(?:0?[1,3-9]|1[0-2])\2(29|30))|(?:(?:0?[1-9])|(?:1[0-2]))\2(?:0?[1-9]|1\d|2[0-8]))))$","1"
"dates_and_times","^(((((0[1-9])|(1\d)|(2[0-8]))-((0[1-9])|(1[0-2])))|((31-((0[13578])|(1[02])))|((29|30)-((0[1,3-9])|(1[0-2])))))-((20[0-9][0-9]))|(29-02-20(([02468][048])|([13579][26]))))$","1"
"dates_and_times","^[0-9]{4}((0[1-9])|(1[0-2]))$","1"
"dates_and_times","^((0[1-9])|(1[0-2]))\/(\d{2})$","1"
"dates_and_times","(((0[1-9]|[12][0-9]|3[01])([-./])(0[13578]|10|12)([-./])(\d{4}))|(([0][1-9]|[12][0-9]|30)([-./])(0[469]|11)([-./])(\d{4}))|((0[1-9]|1[0-9]|2[0-8])([-./])(02)([-./])(\d{4}))|((29)(\.|-|\/)(02)([-./])([02468][048]00))|((29)([-./])(02)([-./])([13579][26]00))|((29)([-./])(02)([-./])([0-9][0-9][0][48]))|((29)([-./])(02)([-./])([0-9][0-9][2468][048]))|((29)([-./])(02)([-./])([0-9][0-9][13579][26])))","1"
"dates_and_times","^((((([0-1]?\d)|(2[0-8]))\/((0?\d)|(1[0-2])))|(29\/((0?[1,3-9])|(1[0-2])))|(30\/((0?[1,3-9])|(1[0-2])))|(31\/((0?[13578])|(1[0-2]))))\/((19\d{2})|([2-9]\d{3}))|(29\/0?2\/(((([2468][048])|([3579][26]))00)|(((19)|([2-9]\d))(([2468]0)|([02468][48])|([13579][26]))))))\s(([01]?\d)|(2[0-3]))(:[0-5]?\d){2}$","1"
"dates_and_times","^([0]\d|[1][0-2])\/([0-2]\d|[3][0-1])\/([2][01]|[1][6-9])\d{2}(\s([0-1]\d|[2][0-3])(\:[0-5]\d){1,2})?$","1"
"dates_and_times","(^|\s|\()((([1-9]){1}|([0][1-9]){1}|([1][012]){1}){1}[\/-]((2[0-9]){1}|(3[01]){1}|([01][1-9]){1}|([1-9]){1}){1}[\/-](((19|20)([0-9][0-9]){1}|([0-9][0-9]){1})){1}(([\s|\)|:])|(^|\s|\()((([0-9]){1}|([0][1-9]){1}|([1][012]){1}){1}[\/-](([11-31]){1}|([01][1-9]){1}|([1-9]){1}){1}[\/-](((19|20)([0-9][0-9]){1}|([0-9][0-9]){1})){1}(([\s|\)|:|$|\>])){1}){1}){1}){1}","1"
"dates_and_times","^(0{0,1}[1-9]|[12][0-9]|3[01])[-/.](0{0,1}[1-9]|1[012])[-/.](\d{2}|\d{4})$","1"
"dates_and_times","^(?=\d)(?:(?:31(?!.(?:0?[2469]|11))|(?:30|29)(?!.0?2)|29(?=.0?2.(?:(?:(?:1[6-9]|[2-9]\d)?(?:0[48]|[2468][048]|[13579][26])|(?:(?:16|[2468][048]|[3579][26])00)))(?:\x20|$))|(?:2[0-8]|1\d|0?[1-9]))([-./])(?:1[012]|0?[1-9])\1(?:1[6-9]|[2-9]\d)?\d\d)?(\x20?((0?[1-9]|1[012])(:[0-5]\d){0,2}(\x20[AP]M))|([01]\d|2[0-3])(:[0-5]\d){1,2})?$","1"
"dates_and_times","^((31(?!(FEB|APR|JUN|SEP|NOV)))|(30|29)|(0[1-9])|1\d|2[0-8])(JAN|FEB|MAR|MAY|APR|JUL|JUN|AUG|OCT|SEP|NOV|DEC)$","1"
"dates_and_times","^(((\d{4}((0[13578]|1[02])(0[1-9]|[12]\d|3[01])|(0[13456789]|1[012])(0[1-9]|[12]\d|30)|02(0[1-9]|1\d|2[0-8])))|((\d{2}[02468][048]|\d{2}[13579][26]))0229)){0,8}$","1"
"dates_and_times","^((((0?[13578])|(1[02]))[\/|\-]?((0?[1-9]|[0-2][0-9])|(3[01])))|(((0?[469])|(11))[\/|\-]?((0?[1-9]|[0-2][0-9])|(30)))|(0?[2][\/\-]?(0?[1-9]|[0-2][0-9])))[\/\-]?\d{2,4}$","1"
"dates_and_times","(?=\d)^(?:(?!(?:10\D(?:0?[5-9]|1[0-4])\D(?:1582))|(?:0?9\D(?:0?[3-9]|1[0-3])\D(?:1752)))((?:0?[13578]|1[02])|(?:0?[469]|11)(?!\/31)(?!-31)(?!\.31)|(?:0?2(?=.?(?:(?:29.(?!000[04]|(?:(?:1[^0-6]|[2468][^048]|[3579][^26])00))(?:(?:(?:\d\d)(?:[02468][048]|[13579][26])(?!\x20BC))|(?:00(?:42|3[0369]|2[147]|1[258]|09)\x20BC))))))|(?:0?2(?=.(?:(?:\d\D)|(?:[01]\d)|(?:2[0-8])))))([-.\/])(0?[1-9]|[12]\d|3[01])\2(?!0000)((?=(?:00(?:4[0-5]|[0-3]?\d)\x20BC)|(?:\d{4}(?!\x20BC)))\d{4}(?:\x20BC)?)(?:$|(?=\x20\d)\x20))?((?:(?:0?[1-9]|1[012])(?::[0-5]\d){0,2}(?:\x20[aApP][mM]))|(?:[01]\d|2[0-3])(?::[0-5]\d){1,2})?$","1"
"dates_and_times","^((31(?!\(Apr(il)?|June?|(Sept|Nov)(ember)?)))|((30|29)(?!\Feb(ruary)?))|(29(?=\Feb(ruary)?\(((1[6-9]|[2-9]\d)(0[48]|[2468][048]|[13579][26])|((16|[2468][048]|[3579][26])00)))))|(0?[1-9])|1\d|2[0-8])\(Jan(uary)?|Feb(ruary)?|Ma(r(ch)?|y)|Apr(il)?|Ju((ly?)|(ne?))|Aug(ust)?|Oct(ober)?|(Sept|Nov|Dec)(ember)?)\((1[6-9]|[2-9]\d)\d{2})$","1"
"dates_and_times","(^([0-9]|[0-1][0-9]|[2][0-3]):([0-5][0-9])(\s{0,1})([AM|PM|am|pm]{2,2})$)|(^([0-9]|[1][0-9]|[2][0-3])(\s{0,1})([AM|PM|am|pm]{2,2})$)","1"
"dates_and_times","[-+]((0[0-9]|1[0-3]):([03]0|45)|14:00)","1"
"dates_and_times","^((((19|20)(([02468][048])|([13579][26]))-02-29))|((20[0-9][0-9])|(19[0-9][0-9]))-((((0[1-9])|(1[0-2]))-((0[1-9])|(1\d)|(2[0-8])))|((((0[13578])|(1[02]))-31)|(((0[1,3-9])|(1[0-2]))-(29|30)))))$","1"
"dates_and_times","^(([1-9]{1})|([0-1][0-9])|([1-2][0-3])):([0-5][0-9])$","1"
"dates_and_times","^(20|21|22|23|[01]\d|\d)(([:.][0-5]\d){1,2})$","1"
"dates_and_times","^(((((0[1-9])|(1\d)|(2[0-8]))/((0[1-9])|(1[0-2])))|((31/((0[13578])|(1[02])))|((29|30)/((0[1,3-9])|(1[0-2])))))/((20[0-9][0-9]))|((((0[1-9])|(1\d)|(2[0-8]))/((0[1-9])|(1[0-2])))|((31/((0[13578])|(1[02])))|((29|30)/((0[1,3-9])|(1[0-2])))))/((19[0-9][0-9]))|(29/02/20(([02468][048])|([13579][26])))|(29/02/19(([02468][048])|([13579][26]))))$","1"
"dates_and_times","(^(((([1-9])|([0][1-9])|([1-2][0-9])|(30))\-([A,a][P,p][R,r]|[J,j][U,u][N,n]|[S,s][E,e][P,p]|[N,n][O,o][V,v]))|((([1-9])|([0][1-9])|([1-2][0-9])|([3][0-1]))\-([J,j][A,a][N,n]|[M,m][A,a][R,r]|[M,m][A,a][Y,y]|[J,j][U,u][L,l]|[A,a][U,u][G,g]|[O,o][C,c][T,t]|[D,d][E,e][C,c])))\-[0-9]{4}$)|(^(([1-9])|([0][1-9])|([1][0-9])|([2][0-8]))\-([F,f][E,e][B,b])\-[0-9]{2}(([02468][1235679])|([13579][01345789]))$)|(^(([1-9])|([0][1-9])|([1][0-9])|([2][0-9]))\-([F,f][E,e][B,b])\-[0-9]{2}(([02468][048])|([13579][26]))$)","1"
"dates_and_times","^((31(?!(FEB|APR|JUN|SEP|NOV)))|((30|29)(?!FEB))|(29(?=FEB(((1[6-9]|[2-9]\d)(0[48]|[2468][048]|[13579][26])|((16|[2468][048]|[3579][26])00)))))|(0?[1-9])|1\d|2[0-8])(JAN|FEB|MAR|MAY|APR|JUL|JUN|AUG|OCT|SEP|NOV|DEC)((1[6-9]|[2-9]\d)\d{2})$","1"
"dates_and_times","(((0[1-9]|[12][0-9]|3[01])([/])(0[13578]|10|12)([/])(\d{4}))|(([0][1-9]|[12][0-9]|30)([/])(0[469]|11)([/])(\d{4}))|((0[1-9]|1[0-9]|2[0-8])([/])(02)([/])(\d{4}))|((29)(\.|-|\/)(02)([/])([02468][048]00))|((29)([/])(02)([/])([13579][26]00))|((29)([/])(02)([/])([0-9][0-9][0][48]))|((29)([/])(02)([/])([0-9][0-9][2468][048]))|((29)([/])(02)([/])([0-9][0-9][13579][26])))","1"
"dates_and_times","^((((((0?[13578])|(1[02]))[\-\/\s]?((0?[1-9])|([1-2][0-9])|(3[01])))|(((0?[469])|(11))[\-\/\s]?((0?[1-9])|([1-2][0-9])|(30)))|(0?2[\-\/\s]?((0?[1-9])|([1-2][0-9]))))[\-\/\s]?\d{2}(([02468][048])|([13579][26])))|(((((0?[13578])|(1[02]))[\-\/\s]?((0?[1-9])|([1-2][0-9])|(3[01])))|(((0?[469])|(11))[\-\/\s]?((0?[1-9])|([1-2][0-9])|(30)))|(0?2[\-\/\s]?((0?[1-9])|(1[0-9])|(2[0-8]))))[\-\/\s]?\d{2}(([02468][1235679])|([13579][01345789]))))(\s(((0?[1-9])|(1[0-2]))\:([0-5][0-9])((\s)|(\:([0-5][0-9])\s))([AM|PM|am|pm]{2,2})))?$","1"
"dates_and_times","(^((((0[1-9])|([1-2][0-9])|(3[0-1]))|([1-9]))\x2F(((0[1-9])|(1[0-2]))|([1-9]))\x2F(([0-9]{2})|(((19)|([2]([0]{1})))([0-9]{2}))))$)","1"
"dates_and_times","^(?:(?:(?:0?[1-9]|1\d|2[0-8])\/(?:0?[1-9]|1[0-2]))\/(?:(?:1[6-9]|[2-9]\d)\d{2}))$|^(?:(?:(?:31\/0?[13578]|1[02])|(?:(?:29|30)\/(?:0?[1,3-9]|1[0-2])))\/(?:(?:1[6-9]|[2-9]\d)\d{2}))$|^(?:29\/0?2\/(?:(?:(?:1[6-9]|[2-9]\d)(?:0[48]|[2468][048]|[13579][26]))))$","1"
"dates_and_times","^(([0-9])|([0-1][0-9])|([2][0-3])):?([0-5][0-9])$","1"
"dates_and_times","^[\w-\.]+@([\w-]+\.)+[\w-]{2,3}$","1"
"dates_and_times","^(Sun|Mon|(T(ues|hurs))|Fri)(day|\.)?$|Wed(\.|nesday)?$|Sat(\.|urday)?$|T((ue?)|(hu?r?))\.?$","1"
"dates_and_times","^\s*(?'num'\d+(\.\d+)?)\s*(?'unit'((w(eek)?)|(wk)|(d(ay)?)|(h(our)?)|(hr))s?)(\s*$)","1"
"dates_and_times","((^(10|12|0?[13578])([/])(3[01]|[12][0-9]|0?[1-9])([/])((1[8-9]\d{2})|([2-9]\d{3}))$)|(^(11|0?[469])([/])(30|[12][0-9]|0?[1-9])([/])((1[8-9]\d{2})|([2-9]\d{3}))$)|(^(0?2)([/])(2[0-8]|1[0-9]|0?[1-9])([/])((1[8-9]\d{2})|([2-9]\d{3}))$)|(^(0?2)([/])(29)([/])([2468][048]00)$)|(^(0?2)([/])(29)([/])([3579][26]00)$)|(^(0?2)([/])(29)([/])([1][89][0][48])$)|(^(0?2)([/])(29)([/])([2-9][0-9][0][48])$)|(^(0?2)([/])(29)([/])([1][89][2468][048])$)|(^(0?2)([/])(29)([/])([2-9][0-9][2468][048])$)|(^(0?2)([/])(29)([/])([1][89][13579][26])$)|(^(0?2)([/])(29)([/])([2-9][0-9][13579][26])$))","1"
"dates_and_times","(?n:^(?=\d)((?<day>31(?!(.0?[2469]|11))|30(?!.0?2)|29(?(.0?2)(?=.{3,4}(1[6-9]|[2-9]\d)(0[48]|[2468][048]|[13579][26])|(16|[2468][048]|[3579][26])00))|0?[1-9]|1\d|2[0-8])(?<sep>[/.-])(?<month>0?[1-9]|1[012])\2(?<year>(1[6-9]|[2-9]\d)\d{2})(?:(?=\x20\d)\x20|$))?(?<time>((0?[1-9]|1[012])(:[0-5]\d){0,2}(?i:\[AP]M))|([01]\d|2[0-3])(:[0-5]\d){1,2})?$)","1"
"dates_and_times","^(Jan|Feb|Mar|Apr|May|Jun|Jul|Aug|Sep|Oct|Nov|Dec)\,*\s\s*\d{4}$|^(jan|feb|mar|apr|may|jun|jul|aug|sep|oct|nov|dec)\,*\s\d{4}$|^(January|February|March|April|May|June|July|August|September|October|November|December)\,*\s\d{4}$|^(january|february|march|april|may|june|july|august|september|october|november|december)\,*\s\d{4}$","1"
"dates_and_times","^(\d{1,2})(\s?(H|h)?)(:([0-5]\d))?$","1"
"dates_and_times","^(((0[1-9]|[12]\d|3[01])\/(0[13578]|1[02])\/(\d{2}))|((0[1-9]|[12]\d|30)\/(0[13456789]|1[012])\/(\d{2}))|((0[1-9]|1\d|2[0-8])\/02\/(\d{2}))|(29\/02\/((0[48]|[2468][048]|[13579][26])|(00))))$","1"
"dates_and_times","^\d{2}\s{1}(Jan|Feb|Mar|Apr|May|Jun|Jul|Apr|Sep|Oct|Nov|Dec)\s{1}\d{4}$","1"
"dates_and_times","^(([0-9])|([0-1][0-9])|([2][0-3])):(([0-9])|([0-5][0-9]))$","1"
"dates_and_times","^((\d{2}(([02468][048])|([13579][26]))[\-\/\s]?((((0?[13578])|(1[02]))[\-\/\s]?((0?[1-9])|([1-2][0-9])|(3[01])))|(((0?[469])|(11))[\-\/\s]?((0?[1-9])|([1-2][0-9])|(30)))|(0?2[\-\/\s]?((0?[1-9])|([1-2][0-9])))))|(\d{2}(([02468][1235679])|([13579][01345789]))[\-\/\s]?((((0?[13578])|(1[02]))[\-\/\s]?((0?[1-9])|([1-2][0-9])|(3[01])))|(((0?[469])|(11))[\-\/\s]?((0?[1-9])|([1-2][0-9])|(30)))|(0?2[\-\/\s]?((0?[1-9])|(1[0-9])|(2[0-8]))))))(\s(((0?[1-9])|(1[0-2]))\:([0-5][0-9])((\s)|(\:([0-5][0-9])\s))([AM|PM|am|pm]{2,2})))?$","1"
"dates_and_times","^(([1-9]|[0-2]\d|[3][0-1])\.([1-9]|[0]\d|[1][0-2])\.[2][0]\d{2})$|^(([1-9]|[0-2]\d|[3][0-1])\.([1-9]|[0]\d|[1][0-2])\.[2][0]\d{2}\s([1-9]|[0-1]\d|[2][0-3])\:[0-5]\d)$","1"
"dates_and_times","^\d{1,2}\/\d{2,4}$","1"
"dates_and_times","^(([1-9]{1})|([0-1][0-9])|([1-2][0-3])):([0-5][0-9])$","1"
"dates_and_times","[-+]((0[0-9]|1[0-3]):([03]0|45)|14:00)","1"
"dates_and_times","^((((19|20)(([02468][048])|([13579][26]))-02-29))|((20[0-9][0-9])|(19[0-9][0-9]))-((((0[1-9])|(1[0-2]))-((0[1-9])|(1\d)|(2[0-8])))|((((0[13578])|(1[02]))-31)|(((0[1,3-9])|(1[0-2]))-(29|30)))))$","1"
"dates_and_times","(^(((([1-9])|([0][1-9])|([1-2][0-9])|(30))\-([A,a][P,p][R,r]|[J,j][U,u][N,n]|[S,s][E,e][P,p]|[N,n][O,o][V,v]))|((([1-9])|([0][1-9])|([1-2][0-9])|([3][0-1]))\-([J,j][A,a][N,n]|[M,m][A,a][R,r]|[M,m][A,a][Y,y]|[J,j][U,u][L,l]|[A,a][U,u][G,g]|[O,o][C,c][T,t]|[D,d][E,e][C,c])))\-[0-9]{4}$)|(^(([1-9])|([0][1-9])|([1][0-9])|([2][0-8]))\-([F,f][E,e][B,b])\-[0-9]{2}(([02468][1235679])|([13579][01345789]))$)|(^(([1-9])|([0][1-9])|([1][0-9])|([2][0-9]))\-([F,f][E,e][B,b])\-[0-9]{2}(([02468][048])|([13579][26]))$)","1"
"dates_and_times","^(20|21|22|23|[01]\d|\d)(([:.][0-5]\d){1,2})$","1"
"dates_and_times","^(((((0[1-9])|(1\d)|(2[0-8]))/((0[1-9])|(1[0-2])))|((31/((0[13578])|(1[02])))|((29|30)/((0[1,3-9])|(1[0-2])))))/((20[0-9][0-9]))|((((0[1-9])|(1\d)|(2[0-8]))/((0[1-9])|(1[0-2])))|((31/((0[13578])|(1[02])))|((29|30)/((0[1,3-9])|(1[0-2])))))/((19[0-9][0-9]))|(29/02/20(([02468][048])|([13579][26])))|(29/02/19(([02468][048])|([13579][26]))))$","1"
"dates_and_times","(^([0-9]|[0-1][0-9]|[2][0-3]):([0-5][0-9])(\s{0,1})([AM|PM|am|pm]{2,2})$)|(^([0-9]|[1][0-9]|[2][0-3])(\s{0,1})([AM|PM|am|pm]{2,2})$)","1"
"dates_and_times","^((31(?!(FEB|APR|JUN|SEP|NOV)))|(30|29)|(0[1-9])|1\d|2[0-8])(JAN|FEB|MAR|MAY|APR|JUL|JUN|AUG|OCT|SEP|NOV|DEC)$","1"
"dates_and_times","^(((\d{4}((0[13578]|1[02])(0[1-9]|[12]\d|3[01])|(0[13456789]|1[012])(0[1-9]|[12]\d|30)|02(0[1-9]|1\d|2[0-8])))|((\d{2}[02468][048]|\d{2}[13579][26]))0229)){0,8}$","1"
"dates_and_times","^(0{0,1}[1-9]|[12][0-9]|3[01])[-/.](0{0,1}[1-9]|1[012])[-/.](\d{2}|\d{4})$","1"
"dates_and_times","^(?=\d)(?:(?:31(?!.(?:0?[2469]|11))|(?:30|29)(?!.0?2)|29(?=.0?2.(?:(?:(?:1[6-9]|[2-9]\d)?(?:0[48]|[2468][048]|[13579][26])|(?:(?:16|[2468][048]|[3579][26])00)))(?:\x20|$))|(?:2[0-8]|1\d|0?[1-9]))([-./])(?:1[012]|0?[1-9])\1(?:1[6-9]|[2-9]\d)?\d\d)?(\x20?((0?[1-9]|1[012])(:[0-5]\d){0,2}(\x20[AP]M))|([01]\d|2[0-3])(:[0-5]\d){1,2})?$","1"
"dates_and_times","^((31(?!\(Apr(il)?|June?|(Sept|Nov)(ember)?)))|((30|29)(?!\Feb(ruary)?))|(29(?=\Feb(ruary)?\(((1[6-9]|[2-9]\d)(0[48]|[2468][048]|[13579][26])|((16|[2468][048]|[3579][26])00)))))|(0?[1-9])|1\d|2[0-8])\(Jan(uary)?|Feb(ruary)?|Ma(r(ch)?|y)|Apr(il)?|Ju((ly?)|(ne?))|Aug(ust)?|Oct(ober)?|(Sept|Nov|Dec)(ember)?)\((1[6-9]|[2-9]\d)\d{2})$","1"
"dates_and_times","^((((0?[13578])|(1[02]))[\/|\-]?((0?[1-9]|[0-2][0-9])|(3[01])))|(((0?[469])|(11))[\/|\-]?((0?[1-9]|[0-2][0-9])|(30)))|(0?[2][\/\-]?(0?[1-9]|[0-2][0-9])))[\/\-]?\d{2,4}$","1"
"dates_and_times","(?=\d)^(?:(?!(?:10\D(?:0?[5-9]|1[0-4])\D(?:1582))|(?:0?9\D(?:0?[3-9]|1[0-3])\D(?:1752)))((?:0?[13578]|1[02])|(?:0?[469]|11)(?!\/31)(?!-31)(?!\.31)|(?:0?2(?=.?(?:(?:29.(?!000[04]|(?:(?:1[^0-6]|[2468][^048]|[3579][^26])00))(?:(?:(?:\d\d)(?:[02468][048]|[13579][26])(?!\x20BC))|(?:00(?:42|3[0369]|2[147]|1[258]|09)\x20BC))))))|(?:0?2(?=.(?:(?:\d\D)|(?:[01]\d)|(?:2[0-8])))))([-.\/])(0?[1-9]|[12]\d|3[01])\2(?!0000)((?=(?:00(?:4[0-5]|[0-3]?\d)\x20BC)|(?:\d{4}(?!\x20BC)))\d{4}(?:\x20BC)?)(?:$|(?=\x20\d)\x20))?((?:(?:0?[1-9]|1[012])(?::[0-5]\d){0,2}(?:\x20[aApP][mM]))|(?:[01]\d|2[0-3])(?::[0-5]\d){1,2})?$","1"
"dates_and_times","(\d{2}|\d{4})(?:\-)?([0]{1}\d{1}|[1]{1}[0-2]{1})(?:\-)?([0-2]{1}\d{1}|[3]{1}[0-1]{1})(?:\s)?([0-1]{1}\d{1}|[2]{1}[0-3]{1})(?::)?([0-5]{1}\d{1})(?::)?([0-5]{1}\d{1})","1"
"dates_and_times","^(([0]?[0-5][0-9]|[0-9]):([0-5][0-9]))$","1"
"dates_and_times","^*(1[0-2]|[1-9]):[0-5][0-9]*(a|p|A|P)(m|M)*$","1"
"dates_and_times","^((([0]?[1-9]|1[0-2])(:|\.)(00|15|30|45)?()?(AM|am|aM|Am|PM|pm|pM|Pm))|(([0]?[0-9]|1[0-9]|2[0-3])(:|\.)(00|15|30|45)?))$","1"
"dates_and_times","^(Jan|Feb|Mar|Apr|May|Jun|Jul|Aug|Sep|Oct|Nov|Dec)\,*\s\s*\d{4}$|^(jan|feb|mar|apr|may|jun|jul|aug|sep|oct|nov|dec)\,*\s\d{4}$|^(January|February|March|April|May|June|July|August|September|October|November|December)\,*\s\d{4}$|^(january|february|march|april|may|june|july|august|september|october|november|december)\,*\s\d{4}$","1"
"dates_and_times","^((\d{2}(([02468][048])|([13579][26]))[\-\/\s]?((((0?[13578])|(1[02]))[\-\/\s]?((0?[1-9])|([1-2][0-9])|(3[01])))|(((0?[469])|(11))[\-\/\s]?((0?[1-9])|([1-2][0-9])|(30)))|(0?2[\-\/\s]?((0?[1-9])|([1-2][0-9])))))|(\d{2}(([02468][1235679])|([13579][01345789]))[\-\/\s]?((((0?[13578])|(1[02]))[\-\/\s]?((0?[1-9])|([1-2][0-9])|(3[01])))|(((0?[469])|(11))[\-\/\s]?((0?[1-9])|([1-2][0-9])|(30)))|(0?2[\-\/\s]?((0?[1-9])|(1[0-9])|(2[0-8]))))))(\s(((0?[1-9])|(1[0-2]))\:([0-5][0-9])((\s)|(\:([0-5][0-9])\s))([AM|PM|am|pm]{2,2})))?$","1"
"dates_and_times","^(([1-9]|[0-2]\d|[3][0-1])\.([1-9]|[0]\d|[1][0-2])\.[2][0]\d{2})$|^(([1-9]|[0-2]\d|[3][0-1])\.([1-9]|[0]\d|[1][0-2])\.[2][0]\d{2}\s([1-9]|[0-1]\d|[2][0-3])\:[0-5]\d)$","1"
"dates_and_times","^\d{2}\s{1}(Jan|Feb|Mar|Apr|May|Jun|Jul|Apr|Sep|Oct|Nov|Dec)\s{1}\d{4}$","1"
"dates_and_times","^(([0-9])|([0-1][0-9])|([2][0-3])):(([0-9])|([0-5][0-9]))$","1"
"dates_and_times","((^(10|12|0?[13578])([/])(3[01]|[12][0-9]|0?[1-9])([/])((1[8-9]\d{2})|([2-9]\d{3}))$)|(^(11|0?[469])([/])(30|[12][0-9]|0?[1-9])([/])((1[8-9]\d{2})|([2-9]\d{3}))$)|(^(0?2)([/])(2[0-8]|1[0-9]|0?[1-9])([/])((1[8-9]\d{2})|([2-9]\d{3}))$)|(^(0?2)([/])(29)([/])([2468][048]00)$)|(^(0?2)([/])(29)([/])([3579][26]00)$)|(^(0?2)([/])(29)([/])([1][89][0][48])$)|(^(0?2)([/])(29)([/])([2-9][0-9][0][48])$)|(^(0?2)([/])(29)([/])([1][89][2468][048])$)|(^(0?2)([/])(29)([/])([2-9][0-9][2468][048])$)|(^(0?2)([/])(29)([/])([1][89][13579][26])$)|(^(0?2)([/])(29)([/])([2-9][0-9][13579][26])$))","1"
"dates_and_times","(^((((0[1-9])|([1-2][0-9])|(3[0-1]))|([1-9]))\x2F(((0[1-9])|(1[0-2]))|([1-9]))\x2F(([0-9]{2})|(((19)|([2]([0]{1})))([0-9]{2}))))$)","1"
"dates_and_times","^(?:(?:(?:0?[1-9]|1\d|2[0-8])\/(?:0?[1-9]|1[0-2]))\/(?:(?:1[6-9]|[2-9]\d)\d{2}))$|^(?:(?:(?:31\/0?[13578]|1[02])|(?:(?:29|30)\/(?:0?[1,3-9]|1[0-2])))\/(?:(?:1[6-9]|[2-9]\d)\d{2}))$|^(?:29\/0?2\/(?:(?:(?:1[6-9]|[2-9]\d)(?:0[48]|[2468][048]|[13579][26]))))$","1"
"dates_and_times","(((0[1-9]|[12][0-9]|3[01])([/])(0[13578]|10|12)([/])(\d{4}))|(([0][1-9]|[12][0-9]|30)([/])(0[469]|11)([/])(\d{4}))|((0[1-9]|1[0-9]|2[0-8])([/])(02)([/])(\d{4}))|((29)(\.|-|\/)(02)([/])([02468][048]00))|((29)([/])(02)([/])([13579][26]00))|((29)([/])(02)([/])([0-9][0-9][0][48]))|((29)([/])(02)([/])([0-9][0-9][2468][048]))|((29)([/])(02)([/])([0-9][0-9][13579][26])))","1"
"dates_and_times","^((((((0?[13578])|(1[02]))[\-\/\s]?((0?[1-9])|([1-2][0-9])|(3[01])))|(((0?[469])|(11))[\-\/\s]?((0?[1-9])|([1-2][0-9])|(30)))|(0?2[\-\/\s]?((0?[1-9])|([1-2][0-9]))))[\-\/\s]?\d{2}(([02468][048])|([13579][26])))|(((((0?[13578])|(1[02]))[\-\/\s]?((0?[1-9])|([1-2][0-9])|(3[01])))|(((0?[469])|(11))[\-\/\s]?((0?[1-9])|([1-2][0-9])|(30)))|(0?2[\-\/\s]?((0?[1-9])|(1[0-9])|(2[0-8]))))[\-\/\s]?\d{2}(([02468][1235679])|([13579][01345789]))))(\s(((0?[1-9])|(1[0-2]))\:([0-5][0-9])((\s)|(\:([0-5][0-9])\s))([AM|PM|am|pm]{2,2})))?$","1"
"dates_and_times","^(Sun|Mon|(T(ues|hurs))|Fri)(day|\.)?$|Wed(\.|nesday)?$|Sat(\.|urday)?$|T((ue?)|(hu?r?))\.?$","1"
"dates_and_times","^\s*(?'num'\d+(\.\d+)?)\s*(?'unit'((w(eek)?)|(wk)|(d(ay)?)|(h(our)?)|(hr))s?)(\s*$)","1"
"dates_and_times","^(([0-9])|([0-1][0-9])|([2][0-3])):?([0-5][0-9])$","1"
"dates_and_times","^[\w-\.]+@([\w-]+\.)+[\w-]{2,3}$","1"
"address_or_phone","^[01]?[-.]?\(?[2-9]\d{2}\)?[-.]?\d{3}[-.]?\d{4}$","1"
"address_or_phone","^[+][0-9]\d{2}-\d{3}-\d{4}$","1"
"address_or_phone","^[a-zA-Z]{1}[0-9]{1}[a-zA-Z]{1}(\-||){1}[0-9]{1}[a-zA-Z]{1}[0-9]{1}$","1"
"address_or_phone","^[A-Za-z]{1,2}[\d]{1,2}([A-Za-z])?\s?[\d][A-Za-z]{2}$","1"
"address_or_phone","^((\+){0,1}91(\s){0,1}(\-){0,1}(\s){0,1}){0,1}98(\s){0,1}(\-){0,1}(\s){0,1}[1-9]{1}[0-9]{7}$","1"
"address_or_phone","^(?!00000)(?<zip>(?<zip5>\d{5})(?:[-](?=\d))?(?<zip4>\d{4})?)$","1"
"address_or_phone","^[2-9]\d{2}-\d{3}-\d{4}$","1"
"address_or_phone","(\s*\(?0\d{4}\)?(\s*|-)\d{3}(\s*|-)\d{3}\s*)|(\s*\(?0\d{3}\)?(\s*|-)\d{3}(\s*|-)\d{4}\s*)|(\s*(7|8)(\d{7}|\d{3}(\-|\s{1})\d{4})\s*)","1"
"address_or_phone","((\(\d{3}\)?)|(\d{3}[-\.]))?\d{3}[-\.]\d{4}(\s(x\d+)?){0,1}$","1"
"address_or_phone","^\d{5}((\-|\s)?\d{4})?$","1"
"address_or_phone","(^\([0]\d{2}\))(\d{6,7}$)","1"
"address_or_phone","(^(?!0{5})(\d{5})(?!-?0{4})(-?\d{4})?$)","1"
"address_or_phone","\b((?:0[1-46-9]\d{3})|(?:[1-357-9]\d{4})|(?:[4][0-24-9]\d{3})|(?:[6][013-9]\d{3}))\b","1"
"address_or_phone","([0]{1}[6]{1}[-\s]*[1-9]{1}[\s]*([0-9]{1}[\s]*){7})|([0]{1}[1-9]{1}[0-9]{1}[0-9]{1}[-\s]*[1-9]{1}[\s]*([0-9]{1}[\s]*){5})|([0]{1}[1-9]{1}[0-9]{1}[-\s]*[1-9]{1}[\s]*([0-9]{1}[\s]*){6})","1"
"address_or_phone","(?<zip5>^\d{5})([\-]?(?<plus4>\d{4})?$)","1"
"address_or_phone","^\s*((?:(?:\d+(?:\x20+\w+\.?)+(?:(?:\x20+STREET|ST|DRIVE|DR|AVENUE|AVE|ROAD|RD|LOOP|COURT|CT|CIRCLE|LANE|LN|BOULEVARD|BLVD)\.?)?)|(?:(?:P\.\x20?O\.|P\x20?O)\x20*Box\x20+\d+)|(?:General\x20+Delivery)|(?:C[\\\/]O\x20+(?:\w+\x20*)+))\,?\x20*(?:(?:(?:APT|BLDG|DEPT|FL|HNGR|LOT|PIER|RM|S(?:LIP|PC|T(?:E|OP))|TRLR|UNIT|\x23)\.?\x20*(?:[a-zA-Z0-9\-]+))|(?:BSMT|FRNT|LBBY|LOWR|OFC|PH|REAR|SIDE|UPPR))?)\,?\s+((?:(?:\d+(?:\x20+\w+\.?)+(?:(?:\x20+STREET|ST|DRIVE|DR|AVENUE|AVE|ROAD|RD|LOOP|COURT|CT|CIRCLE|LANE|LN|BOULEVARD|BLVD)\.?)?)|(?:(?:P\.\x20?O\.|P\x20?O)\x20*Box\x20+\d+)|(?:General\x20+Delivery)|(?:C[\\\/]O\x20+(?:\w+\x20*)+))\,?\x20*(?:(?:(?:APT|BLDG|DEPT|FL|HNGR|LOT|PIER|RM|S(?:LIP|PC|T(?:E|OP))|TRLR|UNIT|\x23)\.?\x20*(?:[a-zA-Z0-9\-]+))|(?:BSMT|FRNT|LBBY|LOWR|OFC|PH|REAR|SIDE|UPPR))?)?\,?\s+((?:[A-Za-z]+\x20*)+)\,\s+(A[LKSZRAP]|C[AOT]|D[EC]|F[LM]|G[AU]|HI|I[ADLN]|K[SY]|LA|M[ADEHINOPST]|N[CDEHJMVY]|O[HKR]|P[ARW]|RI|S[CD]|T[NX]|UT|V[AIT]|W[AIVY])\s+(\d+(?:-\d+)?)\s*$","1"
"address_or_phone","^\(?(?<AreaCode>[2-9]\d{2})(\)?)(-|.|\s)?(?<Prefix>[1-9]\d{2})(-|.|\s)?(?<Suffix>\d{4})$","1"
"address_or_phone","^([0-9]{2})?((\([0-9]{2})\)|[0-9]{2})?([0-9]{3}|[0-9]{4})(\-)?[0-9]{4}$","1"
"address_or_phone","(077|078|079)\s?\d{2}\s?\d{6}","1"
"address_or_phone","[0-9]{4}[A-Z]{2}","1"
"address_or_phone","^((\d[-.]?)?((\(\d{3}\))|\d{3}))?[-.]?\d{3}[-.]?\d{4}$","1"
"address_or_phone","^\([0-9]{3}\)\s?[0-9]{3}(-|\s)?[0-9]{4}$|^[0-9]{3}-?[0-9]{3}-?[0-9]{4}$","1"
"address_or_phone","^([0-9]{5})([\-]{1}[0-9]{4})?$","1"
"address_or_phone","^((([A-PR-UWYZ])([0-9][0-9A-HJKS-UW]?))|(([A-PR-UWYZ][A-HK-Y])([0-9][0-9ABEHMNPRV-Y]?))\s{0,2}(([0-9])([ABD-HJLNP-UW-Z])([ABD-HJLNP-UW-Z])))|(((GI)(R))\s{0,2}((0)(A)(A)))$","1"
"address_or_phone","^[1-9]{1}[0-9]{3}\s?[A-Z]{2}$","1"
"address_or_phone","(^0.*[1-9]*)|(^860+)|(^8613)|(\D)|([0-9])","1"
"address_or_phone","^((\+){0,1}91(\s){0,1}(\-){0,1}(\s){0,1}){0,1}98(\s){0,1}(\-){0,1}(\s){0,1}[1-9]{1}[0-9]{7}$","1"
"address_or_phone","^(\d{2}-\d{2})*$","1"
"address_or_phone","^(?:\([2-9]\d{2}\)\?|(?:[2-9]\d{2}\-))[2-9]\d{2}\-\d{4}$","1"
"address_or_phone","^0{0,1}[1-9]{1}[0-9]{2}[\s]{0,1}[\-]{0,1}[\s]{0,1}[1-9]{1}[0-9]{6}$","1"
"address_or_phone","^[0-9]{5}([-/]?[0-9]{4})?$","1"
"address_or_phone","^([0-9]{5})([\-]{1}[0-9]{4})?$","1"
"address_or_phone","^(9,)*([1-9]\d{2}-?)*[1-9]\d{2}-?\d{4}$","1"
"address_or_phone","^p(ost)?[|\.]*o(ffice)?[|\.]*(box)?[0-9]*[^[a-z]]*","1"
"address_or_phone","(\d{4,6})","1"
"address_or_phone","([\(]?(?<AreaCode>[0-9]{3})[\)]?)?[\.\-]?(?<Exchange>[0-9]{3})[\.\-](?<Number>[0-9]{4})","1"
"address_or_phone","^[0-9]{5}([\s-]{1}[0-9]{4})?$","1"
"address_or_phone","^([0-9]*\-?\?\/?[0-9]*)$","1"
"address_or_phone","^\(?(?<AreaCode>[2-9]\d{2})(\)?)(-|.|\s)?(?<Prefix>[1-9]\d{2})(-|.|\s)?(?<Suffix>\d{4})$","1"
"address_or_phone","^([0-9]{2})?((\([0-9]{2})\)|[0-9]{2})?([0-9]{3}|[0-9]{4})(\-)?[0-9]{4}$","1"
"address_or_phone","(?<zip5>^\d{5})([\-]?(?<plus4>\d{4})?$)","1"
"address_or_phone","^\s*((?:(?:\d+(?:\x20+\w+\.?)+(?:(?:\x20+STREET|ST|DRIVE|DR|AVENUE|AVE|ROAD|RD|LOOP|COURT|CT|CIRCLE|LANE|LN|BOULEVARD|BLVD)\.?)?)|(?:(?:P\.\x20?O\.|P\x20?O)\x20*Box\x20+\d+)|(?:General\x20+Delivery)|(?:C[\\\/]O\x20+(?:\w+\x20*)+))\,?\x20*(?:(?:(?:APT|BLDG|DEPT|FL|HNGR|LOT|PIER|RM|S(?:LIP|PC|T(?:E|OP))|TRLR|UNIT|\x23)\.?\x20*(?:[a-zA-Z0-9\-]+))|(?:BSMT|FRNT|LBBY|LOWR|OFC|PH|REAR|SIDE|UPPR))?)\,?\s+((?:(?:\d+(?:\x20+\w+\.?)+(?:(?:\x20+STREET|ST|DRIVE|DR|AVENUE|AVE|ROAD|RD|LOOP|COURT|CT|CIRCLE|LANE|LN|BOULEVARD|BLVD)\.?)?)|(?:(?:P\.\x20?O\.|P\x20?O)\x20*Box\x20+\d+)|(?:General\x20+Delivery)|(?:C[\\\/]O\x20+(?:\w+\x20*)+))\,?\x20*(?:(?:(?:APT|BLDG|DEPT|FL|HNGR|LOT|PIER|RM|S(?:LIP|PC|T(?:E|OP))|TRLR|UNIT|\x23)\.?\x20*(?:[a-zA-Z0-9\-]+))|(?:BSMT|FRNT|LBBY|LOWR|OFC|PH|REAR|SIDE|UPPR))?)?\,?\s+((?:[A-Za-z]+\x20*)+)\,\s+(A[LKSZRAP]|C[AOT]|D[EC]|F[LM]|G[AU]|HI|I[ADLN]|K[SY]|LA|M[ADEHINOPST]|N[CDEHJMVY]|O[HKR]|P[ARW]|RI|S[CD]|T[NX]|UT|V[AIT]|W[AIVY])\s+(\d+(?:-\d+)?)\s*$","1"
"address_or_phone","(077|078|079)\s?\d{2}\s?\d{6}","1"
"address_or_phone","^(9,)*([1-9]\d{2}-?)*[1-9]\d{2}-?\d{4}$","1"
"address_or_phone","^0{0,1}[1-9]{1}[0-9]{2}[\s]{0,1}[\-]{0,1}[\s]{0,1}[1-9]{1}[0-9]{6}$","1"
"address_or_phone","^[0-9]{5}([-/]?[0-9]{4})?$","1"
"address_or_phone","^p(ost)?[|\.]*o(ffice)?[|\.]*(box)?[0-9]*[^[a-z]]*","1"
"address_or_phone","^[0-9]{5}([\s-]{1}[0-9]{4})?$","1"
"address_or_phone","^([0-9]*\-?\?\/?[0-9]*)$","1"
"address_or_phone","(\d{4,6})","1"
"address_or_phone","([\(]?(?<AreaCode>[0-9]{3})[\)]?)?[\.\-]?(?<Exchange>[0-9]{3})[\.\-](?<Number>[0-9]{4})","1"
"address_or_phone","^[D-d][K-k]-[1-9]{1}[0-9]{3}$","1"
"address_or_phone","(?<Telephone>([0-9]|[]|[-]|[\(]|[\)]|ext.|[,])+)([]|[:]|\t|[-])*(?<Where>Home|Office|Work|Away|Fax|FAX|Phone)|(?<Where>Home|Office|Work|Away|Fax|FAX|Phone|Daytime|Evening)([]|[:]|\t|[-])*(?<Telephone>([0-9]|[]|[-]|[\(]|[\)]|ext.|[,])+)|(?<Telephone>([(]([0-9]){3}[)]([])?([0-9]){3}([]|-)([0-9]){4}))","1"
"address_or_phone","^(\(?\d\d\d\)?)?(|-|\.)?\d\d\d(|-|\.)?\d{4,4}((|-|\.)?[ext\.]+?\d+)?$","1"
"address_or_phone","(^\d{5}$)|(^\d{5}-\d{4}$)","1"
"address_or_phone","^([\(]{1}[0-9]{3}[\)]{1}[\.||\-]{0,1}|^[0-9]{3}[\.|\-|]?)?[0-9]{3}(\.|\-|)?[0-9]{4}$","1"
"address_or_phone","^[A-Za-z]{1,2}[0-9A-Za-z]{1,2}[]?[0-9]{0,1}[A-Za-z]{2}$","1"
"address_or_phone","^(1?(-?\d{3})-?)?(\d{3})(-?\d{4})$","1"
"address_or_phone","^(\d{5}-\d{4}|\d{5})$|^([a-zA-Z]\d[a-zA-Z]\d[a-zA-Z]\d)$","1"
"address_or_phone","((\(\d{3}\)?)|(\d{3}))([\s-./]?)(\d{3})([\s-./]?)(\d{4})","1"
"address_or_phone","[0-9]{4}\s*[a-zA-Z]{2}","1"
"address_or_phone","^((AL)|(AK)|(AS)|(AZ)|(AR)|(CA)|(CO)|(CT)|(DE)|(DC)|(FM)|(FL)|(GA)|(GU)|(HI)|(ID)|(IL)|(IN)|(IA)|(KS)|(KY)|(LA)|(ME)|(MH)|(MD)|(MA)|(MI)|(MN)|(MS)|(MO)|(MT)|(NE)|(NV)|(NH)|(NJ)|(NM)|(NY)|(NC)|(ND)|(MP)|(OH)|(OK)|(OR)|(PW)|(PA)|(PR)|(RI)|(SC)|(SD)|(TN)|(TX)|(UT)|(VT)|(VI)|(VA)|(WA)|(WV)|(WI)|(WY))$","1"
"address_or_phone","^[1-9]{1}[0-9]{3}\s{0,1}?[a-zA-Z]{2}$","1"
"address_or_phone","^((\d{5}-\d{4})|(\d{5})|([AaBbCcEeGgHhJjKkLlMmNnPpRrSsTtVvXxYy]\d[A-Za-z]\s?\d[A-Za-z]\d))$","1"
"address_or_phone","^\(\d{3}\)?\d{3}(|-)?\d{4}|^\d{3}(|-)?\d{3}(|-)?\d{4}","1"
"address_or_phone","^([\(]{1}[0-9]{3}[\)]{1}[]{1}[0-9]{3}[\-]{1}[0-9]{4})$","1"
"address_or_phone","^(((\+44\s?\d{4}|\(?0\d{4}\)?)\s?\d{3}\s?\d{3})|((\+44\s?\d{3}|\(?0\d{3}\)?)\s?\d{3}\s?\d{4})|((\+44\s?\d{2}|\(?0\d{2}\)?)\s?\d{4}\s?\d{4}))(\s?\#(\d{4}|\d{3}))?$","1"
"address_or_phone","^[\\(]{0,1}([0-9]){3}[\\)]{0,1}[]?([^0-1]){1}([0-9]){2}[]?[-]?[]?([0-9]){4}[]*((x){0,1}([0-9]){1,5}){0,1}$","1"
"address_or_phone","(((^[BEGLMNS][1-9]\d?)|(^W[2-9])|(^(A[BL]|B[ABDHLNRST]|C[ABFHMORTVW]|D[ADEGHLNTY]|E[HNX]|F[KY]|G[LUY]|H[ADGPRSUX]|I[GMPV]|JE|K[ATWY]|L[ADELNSU]|M[EKL]|N[EGNPRW]|O[LX]|P[AEHLOR]|R[GHM]|S[AEGKL-PRSTWY]|T[ADFNQRSW]|UB|W[ADFNRSV]|YO|ZE)\d\d?)|(^W1[A-HJKSTUW0-9])|(((^WC[1-2])|(^EC[1-4])|(^SW1))[ABEHMNPRVWXY]))(\s*)?([0-9][ABD-HJLNP-UW-Z]{2}))|(^GIR\s?0AA)","1"
"address_or_phone","^(?n:(?<address1>(\d{1,5}(\1\/[234])?(\x20[A-Z]([a-z])+)+)|(P\.O\.\Box\\d{1,5}))\s{1,2}(?i:(?<address2>(((APT|BLDG|DEPT|FL|HNGR|LOT|PIER|RM|S(LIP|PC|T(E|OP))|TRLR|UNIT)\x20\w{1,5})|(BSMT|FRNT|LBBY|LOWR|OFC|PH|REAR|SIDE|UPPR)\.?)\s{1,2})?)(?<city>[A-Z]([a-z])+(\.?)(\x20[A-Z]([a-z])+){0,2})\,\x20(?<state>A[LKSZRAP]|C[AOT]|D[EC]|F[LM]|G[AU]|HI|I[ADLN]|K[SY]|LA|M[ADEHINOPST]|N[CDEHJMVY]|O[HKR]|P[ARW]|RI|S[CD]|T[NX]|UT|V[AIT]|W[AIVY])\x20(?<zipcode>(?!0{5})\d{5}(-\d{4})?))$","1"
"address_or_phone","^(?:(?:[\+]?(?<CountryCode>[\d]{1,3}(?:[]+|[\-.])))?[(]?(?<AreaCode>[\d]{3})[\-/)]?(?:[]+)?)?(?<Number>[a-zA-Z2-9][a-zA-Z0-9\-.]{6,})(?:(?:[]+|[xX]|(i:ext[\.]?)){1,2}(?<Ext>[\d]{1,5}))?$","1"
"address_or_phone","^0[234679]{1}[\s]{0,1}[\-]{0,1}[\s]{0,1}[1-9]{1}[0-9]{6}$","1"
"address_or_phone","^[\(]?([^0-1]){1}([0-9]){2}([-,\),/,\.])*([])?([^0-1]){1}([0-9]){2}[]?[-]?[/]?[\.]?([0-9]){4}$","1"
"address_or_phone","^(?-i:A[LKSZRAEP]|C[AOT]|D[EC]|F[LM]|G[AU]|HI|I[ADLN]|K[SY]|LA|M[ADEHINOPST]|N[CDEHJMVY]|O[HKR]|P[ARW]|RI|S[CD]|T[NX]|UT|V[AIT]|W[AIVY])$","1"
"address_or_phone","^([0-9](|-)?)?(\(?[0-9]{3}\)?|[0-9]{3})(|-)?([0-9]{3}(|-)?[0-9]{4}|[a-zA-Z0-9]{7})$","1"
"address_or_phone","(((^[BEGLMNS][1-9]\d?)|(^W[2-9])|(^(A[BL]|B[ABDHLNRST]|C[ABFHMORTVW]|D[ADEGHLNTY]|E[HNX]|F[KY]|G[LUY]|H[ADGPRSUX]|I[GMPV]|JE|K[ATWY]|L[ADELNSU]|M[EKL]|N[EGNPRW]|O[LX]|P[AEHLOR]|R[GHM]|S[AEGKL-PRSTWY]|T[ADFNQRSW]|UB|W[ADFNRSV]|YO|ZE)\d\d?)|(^W1[A-HJKSTUW0-9])|(((^WC[1-2])|(^EC[1-4])|(^SW1))[ABEHMNPRVWXY]))(\s*)?([0-9][ABD-HJLNP-UW-Z]{2}))$|(^GIR\s?0AA$)","1"
"address_or_phone","^((\d{5}-\d{4})|(\d{5})|([A-Z]\d[A-Z]\s\d[A-Z]\d))$","1"
"address_or_phone","^[\w]{3,}([A-Za-z]\.)?([\w]*\#\d+)?(\r\n|)[\w]{3,},\x20[A-Za-z]{2}\x20\d{5}(-\d{4})?$","1"
"address_or_phone","^(1\s*[-\/\.]?)?(\((\d{3})\)|(\d{3}))\s*[-\/\.]?\s*(\d{3})\s*[-\/\.]?\s*(\d{4})\s*(([xX]|[eE][xX][tT])\.?\s*(\d+))*$","1"
"address_or_phone","^(?<national>\+?(?:86)?)(?<separator>\s?-?)(?<phone>(?<vender>13[0-4])(?<area>\d{4})(?<id>\d{4}))$","1"
"address_or_phone","((\(\d{3,4}\)|\d{3,4}-)\d{4,9}(-\d{1,5}|\d{0}))|(\d{4,12})","1"
"address_or_phone","^(([A-Z]{1,2}[0-9]{1,2})|([A-Z]{1,2}[0-9][A-Z]))\s?([0-9][A-Z]{2})$","1"
"address_or_phone","^(\([2-9]|[2-9])(\d{2}|\d{2}\))(-|.|\s)?\d{3}(-|.|\s)?\d{4}$","1"
"address_or_phone","^\d{5}((-|\s)?\d{4})?$","1"
"address_or_phone","^[0-9]{6}","1"
"address_or_phone","^(\+97[\s]{0,1}[\-]{0,1}[\s]{0,1}1|0)50[\s]{0,1}[\-]{0,1}[\s]{0,1}[1-9]{1}[0-9]{6}$","1"
"address_or_phone","^((?:\+27|27)|0)(=72|82|73|83|74|84)(\d{7})$","1"
"address_or_phone","^(?:(?<1>[(])?(?<AreaCode>[2-9]\d{2})(?(1)[)])(?(1)(?<2>[])|(?:(?<3>[-])|(?<4>[])))?)?(?<Prefix>[1-9]\d{2})(?(AreaCode)(?:(?(1)(?(2)[-]|[-]?))|(?(3)[-])|(?(4)[-]))|[-]?)(?<Suffix>\d{4})(?:[]?[xX]?(?<Ext>\d{2,4}))?$","1"
"address_or_phone","(02\d\s?\d{4}\s?\d{4})|(01\d{2}\s?\d{3}\s?\d{4})|(01\d{3}\s?\d{5,6})|(01\d{4}\s?\d{4,5})","1"
"address_or_phone","\d{1,3}.?\d{0,3}\s[a-zA-Z]{2,30}\s[a-zA-Z]{2,15}","1"
"address_or_phone","^\d{5}-\d{4}|\d{5}|[A-Z]\d[A-Z]\d[A-Z]\d$","1"
"address_or_phone","(^1300\d{6}$)|(^1800|1900|1902\d{6}$)|(^0[2|3|7|8]{1}[0-9]{8}$)|(^13\d{4}$)|(^04\d{2,3}\d{6}$)","1"
"address_or_phone","^\s*\(?(020[7,8]{1}\)?[]?[1-9]{1}[0-9{2}[]?[0-9]{4})|(0[1-8]{1}[0-9]{3}\)?[]?[1-9]{1}[0-9]{2}[]?[0-9]{3})\s*$","1"
"address_or_phone","(\s*\(?0\d{4}\)?(\s*|-)\d{3}(\s*|-)\d{3}\s*)|(\s*\(?0\d{3}\)?(\s*|-)\d{3}(\s*|-)\d{4}\s*)|(\s*(7|8)(\d{7}|\d{3}(\-|\s{1})\d{4})\s*)","1"
"address_or_phone","^(?:(?<1>[(])?(?<AreaCode>[2-9]\d{2})(?(1)[)])(?(1)(?<2>[])|(?:(?<3>[-])|(?<4>[])))?)?(?<Prefix>[1-9]\d{2})(?(AreaCode)(?:(?(1)(?(2)[-]|[-]?))|(?(3)[-])|(?(4)[-]))|[-]?)(?<Suffix>\d{4})$","1"
"address_or_phone","^[1-9]{1}[0-9]{3}\s{0,1}?[a-zA-Z]{2}$","1"
"address_or_phone","[0-9]{4}\s*[a-zA-Z]{2}","1"
"address_or_phone","^((AL)|(AK)|(AS)|(AZ)|(AR)|(CA)|(CO)|(CT)|(DE)|(DC)|(FM)|(FL)|(GA)|(GU)|(HI)|(ID)|(IL)|(IN)|(IA)|(KS)|(KY)|(LA)|(ME)|(MH)|(MD)|(MA)|(MI)|(MN)|(MS)|(MO)|(MT)|(NE)|(NV)|(NH)|(NJ)|(NM)|(NY)|(NC)|(ND)|(MP)|(OH)|(OK)|(OR)|(PW)|(PA)|(PR)|(RI)|(SC)|(SD)|(TN)|(TX)|(UT)|(VT)|(VI)|(VA)|(WA)|(WV)|(WI)|(WY))$","1"
"address_or_phone","^0(6[045679][0469]){1}(\-)?(1)?[^0\D]{1}\d{6}$","1"
"address_or_phone","^(?:\([2-9]\d{2}\)\?|[2-9]\d{2}(?:\-?|\?))[2-9]\d{2}[-]?\d{4}$","1"
"address_or_phone","^([8-9])([1-9])(\d{2})(-?|\040?)(\d{4})$","1"
"address_or_phone","^[1-9][0-9]{3}\s?[a-zA-Z]{2}$","1"
